0.17248178825870847,0.015161065639050397,true
0.12637982235447595,-0.0014640108933134943,true
0.12723661766544697,-0.12673566837510308,true
0.13772771702305173,-0.028150709091631976,true
0.13910745010868583,0.005801288665326032,true
0.13822696314350438,-0.007822902618853655,true
0.15262559996143785,-0.017915623008219805,true
0.15973255262867417,-0.014204354702441302,true
0.15973255262867417,-0.014204354702441302,true
0.12559962854877915,-0.06377405834099492,true
0.12298869953648056,-0.048676201819388476,true
0.12298869953647967,-0.048676201819388476,true
0.19151461229816769,0.019516436637432966,true
0.19796019182697627,-0.18505998489162168,true
0.14098402843967947,0.0112427009949998,true
0.11606652365223641,0.07246970969537059,true
0.12039280508799173,0.09229548061285264,true
0.16244698618693193,0.03721709335241563,true
0.2052689943198665,-0.026017079409024646,true
0.2053866824988822,-0.025795588549039294,true
0.13456000660700596,-0.013777392264268329,true
0.13698190068049207,-0.014543729182145526,true
0.15773325299067273,0.027142626885511945,true
0.18289714192194714,0.02122869873438127,true
0.17914525364680067,0.02612058604154832,true
0.17914525364680067,0.02612058604154832,true
0.1331296739463309,0.04581443751249559,true
0.14273851965708576,0.04774610484037645,true
0.18371651982111775,0.04238451803121812,true
0.17803364847941175,0.04652343476209886,true
0.13166903590006626,0.04423248553667314,true
0.12208229635996617,-0.048104713018796375,true
0.12232945059580423,-0.047359140869042804,true
0.12905461882395408,0.056806174759008954,true
0.12649447058481947,-0.02735870545711272,true
0.1699265727881886,0.0069435217419648865,true
0.1741966876868689,0.007546467427351544,true
0.18788674925608279,0.03903984809313066,true
0.18488601778788233,0.03600258911047227,true
0.11505135630411745,-0.02051712786760085,true
0.03977405584159582,-0.0362187246661001,true
0.04057669556441992,-0.041008397458057955,true
0.04057669556441992,-0.041008397458057955,true
0.04057669556442081,-0.041008397458057955,true
0.11341630137267843,0.052155547322768614,true
0.1127349964410378,0.07602074045135443,true
0.1478342953950478,0.013537191333312437,true
0.14824303305450215,0.013274543466109678,true
0.13311253702941672,0.09526870447589819,true
0.1286610428124962,0.096839614691276,true
0.09099380410018697,0.0937168826480097,true
0.13278995907607852,-0.024834200261097505,true
0.06950035488906636,-0.06041342717216547,true
0.1818797913819863,0.047075845779914305,true
0.18328457510772525,0.05061618286563818,true
0.17406661904159165,-0.04759826463268335,true
0.0907069674760399,-0.1001925202886873,true
0.08688459313216895,-0.09477426063821848,true
0.08316971457305529,0.07636793750717108,true
0.11472976124587833,0.08113723296119635,true
0.05308518684211551,-0.024340584395390108,true
0.14529249346557394,0.03495449620677893,true
0.15266286289993064,0.03826542991592352,true
0.15266286289993064,0.03826542991592352,true
0.1523936477929665,-0.0689282338003927,true
0.15207800066772237,-0.07522872042463358,true
0.1520780006677228,-0.07522872042463358,true
0.19345585978332297,-0.03656948309944208,true
0.12127031594708769,-0.09068489241427691,true
0.11441047221616162,-0.06169512289590151,true
0.10664056092694653,0.10529163313084333,true
0.06904725104764382,0.10873514247112959,true
0.14176699429944364,0.04009778630905836,true
0.1971040394921626,0.030823050262267282,true
0.11303667336896313,0.10522904825382917,true
0.1563996937890356,-0.03486653584069521,true
0.17442804604962697,-0.025228710649674246,true
0.193947613539251,0.04605255854302137,true
0.06709271222546925,-0.15956861319965632,true
0.06709271222546925,-0.15956861319965632,true
0.06709271222546903,-0.15956861319965632,true
0.1665730169434866,0.04475660455399244,true
0.07828223973706572,-0.10448631810969622,true
0.0777997544427239,-0.10808682608432085,true
0.18920343905881276,-0.0546342076641968,true
0.1906795242448174,-0.04577032643384249,true
0.19067952424481785,-0.04577032643384249,true
0.15612825900510227,-0.03060154038495333,true
0.16120991498425877,-0.03646227884120257,true
0.16120991498425877,-0.03646227884120257,true
0.18010074097911927,-0.06710187225608899,true
0.14684363801281067,-0.08160015075473859,true
0.1465115924576959,-0.08067070572643353,true
0.15470061499874205,-0.08231779067783429,true
0.15690996367733093,-0.08246520041494443,true
0.15690996367733115,-0.08246520041494443,true
0.20925393302242393,0.03419827789993213,true
0.20847337682048733,0.0248439845535271,true
0.18856273848812216,0.13372186691493915,true
0.21769396025936238,0.10004944474430011,true
0.21454564292232603,0.09952304632396625,true
0.16162809092800232,-0.19610975562601163,true
0.166187443325921,-0.18989279373555257,true
0.14491455752651305,0.05615777642459796,true
0.2134112067918008,0.0439433840009682,true
0.1451660152177061,-0.0671749922540672,true
0.14377572734157698,-0.06371500222950055,true
0.26769476611416,-0.03055869667797162,true
0.2982709069947447,-0.009948095968056458,true
0.2961460419396605,-0.00844580559997632,true
0.14939422805110977,-0.1780043325480707,true
0.18768995244304748,-0.0790804761555679,true
0.18583828885356996,-0.07924431442289426,true
0.21614240605632873,0.04214265317649768,true
0.20972740371028992,0.04067684085102008,true
0.19039397198955627,-0.1253787937667854,true
0.19067609746257919,-0.12502483158378674,true
0.16349533755581036,0.10029647619457172,true
0.16456698853771234,0.10137451560230182,true
0.2277739300198124,0.028170471834695343,true
0.2074960936970291,0.10098565165952444,true
0.1753211965031204,0.040612896728074555,true
0.16852468151517372,0.04052377288297415,true
0.24438327450223427,-0.04385411198183298,true
0.2401531590885685,-0.03514277393862009,true
0.19835709471173746,0.0847673768277526,true
0.20186966556973893,0.059063946651971344,true
0.1299632300800855,-0.0589856898312211,true
0.16436985392041753,0.04577686433748007,true
0.16817302126355718,0.04008932952836752,true
0.16817302126355718,0.04008932952836752,true
0.24993717808194707,0.10248509590581656,true
0.2498888887829356,0.10272133891538382,true
0.24480523962445783,-0.13983471150442361,true
0.24208178657956647,-0.14364052767797708,true
0.24208178657956603,-0.14364052767797708,true
0.2208262505001593,0.011840468096292023,true
0.22365443605848018,0.012715657996690277,true
0.25094545502134025,0.0873184854264617,true
0.24818290848203364,0.08634076063588858,true
0.15662716764875118,-0.06088725681349039,true
0.1544957794613416,-0.06104778702303171,true
0.14015340465970585,-0.05079581792398691,true
0.14780105251737188,-0.04616641457124948,true
0.14780105251737188,-0.04616641457124948,true
0.14780105251737188,-0.04616641457124948,true
0.14780105251737077,-0.04616641457124948,true
0.11309907574124772,-0.1659202372555375,true
0.10937173981137756,-0.1544289162282586,true
0.0935287274784613,-0.08091464842602014,true
0.05342274249834163,-0.05669169007378971,true
0.1380544954661761,0.09170998753470028,true
0.13822586358827693,0.09183357776564205,true
0.1792846328143507,0.0793263477222308,true
0.16955492795747704,0.05936341108244503,true
0.18902154029649837,0.06276658297937954,true
0.10088935674471025,-0.0025806712968960976,true
0.20161757291597512,0.005286873592553976,true
0.11076628507417825,0.13742254794996822,true
0.11343356670183327,0.13531313957136715,true
0.19565624536317927,-0.11269320427018559,true
0.1333012157802022,0.06297040106218899,true
0.19131482900423175,-0.005310966358961222,true
0.15484626115602595,-0.09026144324380314,true
0.14386932433885677,0.07163457693022335,true
0.1339727813128863,0.06968920053404415,true
0.19574842990678912,0.1073574584857806,true
0.13970724881929344,-0.05556093035775578,true
0.20141114295762963,-0.028733833418668864,true
0.20147506059450251,-0.021510003791631815,true
0.07225747169298274,-0.17116069580006754,true
0.07157992662233455,-0.16420420324939644,true
0.07157992662233499,-0.16420420324939644,true
0.1758084374789634,0.0883537393943652,true
0.18132909120363339,0.09159670890730465,true
0.08977914871019466,-0.08826231090861714,true
0.08069602818879135,-0.06833030937319773,true
0.13988027186783797,0.050520778614225215,true
0.13657204718979843,0.054161236602010554,true
0.13657204718979832,0.054161236602010554,true
0.18408033700379367,0.06077058704489691,true
0.1773770031491186,0.06043425293559057,true
0.1480525335827723,0.06544049175375921,true
0.15382586808594811,0.03925149233931524,true
0.08822567077073204,0.11404141874903662,true
0.16914992900284653,0.09513652415865881,true
0.1742894777813809,0.04944150241011602,true
0.05462565036210167,-0.0061913272560216726,true
0.17606743903550254,-0.06467000303870218,true
0.17762488217743871,-0.07108622698193567,true
0.09016970010193733,0.10246330590838415,true
0.028733095840539007,-0.00890819637185114,true
0.026948702053154975,-0.011138542574701482,true
0.026948702053155863,-0.011138542574701482,true
0.14479323239716527,0.07841017933482153,true
0.14469112725647923,0.07751010449522955,true
0.20133134932908053,0.09916544051760656,true
0.197427662328805,0.10257133932703955,true
0.17322104306611125,-0.009222223442850286,true
0.06208589406403649,0.05093655081385595,true
0.0717154869595443,0.004137457328977412,true
0.07212272973450767,0.005398617106618708,true
0.07212272973450723,0.005398617106618708,true
0.04838074775132242,0.003558875042142695,true
0.04836745233925882,0.0038026729404352366,true
0.048367452339257266,0.0038026729404352366,true
0.1923581919232264,-0.09988973943596857,true
0.1317661940920071,-0.09383564684169188,true
0.13253039716360132,-0.24312062244491472,true
0.1341223585474209,-0.24689620136843815,true
0.13412235854742025,-0.24689620136843815,true
0.30517496942159683,-0.057919273708032515,true
0.16010825275060683,0.1070800473950635,true
0.16388202069875746,0.10460165646298036,true
0.15470605729696602,-0.1553890654780139,true
0.1609158074724421,-0.1322710240222682,true
0.16091580747243833,-0.1322710240222682,true
0.16595451949712783,-0.17368372771518126,true
0.19484402297613174,0.09716240074856386,true
0.18699538110372493,0.10238817837460146,true
0.202677263008327,-0.043606410358117964,true
0.16297584890005085,-0.21103345471994772,true
0.2218537771570425,0.005019461180997942,true
0.12650546907064456,0.09417591002209291,true
0.22243220685598347,0.06359968092663393,true
0.20514980195638988,0.017163967158628557,true
0.2060321462023005,-0.128238382373022,true
0.1292635309564814,-0.03578792009131804,true
0.13115827439901304,-0.05781049523131743,true
0.20183867810842543,-0.11438587549703016,true
0.19001377938863784,0.002641220953298662,true
0.17769559630038828,0.02565251462423568,true
0.10627626665714034,0.14839908652269607,true
0.12573119171741254,-0.02193507380521531,true
0.12531887539508432,-0.022784812522294473,true
0.12466171511294932,0.1321955936428285,true
0.12437116392734024,0.13299164347612624,true
0.15649509914996915,0.08359342985117202,true
0.1264348746168881,-0.147645985854032,true
0.12550383337619594,-0.13976548440492387,true
0.12550383337619594,-0.13976548440492387,true
0.12550383337619217,-0.13976548440492387,true
0.12162741669299515,-0.18773534908628697,true
0.12411001213672251,-0.1850808506432795,true
0.1225638485777614,0.14358559422456985,true
0.10504864939334367,-0.06289043850934739,true
0.10458904036166647,-0.05961966342962022,true
0.19088659294726806,0.06333714895212417,true
0.18566618450763184,-0.03877410121000047,true
0.19134488829257446,-0.037370635342957925,true
0.19134488829257446,-0.037370635342957925,true
0.1913448882925738,-0.037370635342957925,true
0.10891935833575617,-0.07838301188981767,true
0.10415307768466563,-0.07789565451181168,true
0.20802186497332942,0.12393102221452956,true
0.19464468725802878,0.07507872753107314,true
0.2039761639464138,0.08063203268015151,true
0.20228372820498858,0.07571134142839675,true
0.2370628500807515,-0.21668087039230066,true
0.23729451187732312,-0.15510909460222955,true
0.23746529110553355,-0.10138484663999314,true
0.23867900141361006,-0.10074958778655763,true
0.11795126923206142,0.08354845814668899,true
0.22300477512957964,0.11689958147966628,true
0.18474241988909385,0.023996394619164807,true
0.22989092128527416,0.10230904494207893,true
0.22773158328783852,0.10006022129934822,true
0.17377563016665276,0.025186609968362195,true
0.0939434983040124,-0.05779931272584404,true
0.09491363303911982,-0.05867365326005425,true
0.13652206676256998,0.10961180601995979,true
0.15038028018725058,0.10686403189581428,true
0.08718209045183954,0.15804665957373176,true
0.16002998607409297,0.13401671920698677,true
0.16288761632693155,0.1341898408977369,true
0.17841792600405512,0.016282018765626294,true
0.1928952934051782,-0.12413604135829415,true
0.11227993266833125,0.07389315639418159,true
0.16292050378573236,-0.0060209217222353395,true
0.15750055091631554,0.11629274164122139,true
0.0965140654350551,0.09899422202986274,true
0.15682499902499042,-0.09337671424466576,true
0.15679134147417864,-0.08606359685975518,true
0.15679134147417864,-0.08606359685975518,true
0.15679134147417842,-0.08606359685975518,true
0.179993353059414,0.09877618823927437,true
0.18238401510972121,0.06546362887397139,true
0.1305046377446098,0.06718113671317427,true
0.08989061930436322,0.008199628696587968,true
0.09567020514267977,0.0011067951776060347,true
0.14561733105439217,0.04968848477378218,true
0.19316131689805063,0.08115476022734969,true
0.1635872016217142,0.18442797313704817,true
0.2173788986470137,-0.09438759435639055,true
0.11290663101929674,0.15431099782958357,true
0.15770084479111704,0.09751671205535262,true
0.15070501187104302,-0.10707567979321153,true
0.11815322258729058,0.10120927940383284,true
0.11881917097825281,0.0913873280145201,true
0.1172981033589291,0.11995243679061263,true
0.11608258106965075,0.11949783216491072,true
0.1490574679638777,2.0798549798417554e-05,true
0.17180190899628872,0.13220777760520308,true
0.145408636119547,0.10338571320548384,true
0.22176883080262216,-0.004378799095007491,true
0.08738161423462877,0.014022555456307817,true
0.06853963711518475,-0.14760800053105028,true
0.20734310395558175,0.10040426689723403,true
0.12003720648129304,-0.29518027633836597,true
0.2295877099736493,0.15577859121898086,true
0.20713934666950978,0.10959995228389174,true
0.24881038434345998,0.13605678516963393,true
0.20983783967335543,-0.1925365285243663,true
0.1425252748235019,-0.2558704124059352,true
0.246998267243702,-0.18270632189175218,true
0.14379538304646688,0.16584280568698317,true
0.1413924694760593,0.1661491437588063,true
0.1825725055440255,-0.040797527250257426,true
0.17194079644520957,0.1766137822304097,true
0.17004242904026828,0.17461637097934157,true
0.12343494303067204,-0.2478598647977981,true
0.23194564111073335,0.09759653050044448,true
0.20763985078082936,0.12966349531070254,true
0.25107879321323273,-0.05657047223194578,true
0.22313324134097928,0.019818572291293357,true
0.14432845751987264,0.010087249764361594,true
0.20498040597187117,0.132858959921756,true
0.2936071244929871,0.10431277562037966,true
0.27488519112811893,-0.26035042296989896,true
0.17436403910861753,0.01631122637645266,true
0.07056471864925258,-0.005441637745938088,true
0.21261953751788945,-0.010513784400067117,true
0.21867318551288678,-0.14559826444729307,true
0.29218413035617724,0.10699370313540957,true
0.14579322442667464,0.15120505164442988,true
0.2214272223438506,-0.05346844722451238,true
0.06842903360979535,0.1542451567488763,true
0.0554544328178642,-0.20101378490151434,true
0.07318496331827619,-0.26804884714008836,true
0.0736445270504234,-0.25529269878686933,true
0.16646095380442133,0.1459220535594079,true
0.15102917060511112,0.2094376272994134,true
0.18205504521982716,0.06530307601271601,true
0.0792074225868477,0.12161584566412897,true
0.09422143087046136,-0.08359253038586645,true
0.17977729425089406,0.0007688886958214791,true
0.14612794265406132,0.1319362706976983,true
0.22293909415857838,-0.058369081513300225,true
0.2710252700771584,-0.11768945683659582,true
0.11097365007059708,0.16176693509398432,true
0.09263138368195223,-0.10127189381451229,true
0.11245454862183081,0.1870007701364078,true
0.054723423267067965,0.14008890466361423,true
0.04685292437142083,0.15171759204535862,true
0.12216848924225496,0.12326698379187961,true
0.17132011010712134,0.15506919102340122,true
0.1862614352948058,-0.02446452899307827,true
0.13241279676025855,0.20176820830970188,true
0.09917118623322352,0.08666701988845249,true
0.05175521686142832,0.025095809265665014,true
0.08343132093018442,-0.19477721674770931,true
0.08338665559357553,-0.19402539356083492,true
0.10569875791138293,0.10597940163283726,true
0.0513304431683436,0.04954378680854221,true
0.04189083650177866,0.09680389241843601,true
0.18292382822529193,-0.4573665724386855,false
0.12498509024424395,-0.14734075060095542,false
0.09756369923395887,-0.20633717095460646,false
0.0978122351054646,-0.20521838432159178,false
0.09781223510546527,-0.20521838432159178,false
0.17194130099120825,-0.21882277679250772,false
0.06909042149976125,-0.16352894230759651,false
0.13226602275173277,-0.370783290555764,false
0.13251797873775417,-0.37015583246021344,false
0.15183922488490995,-0.25127582876949384,false
0.15169032532970564,-0.25207387535839154,false
0.15801160294811295,-0.35574718444614484,false
0.15739870030681657,-0.3591998729017265,false
0.15739870030681657,-0.3591998729017265,false
0.15739870030681702,-0.3591998729017265,false
0.11444261450238707,-0.2589332742516637,false
0.11464415211148743,-0.2625332904879689,false
0.11464415211148832,-0.2625332904879689,false
0.11011877436109158,-0.28747938032194376,false
0.1116218807167587,-0.29468687082573175,false
0.1116218807167587,-0.29468687082573175,false
0.1116218807167587,-0.29468687082573175,false
0.16723034637224926,-0.2910831006916186,false
0.21261954307556147,-0.2052183896303177,false
0.0016894421102001123,-0.2052183896303177,false
-0.04006515077785677,-0.2199744900933173,false
-0.04000628072114486,-0.22015454128183323,false
-0.039932155616611856,-0.22045104169996524,false
-0.11297478535521316,-0.2052183896303177,false
-0.24220296213155576,-0.2052183914865788,false
0.11829810386896131,-0.2052183896303177,false
0.13320691062020668,-0.2052183896303177,false
0.13320691062020668,-0.20539377877003093,false
0.1478436419963837,-0.2052183896303177,false
-0.053446519182780955,-0.0454567046894038,false
-0.06270160965552547,-0.03620161421665938,false
-0.06271147939310114,-0.03619174447908362,false
-0.06349845496119705,-0.03623217479057546,false
-0.010743564880764306,-0.08815965899142045,false
0.018553025943115906,-0.15196686851834357,false
-0.08816532182411543,-0.17714742534875721,false
-0.24319999999999997,-0.20421838963032712,false
-0.010920033855115086,-0.04377458029838164,false
0.05592998629505891,-0.07728563964064378,false
0.08192705461858761,-0.08366168232210111,false
0.22773158550262418,-0.20421838760375932,false
0.01955302602052686,-0.20421838760375932,false
0.1198191697001457,-0.2272253239750862,false
0.1583987007141113,-0.20645630156993863,false
0.15858128018580459,-0.2178088279682898,false
0.019553026020526776,-0.1642042100429535,false
0.019553026020526956,-0.09026144444942483,false
0.13301789659261704,-0.13475252586603165,false
0.01955302602052683,-0.05246899104857874,false
0.01955302602052683,-0.0524705749583275,false
0.01956491029548052,-0.05247026275370742,false
0.019878335831070987,-0.052503971902351274,false
0.019803992637864323,-0.05466507241941394,false
0.01955302602052683,-0.054867267676213985,false
0.01955302602052683,-0.05724467342713102,false
0.01955302602052683,-0.057304125772323446,false
0.01992264264094583,-0.05988676609184931,false
0.08237486660586518,-0.08310949587927978,false
0.0841360747515332,-0.08487070402494781,false
0.08450169377661294,-0.08523632305002755,false
0.09231239381117094,-0.09304702308458554,false
0.09282408412370574,-0.09355871339712091,false
0.09371924580832797,-0.0935587133971389,false
0.13875073272434052,-0.11607307158415904,false
0.13915701357894086,-0.11769825373369122,false
0.020922642037272426,-0.20421838760375932,false
0.1478436419963837,-0.2110334485769272,false
0.020922642037272343,-0.1642042100429535,false
0.08263447779417354,-0.09036369520425802,false
0.10966338173647125,-0.10885170091113126,false
0.11330919369931591,-0.1052052318168126,false
0.11331410092992486,-0.10522486073924854,false
0.1451813759611133,-0.14405601694126108,false
0.14549359946857487,-0.14374379343379945,false
0.14139696223611087,-0.14784043066626346,false
0.1519129502441086,-0.13732444265826574,false
0.08383658318535882,-0.08916158981306949,false
0.08909916563458113,-0.08661797072983494,false
0.0909906479033625,-0.08756319521958798,false
0.0209226420372724,-0.05244136789542921,false
0.0209226420372724,-0.05246752886556402,false
0.0209226420372724,-0.05256198094784572,false
0.0209226420372724,-0.053907204387666184,false
0.0209226420372724,-0.05416726199415471,false
0.0209226420372724,-0.06479122416862251,false
0.021032257644188437,-0.06484592988916235,false
0.02098918039564268,-0.06575614100848393,false
0.0316333288264911,-0.06600651293409752,false
0.14086133504058435,-0.1163481371417196,false
0.14087781988337914,-0.11635150707669487,false
0.1411693644954317,-0.1163763689388713,false
0.14132138175779752,-0.11680818385893278,false
0.14874062197731533,-0.12422742407845055,false
0.14877841406627396,-0.1242603915544882,false
0.15808211735392952,-0.13356891945506477,false
0.4717169296869503,-0.44720373178808553,false
0.47172096487429194,-0.44720373178808553,false
0.029860248957277152,-0.12876390632569704,false
0.02203225700557232,-0.23993893268610766,false
0.06846759774371997,-0.09015655753925422,false
0.057652175035915076,-0.07091382309480636,false
0.05772490329023651,-0.0709865513491278,false
0.0577354742848252,-0.0709971223437165,false
0.058445836457186276,-0.07170748451607757,false
0.05988978242699722,-0.07315143048588851,false
0.06621396123424497,-0.07943250352229901,false
0.0742913118133808,-0.0875529598722721,false
0.25107983545825957,-0.25159396930171973,false
0.25217201184604165,-0.25050179291393765,false
0.2522943462871029,-0.25037945847287635,false
0.2550080639792206,-0.24766574078075865,false
0.25598373472193003,-0.24669007003804924,false
0.1468436419963837,-0.2190113494396209,false
0.16484120285511,-0.2010137885808945,false
0.22465443408489222,-0.20427244699001312,false
0.0831344737576198,-0.0908636911677074,false
0.08169603145122499,-0.0923021435737613,false
0.08698064505676999,-0.08701752996821613,false
0.1185597873210352,-0.1182243558884222,false
0.1219925938690468,-0.1147915493404106,false
0.16254853270352115,-0.13531707239106502,false
0.20240520670156212,-0.17661220767240257,false
0.4744960778796202,-0.4487030788504607,false
0.06853963434696198,-0.10646012222766874,false
0.07050035691261292,-0.20043568209048124,false
0.07050035691261292,-0.25974182296220727,false
0.07050035691259568,-0.2713825485484687,false
0.0730118869937994,-0.2713825485484608,false
0.08838161623477936,-0.09370662069320679,false
0.08838161623477922,-0.08661814033985174,false
0.10503003686769186,-0.09472561367215045,false
0.10516430640142818,-0.09487063097875999,false
0.1208191717267036,-0.21329507029056538,false
0.12101879268744668,-0.21349469125130854,false
0.12174494139074703,-0.2142208399546089,false
0.12182125562280166,-0.2142971541866635,false
0.12174494139074703,-0.21455353989636,false
0.12081917172670334,-0.16941820830105764,false
0.12304865999714276,-0.12305905036433795,false
0.12490937851678628,-0.1448232157720698,false
0.1355600038766861,-0.242966150701046,false
0.1355600038766861,-0.2556361022666644,false
0.1355600038766861,-0.28287446506497893,false
0.1542453992310583,-0.278704573875326,false
0.15073405877188217,-0.2822159143345021,false
0.13742849933310275,-0.29552147377328153,false
0.1355600038766858,-0.29738996922969846,false
0.25319347565640693,-0.2644051066113543,false
0.2522592280179847,-0.2653393542497765,false
0.24478524691060688,-0.27281333535715435,false
0.2373112658032291,-0.28028731646453214,false
0.22420810403637975,-0.2952352786792878,false
0.1637863034815711,-0.35381227878619015,false
0.16285138916969288,-0.3547471930980682,false
0.1608531483458581,-0.1440477193547187,false
0.023032257169485038,-0.05642882235157491,false
0.023310468082977598,-0.05743885305437131,false
0.024913853377292725,-0.059363631279465645,false
0.024422911754083163,-0.059655925451174485,false
0.18376391383659008,-0.1552588658828435,false
0.20484366252164574,-0.17661220767240257,false
0.025913853034377043,-0.2951802909374237,false
0.06709270924329758,-0.10790704733133313,false
0.06809270924329758,-0.1273202503323555,false
0.07156471705436677,-0.10343503952026394,false
0.07156471705436707,-0.1057372469430792,false
0.07199699115703118,-0.10607443891947765,false
0.1329977939128875,-0.2520738840103149,false
0.12813237208127976,-0.23872260648012167,false
0.11587781513855802,-0.2509771634228433,false
0.1558215299844742,-0.2110334485769272,false
0.22780643330566927,-0.21103344857692727,false
0.2569837400913239,-0.23660175299644476,false
0.08838161623477936,-0.09611083364486694,false
0.11608257889747414,-0.15168784356117254,false
0.12659962272644038,-0.1520281769304731,false
0.12659962272644038,-0.16726389963503743,false
0.15261169388242396,-0.15328919074587194,false
0.1486851167303691,-0.1641998463663856,false
0.02599063145701025,-0.057868559920504735,false
0.026654637933809927,-0.05816001482774743,false
0.026071676489997878,-0.059168048775739335,false
0.025913853034377043,-0.06271500343084335,false
0.15118177417235348,-0.11796851445655694,false
0.20067631775057737,-0.15531945355235913,false
0.2110058980827659,-0.18150084098628458,false
0.4811006333469676,-0.4487030788504607,false
