-0.04056229399056307,-0.0003608224300116203,true
-0.04673500040114573,0.000420879073799979,true
-0.03848654924361031,-0.0009579761635795103,true
-0.006411324392156567,-0.0077510905797909535,true
-0.0055694257766216865,-0.007933740011742567,true
0.003117277557911316,-0.009007812501445708,true
-0.14116945030691536,0.005434667486943823,true
-0.16362553612395614,0.00725675642786016,true
-0.167987106790855,0.0074358194358432605,true
-0.07935536637155555,0.004229454135441402,true
-0.0956847456592822,0.006047139400970007,true
-0.09540608902550105,0.006239802041126036,true
-0.058129303095960504,0.0020653804547330276,true
-0.046655477255967845,-3.144304526480485e-05,true
-0.047528825682529946,0.0002872728026428531,true
-0.033736473733487336,-0.0007983758166283453,true
-0.09619911674255797,0.003992268601324955,true
-0.09055007772638804,0.00379918411703304,true
-0.0922576082135767,0.004006221915534312,true
-0.11396545635475552,0.003503461211421345,true
-0.12372910195179962,0.0036332363014937516,true
-0.11179206835578051,0.0025264736989196943,true
-0.11150193955219748,0.002314188300992455,true
-0.09672353329780707,0.004423880762868711,true
-0.0920207442524366,0.003981153447955653,true
-0.08566408172076212,0.0035359048171835356,true
-0.05835313295963515,-0.0024454800611157304,true
-0.06065997649150082,-0.002513115048015137,true
-0.06451202084438029,-0.0016538049591840326,true
-0.10345170604620779,0.005672884895013865,true
-0.02784386645050215,-0.002892177583469123,true
-0.017324136884466254,-0.003633375449951612,true
-0.048274252578979895,-0.006201369862293943,true
-0.023360361635738847,-0.002759148394128899,true
-0.032600516597660625,-0.001716849773213347,true
-0.07965157709425233,0.0033026609258228062,true
-0.09991566445541972,0.005887017484143657,true
-0.0867427464148114,0.004040994855084565,true
-0.01595424479931931,-0.0030790460518420396,true
-0.02921268026712462,-0.002034869750726795,true
-0.11460651125824829,0.008048669840715991,true
-0.12474310103565263,0.009129511449869315,true
-0.030037192201443297,-0.0026950993807005955,true
-0.033676675626426594,-0.0022662005921206888,true
-0.10703799586950856,0.004921825785438087,true
-0.09947172964164855,0.0015582364946194888,true
-0.10973413773922282,0.002494931517562894,true
-0.11118459169585035,0.0029205715237355864,true
0.005775500604150774,-0.006238207510542687,true
0.012019605300175304,-0.008019495629129368,true
0.02728203013975887,-0.008635476149704883,true
0.021496364127161827,-0.007381479862805504,true
-0.08113231832703977,0.0026723627434850905,true
-0.08308350673158638,0.0030735443331141588,true
-0.09207396809252093,0.004155262533417532,true
-0.04993636379248796,-0.0050432870675131344,true
-0.038641076602237964,-0.003976669562507619,true
-0.1013144388539802,0.0004775989794172514,true
-0.07351575904652233,-0.0015232206981068835,true
-0.03535974135705468,0.01262960339775146,true
-0.021595156454288736,-0.0025219288331163534,true
-0.017148502781453107,-0.0029337203688227786,true
-0.07666856737809291,0.001541042566340023,true
-0.09552056399523184,0.0033059686103902447,true
-0.08229620141359263,0.001627708174254651,true
-0.07618329108046346,0.0010997386398311007,true
-0.07112286147472127,0.002735924833149578,true
-0.05924885523096207,0.0002530070133363316,true
-0.06575414659428036,0.0014052886176480761,true
-0.08279014555960004,0.003919475458293922,true
-0.06868782200752732,0.0021203183112559684,true
-0.06664251109903957,0.001340976192282066,true
-0.08299773040484865,0.004582849272932794,true
-0.06012911691025985,0.002767663098231621,true
-0.058159123301386395,0.0019138275203267677,true
-0.09528209872062288,0.002496616466290333,true
-0.1102745744519337,0.0037921601348296294,true
-0.10434849224863404,0.0034283084228200547,true
-0.10212768761093333,0.003201732944800334,true
-0.07694686098346917,-0.00015948382875387995,true
-0.06250908925573323,-0.0020173418374105564,true
-0.045235533650982374,-0.0033115890165497028,true
-0.050799579191010885,-0.0032588443282561275,true
-0.0660927659017671,0.0021691590895269383,true
-0.05770523533111799,0.0006097727142895734,true
-0.03722212882455711,-0.006945020667577434,true
-0.043911958831036185,-0.004120858159720742,true
-0.028465894399995056,-0.0052814536542090465,true
-0.03683579392849726,-0.004904408531330895,true
-0.01236038505650569,-0.003401699590949492,true
-0.018880728366710453,-0.0038425873389839604,true
-0.01450650903655723,-0.0045583781073751314,true
-0.06765872748275731,0.0005153905494656164,true
-0.06878652311806832,-0.0003250382279465988,true
-0.07167659054340039,0.0006104587132139266,true
-0.0645540368495508,-0.0006311797492913399,true
-0.1583746399212695,0.003932886563551001,true
-0.15354601274095425,0.0037975367485807154,true
-0.14973761836536137,0.0035414935878081005,true
-0.14452573427476675,0.0026873879992307323,true
-0.07459546578886433,0.0020740535773001653,true
-0.07238556700550802,0.0017742761092602727,true
-0.07295118365295794,0.0021073194269345605,true
-0.07012666842457871,0.00026227355300926375,true
-0.06166776275863095,-0.0008255215714989966,true
-0.05717149939594546,-0.0010694876724632596,true
-0.09765651814981136,0.0018861982491496024,true
-0.042422752701491095,-0.007067279525683576,true
-0.05495930958499623,-0.006147129935554989,true
-0.009067228038554254,-0.0036649487230132477,true
-0.03422025001107609,-0.0016686447785806066,true
-0.02627228790828101,-0.00291046572043243,true
-0.042090424531491755,-0.0008651379972051607,true
-0.03495480671926504,0.000809436709427222,true
-0.050188587922702865,0.003308072220832556,true
-0.04749405159538106,0.0028592334094991595,true
-0.1083356884806268,0.004717519044963661,true
-0.10558128904390357,0.004351696220274585,true
-0.11034110663507612,0.0048698024529812214,true
-0.055865863574255215,-0.005040758599075247,true
-0.0728086738168286,-0.001546828398739479,true
-0.05853464154675009,-0.004025881977195382,true
-0.06984037483567862,-0.002245885133644848,true
-0.06413008395120956,-0.0026176291776757246,true
-0.0543730281560208,-0.00356324943571755,true
-0.040759966340777165,-0.005337463622421032,true
-0.0201018003276488,-0.005053593308617994,true
-0.06541569358525384,0.001386797222791232,true
-0.054148716716930945,-0.0001222982382052054,true
-0.056417913940804254,0.00045058303939911337,true
-0.05869109951659368,-0.004757104360851402,true
-0.03472750309407813,-0.0069274935077316205,true
-0.045179752908744875,-0.006575535314185331,true
-0.06126821377083428,0.0007289090618554789,true
-0.06223820031496123,0.0008883468335242478,true
-0.06719766292856066,0.0015332510532483218,true
-0.037791571572787355,-0.00042881674766879346,true
-0.14387604887913885,0.010705404584987172,true
-0.13359867256660624,0.010170563292959726,true
-0.08978428981897713,0.0007529903748530672,true
-0.09837063471830541,0.002185565804054268,true
-0.08683979360600314,0.0011127153970768647,true
-0.13096664961044624,0.007737281994409442,true
-0.11921941108631917,0.008255918308037957,true
-0.12272868132231206,0.009289459566997685,true
-0.12367296543343874,0.0071512979513468425,true
-0.12775476596956767,0.00876123807039772,true
-0.1285462902742598,0.009153064860272751,true
-0.11087395257511602,0.007351795396078602,true
-0.09702481185159584,0.005088869629401013,true
-0.08603607588722434,0.0033882237159836084,true
-0.08717662605755697,0.003764907563329596,true
-0.12084543095557707,0.005229194475212903,true
-0.12552126686255174,0.004939717524406875,true
-0.13423500645416878,0.006269098304893389,true
-0.12529861177626572,0.005389057250455048,true
-0.0998262151538773,0.0024978557160735618,true
-0.113340055393421,0.003869382770169412,true
-0.10636043090745159,0.0031720415435618488,true
-0.05240497982055894,-0.0003682335767030698,true
-0.06329718892182698,0.0016091505252466068,true
-0.14495737309589532,0.01175225922474181,true
-0.07506181342770608,0.003411393204963399,true
-0.1417612865098879,0.006114028537731055,true
-0.1532941833389394,0.006365326942615809,true
-0.15684502450331977,0.0070868733411257115,true
-0.14172840533936176,0.005514355585259992,true
-0.19207287796522327,0.018501678776294828,true
-0.08074386084543905,0.005913412496112214,true
-0.21115224489743722,0.020460233874275285,true
-0.171510306252442,0.01724933661925588,true
-0.17907895867352386,0.01554718451517198,true
-0.17960643298028345,0.015928123579782787,true
-0.1462958130286206,0.012126447756901311,true
-0.13630463907468404,0.010773154168792917,true
-0.14319836627497184,0.011579702058107336,true
-0.06362636739831912,0.0015884828905932472,true
-0.016950335279692974,-0.005353597997143127,true
-0.010419526012417468,-0.0063474267657862155,true
-0.014119497303565598,-0.006081346915256559,true
-0.17360962706118793,0.01632746152375139,true
-0.17683597590170658,0.014501785745031602,true
-0.1796177376509261,0.01521187038443294,true
-0.1715768235460149,0.014589968824187144,true
-0.06976515983750398,-0.0008418538382775134,true
-0.0911855172839342,0.0018044697504631668,true
-0.08985021637971857,0.0017290213344633085,true
-0.02551273708709606,-0.0012265608040174791,true
-0.0420679005629917,-0.0010962674528821187,true
-0.049003245611236645,-0.0003694496334590916,true
-0.04500689440236183,-0.0008341092372961059,true
-0.05502648105250901,0.001976965270839945,true
-0.035191346622397646,-0.0009707034368378539,true
0.0066917154501983656,-0.006909435395335443,true
0.028491008731627354,-0.010792340107160375,true
0.04842653995750279,-0.012357844295116882,true
0.04012711527725715,-0.011929266892979178,true
-0.16358054679164696,0.013965253099109315,true
-0.1543511166954527,0.01364674114826639,true
-0.1570784259275586,0.014142868075036459,true
-0.12879942550473608,0.006006531158345256,true
-0.12350416565753994,0.004238488204344769,true
-0.1136445724410074,0.0029607351441325175,true
-0.09415565381358793,0.005968631186524152,true
-0.004063233642667294,-0.005096787790489943,true
0.006158637205422771,-0.005500178031862479,true
0.005955030954620147,-0.006384178756143125,true
-0.020456942248025953,-0.0032500795089115755,true
-0.015320264585899218,-0.0038773693698568173,true
-0.06025975124376423,0.0018530857467778314,true
-0.06411139116186881,0.0014721616377517746,true
-0.0997068686581284,0.004919895655105082,true
-0.015838273561450886,-0.004529007849565954,true
-0.08299722222297469,0.003797405514266723,true
-0.07293692079574897,0.002888762612529683,true
-0.07741896285971411,0.0033061301169807905,true
-0.08651775831439668,0.0042449821184828915,true
-0.08174038157972512,0.004499526423364791,true
-0.08905560537117525,0.004806831607307542,true
-0.08711936819980562,0.0048192929176870125,true
-0.18469750330499202,0.006704682038909837,true
-0.16923508677879917,0.005281275972949168,true
-0.18878731946185223,0.007100061373208136,true
-0.14951761512245215,0.007870030703385301,true
-0.15603557977702667,0.006757087023416104,true
-0.14844241945667933,0.006137590944993138,true
-0.09317767959459997,0.003646997485907341,true
-0.09795882472673467,0.0042239599819045084,true
-0.09532460607401876,0.0040051021977143,true
-0.10565644794163244,0.005301457887335388,true
-0.10899254876376184,0.004005035113601688,true
-0.11632844207485439,0.004599592209258797,true
-0.11839439862392273,0.0048989296373301155,true
-0.16434484161184984,0.006103583508973186,true
-0.19018890911509218,0.008889751112229248,true
-0.2044210318023014,0.010275621529694481,true
-0.10375083437479765,0.007258160802722666,true
-0.09779646165786748,0.0065566366787698435,true
-0.1004290941174702,0.006907172506459967,true
-0.06315868537759659,0.0026729524135159707,true
-0.07888629506583332,0.0044221748611611295,true
-0.08506331619506731,0.004466951644467199,true
-0.007754797130356678,-0.005842850647646634,true
-0.01369764323164116,-0.005260344595884689,true
0.00895698780722079,-0.006624789344739333,true
-0.12135780797655762,0.009144992437872444,true
-0.05152030678312755,0.0025342580669261913,true
-0.03817122648367227,0.0015892311844618798,true
-0.0698520806735838,0.0026936123747143964,true
-0.06906429302859346,0.001209235092923991,true
-0.07412180244353256,0.0022344029699179827,true
-0.0734535884646365,0.0015782898286901895,true
-0.09512426862936779,0.0066283398379761715,true
-0.08997428386807785,0.00641474416688656,true
-0.11558450687052872,0.005731655736464253,true
-0.1900169350298161,0.01500287674715995,true
-0.19278451325625778,0.015229124311034514,true
-0.1833431351509789,0.014292166497698156,true
-0.12166916665624007,0.00674482158992086,true
-0.11116076177283156,0.005910240075637764,true
-0.09374283539808667,0.004320008568423107,true
-0.03761169591991363,-0.00026786804671113246,true
-0.07687269927887522,0.004964665636623067,true
-0.07502187499007038,0.004226189350025923,true
-0.06969516092818395,0.0027485536619086606,true
-0.06578454994912086,0.001210293083673021,true
-0.06845898339516276,0.0015678296178127313,true
-0.06227495389425863,-0.00514199011702423,true
-0.06592665176574941,-0.003826771736307938,true
-0.05847211654831558,-0.004681107979530363,true
-0.08081803480177263,-0.005677177454563843,true
-0.04948210070269743,-0.00940779929898581,true
-0.06356313382549056,-0.007868441413258036,true
0.00412084237188326,-0.0046644499103906945,true
-0.12380418045543701,0.009400926851090355,true
-0.12111272907908238,0.009241685994889129,true
-0.004766782625394872,-0.0062758924917804895,true
-0.003009056666899712,-0.007359533506826096,true
-0.012500262508731486,-0.006034498523713655,true
-0.01840458415507551,-0.005836986249503379,true
-0.11916268590952422,0.010540901745510117,true
-0.14025473792033039,0.011813315818563791,true
-0.1387286395733563,0.012244340099310025,true
-0.14394427045219277,0.008811595913396801,true
-0.1626083950373583,0.01052425451091793,true
-0.1711100821148867,0.011169050032059438,true
-0.06448648129715961,-0.005250207068762294,true
-0.056664134532679544,-0.00567983346035545,true
0.01951505977268364,-0.009223739587501764,true
0.01197523526704608,-0.00797937414901774,true
0.006690059585600205,-0.007832321163076535,true
0.016535547119254423,-0.006088818882632338,true
-0.08078299790917742,0.004651760003382098,true
-0.08057651295354346,0.004512338295439261,true
-0.08940775522317423,0.0052771622028965764,true
-0.030440401122096783,-0.006927976085863825,true
-0.019044967642449333,-0.007201742874634584,true
-0.023616768485174307,-0.0062220577811491415,true
-0.02476859302001895,-0.0027669833509016972,true
-0.01704683766571801,-0.004618071536047159,true
-0.027105645976320668,-0.00390851369000756,true
-0.08280616691833537,0.006583960425317718,true
0.01778030517667893,-0.004804292172631321,true
0.013437861753952979,-0.004374687117732305,true
0.013863740653577226,-0.005127737863470219,true
-0.011851005516446397,-0.005304632357485087,true
-0.09722605520753279,0.00460139780617843,true
-0.15071332088514638,0.005890136795461812,true
-0.15286048810384548,0.006251261207899178,true
-0.15664437444868592,0.006966507146490608,true
-0.045869316671605626,-0.003888250885572167,true
-0.07362920067478373,-0.001531204647331183,true
-0.07412430970637565,-0.0016709859284327264,true
-0.09632331217869611,0.0022905042007386814,true
-0.08510699795160577,0.0006803987493027366,true
-0.09688388929838859,0.0020989072905729655,true
-0.09790856756844593,0.003898641329364849,true
-0.09865708983824842,0.0037153437646261778,true
-0.09437763277096511,0.0036260876101121275,true
-0.11038469867556625,0.005045170264609593,true
-0.02912490534164347,-0.004125341485518609,true
-0.02579816041956897,-0.0036299741135084884,true
-0.08182603197783346,0.004206737777636735,true
-0.08198406278028471,0.004436561085935278,true
-0.07822741034638646,0.003820923942915673,true
-0.017707882788520368,-0.0035588481986395457,true
0.0022330585522195023,-0.005048972422351309,true
0.010369854200260264,-0.00528296098409425,true
-0.09874067286266552,0.004790534667384879,true
-0.09487187945754466,0.004565545715754512,true
-0.09403810371921106,0.004628278493780225,true
-0.08916158332380025,0.003635897381776526,true
-0.16374457937044135,0.005963912606911474,true
-0.11166083521735198,-0.0012887551671755225,true
-0.1680461158094741,0.005934677813806362,true
-0.1578459103614192,0.014176260093534145,true
-0.15221742153929124,0.014376744588916954,true
-0.1569164621603898,0.014905326066201527,true
-0.07255607435138423,0.0009468382999100501,true
-0.06214073196997383,0.00035931659418066836,true
-0.037256586873642694,-0.002999496389570113,true
-0.06046034844433984,0.0031253858063883394,true
-0.07951874306316786,0.005459972901981504,true
-0.0742859658771936,0.004925074116475903,true
-0.07641315913334829,0.005091737214153614,true
-0.06779437850900893,0.0028158033976485516,true
-0.05272016209458685,0.00206135835249981,true
-0.06698289651955108,0.003883862762683356,true
-0.03321006493203427,-0.0016659591925716755,true
-0.020602481009598383,-0.0018674643878934423,true
-0.031448258379767,-0.0013486859780278866,true
-0.08640104219141947,-0.0016250685570365839,true
-0.09588886478724112,-7.314776353162591e-05,true
-0.14761603339244656,0.007456130635652446,true
-0.021101488575051286,-0.0036133569178068217,true
0.0033033862536612224,-0.006422774522684138,true
0.005201775760550864,-0.0066886591686788725,true
-0.02925081540335539,-0.0013397680744031207,true
-0.10268911571127781,0.004565086197204709,true
-0.10519684185904732,0.004566912987119094,true
-0.1037208875426675,0.004315430206615536,true
-0.013967062236714983,-0.004704339004566396,true
-0.010379286266868765,-0.004469593542361724,true
-0.022841803270409383,-0.0027894109490468645,true
0.008738433177628957,-0.0050210622661980234,true
0.0018794203192758485,-0.004439626939112247,true
-0.007491328354696486,-0.0038658805629299114,true
-0.1270681124608091,0.0005711953488617069,true
-0.15562257522534836,0.0031661472397766146,true
-0.1428233166734658,0.0022020574597098556,true
0.004070076795231997,-0.00519838892878359,true
0.008797653575254749,-0.0058531611061068915,true
-0.004205139061699226,-0.004477902877707019,true
-0.07536133596345596,0.0010146040649757267,true
-0.09523387482181087,0.003760575858304258,true
-0.09664109171763591,0.0039029835422086517,true
-0.11102959836693524,0.004788291178547708,true
-0.024264570088291332,-0.005496803268397726,true
-0.04193875291050225,-0.00384358799791505,true
-0.035044118927084755,-0.0042440403515383585,true
-0.10873805540579218,0.0024538812446906737,true
-0.125304113110542,0.003997121895224082,true
-0.13286333021365979,0.004938218975343262,true
-0.1296656351463616,0.004861369539972352,true
-0.05786586825389339,-0.00010462346295224585,true
-0.06524310256178284,0.0012025510772635875,true
-0.06235232583143302,0.001206480972392664,true
-0.006600688025883317,-0.00541915889002006,true
-0.0016614438677942933,-0.005394654708670871,true
-0.005839123741264662,-0.00454151469379299,true
-0.008475846108498164,-0.006827885555720566,true
-0.010977312516316506,-0.005788084215263348,true
0.004107418491475445,-0.007953626214682093,true
-0.035075568888349506,-0.0032441363925590286,true
-0.016526380693903442,-0.00765854930177684,true
-0.02670855690298346,-0.0065020445387498176,true
0.007435343767446589,-0.014435016626900367,true
-0.029289192097009642,-0.004643313704300288,true
-0.035931616911928255,-0.003964485033566077,true
-0.027761397146766065,-0.004872326870091377,true
-0.012608712809971112,-0.008638428705473017,true
-0.005700704463669548,-0.010908499380594426,true
-0.0058499069405321125,-0.011209774474202079,true
-0.054423067909592726,-0.004019913814574467,true
-0.028874461642210747,-0.008220842355194467,true
-0.030687398558057355,-0.007814659570949928,true
-0.015232946425746463,-0.009598779250246929,true
-0.04592830544136284,0.0003302989412497341,true
-0.04830613899887304,0.0001159066247924008,true
-0.03761463017017941,-0.0010902459659022055,true
-0.05924721400055877,0.003545600622429996,true
-0.05265500975553716,0.000801400691727152,true
-0.04824035342977717,-2.529319886510062e-05,true
-0.055097590534257,0.0009189476081321278,true
-0.044557398677089854,-0.0018544981099722392,true
-0.05594279251030887,-0.0019056756410301343,true
-0.060197210386747524,-0.0013462939984170592,true
-0.029748091144757294,-0.005246773560350342,true
-0.035792626233880465,-0.0047879523191517274,true
-0.02391795421451104,-0.00685825672170114,true
-0.00034755726976332113,-0.013884031024091678,true
0.0060919463708097865,-0.007327094890981729,true
0.013839733291789225,-0.007609009191145131,true
0.0050401701203538485,-0.006968050367796946,true
-0.08859515666672935,0.005532139568089539,true
-0.07612408800831016,0.0037191530154404955,true
-0.07428366697223798,0.0033362804723857248,true
-0.17455619896305996,0.016155037570006508,true
-0.07312712064478255,0.004289940395842216,true
-0.06892974295364585,0.003540356384415525,true
-0.06613147904386102,0.003175326143404461,true
-0.0451271871948955,-0.009573256999546816,true
-0.02200855133881957,-0.010993632950458538,true
-0.08870083516496541,0.004430749984031753,true
-0.036744716487354445,-0.0034542859395741282,true
-0.034919440800907364,-0.004211394718926471,true
-0.16190212615408062,0.014718793758824664,true
-0.05809650245862663,0.0026130746502602796,true
-0.06083819023877063,0.002630916324088392,true
-0.05404539175898565,0.001699738593799776,true
-0.03714133862846447,3.863034689379624e-06,true
-0.06345652186038314,0.0028279412454689824,true
-0.06365739570997342,0.00254461147785464,true
-0.04239641620527185,0.0007340891290572062,true
-0.026667855114480443,-0.0010472707232887409,true
-0.022513660357971088,-0.0018055353928907482,true
-0.018752657697592656,-0.0015012873181368194,true
-0.05568457060952414,-0.002537565717940917,true
-0.057718047387001314,-0.0032740945323189094,true
-0.03910218896189749,-0.005072563193975928,true
-0.07002234864231738,0.0009205039866092592,true
-0.03582612452959072,-0.0053832465476503985,true
-0.03372501226256819,-0.005557728318688792,true
-0.19181250199250321,0.018173517877885428,true
-0.08628446305914272,0.005957726053267734,true
-0.05944101157817061,0.002616539844475952,true
-0.05984601333420758,0.0027684863789226473,true
-0.057836383484636766,0.0022422203198165826,true
-0.08679851337111238,-0.003881171739893826,true
-0.10912870544671749,-0.0022781957701385677,true
-0.09882159487592718,-0.0027041978093858155,true
-0.13652330458218254,0.011229696554484353,true
-0.06132746806270373,0.002079858630633419,true
-0.06324252954134418,0.002615173286803005,true
-0.033308470100336274,-0.0045985053213516095,true
-0.038661718210923846,-0.0027229228425623836,true
-0.04648689941775147,-0.0019543381541918207,true
-0.059253317600844124,0.0012937135254318319,true
-0.07349808124489576,0.00334059309581999,true
-0.07796924800149568,0.003981670495104448,true
-0.06660168161076574,0.002256680201029315,true
-0.08470285450866155,0.00565716508953093,true
-0.07552094013826721,0.0049707891863725664,true
-0.056625901613044816,0.0015602299736922343,true
-0.08546713560838437,4.873091701206034e-05,true
-0.08430970601558191,-0.0006696256172724867,true
-0.07682811499928038,-0.0021292734385128104,true
-0.07561294847019162,0.0001738181664032775,true
-0.07579024657856387,-0.0011485455675609626,true
-0.06467036314253327,-0.0027776285655283766,true
-0.0668170137516621,-0.001756247027411284,true
-0.029576236341062156,-0.003656349576187143,true
-0.03359695436059851,-0.0036271328353234787,true
-0.021362521945035184,-0.005813000061479395,true
-0.08109697325032256,-0.006247357887581496,true
-0.07200801368263743,-0.007275477051670327,true
-0.08887436024231227,-0.006452423873711978,true
-0.07575888529049951,-0.00705715998230075,true
-0.036465519433184435,-0.0027018370727427687,true
-0.034150377758730255,-0.0031958379206243753,true
-0.03241771480231315,-0.0040181394536593935,true
0.07119999083964723,-0.009921263369534989,true
-0.024839113159913107,-0.0030968214807695522,true
-0.027861985784444987,-0.0020450214862790493,true
-0.022284473978285535,-0.0028312437975209145,true
-0.09116728191781764,0.00284352997465882,true
-0.09364425035877688,0.0029274062595831853,true
-0.0855680509960034,0.002120182518147204,true
-0.032096545726621295,-0.0027509200869531986,true
-0.052566075070429374,-0.0011089071128451006,true
-0.0385617304850151,-0.002799241576227806,true
-0.06107535174244305,-4.020572342186904e-05,true
-0.07767019190056546,0.001911806615618565,true
-0.09146137752294564,0.003352889548462759,true
-0.059051632840024015,0.0025420541639043434,true
-0.08287543743376768,0.003989215443312644,true
-0.08218051885159605,0.0037922249561345746,true
-0.04857504011880093,0.0015248749115751338,true
-0.06711855321599064,0.0026749214584461597,true
-0.04950932667699093,-0.0012529705874611448,true
-0.04523138630338497,-0.001683117330338501,true
-0.11104411970138517,0.0011586603356707609,true
-0.10616061746627126,0.000429073439838102,true
-0.09601667904571404,-0.0007992969789809949,true
-0.0916041786342654,0.0020635909076205487,true
-0.07624943179529231,8.395339987649075e-05,true
-0.07131431583976638,0.002656227912948384,true
-0.07630004674504098,0.003107518825019688,true
-0.08465592034193253,0.00463943674673406,true
-0.04583142284921049,6.42389631363531e-05,true
-0.06514744544753087,0.0021286946764652037,true
-0.0658698967777318,0.0023413575089246096,true
-0.14188276717349205,0.005624033241599536,true
-0.12649238249042694,0.0034275334966046463,true
-0.11941407410672207,0.00282232465471877,true
-0.11883434362836429,0.004692486766033729,true
-0.10841397886006474,0.003173961904515077,true
-0.09487147156833423,0.001353540867901605,true
-0.10755689373452157,0.00303627823736621,true
-0.09520525232807117,0.006454915666940956,true
0.006693263478972811,-0.005224350424004216,true
0.012057908871809783,-0.006049761103291952,true
-0.13781455303303236,0.0012788439293521386,true
-0.11346230743710133,-0.0010286107070370636,true
-0.11165386700272448,-0.0012245117795416406,true
-0.11070152617078705,-0.0017179227359575729,true
-0.02801756698424529,-0.006165902186815581,true
-0.0052267350123908,-0.007857789360024573,true
-0.004687351989679504,-0.008109496496739723,true
-0.03245455213349811,-0.001673300853369971,true
-0.03762992593862658,0.0002078146665350708,true
-0.026561908386562832,-0.0018127121243874493,true
-0.10490653062931532,0.006798668031873081,true
0.003600957944937762,-0.005456729266952589,true
-0.10567665723957764,0.006883573730992198,true
-0.1073105731381694,0.0066268466594110835,true
-0.12807185955996972,-3.832679496704183e-05,true
-0.14192463550737103,0.0006521373283242607,true
-0.15343364689730998,0.0017029556755644056,true
-0.162756213596141,0.004574864681729719,true
-0.16313555568433444,0.004729648622545962,true
-0.09888582134159545,0.0074119327435400555,true
-0.0020147802771816117,-0.004402869083633212,true
-0.10700980619267483,0.007411492834414727,true
-0.0985425916627165,0.006219815880395208,true
-0.02764898909498914,-0.0014975570343573109,true
-0.030629906419411435,-0.001767747924806144,true
-0.05082127821936233,0.0011173200850572718,true
-0.019020299439672372,-0.002609197068078415,true
-0.1915060913418018,0.010273968054446702,true
-0.09282580835926035,-0.004914158902126068,true
-0.09468671519561289,-0.005265620856441805,true
-0.07841069040310006,0.003721611749068642,true
-0.18698615714856037,0.016687942839620808,true
-0.17650434603905146,0.014968036441423655,true
-0.17443240570739632,0.014876948004489157,true
-0.209210797345034,0.01611413482445129,true
-0.21041314578665526,0.016215528659697772,true
-0.2104390386690902,0.016336609227460414,true
-0.21722960829241456,0.017302862552061062,true
-0.2180014057091984,0.016963967758591266,true
-0.19899376040854933,0.014682818860353365,true
-0.02115568903623727,-0.0029121784591533114,true
-0.08383555270543908,0.006343680764562581,true
-0.06136145401150245,0.003329020345686688,true
-0.07896382087022219,0.0007352281804903975,true
-0.21328811683150234,0.014954145797535349,true
-0.20754150130304527,0.01412192203186297,true
-0.06813909686699465,-0.002713878708945084,true
-0.06913278388707317,-0.0028688332115362545,true
-0.07186385898344022,-0.002718512667734939,true
-0.08861941691214725,-0.0038674478186463955,true
-0.08246231726579761,-0.004935024303608843,true
-0.0887371639266048,-0.004853863544776859,true
-0.11701859097620759,0.008359069287520605,true
-0.12689936513678018,0.009067650979992077,true
-0.11789994335339288,0.007847908050236652,true
-0.11463525372434974,0.007540443561043823,true
-0.10220765810660559,0.0066411331427024545,true
-0.09570740995479121,0.006230339190456992,true
-0.09876712935845722,0.006510517184270294,true
-0.08381928879489581,0.005097676269500057,true
-0.1187853918292078,0.008412018996190915,true
-0.11267546073326329,-0.0033341318760532306,true
-0.15257077099046457,0.002333757989430585,true
-0.17157907028453945,0.004053698535656583,true
-0.03296714380373725,-0.0051403034882145406,true
-0.056722307832333035,-0.003107344430798027,true
-0.0540018065695298,-0.003247478268297098,true
-0.094773137027784,0.0021450678811260407,true
-0.11611781128410661,0.004342635251685736,true
-0.10317418833961797,0.0026593918146028683,true
-0.1492175463572472,0.01226181023999064,true
-0.08515319335374705,0.004550906264115074,true
-0.16436372502660665,0.013750403222362248,true
-0.07988530433234892,0.004208892823865128,true
-0.058919333850214334,0.0019075452626359062,true
-0.06368276859236727,0.003255514985843224,true
-0.07654023102065421,0.0038332253699898643,true
-0.08799290014961636,0.0038314230676870925,true
-0.08746474030603757,0.004155708628982364,true
-0.08891364942399202,0.004139309296040401,true
-0.042798427258566335,-0.00555074297389925,true
-0.05062493972387916,-0.004509044112679026,true
-0.10504305369146894,-0.0014488370302492802,true
-0.12120606774033438,-0.0003647095369302307,true
-0.1059116493832164,-0.0009141621785450117,true
-0.11145671417011685,-0.0005003911517818746,true
-0.06322427308896642,0.001561896391434732,true
-0.0724326074512836,0.0026068057820463376,true
-0.06610454378915995,0.0020116589174496505,true
-0.04330475121987121,-0.003167510173699515,true
-0.04384831339844519,-0.003245794721737919,true
-0.048173993439074136,-0.003225464575362196,true
-0.040298542683350536,-0.001515516338968936,true
-0.029416017103707448,-0.0015671174152064888,true
-0.026165052064679895,-0.002052695240020292,true
-0.07719461255355964,4.375451412847939e-05,true
-0.1168068701853322,0.005599613575912404,true
-0.07289668609223088,-0.0014508187357842438,true
-0.06971513308180866,-0.0007735612872659357,true
-0.007343361397244563,-0.0028018412087545963,true
-0.013874276498982763,-0.0024896208703167454,true
-0.009826901406074673,-0.0034546710060850885,true
0.0022728714284095952,-0.0054447952965074806,true
-0.016668389728984767,-0.002465236324196124,true
-0.005848009064664983,-0.003648303031601607,true
-0.007205916812828117,-0.003806001738592281,true
0.04687227799768856,-0.013326108556614782,true
0.04305722431736658,-0.014342956998045586,true
0.057522773062592236,-0.015203123794379172,true
0.014752179977225444,-0.007628009728090336,true
-0.0057106753126972,-0.0032374483400292586,true
-0.008906436184607402,-0.003450561887584873,true
0.007558279011055324,-0.005206552807746028,true
-0.02120817651131457,-0.007223036310185945,true
-0.04565769241413242,-0.00357814713913626,true
-0.030740724854353085,-0.0054663007108065285,true
-0.052173121701158065,-0.0017031390038457026,true
-0.03031462217967318,-0.0008202396139746198,true
-0.025258393501314202,-0.001286558888931564,true
-0.02466624825212027,-0.0015693022689920247,true
-0.034321719601423384,-0.0019942775185148916,true
-0.061818055675255223,0.0006398525882608114,true
-0.06521488806809705,0.0007310348366660439,true
-0.06376821862700233,0.0004969430374025755,true
