-0.04962334161158122,8.650348301408872e-05,true
-0.07171846954919214,0.0010300437413427455,true
-0.06899293947616947,0.0013554190054588244,true
-0.09381649127768887,0.002232389895257897,true
-0.08844735731429187,0.002875373503326256,true
-0.10777376057882093,0.004695054305810076,true
-0.24256411422619295,0.01783740749985746,true
-0.2652302715463588,0.02052246263091459,true
-0.24693220171619856,0.018984458386266473,true
-0.09637151091791529,0.0030698506948934057,true
-0.08664338407007222,0.002078788771699508,true
-0.09256355973772568,0.0027782730834282343,true
-0.0432080818172178,-0.0007618977297821905,true
-1.0951046840448246,0.1301066227910375,true
-1.105497041135226,0.1331545838529631,true
-1.1152075311539498,0.13485221516062476,true
-0.26025304426037077,0.018552424818464586,true
-0.2718716482377024,0.018943800672236777,true
-0.2634834579385199,0.017689130245538892,true
-0.10116873123848036,0.0032440750708680466,true
-0.09571391684683905,0.002624383065869873,true
-0.07987413009556255,0.0014226139144702388,true
-0.11013493368490779,0.004770460044236924,true
-0.11604754291709063,0.005071663023347439,true
-0.13397798211639467,0.006490222945457397,true
-0.2584840147751444,0.014871882494782163,true
-0.26796716477379423,0.016925368323345125,true
-0.24079724566202376,0.014025703520962385,true
-0.1245768976610977,0.005007909992533227,true
-0.0997030713673066,0.0036335490539482207,true
-0.10987089988482657,0.004614593525149702,true
-0.21200735945659255,0.017295079800336483,true
-0.16297294281956298,0.013173784960861884,true
-0.1531696072403541,0.012809755831043795,true
-0.21701511068501889,0.01691286092007352,true
-0.14078315084562365,0.0016060132997773868,true
-0.1556340586312106,0.0029388660531740607,true
-0.2155297521916093,0.008649181316753463,true
-0.24923093165891297,0.009949120287391172,true
-0.18384880708786078,0.005163725988492046,true
-0.17596773170473456,0.0052584630909035535,true
-0.1678971560496736,0.0037883128408814915,true
-0.0679112798596162,0.0027543925617515286,true
-0.05725461997749348,0.003035370364976503,true
-0.05933641526459721,0.0034325845350788586,true
-0.0924258340831483,0.0013798648236432176,true
-0.12742863383309988,0.004373069628708065,true
-0.11777243258971626,0.003894266203975788,true
-0.21950942581416055,0.015384608981037218,true
-0.19778294632336513,0.012261632611185791,true
-0.19617635978220727,0.012821296966219003,true
-0.06787837705415467,0.001384439444503116,true
-0.06015251440938685,0.005404870233050502,true
-0.04041130799239889,0.0033433928652513156,true
-1.0270959698183786,0.11893459613340296,true
-1.008704523495167,0.11904033839970121,true
-1.0199180615997374,0.11867579351589536,true
-1.0398883194962019,0.11995568802071246,true
-0.11976964427358539,-0.0013499981214480372,true
-0.0862485006877256,-0.0032063022097904292,true
-0.15337903752004545,0.002405111445386826,true
-0.1894422311148285,0.004791122277254034,true
-0.07384877998527539,0.001028834036751497,true
-0.09319964008241222,0.0027844573683445117,true
-0.0937572144711265,0.002978035416546704,true
-0.06690829214949523,0.0008286288910329398,true
-0.03585645802165516,-0.0032360834191972887,true
-0.030999681746466168,-0.003963733236501871,true
-0.04794978486779189,-0.002869238986022843,true
-0.22516405153771402,0.01912224805980009,true
-0.22829216116218531,0.019533864859124866,true
-0.224297452202467,0.018697746593109466,true
-0.27168301649410354,0.020931755474622254,true
-0.30320706062864233,0.025638810130460127,true
-0.3015228243845025,0.025494582319177145,true
-0.29836108329811806,0.025104546227015162,true
-1.0413536337491776,0.12184637135736912,true
-1.0077876215428945,0.11840669619846791,true
-1.0295736432379026,0.12061848696484195,true
-0.28927093036952045,0.02180649853800115,true
-0.27311492136630533,0.021258859151992382,true
-0.29708838686353967,0.023739285480530697,true
-0.2525454343094349,0.02000483804482278,true
-0.2002008392272192,0.007400183517446202,true
-0.18159936604543137,0.007316218973555277,true
-0.22768477677609988,0.010207382424559402,true
-0.21698325090005466,0.012874206116644998,true
-0.25527946284791314,0.016457966295128995,true
-0.2639383780366267,0.016965643962872756,true
-0.06262987552239552,0.002923672575129349,true
-0.04533394325072626,0.001866741938346933,true
-0.0479476620318815,0.002296527470912274,true
-0.06086503598787196,-0.0025661538922047977,true
-0.034810927162040706,-0.002253360665740195,true
-0.021753001813396455,-0.0038535872471111565,true
-0.03675511858681846,-0.0030483831633688896,true
-0.2537509122317618,0.016197880279642363,true
-0.2714357371175111,0.018217376285711878,true
-0.25872120064889037,0.0166274499517384,true
-0.2621978353510943,0.017152732033604928,true
-0.1359354910176911,0.008020264368647445,true
-0.13058360323143725,0.008433560542024071,true
-0.12194998906918064,0.007180719418434928,true
-0.122755065692574,0.007369585227365638,true
0.02344078349349843,-0.012645843145089486,true
0.023165165025588408,-0.011571490672535878,true
0.02777417902553947,-0.011880165819339594,true
-0.2736083514902662,0.013668773075889734,true
-0.26446239606435373,0.012996767247271168,true
-0.24927274787009002,0.011909013153422743,true
-0.07642812103447483,-0.0011491949815440883,true
-0.040325481755709824,-0.006246124704219674,true
-0.042956728245675535,-0.005412996976433548,true
-0.04259385189136711,-0.005559854330105113,true
-0.07467078570641261,0.0004057412322771292,true
0.009234234691108067,-0.00841991978821685,true
0.015787689573562802,-0.008909906262940442,true
-0.09578949779722312,-0.001061084388291833,true
-0.10674481725249763,0.0003084268721525729,true
-0.08889791254169388,-0.00163706969168248,true
-0.14620005670989444,0.01116834325748961,true
-0.14139827721715692,0.011504250997522447,true
-0.152897953050545,0.012247924163378776,true
-0.06954700427610216,0.000439070740305747,true
-0.07301587143676402,0.0009242886688488328,true
-0.10799768032526735,0.004020969215143333,true
-0.10582761757160863,0.004221421568001288,true
-0.20708798844524035,0.004831103022591765,true
-0.19501160808548934,0.0038432316687594115,true
-0.27057295565322126,0.01237117821069339,true
-0.08841652834535929,0.00043866634515909997,true
-0.06922685639487569,-0.001362534877668492,true
-0.007487852118443383,-0.008814648927002261,true
-0.01391611963477124,-0.008200903041767182,true
-0.09741555221688325,0.01920312230831081,true
-0.131960199050825,0.0052591528453491965,true
-0.11784561686066664,0.004569901092250445,true
-0.1525342803884705,0.00754820458743935,true
-0.050390224355725266,-0.002793491550980076,true
-0.12014516320007118,0.003699801178095985,true
-0.08261681398732934,8.471568830792364e-05,true
-0.146594132332031,0.0070669642503318475,true
-0.21843608485525146,0.013630748293389644,true
-0.1564616795199283,0.006970546581776177,true
-0.16302423252482734,0.00727628217815085,true
-0.2790059791568653,0.010362996503540084,true
-0.11266739651134583,-0.003875449973010342,true
-0.07569252876971777,-0.006313703249620856,true
-0.07120973058970337,-0.007542772272848608,true
-0.16765187151320338,0.008355020875612018,true
-0.16607558386200383,0.007949158523269273,true
-0.1714498846528112,0.008151524916694852,true
-0.2561390731832601,0.008028263179826411,true
-0.13463983526076917,-0.0014530895383522424,true
-0.15299044300728193,0.00016515285693036175,true
-0.15239705089392508,-0.00029661328676464094,true
-0.08363998390030525,0.001512291327317672,true
-0.107928194834788,0.0005040050641977323,true
-0.18875883828562134,0.008683938889635895,true
-0.10148191083187608,0.0046248279876544285,true
-0.03525511208574139,0.00041307182302655066,true
-0.0230710624453645,-0.0005045100789808632,true
-0.01277214106128266,-0.001421846122724335,true
0.14931633282698775,-0.017951816979366347,true
0.162837217010679,-0.01865064848275899,true
0.15298949994058442,-0.01855965316436306,true
-0.18107746009030068,0.012597662265347698,true
-0.1922098834362167,0.01333573724262166,true
-0.19462430099977857,0.013773067773876935,true
-0.18586270825401274,0.012465883390796156,true
-0.060349015195997224,-0.0004268303594009426,true
-0.043903285157266936,-0.0015453951088355844,true
-0.069023072683018,0.00038507344783231257,true
-0.011749823296355322,-0.0048578759754684675,true
-0.22719326237554904,0.01966821991449086,true
-0.19869986198548684,0.017147179626372827,true
-0.2019785652391647,0.01710190109186796,true
-0.2270633085375846,0.019728340995563143,true
-0.20648512065831504,0.01765365741372224,true
-0.21277672017798865,0.018566359953711503,true
-0.22276193329014593,0.019376071030091785,true
-0.27468524934325367,0.016034437315797845,true
-0.3141532380161839,0.020819447097678467,true
-0.3042878913927417,0.01911943136023936,true
-0.30658750396407375,0.019137947178515607,true
-0.15904704037356132,0.009979976651342343,true
-0.18757359269733453,0.015581685158171155,true
-0.18263083064840835,0.014794662149512638,true
0.011307625541375321,-0.004504503387306319,true
0.020902117189129266,-0.004777647823938219,true
-0.0002419126165245089,-0.002919496589362802,true
-0.23762244783494957,0.014662587967155638,true
-0.23700991044281383,0.01091162710484575,true
-0.23169637920794628,0.010179630504561832,true
-0.29872549264873915,0.015284679401855489,true
-0.2978426634900231,0.015065799147666092,true
-0.20136426458118317,0.01817446798660652,true
-0.20123166614920773,0.018014214825217617,true
-0.21101222945046194,0.018656850861541674,true
-0.20780118907974765,0.014127759601803458,true
-0.15563574221446075,0.008297868422322857,true
-0.20832071471826086,0.014246139276582137,true
-0.21201679444954913,0.014463575332842121,true
-0.20534649001488292,0.014826710391433129,true
-0.2000482995987889,0.013931348789575082,true
-0.2040624329361782,0.014452747888894973,true
-0.09013336594685406,0.000790358485138698,true
-0.08056216049989795,-0.00011825353816244388,true
-0.24389478118425312,0.013454012886481237,true
-0.25921829809403885,0.01637424745517596,true
-0.2653068129507393,0.01725427776537647,true
-0.25125001984318107,0.01576066501455045,true
-0.08377035702217461,-0.0015565653483244346,true
0.03819884981267829,-0.010965028983916741,true
-0.003166473422218763,-0.007744951838300346,true
0.006042195473836776,-0.008768328499231898,true
-0.09468825697312777,0.0061809740398666435,true
-0.08454046964840223,0.006494795456243041,true
-0.07962835099140553,0.005232753240144328,true
-0.07918463965332623,0.005908716753902948,true
-0.04909338730298041,-0.0026349104780372667,true
-0.09937331640519298,0.0014914709973516682,true
-0.10042908692446284,0.0010793636271432538,true
-0.1357767057039877,0.00542877813309009,true
-0.10429156615209234,0.0023142196900383383,true
-0.07990407673642064,-0.0002627339537837614,true
-0.1594134778889319,0.003611328476511022,true
-0.240083870427227,0.009614903167889377,true
-0.20847812271856925,0.007308230310952762,true
-0.2640850260839228,0.013590516838664107,true
-0.2617344804651718,0.012383565127957824,true
-0.26550844413700114,0.01242668169004732,true
-0.2373270720839299,0.010894588042065112,true
-0.20440511591906407,0.01249046775828283,true
-0.2002680580992653,0.012924954372726005,true
-0.2050925574018614,0.01350479528663015,true
-0.2519318562804559,0.015553452524632416,true
-0.25312294616890274,0.01306036339172395,true
-0.2720399683347713,0.014861471012368566,true
-0.27093945559146726,0.014510007789314966,true
-0.1084960358169802,0.0027594942008649925,true
-0.22963985287411137,0.017636787962111017,true
-0.23201554277868575,0.018218925842281852,true
-0.22089319791832884,0.017423372686834526,true
-0.165909015154181,0.013411590783962285,true
-1.1039292698722174,0.12998532347966787,true
-1.1020126852426704,0.12878121793477376,true
-0.2872331390720362,0.018986464898391286,true
-0.28822168273554083,0.018658855896430987,true
-0.273889743587558,0.016533240835543472,true
-0.28468278887535214,0.01890848512627674,true
-0.07522138395624245,-0.00037281070648115255,true
-0.02299545851115581,-0.004543730792396977,true
-0.04750828565542231,-0.0022205550297839938,true
-0.02844736163037953,-0.004494894124639187,true
-0.12807454939865148,0.009998584192863369,true
-0.13715531340415987,0.010612083100049796,true
-0.14688020962572557,0.01156633248640418,true
-0.2399718932906847,0.015252120454633866,true
-0.2843467516255245,0.02182150561790916,true
-0.28056263057793696,0.021692411316332733,true
-0.11428461956704139,0.00418311647332717,true
-0.04866462173034658,-0.0007303291248049459,true
-0.060878685333863425,-0.0002370019355515396,true
-0.05509527242287926,-0.0021035621875010457,true
-0.046495148894486804,-0.002917619675591232,true
-0.0876272401931556,0.0008262487102854987,true
-0.11878542400440284,0.002947687407440308,true
-1.0269275025084208,0.12320649055548111,true
-1.0019545999597261,0.11433470492608644,true
-1.0255742879115017,0.11795172387858538,true
-0.02378073328489605,-0.006547415383192257,true
-0.06909598417102958,-0.001124199507898882,true
-0.09090259208130869,0.00035959803653839995,true
-0.02797233788231568,-0.004573750645921026,true
0.010490187368996873,-0.007617966389737801,true
0.000926583622799404,-0.006608081640036206,true
-0.004251977285846031,-0.006351922270972837,true
-0.1453988881416448,0.00555895637759346,true
-0.1739958924062983,0.01040003938881398,true
-0.17869470296017376,0.011374814089353508,true
-0.1919484301268839,0.007589477442979359,true
-0.15128822963254906,0.004082586369727387,true
-0.17087106273694253,0.0052037158717638254,true
-0.2747422178465464,0.019422281285509824,true
-0.30356071922548056,0.022695218564005387,true
-0.2908154559255067,0.021683610313194657,true
-0.0763056207051731,0.0018539461652806732,true
-0.01915375234450445,-0.0008240669582385285,true
-0.21763786662665763,0.016994360544623333,true
-0.18370185860537713,0.013637639388333928,true
-0.1821511721944704,0.013120584985306216,true
-0.03234609976577074,-0.0058657642355936235,true
-0.02818055268039621,-0.003990735126364553,true
-0.004718741240497648,-0.006107575806204774,true
-0.032361993405755296,-0.0039041390435475,true
-0.21331492237815386,0.019543993855105746,true
-0.2140079561804762,0.019546934416210082,true
-0.19250321074023535,0.017385847866322496,true
-0.11009535453808605,0.0032340115760583765,true
-0.10971429034730029,0.003725279023164718,true
-0.06059306710404977,0.00012068151322094933,true
-0.062010760230966966,0.00022911572252024004,true
-0.05342170858336792,-2.8606786075635604e-05,true
-0.05985242807150959,0.00024295079617228654,true
-0.057956647302761954,2.3468094699857778e-05,true
-0.07168577447518454,-0.001281147305025987,true
-0.08184120631475511,-0.0011378276487323535,true
-0.08496735373481923,-0.0008090522627743901,true
-0.061471079386390626,0.0013401189448273287,true
-0.08241766980519705,0.0034454447597860594,true
-0.08174934206362727,0.0037774579831458543,true
-0.06972436132201787,0.0026413199328539083,true
-0.276661530515279,0.011304164800316263,true
-0.24824731574567171,0.00756592168377021,true
-0.2758214194536961,0.01112196396191803,true
-1.1460365194934727,0.1422034674715917,true
-0.1098242478871787,0.005982529379534807,true
-0.11103238699103024,0.005856141266493281,true
-0.22368685667658583,0.013805919140449735,true
-0.19787543791832451,0.009844354947683376,true
-0.20436620479675605,0.01039478617998249,true
-0.19522908668030348,0.008988599383292856,true
-0.28909613182528293,0.012702236458424443,true
-0.2760326025169342,0.011460069664673667,true
-0.2978214752127393,0.012423088736510074,true
-0.04371200298328448,-0.0022955884952817196,true
-0.0683660312341865,0.0003623753614480363,true
-0.06747099489132957,0.0008835081576684667,true
-0.07834659765842511,-0.001716533139929033,true
-0.10082065902257331,3.292890493333811e-07,true
-0.07422366550590964,-0.002401340230618748,true
-0.059752215436517875,0.0012169280753554224,true
-0.04301488976211054,-0.0005337556642011909,true
-0.059591688781183816,0.00031412742516664927,true
-0.18823601113565958,0.012245598627006304,true
-0.19923908720143857,0.012745771508264031,true
-0.19920590680976002,0.013169680050513027,true
2.550196832118768,0.015675562220846234,true
-0.09902435319048264,-0.002102352043649086,true
-0.0667482792402514,-0.004633618382277993,true
-0.03375172236014201,-0.0016827293033097601,true
-0.03405645474624919,-0.0017106817950141295,true
-0.041263873572930265,-0.0012035393338291345,true
-0.13340386011207483,0.002740661347542833,true
-0.2547119199938128,0.014254616557066307,true
-0.26255937136762575,0.014358009930492882,true
-0.24681670211488171,0.013447019880747008,true
-0.2524170436004398,0.016287743827036516,true
-0.21407386758290303,0.012593472086061819,true
-0.21112304146706262,0.01227814843603195,true
-0.2411797944345606,0.014864305942594774,true
-0.17322712698497278,0.008627905559644294,true
-0.18280578829873062,0.00910366135047691,true
-0.190552145151357,0.009980219036958948,true
-0.19025259615858503,0.015900581217771326,true
-0.20611016124411452,0.018792968881924416,true
-0.20392743128279878,0.018435019281087872,true
-0.18046513142593934,0.00985097289522463,true
-0.16988280785739462,0.010463146011085528,true
-0.16477865572497974,0.010272046281553537,true
-0.12552500814177248,0.0011593839182894028,true
-0.15286301968008376,0.003931318654428945,true
-0.13469434409631353,0.002076572028074125,true
-0.14807745712870535,0.0031596795214783313,true
-0.20621478533117377,0.016343275007040164,true
-0.20203419206826112,0.015154930358111746,true
-0.20244092594302665,0.015864428174394735,true
-0.05725073214902365,-0.0007666804604666289,true
-0.02908208447819627,-0.0031970309912129347,true
-0.035840160575483004,-0.002501786259582056,true
-0.066275223512823,0.0007900035263879446,true
-0.1818189993843382,0.011272111254764489,true
-0.19305093566476694,0.012272181359024886,true
-0.1836653043386125,0.011697461039545554,true
-0.25800165212817405,0.021714996674999015,true
-0.27723505368249146,0.02317784494229011,true
-0.2688401646347771,0.022523891604100843,true
-0.012010125053301124,-0.005120668497784753,true
-0.04412128791406689,-0.0017206028552869679,true
0.0013960993931116938,-0.005680592507512183,true
-0.2747767233458842,0.019606327491669517,true
-0.3051493011922741,0.02257352296462739,true
-0.2934219947826491,0.021825080659272827,true
-0.2957514094312581,0.021931238009349957,true
-0.013060358176993025,-0.0047502554238540995,true
0.003131443889635266,-0.005479178886389574,true
0.027651024495257248,-0.007707207761540075,true
-0.063493892022221,-0.002178985588901561,true
-0.04749140897911208,-0.0035703095112774585,true
-0.051526052239547315,-0.0031894340306286295,true
-0.13913229016858963,0.0064977158008477365,true
-0.13090781801954243,0.006191618438815133,true
-0.10708136476785657,0.003916149837633887,true
-0.10598241669578456,0.0037833775460232033,true
-0.24174299531341426,0.010629829106341582,true
-0.19781940503158335,0.007078862285548937,true
-0.2125365702066604,0.008455865066549245,true
-0.08635334614980028,0.002165894970914156,true
-0.02370621238683346,-0.0010692306981472666,true
-0.020934452322441954,-0.002000194738441735,true
-0.19241053156330112,0.01890246188483727,true
-0.18959119347511733,0.015965089189133752,true
-0.21259501142698967,0.018696384673187433,true
-0.2631598295955091,0.022002930095526924,true
-0.04054733327407389,-0.0010934718176577596,true
-0.027128624409351265,-0.0026991062173774283,true
-0.01635375089325808,-0.003007025500193855,true
-0.1854441777371908,0.003106277044895994,true
-0.21649445446640336,0.006536308868757834,true
-0.23646242946374119,0.007320766084249364,true
-0.055831420100248,0.0013724071357145706,true
-0.09408556625645403,0.00868399037006895,true
-0.07941633310543184,0.006795842836948562,true
-0.07700788283503879,0.00635942003441492,true
-0.060832441112488755,0.000998254419813216,true
-0.08691522275308339,0.0044964947242648046,true
-0.05890196732391906,0.0012991985197494393,true
-0.1351654541613112,0.009399529078621238,true
-0.1405682878150989,0.011023510417605409,true
-0.14376980207676904,0.011060090844471931,true
-0.14037755154887566,0.010717381978016916,true
-0.15092146432531517,0.008724327760670114,true
-0.16686262499488047,0.011262147707549935,true
-0.17116486739628778,0.011428753522015389,true
-0.1660086541505218,0.010084294273587646,true
-0.2266529211148084,0.005375694033473766,true
-0.2437201377382181,0.00645816582308123,true
-0.22766887245110656,0.0053506731733524715,true
-0.07583959825394793,-0.0014631855328795795,true
-0.07870090175137934,0.0003128010616773036,true
-0.07052804323839801,-8.850296232712496e-05,true
-0.08787334265912383,0.0013161923624885885,true
-0.16402775884103793,0.012992720266128494,true
-0.16150077169167665,0.010421280081383072,true
-0.16968496345319428,0.011758777936626719,true
-0.13528926773022554,0.011341032904182424,true
-0.15764996842098833,0.009448860234291145,true
-0.1528441904809955,0.00909313201431372,true
-0.22523157360199575,0.008070696630639557,true
-0.2124070378941012,0.007511437814946731,true
-0.20939634089153136,0.007614627514771377,true
-0.04749460864994193,0.0009526653893710546,true
-0.0750239110478742,0.004661956067761652,true
-0.018385289375867808,-0.0008653516504054937,true
-0.17217900479624437,0.008227620960281345,true
-0.15698736322813178,0.006814542394122436,true
-0.1584185474143347,0.006837751164480016,true
-0.15006844649535134,0.008800540326014628,true
-0.1447895039597734,0.008560411877906293,true
-0.1511797118749345,0.009068951898250383,true
-0.022247286823929846,-0.0006842986054286515,true
-0.043777882825958736,0.002675369304420777,true
-0.06533736217606545,0.004754516676821474,true
-0.07830384913202981,0.005749296807372378,true
-0.18865397037098064,0.014652822775673896,true
-0.16945578602537692,0.012122405891140081,true
-0.15744571309498234,0.002632409400111474,true
-0.16522454514423313,0.007319939745173226,true
-0.15417997674686634,0.006424571809377361,true
-0.15086678491468763,0.006908272076986244,true
-0.16372950763040883,0.005915854795980224,true
-0.17215248534302918,0.008055006504427836,true
-0.12316821730801286,0.0021961021336607545,true
-0.15173693009970013,0.008595493457827369,true
-0.12794129295093426,0.006508247946382217,true
-0.13599156237472376,0.007532992436645292,true
-0.17017221162375273,0.010041399418019487,true
-0.11940201864838507,0.006440155293157418,true
-0.09790574882860048,0.004807685518230076,true
-0.11873618407597142,0.006636851719934528,true
-0.13366442184966099,0.004702104759034265,true
-0.07240063941149044,0.0015158353025094273,true
-0.0966349868127121,0.003998663835820787,true
-0.10246162227759048,0.00458813414531159,true
-0.07213937665470294,0.005299447554530767,true
-0.05756510796641301,0.004335538179616127,true
-0.06949089121605123,0.0060950084790573344,true
-0.2313371133088431,0.022234378349994227,true
-0.256767715188571,0.024658280189016585,true
-0.2528189261773397,0.024496837338799288,true
-0.2451515627527301,0.024086742781119552,true
-0.27434366620667894,0.02192196112528233,true
-0.2892410456760979,0.02278349908459798,true
-0.2871122003730555,0.023228018101228265,true
-0.26460964877324833,0.017662866440361608,true
-0.2787255839011573,0.020029879698402447,true
-0.29769818631802636,0.02196852427150886,true
-0.28763247270761716,0.0211759269577923,true
-0.28069870089952764,0.024194480908384747,true
-0.27906686736626485,0.024139880185208434,true
-0.2939172471513234,0.025700035721814007,true
-0.24436229029057133,0.022783710187789713,true
-0.2532631130961527,0.02422536253128152,true
-0.2449419006627589,0.024157044301575198,true
-0.2363687003590258,0.023959690755506247,true
-0.32173781991362405,0.026990993382274536,true
-0.3242866772214501,0.027218103042853242,true
-0.31122971378079667,0.02628355648980235,true
-0.05103315637372319,5.148258585324639e-05,true
-0.07171446478522636,0.0024727803595627484,true
-0.09872805852695654,0.004698001641029348,true
-0.1926746904570491,0.017789988380165073,true
-0.15590737786646902,0.014634547136954529,true
-0.14959837603716153,0.013358565892843788,true
-0.16643585369574132,0.016006893111050052,true
-0.13877451297490084,0.013050384926613978,true
-0.15614351155348638,0.014715258712259066,true
-0.11835681807244514,0.005122204212166415,true
-0.09550177245836022,0.004589156602910621,true
-0.10365419228140516,0.004955375594195649,true
-0.1329379049712731,0.006006273913993027,true
-0.04113139986136205,-0.00377234207169877,true
-0.03280539881876443,-0.004947600643608829,true
-0.012288935954223201,-0.006337158162856377,true
-0.038023877311143206,-0.0042243882169419045,true
-0.15185666893409044,0.005015945303411207,true
-0.20025547940168043,0.008301889957079367,true
-0.18941592089378823,0.007665957327076645,true
-0.24747456554430247,0.01924417085409022,true
-0.20088683537648366,0.013501554588002757,true
-1.8089254061207864,0.20515467611574878,true
-2.4522260541826792,0.24568316956327194,true
-0.15217478741186063,0.014545893776610475,true
-0.16727811884877386,0.01594985289423201,true
-0.17809342157601338,0.016840831941013212,true
-0.1989000604668928,0.015807694262018362,true
-0.19426389585465142,0.015344597340707422,true
-0.20853629275979246,0.016403685189344902,true
-0.22353035560231183,0.01713503929584076,true
-0.2205063187449925,0.01881381845675617,true
-0.24489527089103924,0.021581789850462635,true
-0.1314373293265293,0.005049994691637999,true
-0.11372753961025006,0.0031264121738409922,true
-0.1169006557808756,0.004679746209054453,true
-0.23214872050702828,0.021108792356058642,true
-0.20935921477606856,0.0204627279213401,true
-0.2072425424309977,0.019819631891070194,true
-0.22123153168290766,0.020609555410229657,true
-0.2991825704220453,0.012883290665099772,true
-0.29519856122090404,0.012146199556006626,true
-0.26612788547993316,0.01094299178732841,true
-0.15978326593820635,0.011596753971374468,true
-0.18389072641432136,0.014321826467036058,true
-0.18935947349182203,0.015088634356300035,true
-0.13011153766617334,0.010148007154441224,true
-0.16918140929070336,0.00732560487205397,true
-0.22060805512091797,0.013363566668490562,true
-0.16557813828693657,0.007565522525951496,true
-0.17626414867427997,0.008740789786854136,true
-0.14247421065398314,0.00408895315981464,true
-0.10659575801251464,-0.00034626997515477265,true
-0.11999965405772595,0.0010261378055239634,true
-0.2601343892649739,0.016051634964155848,true
-0.261258675851918,0.015296288473702319,true
-0.2590501986223803,0.015713249262718637,true
-0.2607366256456396,0.015651961212434812,true
-0.24268243106756993,0.013355950230350883,true
-0.2530760200513884,0.013963106403371506,true
-0.2557717627984778,0.014261319263107253,true
-0.24587026128430944,0.012893376434944454,true
-0.2746506152103181,0.008570993915299335,true
-0.249040737891571,0.007194045269749677,true
-0.2610132164694561,0.008781938716597687,true
-0.1580857644632202,0.013619656623307719,true
-0.10963318452596305,0.007817518882548696,true
-0.13258573866326273,0.010968485870423983,true
-0.10579375055245355,0.004135668191359576,true
-0.1466213066374764,0.004762030824326968,true
-0.15273751877297914,0.005291510779590114,true
-0.2223225082724043,0.013075515576281393,true
-0.21408275441025615,0.012948146874311284,true
-0.1656878731130611,0.007498058949438446,true
-0.23928784300592132,0.01842015534997485,true
-0.23371777492134949,0.01892766760707812,true
-0.24755573630078076,0.02048339167657315,true
-0.2442159522361509,0.02050171377883253,true
-0.24547554499888213,0.02235108544517192,true
-0.25334337835575194,0.024138003328722263,true
-0.25070750437127787,0.024439141887100724,true
-0.08045732381506743,-0.0005017709822221217,true
-0.10400589885724609,0.003531504824470677,true
-0.0818097888657312,0.0014768952141356317,true
-0.07427694989870925,0.00107779114117304,true
-0.08795104565080392,0.002667989154043926,true
-0.09798278251090498,0.003387540199326522,true
-0.13730263082670557,0.00617852037124178,true
-0.09240142211312574,0.0009472656513540567,true
-0.06635390732818536,0.0009342104139754837,true
-0.06797494369538004,0.0005821675248165181,true
-0.07210291405487346,0.0008962040235448998,true
-0.2581573804650572,0.022209714570964323,true
-0.2501388854944915,0.02141033846934326,true
-0.2479553726292183,0.021470225394176257,true
-0.23913602381088284,0.02014204185376295,true
-0.06554590495011903,0.0019688434315843495,true
-0.09629968722150473,0.0036531919238853294,true
-0.08697534538078067,0.002903844263275973,true
-0.26082455228627976,0.02381877184329645,true
-0.24809778757290002,0.024608396851469122,true
-0.24303078725883354,0.02374462777639516,true
0.013057169982168215,-0.0053786975878099,true
0.005719728918850864,-0.0029075256672224936,true
-0.0025442622157341166,-0.002486194835778971,true
-0.2301870061455542,0.016360203828499564,true
-0.20426133627789267,0.014058499640104194,true
-0.20293601069991274,0.013865318000715277,true
-0.21715795852765263,0.015383908039276695,true
-0.2277166405522142,0.009790422695320294,true
-0.16974254398242294,0.004562528521387638,true
-0.19830913115793358,0.006879456007631041,true
-0.05483787161698017,-0.0037468353723972836,true
-0.043093557007655825,-0.002916392149349495,true
-0.03929833246658121,-0.0035017874069076804,true
-0.03118535619695939,-0.00417371041260256,true
-0.09274875982753061,-7.2250085905722905e-06,true
-0.04395234601034015,-0.003998209411986392,true
-0.037803103063508425,-0.004578798839678849,true
-0.26221735408325375,0.019468243673747165,true
-0.25333997582138257,0.018214657178362265,true
-0.21662832237077367,0.011586817003694488,true
-0.2249109152715406,0.01293254374325642,true
-0.20676036978766255,0.01220594242216591,true
-0.09400588954545563,0.0035125354174549983,true
-0.10683061137809646,-0.00011551159186073967,true
-0.07098276214027877,-0.0011689304577001958,true
-0.07680920151092008,-0.0003679524354803787,true
-0.21077370371068027,0.007541854290309152,true
-0.2160906955640326,0.009200590086977184,true
-0.20539809609664528,0.007931362819470655,true
-0.20678324311395557,0.008131956160773612,true
-0.12821812493753193,0.011544029388415367,true
-0.1371383386604379,0.013406676381128385,true
-0.14175501085137077,0.013771256245735636,true
-0.14451216972880554,0.014467655941540203,true
-0.21547939029792218,0.0040201864365062845,true
-0.23102306462623245,0.0061676122095563335,true
-0.22602185665188135,0.005654479861182865,true
-0.2753877419082529,0.011320901360850039,true
-0.18127735054132066,0.01466657434461166,true
-0.2358460538150019,0.02046705083287409,true
-0.2292166331621701,0.01978961515086128,true
-0.24059665767113847,0.01946131343347232,true
-0.23495663317686333,0.01972849493380832,true
-0.2255507029763626,0.018107722447422203,true
-0.23405946194217875,0.01902370788919061,true
-0.22008557862835687,0.018126262184389758,true
-0.22198603492438584,0.02134528262777524,true
-0.24313518255900934,0.023292222467665463,true
-0.2464325366362521,0.022534667524481883,true
-0.2359629070578455,0.01729277763162229,true
-0.24805468600974656,0.018669846778716886,true
-0.2494273557979243,0.019525683104209324,true
-0.24508053847880928,0.018409496089666633,true
-0.24940565921643132,0.015696326920014575,true
-0.2529150686186712,0.017142350490246178,true
-0.26339295376794714,0.018380616087185414,true
-0.2510833241468695,0.017430672618033993,true
-0.1915644535478862,0.015594920439503529,true
-1.0279686903399452,0.12228338714912504,true
-1.0173157922805767,0.12116342196350832,true
-0.1942927184837926,0.004744315964350515,true
-0.14565183762620304,0.000876284786955589,true
-0.1576200265711729,0.002200910424552227,true
-0.05739387995632117,-0.0017323610286032465,true
-0.10854945302923413,0.004236957823568227,true
-0.09089422531489655,0.0029714422420315523,true
-0.09120738249143212,0.0029421567898985923,true
-0.17663846194247856,0.010528753181714534,true
-0.23455655433235068,0.01437608249796793,true
-0.2125096600951064,0.013621659270444647,true
-0.1939328641189939,0.013714457272334418,true
-0.22785857616992322,0.01870049299734805,true
-0.2293201323238021,0.018759734226522606,true
-0.05559139959022996,-0.003233690530602046,true
-0.05127115628451029,-0.002328646922105243,true
-0.042472766120400074,-0.002821620785739165,true
-0.04027025746234392,-0.002585565948903523,true
-0.025988165558312848,-0.16818375262017704,false
-0.026303101725122513,-0.16861589777483144,false
-0.009774196656743506,-0.17072314587657922,false
-0.026277966065799574,-0.17062113878664925,false
-0.0003365416870093618,-0.1857892498782771,false
-0.0015516345024285672,-0.18578924987827677,false
-0.02947074421857132,-0.186359668274781,false
0.006923393139993239,-0.19205598747303532,false
-0.03006465616028109,-0.19832272506779358,false
-0.03126293790990897,-0.1997971202370104,false
-0.5068969912171555,-0.09241720000000053,false
-0.5094180053803326,-0.09241720000000053,false
-0.5097453615440135,-0.09241720000000053,false
-0.5229123303960497,-0.09241720000000053,false
-0.5268488763265886,-0.09015255635376995,false
-0.5268488763265886,-0.0904777922398739,false
-0.5417800797299529,-0.09178818595690391,false
-0.5586400630216712,-0.08970544248472706,false
-0.5692760054541639,-0.09241720000000053,false
-0.5692878604157021,-0.0924172000000005,false
-0.7570531870255457,-0.05317805000000053,false
-0.7573891160308804,-0.05317805000000053,false
-0.7573975878018424,-0.05317805000000053,false
-0.76274550011225,-0.05317805000000053,false
-0.7627491212234715,-0.05317805000000053,false
-0.7630974513938477,-0.053178049999999866,false
-0.7634738213073928,-0.0531780500000007,false
-1.04394067513726,-0.05317805000000053,false
-1.0471456349815247,-0.05317805000000053,false
-1.656767742261988,-0.05317805000000053,false
-0.862699381287652,-0.03491435000000043,false
-0.879880154258097,-0.03491435000000043,false
-0.8820743493249761,-0.03491435000000043,false
-1.0513158221423042,-0.029120810009322096,false
-1.0520490569972103,-0.029120810009322096,false
-1.0625134007931436,-0.03491435000000043,false
-1.0678410312481275,-0.03491435000000043,false
-1.0682725621592473,-0.03491435000000043,false
-1.084829003889902,-0.03225417880670123,false
-1.0852523842974682,-0.03225417880670123,false
-0.9375897333775958,-0.022885730000000493,false
-0.9416912629122155,-0.022885730000000493,false
-0.9427835540210977,-0.022885730000000493,false
-0.9460532853119463,-0.022885730000000493,false
-0.9477460008150571,-0.022885730000000493,false
-0.948670522524386,-0.022885730000000493,false
-0.9513309235147236,-0.022885730000000493,false
-0.9514111879588485,-0.022885730000000493,false
-0.951470731864897,-0.022885730000000493,false
-0.9684975796940866,-0.022885730000000493,false
-0.9710267955624932,-0.0197207036171847,false
-0.9710341642674242,-0.019720703617184587,false
-0.9710638750191295,-0.019720703617184476,false
-0.9715829064658918,-0.019720703617184476,false
-0.9716320852295289,-0.019720703617184587,false
-0.9717971235610107,-0.019720703617184587,false
-0.9718309028733456,-0.019720703617184587,false
-0.9741451974185208,-0.019768190000000407,false
-0.9755016542514833,-0.019768190000000407,false
-0.9804026687795329,-0.019768190000000407,false
-0.9668142363122505,-0.018185680000000426,false
-0.969095710829903,-0.018185680000000426,false
-0.9720109674301234,-0.018185680000000426,false
-0.9722749069514574,-0.018185680000000426,false
-0.9996182694135471,-0.018185680000000426,false
-1.0000631057071798,-0.018185680000000426,false
-1.0118404209650012,-0.0165873348198054,false
-1.1919541437028798,-0.018185680000000704,false
-1.1923681067561418,-0.018185680000000426,false
-1.2023246046471525,-0.01658733481980551,false
0.17674273282548802,-0.20030914282548812,false
0.17726418021028523,-0.20083059021028515,false
0.17986868630066222,-0.2034350963006623,false
0.18228026925076524,-0.20584667925076516,false
0.2600039230320277,-0.28357033303202767,false
0.260035416822035,-0.283601826822035,false
0.261156958313822,-0.284723368313822,false
0.2612244259746128,-0.2847908359746128,false
0.26210465429251184,-0.2856710642925119,false
0.2649541958229036,-0.28852060582290356,false
-0.9957339194474732,-0.013616590000000484,false
-0.9960536925167145,-0.013616590000000484,false
-0.9996510953918759,-0.013616590000000484,false
-0.9996645366324416,-0.013616590000000484,false
-1.0026046736356178,-0.013616590000000484,false
-1.003383335141864,-0.013616590000000484,false
-1.005883151782915,-0.013616590000000484,false
-1.0063423762383128,-0.013616590000000484,false
-1.0089171572959095,-0.013616590000000484,false
-1.0104524179579224,-0.013453966022426378,false
0.2706279576947608,-0.21572889769476083,false
0.27086542880154063,-0.21596636880154052,false
0.27292913589162127,-0.21803007589162132,false
0.27293347806388113,-0.21803441806388124,false
0.27293708328402355,-0.21803802328402355,false
0.2738349988683312,-0.2189359388683311,false
0.2742215333564315,-0.21932247335643146,false
0.2858317557820116,-0.2309326957820116,false
0.2858394049580705,-0.23094034495807172,false
0.2859574897403606,-0.2310584297408102,false
-1.011267836536439,-0.011880680465981425,false
-1.011269134818664,-0.012049900000000335,false
-1.0140485714545808,-0.01204990000000089,false
-1.045728606352887,-0.011374660169727657,false
-1.0457294261085568,-0.011386038716926061,false
-1.045737023285525,-0.011614767968954748,false
-1.0494063502447875,-0.007187228427668391,false
-1.0526751263222465,-0.012049900000000502,false
-1.0528541121717114,-0.012049896466515025,false
-1.0528572120055422,-0.012049896466515025,false
-1.705282710351324,0.09998372,false
-1.7059065722819138,0.09998372,false
-1.7660229252160016,0.09998372,false
-1.7711776030264668,0.09998372,false
-1.7730528416544316,0.09998372,false
-1.7730542442649213,0.09998372,false
-1.775920451874614,0.09998372,false
-1.0167396390570402,-0.01016984000000054,false
-1.0190431599999996,-0.01016984000000054,false
-2.046363063237292,0.15356919999999952,false
-2.06115830310233,0.15582604057069283,false
-2.0611599372925626,0.15582604057069285,false
-2.0612082104234277,0.15582604057069285,false
-2.077594489303783,0.15582604057069294,false
-2.0801609495955873,0.1535691999999996,false
-2.080605654489487,0.15356919999999946,false
-2.081042535557803,0.15356919999999952,false
-2.082159132158378,0.15356919999999952,false
-2.0963773930858074,0.15582604057069283,false
-2.22524823847958,0.1814903999999995,false
-2.2267483587057417,0.18149039999999952,false
-2.229097197849578,0.18149039999999944,false
-2.2307255832934643,0.18174218054453917,false
-2.2343832150903875,0.18174218054453883,false
-2.243157540675784,0.1814903999999995,false
-2.2476534571173286,0.18174218054453906,false
-2.249343745425112,0.1814903999999995,false
-2.2523715544181315,0.18149039999999952,false
-2.2605756375079067,0.18149039999999955,false
-2.309259125132811,0.19444839999999952,false
-2.313414229786336,0.19444839999999952,false
-2.38205949989662,0.19444839999999902,false
-2.3890280181583803,0.19444839999999952,false
-2.399748355469092,0.19444839999999952,false
-2.7255990453148717,0.19444839999999952,false
-2.732913698968336,0.19444839999999952,false
-2.741322076864646,0.1961491043518125,false
-2.744335511185616,0.19614910435181254,false
-2.748332917679459,0.19444839999999944,false
-2.3561433260165545,0.20165189999999966,false
-2.3768834201949605,0.20165189999999966,false
-2.4308717379765428,0.20165189999999966,false
-2.4309305185296743,0.20165189999999966,false
-2.4669326925223527,0.20165189999999966,false
-2.4669771044491733,0.20165189999999966,false
-2.4679441059415863,0.20165189999999966,false
-2.4684347081875546,0.20188034144225897,false
-2.4684732736978687,0.20188034144225897,false
-2.474793035078777,0.2018803414422588,false
-2.379289129415638,0.20451749999999946,false
-2.38001435313776,0.20451749999999946,false
-2.382440597107096,0.20451749999999944,false
-2.3824535995003653,0.20451749999999944,false
-2.3866403059945465,0.20451749999999952,false
-2.4016782828131498,0.20766802651067806,false
-2.4017357531230674,0.2076680265106781,false
-2.4091672741205326,0.2045174999999995,false
-2.41497439772997,0.20451749999999982,false
-2.4150168909683187,0.20451749999999985,false
-2.527374218316789,0.22767559999999976,false
-2.5293420428247315,0.22767559999999976,false
-2.557819429036096,0.22767559999999976,false
-2.5578240506860856,0.22767559999999976,false
-2.557998471940578,0.22767559999999976,false
-2.5764745871917007,0.22767559999999976,false
-2.580840941249281,0.22767559999999976,false
-2.646114433083178,0.22767559999999976,false
-2.646605203919718,0.22767559999999976,false
-2.6717622910085286,0.2314442104255181,false
-1.756840571572574,0.10815919999999957,false
-1.7581414246904628,0.10815919999999957,false
-1.758242736364035,0.10815919999999957,false
-1.7593599095502488,0.10815919999999957,false
-1.7609515269877025,0.10815919999999957,false
-1.763753631590326,0.10815919999999957,false
-1.764101730809763,0.10815919999999957,false
-1.80227575080153,0.10815919999999957,false
-1.8247516174188678,0.10815919999999957,false
-1.8710185202632554,0.1261813,false
-1.873543144871247,0.12626114487124698,false
-2.6449594120937965,0.2395636999999996,false
-2.64711026044692,0.2395636999999995,false
-2.651261789488285,0.2395636999999996,false
-2.65187011226626,0.2395636999999996,false
-2.680078698877538,0.23956369999999944,false
-2.681651504952328,0.2395636999999996,false
-2.6834629299937087,0.2395636999999996,false
-2.6834819099921066,0.2395636999999996,false
-2.6985374504517776,0.23956369999999944,false
-2.700799402235997,0.23990159996477328,false
-1.92852351160492,0.1352323,false
-1.9294201525715429,0.1352323,false
-1.9299311982386436,0.1352323,false
-1.9340219849734077,0.1352323,false
-1.9428395231747353,0.13523230804807565,false
-1.9433722525271229,0.1352323,false
-1.9441648409915382,0.1352323,false
-1.9445503214457216,0.1352323,false
-1.9481707301140594,0.13580084770142262,false
-1.952292800034612,0.13580084770142242,false
-2.6338029557423845,0.24379239999999958,false
-2.634706861148979,0.24379239999999952,false
-2.637559200247066,0.24379239999999955,false
-2.6397566470010587,0.24379239999999958,false
-2.6513426617705425,0.24379239999999955,false
-2.704124661614768,0.24379239999999958,false
-2.708174404008278,0.24379239999999963,false
-2.708182411758322,0.2437923999999996,false
-2.708804263921471,0.24379239999999958,false
-2.7159691723606403,0.24379239999999958,false
-2.647713390277126,0.2457377999999995,false
-2.6505806823124396,0.24573779999999942,false
-2.650585326705409,0.24573779999999945,false
-2.6524692131299172,0.24573779999999945,false
-2.652483005368957,0.24573779999999945,false
-2.652538776036882,0.24573779999999956,false
-2.656473825792754,0.24573779999999948,false
-2.6599672683939977,0.24573779999999948,false
-2.662126881156609,0.2457377999999994,false
-2.6653431310887523,0.24573779999999934,false
