0.012857349696330678,-0.00812860982175058,true
-0.1299238183400564,0.011674027754356536,true
-0.1407972088566598,0.012894519083622442,true
-0.12400296327572469,0.011674887220440862,true
-0.10533372372530092,0.01056864961029181,true
0.0013976264465329624,-0.004422183884112096,true
-0.13685618291837076,0.013087113602163813,true
-0.1714994307822455,0.016352357988786002,true
-0.028532118198226986,0.0005730359699651077,true
0.2090527934105546,-0.02834295814507115,true
0.23803358016697884,-0.030903675693531498,true
0.2321963083783647,-0.03028346396552964,true
-0.022154895507114025,-0.0025069036737396903,true
-0.18059690442161513,0.018487745022488754,true
-0.042668457301836105,0.0015890149792008,true
-0.15845940641834422,0.017015036375416393,true
-0.0044878401427785874,-0.005635303679805637,true
-0.022228104419300898,-0.0031207619406285816,true
-0.009673533662062361,-0.005273286509622339,true
0.01895824033645166,-0.007168974872849218,true
-0.15211215751089902,0.014194939584369612,true
-0.13779088644453608,0.013227014803845704,true
-0.09863753806130182,0.010446166020077436,true
0.2667776063237479,-0.0322812230042713,true
-0.09858499322674441,0.01288047542923787,true
0.18259719653603845,-0.02285076391240222,true
-0.001669378413285738,-0.008352245392260708,true
0.003604801697151716,-0.009418473939153661,true
-0.0007003352410628327,-0.009505914485785038,true
-0.0003566104999626063,-0.010044946549592804,true
0.03548911289010537,-0.010698469172255368,true
-0.00420031815538735,-0.005737954296033961,true
-0.005018847802928272,-0.0042123310652373985,true
0.3017514379849584,-0.010509033767363809,true
-0.018851829587148594,-0.002911276444678694,true
-0.011642634077216218,-0.0037154742583273455,true
-0.005825300592689042,-0.003946996751871752,true
-0.03393726509970307,-0.002800006343473875,true
-0.035764925670321523,-0.004004985033952432,true
-0.0371775184714519,-0.004123078497156806,true
-0.04208789916410627,-0.0028779628820820233,true
-0.068518394313001,-0.00026244164495738305,true
-0.0635905301129428,-0.0008072105709426292,true
-0.0693079014831306,5.9739181933202504e-05,true
-0.013037569944340466,-0.00638850640489943,true
-0.0239319387715633,-0.00516683144529608,true
-0.038742419831808594,-0.0029660087250432104,true
-0.040732691540086075,-0.0026552043140816196,true
-0.0435571497026046,-0.002413971022340056,true
-0.011427575369880816,-0.009810934869963065,true
-0.03890658018024107,-0.0065045192037866285,true
-0.03001044171107148,-0.008503245427778474,true
-0.043768456639714515,-0.0052333035737906,true
-0.07324953429033809,-0.0011965853490942032,true
-0.05954155487877888,-0.0026293458771145337,true
-0.011339670855866513,-0.009948628645539961,true
-0.04315066865472783,-0.007670307287953782,true
-0.04658834068978268,-0.0069962954085776696,true
0.004000192812817049,-0.00942194962539055,true
-0.004805016466324252,-0.008363322820828927,true
-0.010428466838657835,-0.008030709483602147,true
0.0466979234788687,-0.014146065731766118,true
0.02857336239910735,-0.011721908007925382,true
-0.004794217860820127,-0.006455807242168033,true
0.004903579111951384,-0.0070566917022724055,true
0.013886147670495008,-0.008422817854851728,true
-0.03100177153217154,-0.0003874436100762338,true
-0.039401926865895276,6.666922358495968e-05,true
-0.04504215821984092,0.00043411365559315254,true
-0.022979583777010815,-0.003224059520436159,true
0.0014981254216523965,-0.011696093211796621,true
0.012743061685492663,-0.013122429719285343,true
0.0034249810204292075,-0.00838477065179358,true
-0.029100691942352985,-0.005343740629815772,true
-0.007364499982043138,-0.006246387108553752,true
-0.012380617166153352,-0.005902996117764929,true
-0.004890658263958958,-0.006857999599281812,true
-0.004000229722973758,-0.007358547016436649,true
-0.0019444957489963555,-0.008215068537764663,true
-0.016739527836860058,-0.00307679331237643,true
0.0009033921712335857,-0.007163086937474687,true
0.00464563957133457,-0.007817304724806844,true
0.023417908810600574,-0.013054916869168709,true
0.016300338468698716,-0.01301723496359034,true
0.025844882325670837,-0.014161095140565115,true
0.023142915834679423,-0.0138330391330212,true
-0.057000436125997034,-0.0040743799802651585,true
-0.04639878701618305,-0.004954507168978288,true
-0.04987573720732208,-0.004553900205072141,true
-0.012317266427621876,-0.0037445650911104803,true
-0.06007402599201983,0.0019370070905703664,true
-0.05973564937627651,0.001836751598260895,true
-0.012602886387781065,-0.0038149230077556898,true
-0.06811108506058716,0.0028045847390492304,true
-0.020250665985926508,-0.004380774807346619,true
-0.02256234179560579,-0.004269642248243522,true
-0.08911711975481929,0.006134276492965055,true
-0.044087689306245514,-0.00026800921555779345,true
-0.04194864120300468,-0.0005044691636646587,true
-0.1951755392189659,0.01975859814939414,true
-0.05390807926863961,0.000802451179809361,true
-0.1974064943965257,0.018966748493095126,true
-0.06235587574235646,0.0013698820602699308,true
-0.03695333976289705,-0.005330652727810636,true
-0.0372173757096087,-0.005643032925404426,true
-0.043026008523716075,-0.004890505990800629,true
0.028227496100295513,-0.016329804361547202,true
0.01474476894216159,-0.013545001806014423,true
0.00712861117442265,-0.012073149748501863,true
-0.03431565542387682,-0.005842444241185078,true
-0.030382600801332038,-0.005700050540386966,true
-0.037922742710686186,-0.005552701387569404,true
-0.07990112351578893,-0.0031083724785479876,true
-0.09275531389824632,-0.0007773261212627898,true
-0.09083965070581446,-0.0016903479525588322,true
-0.03744329478143005,-0.0046834482406588294,true
-0.03773418258164618,-0.004755300449420411,true
-0.037864572123552875,-0.004894056246949437,true
-0.08559800151169039,0.005897789453100627,true
-0.04296797965372756,-4.647709354192037e-05,true
-0.10753635131704209,0.007101733951033317,true
-0.03204664052194295,-0.0037112937259319995,true
-0.03220665166275949,-0.003509644865105313,true
-0.03065476651103627,-0.0032316826633544023,true
-0.11325366347192423,0.004772168835714571,true
-0.07775449876077867,-0.0018573287045942494,true
-0.06716045450592167,-0.0035686629303702637,true
-0.08292724378169325,-0.0009718039017060608,true
0.07380896113013025,-0.012781974742986042,true
0.08666539644086413,-0.01466067276014501,true
0.07344284959801217,-0.012906801249146239,true
0.07549012484196438,-0.013105990826354124,true
-0.02521127762632913,-0.0032215115352436444,true
-0.023267199167921193,-0.0052627033397887706,true
-0.02087615153086131,-0.005775570981906944,true
-0.032009268325116746,-0.0040899185327651095,true
-0.0027488311143619715,-0.00928213816057077,true
-0.01855394272008737,-0.007192348936791939,true
-0.019994989444140465,-0.00622692715850065,true
0.12747031168493894,-0.01726656245821889,true
0.13209611005656252,-0.017581408910869907,true
-0.0506105332291904,0.0033538075293286142,true
0.034678189229890855,-0.008922476226505726,true
0.03435884246208598,-0.009292894920685116,true
0.03697840818258258,-0.009761802644974357,true
0.041483040551717476,-0.010097220810284328,true
0.014060433640172842,-0.0093943129224711,true
-0.007029599630008487,-0.007928505940619597,true
0.007826570894040596,-0.009809630087554613,true
0.05232888169936767,-0.011184643324962351,true
0.07772580678730079,-0.012866638633095204,true
0.07123590734632068,-0.012359078296882691,true
0.0749830910950251,-0.01267693637737544,true
0.05415406166859538,-0.010230268653941103,true
0.051838164379700125,-0.010321124867722489,true
-0.17395932393730495,0.020275045361541427,true
0.06979673929844843,-0.012360564847241058,true
0.06440404539803435,-0.011834846512896985,true
0.015849578794223662,-0.009737208726759261,true
0.001072701909852869,-0.009639132777846553,true
-0.006869968242794178,-0.007717285034990822,true
-0.003352629164992571,-0.008510518889450324,true
0.01616045985772363,0.007444622100249229,true
-0.011644216639138172,-0.0033862689485741303,true
-0.18957931842550302,0.018397908396229328,true
0.029367457383747908,-0.008485312530610637,true
0.011054150652823003,-0.007824252559914476,true
0.026193564363627964,-0.009761588874947307,true
0.032717785719319936,-0.010238899655470167,true
0.06916941562177414,-0.014739803936196963,true
0.06780173374590914,-0.015564185948155135,true
0.07245483515515816,-0.0146453788192339,true
-0.03429673803388855,-0.0020511168025992878,true
-0.04076923325078363,-0.00047909230371312103,true
-0.03036785550995469,-0.0015668905823495761,true
0.007107324909195523,-0.008667773404112171,true
-0.004743338821412424,-0.005248662624722889,true
-0.00964784295561616,-0.005383132551257233,true
0.008730661530671258,-0.007832953308378049,true
0.0044927646506087715,-0.006584249523343071,true
-0.006198157732375975,-0.005970587646583453,true
0.0006582911324022334,-0.006672606400450056,true
0.03269104395435041,-0.008041520402055927,true
0.027331218377528277,-0.009456957158131333,true
0.0326031905436488,-0.009504540963169123,true
0.02504104992992695,-0.008375398863594102,true
0.049450411163805885,-0.016009772630058115,true
0.019402388026739548,-0.01135737873739533,true
0.011638414523429397,-0.010259650246855254,true
0.042386902953148065,-0.011103680326574238,true
0.024612684974524734,-0.009603170597288945,true
0.03846152913098688,-0.010041757160660778,true
0.03778896312519442,-0.010668302893960948,true
0.03826857825990171,-0.013325320493016855,true
0.04989302350444924,-0.014634222874819237,true
0.04901641432573167,-0.014603237520009152,true
-0.0068895323954623056,-0.0025088456195208678,true
-0.002397934346323183,-0.005049188795392363,true
-0.011925829277954714,-0.0039837185793942485,true
0.0012084199248196814,-0.006337975465469627,true
0.026991405168256488,-0.009846391139317838,true
0.015182993530817201,-0.008580797713970408,true
0.019487762783014118,-0.00903081431749168,true
0.03705453277634341,-0.014148005678959942,true
0.02838376510416518,-0.011194134838537075,true
0.020077859467813042,-0.011401183124941282,true
0.0342377888257237,-0.009678284195523763,true
0.02802650052203748,-0.011992541769439261,true
0.0352184086556373,-0.011500648672413606,true
0.02764141399251918,-0.012138818989866629,true
0.03450606727259675,-0.011493846389597964,true
0.016879182123547887,-0.011823388178526763,true
0.0024157089115761643,-0.010782935859389754,true
0.00499272327909428,-0.010881437051296024,true
0.014445954776038716,-0.007144788662624857,true
0.012415083094305723,-0.007735926874088906,true
0.012802753433573733,-0.007869747553797622,true
0.03547195104421674,-0.010767891783087059,true
0.0027072903206670773,-0.00859837199702515,true
0.010038255173566268,-0.009545624829382565,true
-0.007981653436030856,-0.00784939937821431,true
0.022370273723399503,-0.009322000066409,true
0.024871665752216332,-0.010398455094656343,true
0.020182327312010973,-0.009916791364339456,true
-0.006024271218710409,-0.00358739899322608,true
-0.01556438478041744,-0.004215459323462584,true
-0.02425351704596701,-0.0030198231494631966,true
-0.018647143586024484,-0.005429150954120551,true
0.012867747008321828,-0.007257971383564946,true
0.07251410277303427,-0.019439918656122924,true
0.21740222460541925,0.006250476704213952,true
-0.18541429715699564,0.018286413965923422,true
-0.17775503366836942,0.01784110689897838,true
0.0032188063872712336,-0.008024403035825717,true
-0.20466422594208078,0.01796997474958077,true
-0.1989260913013835,0.017337189490907644,true
-0.20455794951763762,0.018393023857637834,true
-0.004477956696092189,-0.006082871677299465,true
-0.046339553548569556,0.0029691453114048753,true
-0.1340794959327476,0.01059807750733479,true
-0.12382962973094336,0.0012624837502756454,true
-0.0841797780620206,-0.003881981863708587,true
-0.07817537362839178,-0.004683868736143574,true
-0.06725281642505165,-0.006518836349148413,true
-0.050097285055108354,0.00015852272579179594,true
-0.17074566892760257,0.015071236564459923,true
-0.17116438566374947,0.015149573345290811,true
-0.049880124184669805,0.0019721363251758283,true
-0.12411127603557226,0.011163183167611482,true
-0.1288100853102221,0.012108305184798886,true
-0.1297443755342601,0.011885795859395896,true
-0.18195229334218044,0.016577830056200574,true
-0.19483413424454643,0.017466662971861616,true
-0.18634660289266358,0.016790347627886296,true
-0.059179390105617014,0.0009014858346140797,true
-0.05027102274104178,-0.0007442024968968754,true
-0.027399107374472043,-0.004530032362463604,true
-0.10100635942853786,0.008022679763927305,true
-0.17389725183287685,0.016231291985828813,true
-0.17490196909278433,0.01626585010845709,true
-0.1774685391310339,0.01672311930209728,true
-0.05796211573266996,-0.00169837238833501,true
-0.025535806781827763,-0.006689403754555552,true
-0.02493235967185725,-0.006849434098277429,true
-0.018058978422498373,-0.007764419774536065,true
-0.026767472574488305,-0.0038930932021612806,true
-0.04522434207583559,-0.0017411856654763074,true
-0.04438088448724331,-0.0020586726091971473,true
-0.05079869472274223,-0.0023878580661225867,true
-0.058767947016324595,-0.0010712469984350218,true
-0.05417422437763342,-0.001614126270617681,true
-0.025881331002661545,-0.0016638297084390795,true
-0.04106294784643805,0.0002082256342011879,true
-0.04103288731988808,6.69282032754806e-07,true
-0.010809057232860741,-0.0038257350081672492,true
-0.022904488608019857,-0.002132272778534831,true
-0.028360107827149927,-0.0016488540843995819,true
-0.007134657778701814,-0.010810265906863768,true
-0.02825948509369902,-0.008013459703847925,true
-0.03214190010422635,-0.007725286838069001,true
-0.027226727666964323,-0.00446010166336712,true
-0.05604808833417674,-0.00021829541286572498,true
-0.057513868273936786,0.00016100220346823785,true
-0.04148248956964162,-0.00228210857740742,true
0.011899312058687439,-0.006515347725774655,true
-0.0058991020169109065,-0.0042439761872988535,true
-0.0070933488012616674,-0.003786392606388411,true
-0.019591910329770035,-0.010333593985007035,true
-0.05353088344711321,-0.005972908595387428,true
-0.051357424646685135,-0.005620628121030943,true
-0.01585541620246267,-0.0036314021739194523,true
-0.01653173909510619,-0.0030991483832423766,true
-0.017811219850159543,-0.003364259520297693,true
0.010226683609657616,-0.0062563524643722175,true
-0.013853520916730644,-0.004399895463271306,true
-0.01415107521360437,-0.004277993647231351,true
-0.004746717888469143,-0.004585549492440041,true
0.0927842131705876,-0.003942732757475569,true
0.15181785084088562,-0.009849178860442849,true
0.1294080361479335,-0.007752905096539743,true
0.01013128663313756,-0.008284946671928166,true
0.013562373877684442,-0.009233366290783576,true
0.03369919420424017,-0.011989669809163087,true
0.07697477925001839,-0.015096774037299431,true
0.18513506371130561,-0.012213675496197712,true
0.030754131771432602,-0.0078647243199393,true
0.040794052519662394,-0.008811771597668659,true
0.025111841371931565,-0.009593631221440808,true
0.12928240114802247,-0.009178904404354272,true
0.04704776840010405,-0.011198870124861428,true
0.004306005594231221,-0.006931043543981357,true
0.023738313689991353,-0.010901822467360597,true
0.016826779240092016,-0.007185312334590205,true
0.038081822394847586,-0.010614229378611775,true
0.13181094085420364,-0.008414699684113217,true
0.07095746862221741,-0.015273313984446613,true
0.1609865857681838,-0.01154024275394343,true
0.04663971914158216,-0.011455895907636135,true
0.04338184319967886,-0.010778398660108792,true
0.03377394438749515,-0.009921644614941593,true
0.033696930606202935,-0.010738323800826566,true
0.03874018898086384,-0.011061001288411657,true
0.0018942067599072576,-0.008544514029584836,true
0.015522412811319608,-0.010613047604811996,true
0.014638581156915187,-0.009483418804782207,true
-0.00975652008007799,-0.0063149358972281544,true
0.0019695679855395998,-0.008897189086929293,true
-0.011320783317434246,-0.00721608772141091,true
-0.002281273945207385,-0.008814373481519077,true
-0.05851430649924594,0.0010042008985130454,true
-0.01801497295986043,-0.0042960563630579235,true
-0.013593284133001982,-0.004815029162630581,true
0.0018079965231740935,-0.006895513982470965,true
-0.02001192238630023,-0.003653900238223866,true
0.022195631424192452,-0.011523020886331767,true
0.008508516356455997,-0.01236697758467066,true
0.004471625948421876,-0.011448384365277828,true
0.006147752791973993,-0.011947381175507685,true
0.041841975510022555,-0.014853355905148503,true
0.016243602866111928,-0.012483776055947207,true
0.02017015566761815,-0.013074412789077089,true
-0.15529770545006638,0.015455630107784196,true
0.007110450876183005,-0.008313762160965,true
0.006385014086567331,-0.008927775606156464,true
0.005772894840535336,-0.008727484519902406,true
0.007578028813003623,-0.0060049981354834275,true
0.010901750643169006,-0.0067355850972648235,true
-0.01381567206048362,-0.004010971987889245,true
-0.007582975644553125,-0.005014453948162176,true
-0.048703109760996455,-0.0036325144889135103,true
-0.03935563052681568,-0.0026200944086312017,true
-0.028052285573511693,-0.00453415952828979,true
0.01682822281618379,-0.007099911265966666,true
-0.014016917120229122,-0.004389556407238343,true
-0.011795814453444686,-0.004811851058010894,true
-0.025622256229704377,-0.003139108229113702,true
0.019012359435068404,-0.008858177876738739,true
0.007660360150734569,-0.008800313066652535,true
0.013585921396982004,-0.010010114830518758,true
0.013565815301010753,-0.010243676103224048,true
0.023366027349434937,-0.009242075944428302,true
-0.005584231866059941,-0.005979423700913457,true
-0.006868934618694311,-0.00626866293258993,true
0.0070995877011268416,-0.008281973228529055,true
-0.00899285654475035,-0.006764932968166708,true
0.011008689327208776,-0.010779582969567283,true
0.02247641447964055,-0.012707240473542651,true
0.002797373138910597,-0.010116236633784158,true
-0.03194245554867292,-0.005674431242739225,true
-0.014879023472669228,-0.007620056719625991,true
-0.012718213102397069,-0.008935362235178608,true
0.09291592222162248,-0.01848776095914071,true
0.049428285263214855,-0.012923465591441613,true
0.06327355310355909,-0.015364321920295826,true
0.06494764417531074,-0.014970111434267727,true
0.04691007266926284,-0.012240523745057068,true
0.027910835665843514,-0.012119280677753176,true
0.02777794444693127,-0.012204405628976178,true
0.03138657831647662,-0.01348280625018259,true
0.019595613357482833,-0.012994157312762364,true
0.02207001480204296,-0.013887056131844315,true
0.0005195203822918604,-0.011604322865581662,true
0.006045015796235953,-0.0071185810131549135,true
0.004134795044360207,-0.008237989004830498,true
-0.02663690513149297,-0.0026106408101609635,true
0.024631412659522844,-0.014103386705895775,true
0.007398417988056405,-0.011449065990338944,true
0.019105274321097987,-0.013151305801396687,true
0.017244131565925302,-0.007931558551361642,true
0.0017446024646230462,-0.007038037207771408,true
-0.19158198369854573,0.017524123117449955,true
0.05066743505598459,-0.01285541260367215,true
0.02373897417840576,-0.01201831628954473,true
0.011353863929093766,-0.010901029519883573,true
-0.11963992661030742,0.014046585341553619,true
-0.24150199541742423,0.021861979965044603,true
0.006983580255512489,-0.008663307146248071,true
-0.22618035305392237,0.02119053384323679,true
0.039931806246531476,-0.013438850723792257,true
0.0224008533085418,-0.01138350720436647,true
0.027033958528200452,-0.01231608032060983,true
0.007807437036849274,-0.00853275885189534,true
-0.008140847920907524,-0.007941207212108739,true
0.008538607025383005,-0.009946965035019267,true
0.02690822190886455,-0.008618308261135667,true
0.01761840870317455,-0.008938781348518221,true
0.026917405716432308,-0.00975738231791367,true
0.004203978947961762,-0.009092522837650947,true
-0.0063929128185278294,-0.00793314516402445,true
-0.0010519249337306302,-0.008630944892675206,true
0.014538470296468375,-0.005809698228261273,true
0.11009462085973643,-0.023957865512741636,true
0.023782172767195187,-0.010878518732845281,true
0.021833765814168515,-0.01092664349738303,true
0.02572178688027349,-0.01113571089584494,true
0.020454347615502577,-0.008313961321599075,true
-0.008392270534158364,-0.004423551316846436,true
-0.012630802798457852,-0.004003980989453461,true
-0.017537178538861165,-0.003061017684148147,true
0.009606411347802712,-0.009575926049587333,true
-0.007677375315758184,-0.00839224828179945,true
-0.003587169258508549,-0.008483031149658905,true
0.0029945431011151324,-0.009436437893928853,true
0.0047137169440734095,-0.0051769167016187945,true
0.011950018794416373,-0.006994999381137415,true
0.014442607589979062,-0.007099358291125894,true
0.022695380033763923,-0.008692322346536323,true
0.0035976805180837346,-0.005835361851028821,true
0.0016719335973154337,-0.0059538372658361205,true
0.006354037274240554,-0.0061486852946331105,true
0.00656849096799661,-0.008867243377341058,true
0.0073200875511889585,-0.010250379112366523,true
-0.006843368882752721,-0.0077670946115087625,true
0.0006236109245165711,-0.00865234934129138,true
0.006903282123985499,-0.007931106124799268,true
0.004876796624123103,-0.007891807998811382,true
0.014362299318537053,-0.013483152890013686,true
-0.005075756562156419,-0.011690794490107972,true
0.05434957064416446,-0.015531153456003026,true
0.04841849539936094,-0.01418962744236845,true
0.036990036545056615,-0.012714754823656083,true
-0.03454245081679519,0.00020907405147271158,true
-0.025869929517466472,-0.0007377185818165377,true
-0.02856644816465903,3.828983688489163e-06,true
-0.021855479998674543,-0.007378714676866932,true
-0.021654197226595784,-0.007990129731668842,true
-0.021843358451785866,-0.008166379301799427,true
0.049259096181169526,-0.018689419972123526,true
0.07761149657606004,-0.01768829154161712,true
0.04807898949754841,-0.01488808080271762,true
0.04259744101133245,-0.01444452053695306,true
0.03943518326265538,-0.013966839883182501,true
0.01798855237358532,-0.008520704194019894,true
0.017702759590463857,-0.009760540434193728,true
0.005163487817194556,-0.008284185512723183,true
-0.0229152892732436,-0.0011230196237527607,true
0.00040226588947778197,-0.007985773820974935,true
-0.007168325846268697,-0.007166611303223554,true
-0.004692471602772308,-0.0076059748502891045,true
-0.018129540009640066,-0.006885517863733662,true
-0.03332022942958612,-0.006140686096424444,true
-0.013278213366104796,-0.01020039852461875,true
-0.05061510767625277,-0.005038825733453808,true
-0.012666863861470312,-0.010917068327537346,true
-0.059535170110886604,-0.0030012445207841694,true
-0.03311827575219306,-0.006594065856193928,true
-0.04611871860233441,-0.005482289629799804,true
-0.03785477156653283,-0.006143397186358281,true
-0.0440677969245129,0.0017314196459955675,true
-0.03510034382551219,0.0002563011665047271,true
-0.04247028984383372,0.0008261973344324929,true
-0.04095664198292226,-0.003734521337728395,true
-0.012268447591999632,-0.006821942373829576,true
-0.011097905950587461,-0.006563751529108874,true
-0.011581360571389698,-0.006889075774802255,true
-0.017528270437321636,-0.00255301399780921,true
-0.04124632273732021,0.0010384337146820237,true
-0.11000470540247931,0.009083593583663369,true
-0.010657167456505134,-0.006419440257537722,true
-0.011723276832758645,-0.0058787672881404004,true
-0.014984312655448195,-0.005397650150241011,true
-0.016380681173545852,-0.005448823205002527,true
-0.07338336008127322,-0.003962272568566329,true
-0.08079991381984641,-0.004399929644029944,true
-0.0773155583845978,-0.004668297289823396,true
-0.054658460194159875,-0.003016944782145231,true
0.010829805615381827,-0.00533810499049691,true
-0.004734585716673623,-0.0035183131244536196,true
-0.019146809103026463,-0.005380175872047158,true
-0.03177191172121607,-0.0018255254944100387,true
-0.02767539224417248,-0.002717937889768169,true
-0.0348102476122335,-0.0024343356359286666,true
-0.04645785140555214,0.001001576261973794,true
-0.04640464749004081,0.0008072890037089421,true
-0.043796232329912366,0.0004959808820585755,true
-0.036817038758621634,-0.00033225095079566364,true
-0.12503106074558934,0.010804796466398182,true
-0.11330547474638242,0.009638985926871908,true
-0.06414961699671395,-0.0030030642844684277,true
-0.06102277674008938,-0.004093120414037359,true
-0.06721817880045489,-0.0034944675310967163,true
-0.05474097320970661,-0.00513963199738561,true
-0.011630711942800631,-0.006391234454757436,true
-0.028969554796363872,-0.0040197156847305085,true
-0.028624910740482123,-0.003927538274921767,true
-0.022854127844036287,-0.004878290599523584,true
-0.04106843338600641,-0.005793273134376768,true
0.0035481817302909224,-0.010991890501996976,true
-0.030548639032252023,-0.006271937412514535,true
-0.01585133715479381,-0.00880611602714141,true
-0.020463702804131012,-0.0060788428077912585,true
-0.012999051906752546,-0.007291630379103152,true
-0.004238154823489437,-0.008347428928346994,true
0.01823121028987007,-0.0093248372792804,true
0.025543611429454383,-0.01116386943401245,true
0.018332889928450835,-0.010772497075328465,true
0.014840811320740888,-0.010835769337649417,true
0.03215569411938268,-0.011605972165462962,true
0.014524003841149269,-0.009466934322500245,true
0.010997750092827774,-0.008204926538365083,true
0.016433803915309353,-0.009164313515215038,true
-0.015612123121009902,-0.002980936081670736,true
-0.1635273636185508,0.016458622667991973,true
-0.15203138819933182,0.015161712152051948,true
-0.019289082864556772,-0.005176145462388815,true
-0.008050857227779429,-0.008500944501599605,true
-0.0042487468047187615,-0.009253570946755864,true
0.00045271095499210823,-0.009777156194734321,true
0.006454416494599657,-0.006122545676375893,true
-0.07422258350456046,0.006712702603054663,true
0.011440226282568022,-0.0086034674382348,true
-0.03229558991777992,0.0014340871957344153,true
-0.004014966818151167,-0.004459935942385189,true
-0.04385069521709961,0.004526258993021844,true
-0.024582574080449615,-0.0014435061093137427,true
0.1624641902692573,-0.008108045340530612,true
0.012952600255145552,-0.010454886145407238,true
0.0068501513974432715,-0.009997643064111772,true
0.014582878718450987,-0.010607571307616949,true
0.06797952032295629,-0.015938214921840187,true
0.007682699723319808,-0.009252043162165602,true
0.01539099980845915,-0.01023931509340053,true
-0.012161189460288768,-0.0037637054803232248,true
-0.02025645438521817,-0.0032076573969185423,true
-0.025422678918141872,-0.0027199579277133665,true
-0.1253022571716994,0.009377208273777797,true
-0.15273254413005088,0.01346356939226194,true
-0.015018165845862352,-0.004042486492815724,true
0.00019951476259227885,-0.007023682687665449,true
-0.0006355714180044103,-0.009507900774999564,true
0.0043631196576355835,-0.01036991983669424,true
0.002490511541285545,-0.009876616023432101,true
-0.006572121869795278,-0.0034545548398589934,true
-0.025223828781696933,-0.00238903117556067,true
-0.025961984111315783,-0.002230567073419336,true
0.07103065371282247,-0.014211274378442655,true
0.0343513117840164,-0.011380277175815988,true
0.014913707950877764,-0.00915568958311945,true
0.0380697495338983,-0.012054709413310986,true
0.011476046322956512,-0.013793714338783375,true
0.03446936617991969,-0.015558273309063127,true
0.02742277688236272,-0.01525484381532511,true
-0.26467591537187785,0.024019360399487995,true
0.007324562092578035,-0.009488765203504793,true
0.005888634879969934,-0.00916783374867973,true
0.009723701449683042,-0.009812379161532256,true
-0.18606174641179218,0.013730123304364066,true
-0.20968525951686057,0.016105965952432674,true
-0.2115948908105152,0.01600062860069771,true
0.016630897150209933,-0.007651796720942634,true
-0.04289033963191047,-0.0020721129365989174,true
-0.029151687403719317,-0.0029953549579756975,true
-0.047764655658935284,-0.001659024192479569,true
-0.027773417587933613,-0.004650008329139435,true
-0.051771334283433945,-0.0005672896847008571,true
-0.043106143905496386,-0.002045002268931055,true
-0.04481743244462422,-0.0020340491271951255,true
-0.0011596982723093285,-0.008059509329486361,true
-0.030951201011796714,-0.003449381410170184,true
-0.022372947831071133,-0.004816964665700016,true
-0.02972282839668494,-0.004029795824300339,true
0.020990103814459316,-0.010686118373609763,true
0.012741553818779505,-0.009999484711693887,true
0.015945435493880278,-0.010195471356838279,true
-0.024689515298522036,-0.005226051919511643,true
-0.05924011756511827,-0.0006336930849155584,true
-0.05050693151009267,-0.0013503747155439241,true
-0.047167207075883844,-0.0019142567636076732,true
0.06126519966485977,-0.015138756760392398,true
0.05258702698505968,-0.014022830006341601,true
0.057868799545547134,-0.015029825488133329,true
0.06973122320104119,-0.015920658883088717,true
-0.019402952615089064,-0.003477545761447827,true
-0.03061183761947517,-0.004347462122333251,true
-0.033590223550470144,-0.0038911756659439703,true
-0.0275424598414985,-0.003935433283467876,true
-0.01172811817828856,-0.0069426878505330705,true
-0.04433483871610011,-0.0017435221883485216,true
-0.043986565200919814,-0.0019346383849411161,true
-0.050634704991962654,-0.0013310725153309333,true
-0.0026344362191476067,-0.006280858307043308,true
-0.010444496428381966,-0.006442746902532555,true
-0.014517308931668915,-0.006073904422723819,true
-0.005622417905971622,-0.007123057391027823,true
-0.028216982643750943,-0.0037245804264445445,true
-0.026662289789120774,-0.0037919245779432717,true
-0.030111777700515874,-0.0033045738718739184,true
-0.03532123754013128,-0.008475330376335029,true
0.03826778558099608,-0.013229271495556139,true
0.0316668471712227,-0.012570132655636473,true
0.05531224335372342,-0.013911627634106888,true
0.03174304096783409,-0.013559053483945073,true
-0.005337942457597666,-0.008490734903588731,true
-0.026040193767737252,-0.006056095051160913,true
0.006225902848491227,-0.0054938666900383945,true
-0.0007964693965212266,-0.006934347187745854,true
-0.0035685877115110287,-0.006904997311897497,true
-0.029562056123813463,-0.002406584851759125,true
0.011976445369491717,-0.01132092468652212,true
0.00938535848797084,-0.011126467185589718,true
0.013690599888196209,-0.012255271690035853,true
-0.012602202443922295,-0.008234080217920402,true
-0.030011331991326218,-0.0036951809638242072,true
-0.004757044041325598,-0.007658773514573287,true
-0.003984665234811224,-0.007392403810099479,true
-0.0012574997299084067,-0.008130125127840594,true
-0.2284186231183738,0.02175154318968104,true
-0.011808796257290144,-0.006046446350536985,true
-0.01712005661204863,-0.0053504791277673505,true
0.07231566698355607,-0.019288378713859723,true
0.10520230382109874,-0.02028388527629231,true
0.06528352767084544,-0.016126648725528714,true
0.0627394831318564,-0.015077572377865014,true
-0.004187857598414224,-0.005647359682821304,true
-0.013645399474591313,-0.004838076504472891,true
-0.03517054897392313,-0.001564653060348857,true
-0.010704029864875064,-0.00524739765658086,true
0.007011242490406966,-0.005769057923853627,true
0.0072297661493962995,-0.007904863640066977,true
-0.00047890271575279364,-0.006509976349564406,true
-0.004769716575407257,-0.006315503483096806,true
-0.02949873109133816,-0.0028137363168881727,true
0.00038634326017339404,-0.008341303076879948,true
-0.013469605952904029,-0.006826519443603553,true
-0.004997497605909951,-0.008195483461917195,true
8.570224722581621e-05,-0.006524023054967722,true
-0.0038438499318382835,-0.005232454886587086,true
-0.1665737225124555,0.015703306366473324,true
-0.16530414155122464,0.015417682563745108,true
-0.010625262111035427,-0.0054012469216540016,true
-0.023950220667903865,-0.004633331260058347,true
-0.0316858570170111,-0.003198649508100636,true
-0.024656214329688897,-0.004491139083152643,true
0.03778838257141515,-0.014168505041476681,true
0.02839174188275484,-0.012452102250056066,true
0.04826761278774261,-0.015378016303445916,true
0.027252571870675535,-0.012378656395275273,true
-0.009054430060487118,-0.007670998933787913,true
-0.009267030483200989,-0.007591391132643538,true
-0.021302180161192563,-0.005377215637741205,true
0.08129011752519322,-0.017758172428583352,true
0.06424105530178448,-0.01662244931851283,true
0.03573178486719164,-0.013433457321593421,true
-0.004609941073817181,-0.005313445257623332,true
-0.015937408321655244,-0.004119838689683908,true
-0.012799845429772416,-0.0049757006662811964,true
-0.02785084620024625,-0.0024643240619841716,true
0.0404879969626637,-0.013305627248949944,true
0.04287655500648402,-0.014149849844700253,true
0.04034488780036449,-0.013619610042903962,true
-0.003903771177776516,-0.0052988016067865365,true
-0.0859201909058196,0.00920615636168795,true
-0.15147413822524824,0.014256164386073966,true
-0.16925301934568582,0.015799333892016994,true
0.04461585464142126,-0.014340091916665597,true
0.024165669421921443,-0.012591976412258274,true
0.021064575849371936,-0.012731279485313662,true
0.030120666588639544,-0.014980108459930905,true
-0.020449050310898054,-0.0038545470612316446,true
-0.023134142705446115,-0.0059955378586990515,true
-0.006731800512307151,-0.008199314803734675,true
0.6592453067503827,-0.020493514941142016,true
0.024787222113542673,0.1554595480231649,false
0.024551743675306215,0.1554960095420339,false
0.02382404345114042,0.15561287308937316,false
0.024946691703226054,0.15735986570193916,false
0.022721085729564328,0.21891152416870704,false
0.037865299607369396,0.24096210479147365,false
0.058550193270951456,0.2377117369529884,false
0.06441256094605063,0.2377117369529824,false
0.06485981734477586,0.2377117369529824,false
0.04175923992219388,0.28634632889929545,false
0.478193084912494,0.08731003467878495,false
0.5427022297057382,0.08731003467878562,false
0.5431984913123764,0.08803464714698239,false
0.6193284983204029,0.08731003467878506,false
0.6195773905803387,0.08731003467889464,false
0.6197251788556295,0.08731003467873821,false
0.6197930326281768,0.08731003467878495,false
1.5413551184137344,0.052842977907614386,false
0.7792375754077067,0.037176133920719584,false
0.9352984951417763,0.012109183541742952,false
0.9359247833151275,0.012109183541686538,false
