-0.2821492748871427,0.021459459657979824,true
-0.20149275684270473,0.011887237203827866,true
-0.1782670141205026,0.011252362948296568,true
-0.15959171547540374,0.009408647440885903,true
-0.16776580767282967,0.009992975692666023,true
-0.15300384122700061,-0.0025080427946472805,true
-0.2781174783229654,0.011897631547533732,true
-0.22819295833507058,0.006105751541531423,true
-0.024891090817206418,-0.0023246611493935865,true
-0.047491307452489306,0.00029290038431073473,true
-0.03209386862654928,-0.0003073717918557761,true
-0.11231870624764184,0.0007338767486597397,true
-0.1319458543116585,0.0035123651101429676,true
-0.1621945251791015,0.007106715634116356,true
-0.0649413583951457,0.00153739204477768,true
-0.11112976699764421,0.008008369055255399,true
-0.10601007820558306,0.007320122626005482,true
-0.10798672244998564,0.0008019302504684855,true
-0.18518704937991148,0.010923615840907092,true
-0.1580022834534005,0.008715384804722531,true
-0.20622932379158088,0.013329896248047063,true
-0.12834591857109112,-0.0018161143108193778,true
-0.10962154997527862,-0.0018160164450156946,true
-0.11590871929293489,-0.0010480789137078395,true
-0.20902210176514435,0.0062474551985856885,true
-0.27650599637033046,0.016341115862104127,true
-0.1926597651485632,0.006870925591637406,true
-0.19801311929394738,0.007042660664399153,true
-0.19296641437001383,0.014664316579141273,true
-0.2625075875970202,0.023240581263681004,true
-0.18621479868893975,0.014488749278117885,true
-0.20708324400567613,0.012223636370528645,true
-0.30118626190215925,0.022529086893346234,true
-0.2912500497503573,0.021756879482672187,true
-0.2372893639538347,0.014698972111637176,true
-0.1628894451006988,0.006336634943026193,true
-0.1728488381083937,0.007580770163740286,true
-0.12863528091664445,0.0018136811063573788,true
-0.1304684815700916,0.01024942331814055,true
-0.125163422216363,0.010650194560428178,true
-0.13553785761177473,0.011827840806555134,true
-0.19665035139619214,0.004506712642280503,true
-0.2491484872692078,0.010700835360611782,true
-0.2016351927967568,0.005263628233010353,true
-0.20253264402240612,0.005099387021406138,true
-0.1546818850329732,0.00868942382927887,true
-0.08204795260100939,0.005197740029452724,true
-0.0878952582923096,0.006301545337004499,true
-0.026411495827824538,-0.004391933004065068,true
-0.0752573266638824,0.00014683508827831315,true
-0.055453456843451265,-0.001351414649470084,true
-0.20989717102477878,0.014992872619035313,true
-0.272187667300247,0.022144545283847933,true
-0.21091160721043112,0.014984390073357862,true
-0.058392010265889915,-0.0007685665636452399,true
-0.07168013722198907,-0.00018344904413711283,true
-0.06414094106969082,-0.0010721088951689828,true
-0.1789485100080046,0.0024391090884454125,true
-0.26810485281759955,0.013110062061527428,true
-0.24835875189808754,0.011536240235206413,true
-0.24969910468816514,0.012244505100939246,true
-0.2713155989929583,0.013236885733253628,true
-0.20478013301247633,0.005854736742294697,true
-0.2123855571591795,0.006459966532815636,true
-0.13023117671444506,0.007641537335465742,true
-0.1580917411657632,0.010635300066076991,true
-0.15791776999877016,0.011138659103902326,true
-0.1243114812939724,0.011404661664844273,true
-0.1614928798075732,0.017314685636159344,true
-0.16790994720133057,0.018483159730491916,true
-0.02496949623320277,-0.00320068162369061,true
-0.05421242259402037,-0.0019294113623003484,true
0.01285654338815545,-0.00569031964616426,true
-0.1520481624596658,0.0012798739374134949,true
-0.05895693828857973,-0.006019541081809687,true
-0.04973354928151874,-0.00661431368302004,true
-0.05390376203401814,-0.006878159907291348,true
-0.10034743374529187,-0.0013668255453077038,true
-0.04345176822100638,-0.005520353112343557,true
-0.03450646030014548,-0.006661546665347184,true
-0.05205342559122217,-0.005101981331425809,true
-0.1942610540936045,0.005337578734788573,true
-0.2077664582379355,0.006451133717029323,true
-0.2143554456297857,0.006563060574455326,true
-0.11090860233197608,0.0033205880768575335,true
-0.1215361841933168,0.00430087251141803,true
-0.10179291162845883,0.00186526047188032,true
-0.10977644286786481,0.004136374021673328,true
-0.11118894418559888,0.004820071396491599,true
-0.10713477410863181,0.004545829968539528,true
-0.09854361460620198,0.0035303250277384235,true
-0.05157533466723507,0.0026720086011336186,true
0.009964197127315444,-0.0029610382503114374,true
0.022495565431607134,-0.0035649259754486073,true
-0.06835125518269947,0.004506884068516515,true
-0.04038154768844415,0.00019073583941259242,true
-0.05521360773794892,0.002483229045954549,true
-0.04310494644294116,0.0005514176564578865,true
-1.0783657498649744,0.12448169710301293,true
-1.0750532380521745,0.12422211275194966,true
-0.2428828962586922,0.022977880302495812,true
-1.0225097882734124,0.12005329550066568,true
-1.056468827952187,0.1265436091374223,true
-1.091910782620513,0.12874578351854293,true
-0.2396412669608503,0.023452624673516054,true
-0.13689617305321944,0.002414362421641447,true
-0.07468416407938028,-0.0023595945454238376,true
-0.06087364295140674,-0.003541977937034424,true
-0.11049212332213076,0.0038303354152257607,true
-0.08724188636888064,0.005635795752059525,true
-0.058399571362991454,0.0029837529050880662,true
-0.20820632167864472,0.010789985212283859,true
-0.09093156108832479,0.004697217420660205,true
-0.07450920754702861,0.003459575311024199,true
-0.05612761948135714,0.001908905297234198,true
-0.03082060585803692,-0.006631384914782379,true
-0.0440696054872296,-0.0037394743900603378,true
-0.043365199000789945,-0.0038913077980382016,true
-0.1343732457906084,0.004650948439501035,true
-0.14481160980100793,0.0073886302959557115,true
-0.13692935514709825,0.0067461111899833615,true
-0.15163024448072648,0.007912575740819494,true
-0.1964574196471074,0.013200942855769504,true
-0.19485727467686198,0.01340118944513946,true
-0.19962775256692944,0.014718541896910131,true
-0.15994799040937835,0.013304292215258584,true
-0.1909306510204387,0.017763313203870756,true
-0.17956158430837665,0.0160701955451219,true
-0.1513012599505461,0.006096530341384632,true
-0.19447193480197678,0.012913161286719044,true
-0.1859557258073461,0.012453747648287217,true
-0.1788942451996851,0.0114343608710048,true
-0.027873302418024326,-0.004374761338528432,true
-0.011873404908197882,-0.005989264799691862,true
0.0001614118605021142,-0.007404059252378192,true
0.011554119432238386,-0.00790328500470705,true
-0.22279249490708375,0.007840971125787966,true
-0.17892002211758162,0.0021732028063166653,true
-0.1835791681048985,0.002436854988874748,true
-0.022403820025739263,-0.0007030870104653975,true
-0.09696201124796833,0.00833678254398007,true
-0.04238172602165269,0.0012679040133873887,true
-0.17957806851080071,0.010611592326677688,true
-0.17223512184158063,0.01063562098061327,true
-0.1728416112366432,0.010950035957986437,true
0.02101182957000436,-0.00591198103792151,true
-0.1319430842228566,0.012693688113459556,true
-0.12909434535469133,0.012057972555846341,true
-0.12965269900863052,0.012596556031014172,true
-0.18241710071573425,0.007391436523498607,true
-0.16144776128399285,0.004976131821678387,true
-0.08200684439964467,-0.0029750794656678847,true
-0.06373408086703525,-0.004164433103085952,true
-0.14608013799778208,0.013575478030379284,true
-0.14039216182632097,0.011860184070335955,true
-0.18322247149645765,0.016354898241164817,true
-0.14620137758059426,0.006827517196995314,true
-0.1756386133920338,0.01046111162394181,true
-0.23839868416244303,0.008468961365427463,true
-0.2721491107824665,0.011275000305142724,true
-0.2440560089302264,0.00904858501852035,true
-0.1108950427846036,0.005227101800715284,true
-0.08519579761784546,0.003978143534776046,true
-0.07582819429933552,0.00310529763166717,true
-0.08710911864986137,0.003993843242371398,true
-0.09423002702899463,0.004067220722925813,true
-0.12609332761995007,0.010236429914683098,true
-0.12364410328652675,0.009899852900276396,true
-0.12747999876417748,0.0029642696442234717,true
-0.12352915585916513,0.0023765296872862995,true
-0.11090477288672695,0.0017631568104634066,true
-0.10830453343514423,-0.003891162315816432,true
-0.09197637233885514,-0.0027056880668298033,true
-0.0993897136608013,-0.0015441082360930225,true
-0.08934160393480672,-0.0027283705441284445,true
-0.2285465906732207,0.011584528773612601,true
-0.21763499140805775,0.011454365870532168,true
-0.22513184992105373,0.011847288096509923,true
-0.11263427507769408,-0.002383164128515247,true
-0.1454121804387376,0.0008102634782719553,true
-0.17000798221434765,0.0025350322306285644,true
-0.1688551903708817,0.0019801146449566764,true
-0.07593895115995197,-0.0006330410270656839,true
-0.07041999311625502,-0.0013420210295134183,true
-0.06316777393823791,-0.002128360828877629,true
-0.24202331284284995,0.01938799185286233,true
-0.23903747428791644,0.018922951600929938,true
-0.1612410985380337,0.011822470208161406,true
-0.16269671441713562,0.01185197470285032,true
-0.16075261794382323,0.012110335231412805,true
-0.18230519280003232,0.005516254852276359,true
-0.14159563622114235,0.00405601278121448,true
-0.16535757752541302,0.005434286870486638,true
0.0033940239426932806,-0.008288886895940373,true
-0.017681397710298974,-0.003959879942913913,true
-0.025859754771148102,-0.003323973721084561,true
-0.4672923962943458,0.02674935816343499,true
-0.15130797654945272,0.012057243728196526,true
-0.1473851852403838,0.01237149016796285,true
-0.25458285186791063,0.013291929376594125,true
-0.2548464285059221,0.013307567442658763,true
-0.2539739408559947,0.013081986909086685,true
-0.2101359774263788,0.008272399778731565,true
-0.11046350372960212,0.006155769417600182,true
-0.1491182214632878,0.011362935809341418,true
-0.1516260866152851,0.011334331860097496,true
-0.08507168913762175,0.004003775537129134,true
-0.005169192055718197,-0.006458033334951013,true
-0.01268347784859336,-0.0050187085129594355,true
-0.22538268395551686,0.010684464564166996,true
-0.2338262469335921,0.011402277708628172,true
-0.18974787234804502,0.006276334589425531,true
-0.19444324066721397,0.006365594690898396,true
-0.11365788275941491,0.008192604191516045,true
-0.09652427597452962,0.005420887523499562,true
-0.09977069146486894,0.005677870392903628,true
-0.09353157526687117,-0.00357612346104505,true
-0.08260548251578559,-0.004487609321382924,true
-0.0637368575424192,-0.00608126519785504,true
-0.21936486011498257,0.019702817722025173,true
-0.22417689405018026,0.020401165098051732,true
-0.21244455065134193,0.01855225830153656,true
-0.07961725118276342,0.0027750836852082905,true
-0.0981269260319364,0.005202562501327557,true
-0.09311532966156344,0.004015549919189065,true
-0.014649089580715646,-0.005060697559828159,true
0.04836287451262722,-0.01028254732154013,true
0.03256295211987659,-0.008238840997170288,true
0.020262567568549383,-0.007579147725245539,true
-0.020371532429758643,-0.004242398063225239,true
-0.028427307594116158,-0.003542559263054579,true
-0.023308671012127524,-0.0034246918970874674,true
-0.04662644936317317,-0.0031068849458837644,true
-0.04497692463934522,-0.0031037770803447884,true
-0.06278549619479401,-0.0018969732056112742,true
-0.07625104762610047,-0.0001267942970302749,true
-0.10369363762040207,-0.0013925956736872414,true
-0.10108478156815548,-0.0011426880137739015,true
-0.15042896923349702,0.002358537490876139,true
-0.015027735084108818,-0.0024966972034788093,true
-0.027287821671252432,-0.001741899016866999,true
-0.032430850434610026,-0.0018286373077897877,true
-0.12655119033172357,0.0030692217965227198,true
-0.16693885823109667,0.007060970371040504,true
-0.15486901688068766,0.006113580259997753,true
-0.042665374465787664,-0.0032293746306161775,true
-0.029175455326371447,-0.003996037286845111,true
0.004235528257064081,-0.006887032472795651,true
-0.012911494975071713,-0.005662315385372235,true
-0.1538640072984303,0.002921305386820172,true
-0.11689167411083812,0.0007088196660412216,true
-0.13186855225240302,0.002059333818259096,true
-0.188321856061884,0.013662493846298945,true
-0.17287876217079456,0.012450132844759904,true
-0.17981598059604909,0.013279088952768137,true
-0.24066405345901298,0.019824890213651775,true
-0.23547680568431395,0.013267629742506781,true
-0.22938954170589687,0.012763371503853593,true
-0.050597045123127016,-0.0035022871492157714,true
-0.03440109781099521,-0.004149644341592318,true
-0.04728022211954186,-0.0021702996480521264,true
-0.1245348193928062,0.004774898170367442,true
-0.07043972567077583,0.0013157701854339954,true
-0.07416765076723641,0.0014348265776773228,true
-0.08475634800800536,-0.0005254001683584753,true
-0.04522873748084133,-0.00455285310711559,true
-0.050193961644002805,-0.004457936793517553,true
-0.2568692999884399,0.013980209724789971,true
-0.2788983123608464,0.015150732239148812,true
-0.24572417194433593,0.012382585071555013,true
-0.22867743536334983,0.010370283951597864,true
-0.13179216640297664,0.005438270603282613,true
-0.1121833436258699,0.0035600479953638298,true
-0.1805742093590328,0.009503530090453682,true
-0.09886560185775872,0.0006464421231452966,true
-0.05961559081776713,-0.003074726630044433,true
-0.03206392943266101,-0.005102781015696473,true
-0.04978128438450957,-0.003379520692858462,true
-0.15369991630524904,0.014045149501218795,true
-0.15116665030965337,0.012749686061787557,true
-0.154138448191117,0.013109181750773025,true
-0.26889756159048606,0.012262019629925403,true
-0.2579035898563182,0.011517465367534896,true
-0.24320264851410522,0.010506891583690947,true
-0.25134063995691114,0.019332067131191066,true
-0.25794072318966355,0.01914598480372315,true
-0.049403085397012214,-0.002115109127850623,true
-0.009607850148124042,-0.005377310086951137,true
-0.007659128595332687,-0.005799322042792016,true
-0.00947615251942735,-0.005542745358831341,true
-0.06733516200990808,-0.0024554878973405136,true
-0.05402079889700406,-0.00380117347667136,true
-0.04413417402462372,-0.004389082821440404,true
-0.16238827680349177,0.012506632186720212,true
-0.12558008588553793,0.00844855999343308,true
-0.13451600191868507,0.009320142995084602,true
0.012722659763292898,-0.005443619450741788,true
0.009228739452069368,-0.006425207027297153,true
0.0022140457168059458,-0.006552289447779858,true
0.020972242167091704,-0.007357554452162796,true
-0.024538450448741478,-0.005130355150222421,true
-0.02732185148848243,-0.005101047331779129,true
-0.16574205138640152,0.00943080946703434,true
-0.14300174731343906,0.007616094063768231,true
-0.13653603086563837,0.007246548312893564,true
-0.1420102496992477,0.007766270389600094,true
-0.890613201401463,0.08749143604215248,true
-0.9211172289097208,0.09126037210920451,true
-0.8991679392075617,0.08760512997911618,true
-0.19217641143033126,0.012046931369074476,true
-0.160268795534524,0.010251134043770982,true
-0.1782039205470125,0.012889452809176583,true
0.05780082027149758,-0.011625183121534766,true
-0.06636547579543062,-0.0009466320349045265,true
-0.06076955303790066,-0.0017487708370435007,true
-0.09728610058144982,-0.002866036177769149,true
-0.14648059992540508,0.0007942083758670782,true
-0.1188492278040374,-0.0019352391481320397,true
-0.19777054748189504,0.018251895782928518,true
-0.1722375133487285,0.016075813329917532,true
-0.1611229688873954,0.014891919367201634,true
-0.2047681364110503,0.020177839837352718,true
0.022728788282169843,-0.006810503045725835,true
-0.045039974973544616,-0.0017358062642426342,true
-0.042990868278182326,-0.002097575884111358,true
-0.10604052154074661,0.0015441453318129905,true
-0.10826900090797753,0.0015857807926306922,true
-0.12648630221663248,0.00296005709035585,true
-0.24134860780725398,0.010143366989940561,true
-0.20010491320960488,0.008201558702342876,true
-0.22813654960391716,0.010028918769086792,true
-0.2789290986000932,0.01891982316158841,true
-0.2814832994687674,0.019261251709214944,true
-0.2927455158615133,0.020466985822880007,true
-0.3512434672734066,0.02018086386902679,true
-0.31772638314845425,0.017874756562545807,true
-0.31531611805628545,0.017960090570068837,true
-0.23146425261059722,0.01961908995312553,true
-0.22796813507925773,0.019942497332277626,true
-0.22830994674254668,0.01965549676910866,true
-0.16676766556031986,0.008399871423000499,true
-0.25566716442499404,0.014631470583342437,true
-0.24283471995055983,0.013743361871527443,true
-0.1821455252987626,0.008716699748139961,true
-0.11108875404780139,0.002890497669459008,true
-0.08606307053979578,0.0002362374600257955,true
-0.15829513055486466,0.013607902490941237,true
-0.13777431228507075,0.012006984938102566,true
-0.13694812968449965,0.01126493815199539,true
-0.24020014713151583,0.01690830051316289,true
-2.1235487047360824,0.21999872340468327,true
-0.24585045510984838,0.017652012875995465,true
-0.195377094431881,0.009839696222714134,true
-0.2866096611373413,0.017966369870102084,true
-0.2352755333361396,0.01445135179692425,true
-0.17908862777037637,0.019931429437547304,true
-0.20955172616570072,0.01387691258264781,true
-0.20428855477924834,0.013407901906023229,true
-0.13190726271615616,0.0030441397579059892,true
-0.11782090614091478,0.0021701649216400998,true
-0.3205962739470729,0.01895296183717954,true
-0.2781012105003644,0.0140335974607593,true
0.005000574527915136,-0.00429919707240059,true
-0.13310145645153582,0.0046527895533616526,true
-0.11849651477107948,0.0039522642026924015,true
-0.28763833924591875,0.015620496297329645,true
-0.3053211256984023,0.016571240896221973,true
-0.29934067655617413,0.015677546350943677,true
-0.14604510293563933,0.0109169895421522,true
-1.1153177616023968,0.13093452382261458,true
-1.1018263656663,0.1304497882384076,true
-0.1612546595218345,0.004169192365981678,true
-0.09586927492799213,-0.00026394780260960427,true
-0.22573957485964824,0.014124010275714555,true
-0.20849774173996138,0.013448812758890843,true
-0.21659273412995783,0.014851963373215538,true
-0.14937437843015422,0.0055490548921590666,true
-0.0997611127767617,0.0009092070872968316,true
-0.10278663909279961,0.0018823360026907487,true
-0.11078676069132132,0.002803475600475974,true
-0.05614025878820739,0.0013571793676695476,true
-0.05713245407704792,0.0019055187108860672,true
-0.05323937274914736,0.0012304482754633694,true
-0.16262771319587432,0.010758260690976046,true
-0.17327904136848682,0.013028162201431825,true
-0.17499555074701623,0.013156514386109874,true
-0.08949688181731041,-0.0006593515265855832,true
-0.05444116902909346,-0.002952814643370466,true
0.02233034995472738,-0.009106503969442264,true
-0.11765285922485247,0.0017776438967689323,true
-0.13263858410060325,0.003047822153153884,true
-0.2892286459084936,0.014294583220986812,true
-0.3156298107084816,0.01619810100755567,true
-0.3076043321768054,0.015510141183584736,true
-0.3069900211241281,0.02477721294111418,true
-0.3073884546572888,0.025151066645187237,true
-0.3008325967162572,0.02455501138997357,true
-0.14495241306282647,0.004488418407541328,true
-0.10637837424814789,0.0018048197255036702,true
-0.10712287045847302,0.002231274388050458,true
-0.13550301124535424,0.00400546331153484,true
-0.239790404640702,0.021357769829466106,true
-0.23071636156631692,0.02139316008738351,true
-0.2306110530369787,0.020726039299439364,true
-0.10593732726602523,0.007055024942530214,true
-0.1421166356185103,0.009384002531056979,true
-0.14469801114234793,0.009112709759883125,true
-0.14254712167681471,0.008646021539226806,true
-0.24944863325288513,0.02214332916277617,true
-0.2508859016793884,0.022722676457306024,true
-0.2619106372268034,0.02380509311627932,true
-0.2576866892137353,0.0229210455194008,true
-0.30817356444138344,0.021598349130284994,true
-0.29862141988717883,0.0204809029136038,true
-0.2924672936050371,0.019632997904364985,true
-0.12198902527398325,0.0035181525646012235,true
-0.18180451371735762,0.010465378670704184,true
-0.188651746495742,0.011133503670404776,true
-0.05125977961676487,-0.00272858439761825,true
-0.05748997405572198,-0.0021703698825372986,true
-0.11244978193541377,0.009019109967325273,true
-0.12523461956449822,0.009991157995702243,true
-0.118404736443114,0.008761610535150954,true
-0.14151366008460697,0.004591900449697733,true
-0.10263064220864626,0.001692846752506555,true
-0.07885176338380862,5.301523365922045e-05,true
-0.27747119859307645,0.019576418711942906,true
-0.28553359041074056,0.02094525110558007,true
-0.2867794309555478,0.020935182864941587,true
-0.05697376805690846,0.001365232827909707,true
-0.07951611197744413,0.002811659984943843,true
-0.06088617379946637,0.0014516842766616467,true
-0.16132827117795556,0.010964635355964508,true
-0.14960936340294873,0.008592458651217438,true
-0.15509220515766975,0.00870493781740228,true
0.07383927824315295,-0.013569992958601118,true
0.15229868747813624,-0.018240016099358103,true
0.11277138231408079,-0.012931253615636934,true
-0.2512412794735166,0.015176940368375497,true
-0.2708480518833025,0.017166289119464134,true
-0.26035412605170105,0.015934649799134448,true
0.06577035400608344,-0.013358723810791395,true
0.12824080850538233,-0.017840056905952084,true
0.04933394317813877,-0.009862457553384746,true
-0.0678259169394404,-0.0005754376210437839,true
-0.07614744207376489,-0.0004533669657922901,true
-0.07552695847699509,-0.0009602815022116962,true
-0.2738502057944099,0.08385776029712103,true
-0.15572284840135242,0.013379444403229607,true
-0.15341670269960872,0.013189791225025088,true
-0.16989630000235034,0.011180997161406858,true
-0.19367282673502562,0.01437989028804168,true
-0.17100524713302545,0.01231324877933937,true
-0.9974856838226418,0.11129055159903059,true
-0.21788821145860626,0.017884415145556,true
-0.20168271002692206,0.015975065108799702,true
-0.2005043636641537,0.015797393894249973,true
-0.08681619504648941,0.004937589632830058,true
-0.14374328724641328,0.010543133035695262,true
-0.1128077766034985,0.00685800273811496,true
-0.26105977646205836,0.014587298485816108,true
-0.2991497788555373,0.019448159192465092,true
-0.3031248562444635,0.01996509918486422,true
-0.2894708138043769,0.018190945615887077,true
-1.1082294499823333,0.13275077990663142,true
-1.1108385987185874,0.13242435487267612,true
-1.1087336403481598,0.13232197343041247,true
-1.1262903045675017,0.1335533406945463,true
-1.004206410810621,0.12777890307605502,true
-0.1761821394824168,0.015584490923804761,true
-0.15324973956533472,0.012931325139869915,true
-0.1921892851077629,0.010070130444861075,true
-0.21637188158665,0.013623345056620079,true
-0.20999343832214112,0.013245281922067004,true
-0.1945766459545395,0.011422191804502546,true
-0.29882625677594166,0.016709895030818406,true
-0.30559308198486024,0.017309822376192108,true
-0.3172195705691352,0.018474851743752657,true
-0.31864963929295254,0.01857977615855272,true
-0.18810449981740507,0.008701301576916426,true
-0.17863991597179085,0.008336296478526711,true
-0.1776997477000548,0.008449808365147748,true
-0.11829145725676482,0.00565539526159059,true
-0.11545800184230282,0.007343116291098961,true
-0.11306808850638284,0.007876853468254785,true
-0.1362305387737146,0.00040206382266635976,true
-0.13985427005006168,0.0007322785118698272,true
-0.1389315500801931,0.0007538489066093168,true
-0.04804903573589081,-0.0036944082394581024,true
-0.019744513980622713,-0.005108073057678908,true
-0.035385019958746766,-0.0035343542204342437,true
-0.005699106066344273,-0.006889163222676575,true
-0.18988715463321926,0.012310571358608469,true
-0.1838228699971376,0.012340643258823225,true
-0.19958832445946983,0.013295774744036176,true
0.010891281112322515,-0.009690294425384549,true
-0.0841147309021012,-0.00018359026309308635,true
-0.08199846292822288,0.00019796280206246797,true
-0.04154349391940926,-0.004014929636837222,true
-0.1482600483905574,0.007726065236873164,true
-0.1425317584686997,0.006251567553317766,true
-0.15020125590613387,0.007056752581638875,true
-0.009888284666655922,-0.005872213175358715,true
-0.04248509636662212,-0.0035911134165150516,true
-0.05134314293514464,-0.002582881738086268,true
-0.02616984344967932,-0.004315085744800995,true
-0.0076487532120459445,-0.0006880244310943362,true
-0.010800815324334634,-0.0007958454590087372,true
-0.01634448189481763,-0.0005827429670654249,true
-0.015771956918972263,-0.0052283937665560665,true
-0.010716812769755335,-0.0033575337519876347,true
-0.016176076810318518,-0.0031890945343794608,true
-0.02941699246283025,-0.001889611158461063,true
-0.0496325365997905,-0.0010762007973235121,true
-0.043473989418253645,-5.420566772082469e-05,true
-0.04924770892256469,0.0003022313550350153,true
-0.2300739758157775,0.015653854366541015,true
-0.23248800705938577,0.0158341722933783,true
-0.22254451818373688,0.014754092676006803,true
-0.0349796690046601,-0.0014214608557947817,true
0.04606502899689291,-0.006331824095667515,true
0.025791689323019895,-0.004416968423764961,true
-1.0277387568986045,0.11557142103968274,true
-0.21882679983835363,0.019673326650799045,true
-0.21199520100669433,0.01940231515232424,true
-0.0412783452236003,-0.003293957709200379,true
0.02800448912898057,-0.0050005919200723226,true
0.01641227503753384,-0.0038648357942968337,true
-0.2479380560496478,0.01828460960406461,true
-0.20643272523347433,0.012565405850588296,true
-0.20193782389256487,0.012282580141734945,true
-0.19494569892130276,0.011083585072860835,true
-0.21071271862905383,0.014517417341524314,true
-0.21530609278947388,0.015138208235413564,true
-0.20267082024058047,0.01371086877206576,true
-0.09116106212832964,0.0018540231993154077,true
-0.12231448772268894,0.003781217742012094,true
-0.11622274556011736,0.003118702335311224,true
-0.3140557325757398,0.01787205591009347,true
-0.22181526892056003,0.01303361926796509,true
-0.2116542940253675,0.011893803857473267,true
-0.24005970933084053,0.010929963327122483,true
-0.2549665661162943,0.01283550565563929,true
-0.24367903691015447,0.011087373167571662,true
-0.2352500082757556,-0.016795167031665836,true
-0.034481559489053404,-4.4643544560935e-05,true
-0.0323442116508843,-0.0005427580648594554,true
-0.03474392358556788,-6.494351507629892e-05,true
-0.09809328993288358,0.00471545748382432,true
-0.09242403628140283,0.004656587178304666,true
-0.09113393053909924,0.004790571091610879,true
-0.06543714420817337,0.00445224675568151,true
-0.1648909400443932,0.013211758519305367,true
-0.16716654272442422,0.013189400468982065,true
-0.17034061674428125,0.013405338521690707,true
0.05105519595221031,-0.014011055211960277,true
0.022818583807732162,-0.011327108626536408,true
0.007082776073263464,-0.010163873043477295,true
-0.05096099074818905,0.00048103957118997287,true
-0.045512398972492374,-0.00026639507282086305,true
-1.0911800478924807,0.1383035203032,true
-0.9842722112207547,0.11831580262262367,true
-0.9995587512606874,0.11989829003357638,true
-0.07609948853115467,-0.0015110667458500815,true
-0.0737287221773808,-0.0016712230250734428,true
-0.0484970495148086,-0.003711597483121165,true
-0.20475973716776297,0.017629280360229288,true
-0.16990039865026774,0.013609958902461833,true
-0.16826631029329997,0.012366076494450512,true
-0.17897395029677388,0.010157635891228728,true
-0.12887773475141007,0.0037501246670852417,true
-0.13684732329110272,0.003901192941058257,true
-0.13776200766218216,0.004029475629532431,true
-0.01844028017349264,-0.0036868747719012163,true
-0.05291651208276049,0.002265199470512347,true
-0.009170956989348222,-0.0025298210425420686,true
-0.1022561666738806,0.010403414875606365,true
-0.11659905121208958,0.010214848473047627,true
-0.12255078166296851,0.01093882985259001,true
-0.13062818417699162,0.011128714089161468,true
-0.11039042965812573,0.006541582674982366,true
-0.11922113956275293,0.009280902299283439,true
-0.10401101743535057,0.0010346672771353038,true
-0.09929185080104952,0.0018044101319756312,true
-0.08914437331501945,0.0002191631492520496,true
-0.16491917649692445,0.010172642500577339,true
-0.15846831036711106,0.00853465688411953,true
-0.17158652752679837,0.010100376839931507,true
-0.1761903645672237,0.0101350769716948,true
-0.10516524264502158,-0.0034990404842568656,true
-0.09111096002020325,-0.001985423212636256,true
-0.05481053100050892,-0.006632878079759402,true
-0.025368925456458635,-0.002039456859311728,true
0.007026167803261929,-0.006944464635402131,true
0.01749414595325205,-0.007626124676548801,true
-0.09809274484070674,-0.0028827886549077364,true
-0.15975716003619111,0.001937854064045258,true
-0.0794064611860752,-0.0036419481125825326,true
-0.12722957764970388,-4.571078499421288e-05,true
-0.17135357617443558,0.006594514357146669,true
-0.17709739321981977,0.00735214051054911,true
-0.18878722059760222,0.007683926639070193,true
-0.0038543525784997534,-0.008664513440778093,true
-0.08912307654041163,0.0019165269816028285,true
-0.07296827447891996,0.0002683978936988962,true
-0.09987203231190733,0.0019986254440929607,true
-0.1611767465134084,0.008333080971665935,true
-0.15629242316602876,0.007833951285864005,true
-0.1622350002911912,0.008525272489982694,true
-0.6252791202585901,0.10302768642285143,true
-0.10495139481283444,0.006027712657655365,true
-0.08595405264278289,0.0036920376688294454,true
-0.08425212166833851,0.003553118912446973,true
-0.08964081031146631,0.006273286178410359,true
-0.09411680996451532,0.006613643755426557,true
-0.11128249634973053,0.009284617594042754,true
-0.10240929015681277,0.008251032164830169,true
-0.055787997942275735,-0.0035510196032357277,true
-0.05643381949057358,-0.0030395366569853366,true
-0.060612659052431406,-0.0018866102297550869,true
-0.12504563172574845,0.003262133993189531,true
-0.15766140094698722,0.004973523380614936,true
-0.15079457351747405,0.0034683728729147933,true
-0.1863812235889637,0.016544760234531136,true
-0.11369171061218952,0.0092419530057328,true
-0.12603013388987194,0.010722390295050482,true
-1.7926868226059645,0.21049608836928704,true
-0.04347272400282276,0.0028231905965922233,true
-0.031510693152814184,0.0026190286038436372,true
-0.025328208221257587,0.0023500976320862954,true
0.011918471123802288,-0.007171092724795963,true
0.020557988973345154,-0.007323053399212742,true
0.01012658816175116,-0.006716821987334309,true
-0.060716109682742214,0.0017708258920774433,true
-0.06758630532831389,0.002764925614111624,true
-0.07570649691267306,0.003449433000791119,true
-0.12049861424426744,0.004357354460351348,true
-0.06864336019906747,-0.0021084002755894227,true
-0.07551122894846651,-0.0018763563504741732,true
-0.04735945010750697,-0.003702628404547381,true
-0.016999914942692707,-0.006808890198106321,true
-0.006840232177028893,-0.007706327539255625,true
0.009935581540931437,-0.009394714309587576,true
2.285718676996173,0.033494817493950474,true
-0.02002297753834137,-0.18011315134927142,false
-0.019977200275341556,-0.1801182742968957,false
-0.019936693465820166,-0.18040038601577252,false
-0.02847439354285619,-0.1794441594553966,false
-0.0355162475148777,-0.1821321483441735,false
0.00042143554254847615,-0.18669664187389168,false
0.0008157702057034477,-0.18800396434538919,false
-0.028854797647913988,-0.18800830940435803,false
0.0027736572502574663,-0.1929633794686504,false
-0.03056735668510302,-0.19520684916839215,false
-0.5403569428591031,-0.09784209000000055,false
-0.5404962359152478,-0.09784209000000055,false
-0.540559847195637,-0.09784209000000055,false
-0.5406783011102985,-0.09784209000000055,false
-0.5451681253773055,-0.09784209000000055,false
-0.5458281774286204,-0.09784209000000055,false
-0.5515383826834432,-0.09767584978193886,false
-0.5515467218785083,-0.09780181551725692,false
-0.5516339265928037,-0.09755711549337184,false
-0.5517941950854777,-0.0973448368392747,false
-0.7946920568758569,-0.05679243000000045,false
-0.7969670727991256,-0.05679243000000045,false
-0.8208801289291308,-0.05679243000000039,false
-0.8606836199681129,-0.05679243000000048,false
-0.8613568476758309,-0.05679243000000045,false
-1.0300338715765567,-0.05679243000000045,false
-1.9023024268095634,-0.05679243000000045,false
-2.60614731702312,0.05143938672691967,false
-2.6150664632652583,0.051439386726919695,false
-2.61560172398995,0.051439386726629954,false
-0.9238649149138052,-0.03651622000000043,false
-0.9238735970541616,-0.03651622000000043,false
-0.9598865432196418,-0.03629493959969493,false
-0.962889542086183,-0.03629493959969504,false
-0.9983547843808089,-0.036294939599694986,false
-1.0009012786129479,-0.03625796550495178,false
-1.0009050451769281,-0.03631912888396516,false
-1.004881825783674,-0.03651622000000043,false
-1.0076367018492325,-0.03651622000000043,false
-2.1848040277886653,-0.014361358018040837,false
-0.9865434992060158,-0.02624899000000047,false
-0.9865531402316775,-0.02624899000000047,false
-0.9867459871361659,-0.02624899000000047,false
-1.0008452227780518,-0.02624899000000047,false
-1.0392832328901103,-0.020628095612799824,false
-1.0396896982964658,-0.02062809561279977,false
-1.0399218291564523,-0.02062809561279974,false
-1.040270746430658,-0.02062809561279974,false
-1.0403371364640743,-0.020628095612799713,false
-1.0403665974614607,-0.02062809561279988,false
-1.0414260603677912,-0.018434060000000363,false
-1.0417738976695212,-0.018434060000000363,false
-1.38912983086596,-0.018433552167809064,false
-1.3898175377862867,-0.018434060000000363,false
-1.4937629567653676,-0.0018278828285250848,false
-1.4942846489732555,-0.0018278828285250848,false
-1.6536059700573635,0.048306017929540646,false
-1.775034855158514,-0.0184340579106283,false
-1.7755198854828151,-0.018434060000000363,false
-1.9607674319669908,0.010705592360990224,false
-1.977777055835865,0.13196769999999947,false
-1.9806744401485838,0.13196769999999947,false
-1.9818720915578547,0.13196769999999947,false
-1.9910780145416656,0.13196769999999947,false
-1.9911494677745414,0.13196769999999947,false
-1.9915325833263537,0.13196769999999947,false
-1.992149910881368,0.13196769999999947,false
-1.9925845933076705,0.13196769999999947,false
-1.9926178323658685,0.13196769999999947,false
-1.9956112303862894,0.13196769999999947,false
-1.041138826798374,-0.017336780000000385,false
-1.0412060834911014,-0.01724907425035524,false
-1.0416743531758228,-0.017336780000000385,false
-1.0424603405903483,-0.017213982766420055,false
-1.0482165282466187,-0.017336780000000385,false
-1.0512680378916546,-0.017336780000000385,false
-1.0660814166733794,-0.017336780000000385,false
-1.1760062869472399,-0.01733678000000044,false
-1.0498942073480069,-0.015984813600210757,false
-1.0499728200504703,-0.015979766388328015,false
-1.052531398114921,-0.015706028423558116,false
-1.0540519884359059,-0.01600457999999999,false
-1.0541213860818015,-0.01600457999999999,false
-1.0541465494885063,-0.01600457999999999,false
-1.0681473412922415,-0.01600457999999999,false
-1.0700349508221039,-0.01600457999999999,false
-1.0705766348378813,-0.015578260000000205,false
-1.070579254904074,-0.01562530970644105,false
0.17421075477307413,-0.21114798477307423,false
0.17471978880704864,-0.21165701880704874,false
0.1747413315680011,-0.21167856156800116,false
0.17480245237934955,-0.21173968237934954,false
0.1749267516110503,-0.21186398161105024,false
0.182953790640209,-0.2198910206402091,false
0.18477038051423678,-0.22170761051423665,false
0.18547866665591872,-0.2224158966559187,false
0.18565039513742054,-0.2224158966559187,false
0.18720838983584553,-0.2224158966559187,false
-2.236587891238122,0.17223189999999977,false
-2.2365952573519468,0.17223189999999966,false
-2.2701021086242243,0.17223189999999966,false
-2.270555852214593,0.17223189999999966,false
-2.816145971823884,0.2546334935632148,false
-2.8389753877768977,0.2575258944264954,false
-2.9374514875607196,0.27198789874229184,false
-3.1455472908968263,0.2748802996055303,false
-3.1851871496536464,0.28066510133182976,false
-1.067829549296809,-0.01318621000000042,false
-1.070206483286443,-0.01318621000000042,false
-1.0739328095043092,-0.01318621000000042,false
-1.1248066060177222,-0.01318621000000042,false
-1.1253704721406588,-0.01318621000000042,false
-1.1516802344458354,-0.008094620423283017,false
-1.1570733695792528,-0.008094620423283017,false
-1.167236911340864,-0.00809462042328285,false
-1.1672873645643436,-0.008094620423283294,false
-1.1870587934993901,-0.01318621000000042,false
0.22075342767793504,-0.21883511197793504,false
0.22141659110551593,-0.21949827540551597,false
0.22274880908756778,-0.2208304933875678,false
0.2258935231153235,-0.22397520741532356,false
0.22599151516281435,-0.2240731994628142,false
0.2260875313889088,-0.22416921568890882,false
0.22637354882060245,-0.2244552331206025,false
0.22645583731707886,-0.22453752161707874,false
0.22958079932991082,-0.22766248362991087,false
0.23074711284364746,-0.2288287971436475,false
-2.3675121441104285,0.1923639999999997,false
-2.3684860570908484,0.1923639999999995,false
-2.3720685951224785,0.1923639999999996,false
-2.372573420990104,0.19236399999999954,false
-2.374413817886088,0.1926457668076363,false
-2.390711037699725,0.19236399999999887,false
-2.392074736282815,0.19236399999999954,false
-2.393917498682295,0.1926457668076358,false
0.2432317271305996,-0.22275049713059955,false
0.24584172819730288,-0.2253604981973029,false
0.24677335744750217,-0.22629212744750224,false
0.24831437860211603,-0.22783314860211612,false
0.24866729573678692,-0.2281860657367869,false
0.24907086258898248,-0.22858963258898246,false
0.2512405491042419,-0.2307593191042418,false
0.2515110021637629,-0.23102985683398167,false
0.2532504262749127,-0.23276919627491283,false
0.2533544259806262,-0.23287319598062622,false
0.2523176647939004,-0.22255497479390024,false
0.25244066861306746,-0.2226779786130676,false
0.25313333047836106,-0.22337064047836117,false
0.25358894528421816,-0.22382625528421807,false
0.25464036358320497,-0.22487767358320504,false
0.2629933359338227,-0.23323064593382276,false
0.26331994266077496,-0.23355725266077498,false
0.2917564123177798,-0.26199372231777973,false
0.2946000592834803,-0.26483736928348023,false
0.547278231174571,-0.3103357207346879,false
