-0.013027331023834021,-0.004105384292618641,true
-0.007405975810322429,-0.004567356152739094,true
-0.0016047718060356875,-0.0056620330745657255,true
0.00931080487931335,-0.009053263767249853,true
-0.012142535308505953,-0.009576737275183461,true
0.0006409923984076471,-0.010658222351231234,true
-0.0008282326899519132,-0.010450517261907988,true
0.020231647008833398,-0.007353234585349283,true
0.015268771169779094,-0.0037869610042406965,true
0.004360627194012201,-0.0027473357152286715,true
-0.03618343531077639,-0.004508066459483817,true
-0.04049049533389337,-0.005672458683645021,true
-0.031626990151342405,-0.007116986065460129,true
-0.03892146152316012,-0.0060026282989054935,true
0.007436138956533944,-0.00677830298833465,true
-0.0054618237966775895,-0.00507311840649155,true
0.005489731039286183,-0.007007459030092866,true
-0.06431954106656534,0.0073638639333837574,true
-0.057035170503527244,0.004237672821354843,true
-0.061556430422327724,0.004597933726953274,true
-0.00017849406832204373,-0.0038331151651028184,true
-0.011778363327748065,-0.004852540582820808,true
-0.007281598719739657,-0.004912206519122053,true
-0.011959766946747385,-0.0054072409365449325,true
0.01652125784139069,-0.009650293221052209,true
0.019035546211232934,-0.010395596077563823,true
0.0022952665156728003,-0.00813729422713863,true
0.0048719471690461535,-0.004079911355624577,true
-0.006793358698927943,-0.0035959501675171257,true
-0.13769719115149714,0.01361673778870584,true
0.02570787118765161,-0.006851587010493793,true
0.007913573534864105,-0.006238086372866158,true
0.009833096146025344,-0.0065284052945242255,true
0.01316552811840277,-0.007260599692308939,true
-0.0217810280004761,-0.004481144531503001,true
-0.013660572120000047,-0.004491090218963073,true
-0.020944882586748648,-0.004075290153921468,true
-0.02493421006784924,-0.00283444721508766,true
-0.05321307379666018,0.00045002659438239667,true
-0.020251178769789546,-0.004960093821691047,true
-0.04387145004118975,-0.0029392024723129406,true
-0.015868826464899954,-0.008360284796082695,true
-0.012698196977680265,-0.008851565393258237,true
-0.06167251520991668,-0.0012826013495371713,true
-0.050518076688139346,0.00019602680120162086,true
-0.0420361223902731,-0.0011012602305542907,true
-0.03978481617273766,-0.0016649921281259583,true
-0.016003229216050352,-0.0024768640232086803,true
-0.012437879595624146,-0.0026646280441631476,true
-0.01902919390139801,-0.0024389606219976934,true
-0.018968320764667257,-0.006347440646921193,true
-0.010474938701007797,-0.008691039051739374,true
-0.022048119502038666,-0.006640714632154515,true
-0.01977613736586914,-0.005143995639158155,true
0.18489706186829225,-0.021294570047760503,true
-0.006903047670117957,-0.0035677953281824937,true
-0.022861736815902645,-0.0020227217939676745,true
-0.011179845930500143,-0.0024364968292193145,true
-0.01607302530699639,-0.002339888207468943,true
0.18408811890546728,-0.020997233093466627,true
-0.03050444440340727,-0.0034401091615814117,true
-0.030316307835675627,-0.004343144054552689,true
-0.031201165411820164,-0.0038365876196806703,true
0.11406532534114844,-0.017840526503248633,true
-0.05664216361310437,-0.001894557098654548,true
0.02722078252236415,-0.010658062268552093,true
0.0021620368883497054,-0.007914701130105867,true
-0.0053084646648120515,-0.0066594558612123045,true
0.0007796883351528505,-0.00801325207705808,true
-0.013106606239726482,-0.004479625943926341,true
-0.012928253026235126,-0.005140610284285252,true
-0.014672386946584348,-0.004659887060840057,true
0.0233141940403927,-0.00440599972473027,true
0.036010709131654606,-0.008505737636233829,true
0.04243126560687949,-0.009046906090510703,true
0.08661239261093356,-0.0015514554077021847,true
0.10857469604268966,-0.005954750220302618,true
0.11289912597083784,-0.006264611299041517,true
0.1010882124789978,-0.005198438706471381,true
0.030726410833891826,-0.009017789418212796,true
0.005560741528068958,-0.004570838837474167,true
0.008122620543073111,-0.0049494222900619,true
-0.0065284264872689235,-0.004813342340474286,true
-0.012920676707799394,-0.004117181832726635,true
-0.0035866744893883196,-0.00570563678660943,true
4.576880313735188,-0.029348889103457898,true
-0.09640070197945927,0.0019262549106507376,true
-0.08187462021219127,3.815832238607264e-05,true
0.02769502915780464,-0.0037607045557433993,true
0.031848289155423704,-0.0067322196025545455,true
0.10504578177209867,-0.003751229847747506,true
0.030064426791190257,-0.004609532920329201,true
-0.019114475564664613,0.0028089584100529086,true
0.044380066208533964,-0.0030460415412476294,true
0.06561580998537786,-0.005701000519469535,true
8.226288605617249e-05,-0.0029264545252491447,true
0.02171686869198952,-0.00825778431944002,true
0.014517904647354696,-0.006720691154791236,true
0.06664849615964241,-0.00040374121822742137,true
0.006719635941369928,-0.002748621621166153,true
0.012710936601863954,-0.0038104926112197124,true
0.07892899388355867,-0.003351497429383843,true
0.0022440675288616374,-0.0066050922478018415,true
-0.0008253459802806118,-0.004206629883715618,true
0.004589861597001921,-0.005218380363982367,true
0.0014042966496233822,-0.003649908809112673,true
-0.003008680395550134,-0.0039641960661375986,true
-0.003432200580885225,-0.0034649321740367334,true
-5.314602253503331e-06,-0.0017471870412322787,true
-0.009432065989761651,-0.002467620994277775,true
-0.014445670122920973,-0.001763863224115897,true
-0.015855974747594148,-0.001877864613815089,true
-0.001715945860890522,-0.004831958382288032,true
0.010804543244210763,-0.005183697155746486,true
0.012022374726853191,-0.0053630218048681955,true
-0.03073381986554813,0.0005941928911583627,true
0.03464121616642357,-0.005196053354120711,true
0.005913633338139546,-0.003191273496590763,true
0.014883737554757914,-0.004855967874710404,true
-0.03248419765030475,-0.0034211467779799998,true
-0.019344189715637006,-0.005185428669252784,true
-0.02037131648707291,-0.005087497931696494,true
-0.027465121573359896,-0.004406385154177683,true
-0.011520135147758626,-0.0049305146549281365,true
-0.0009582236979277514,-0.0039544247601766,true
-0.04046039827871073,0.0009521712438882168,true
-0.02115278370198659,-0.004076663250958679,true
-0.012821322202038576,-0.0046000392020810466,true
-0.016636416109230945,-0.004360274374651252,true
0.03410549171261501,-0.00870412936918244,true
0.03994226212327345,-0.00781100180496766,true
0.04280344689561333,-0.007995704018746247,true
-0.008882006357624594,-0.002269815845229811,true
-0.02734396348948931,-0.0006512278243045178,true
-0.021142915227553072,-0.0014680911833428734,true
0.0051297394116405215,-0.001674569642210938,true
0.005208041755837334,-0.003985716533473516,true
-0.02408836069796072,-0.0007018612901695809,true
0.04702941272709271,0.01268706483453999,true
0.05954881328906625,-0.010750386283273405,true
0.013861828523195507,-0.0066146359178346215,true
0.030192530582001886,-0.005979869719822617,true
0.01908629197422962,-0.004578722107681649,true
0.0061300294276511735,-0.0028987994831962127,true
0.0026033425936935473,-0.0020557679815868257,true
-0.0703230545650646,0.0038341214621374353,true
-0.05466415711200456,0.0020725150912041523,true
-0.05459053142914749,0.0011006630862624156,true
0.04427955244250903,-0.006732128427860556,true
0.00452192437008736,-0.0019364089258238626,true
0.005892210602131076,-0.0023913338047304167,true
0.005822355972274984,-0.002435035355046883,true
-0.014268075603250274,-0.00030870769971774736,true
-0.020219284773185242,3.522988743259736e-05,true
-0.005238972446681034,-0.0026738152241536084,true
-0.030176915257230874,0.0015072373292700225,true
-0.01165318753675737,-0.0016328423933110736,true
0.01797073724837106,-0.004326409998163111,true
0.0033504519580502823,-0.0036879090085032984,true
-0.023462183705916795,-0.0001864817561566534,true
0.037932516355086765,-0.005735291475657461,true
-0.002961781927986129,-0.0021717194997711575,true
-0.01172839719907115,-0.002187242708835496,true
-0.04493138040421507,0.004070836250351956,true
-0.033277992481069996,0.0012780135085534439,true
-0.014383229786990137,-0.0013442992452371016,true
-0.04522230590347154,-0.005619697450239325,true
-0.053985269174711026,-0.0035688622774397993,true
-0.06132169617999217,-0.0031681318423494587,true
-0.041497717213717755,-0.0032859923599882768,true
-0.027591612773561147,-0.0056478178911145704,true
-0.024041454867660406,-0.006159058335888673,true
-0.017699890689354625,-0.00760027339397934,true
-0.04273854799047205,-0.004130157900471443,true
-0.0023037613033243254,-0.007466944925576369,true
-0.01661073073761532,-0.006300675441591963,true
0.02447177765132258,-0.006447760987136453,true
0.012808729325459844,-0.009122641759997469,true
0.014295273573309286,-0.009155396753633971,true
0.01575900046287959,-0.00941404985967581,true
-0.006273560767831254,-0.0037403435534119345,true
-0.005712610396273243,-0.004249359698214633,true
-0.012841356154398853,-0.0036056039272436835,true
-0.030053429502667428,-0.0012266524707374993,true
-0.055528111729297835,0.0007371841042276561,true
-0.056807409547483534,0.0013365132811296865,true
-0.06143308798010372,0.0009521005951491912,true
0.02548546519893935,-0.008681076843713331,true
-0.02302189501462537,-0.0026220220137654904,true
-0.004370273069820074,-0.005303775168133629,true
-0.006400497583133102,-0.00037099174486382447,true
-0.013912509140691531,-0.0012314356085328937,true
-0.013086548695984579,-0.0019160037472959746,true
-0.0009769384914488644,-0.0036040179461535315,true
-0.046068295005747384,-0.003462686970648804,true
-0.051960787027645505,-0.0026863257566137333,true
-0.0449103208446785,-0.004162634013728406,true
-0.04525117911430521,0.00047188672448933433,true
-0.04574379841057752,0.00016169663613063712,true
-0.04349208390197001,-0.0010831207403309562,true
0.16376034173897125,-0.008726857147569766,true
0.00551004092565055,-0.0021872257462975386,true
0.004693627433926428,-0.0022550603826188564,true
-0.019397404014609543,-0.0025672140871733917,true
-0.047678226047875416,0.0016493497287232706,true
0.03145397195356914,-0.005071751359689208,true
0.04364640711397216,-0.006547048132567512,true
0.0405605991087411,-0.006835799436605283,true
0.031740749507970234,-0.005978682576007727,true
0.034607842813034306,-0.006673902897654321,true
0.02776850175671508,-0.005779269945666743,true
0.018785059814519167,-0.0031425289210293417,true
0.031113221754162423,-0.007227317075560347,true
0.007331961763191397,-0.004744233429084671,true
0.002115695938443074,-0.003975417726513053,true
0.16549802614202458,-0.009250820970333196,true
0.00681929524538627,-0.0023125894461035745,true
0.007971556104015676,-0.002561940999292661,true
0.007235849531849192,-0.0022890070680978147,true
0.001538521088890965,-0.0010908010238621924,true
0.005242974739251949,-0.001652370669626091,true
-0.0015032311976668211,-0.0013745259589808267,true
0.0076484827252066845,-0.0019788301321114754,true
0.01258956274875156,-0.0022699327991186624,true
0.014365050259737,-0.0027828487898000354,true
0.03295928275722804,-0.007896513447892828,true
0.012371847373580547,-0.004560048236913972,true
-0.0005502710515392639,-0.0021295338285050314,true
0.9607727799587309,0.0064233679119266585,true
-0.014155296509337667,-0.0017803250268383086,true
-0.018449812846617286,-0.001050200140768287,true
-0.03259950086458252,-6.255913982780581e-05,true
-0.03516857772050419,-2.3763071039878403e-05,true
0.05147208460456887,-0.004047208709412345,true
0.07810522823105681,-0.00805212169797749,true
0.06343161133128516,-0.00575601013856733,true
0.011553899656387756,-0.005480987133448467,true
-0.21778315444567942,0.02277424170540901,true
0.016827297982662692,-0.006502364339975711,true
-0.02466419109262441,0.00033582529438966335,true
-0.06210511047285827,0.002679701377180335,true
-0.07508274478896304,0.00437300392480286,true
-0.07149494821384006,0.004059972991274682,true
-0.036189561436350104,0.0005220981906279842,true
-0.03380560856571346,1.7419582565694758e-05,true
-0.029024245996341014,3.386476426665841e-05,true
-0.1659243405281523,0.01967163257153355,true
-0.18714539461110213,0.020691885873400193,true
-0.197380755907957,0.021280348872762506,true
-0.031143619678309253,-0.0005055607339410351,true
-0.08091627241324684,0.005392676702971513,true
-0.07096887966533538,0.004547680776488441,true
0.07642243717592478,0.011225960368145216,true
0.037219313417799604,-0.006018072842720643,true
0.03572324527495696,-0.0061474264473043855,true
0.019702993839697536,-0.004132723726768137,true
0.021427938240488498,-0.009528498975851854,true
-0.015144281942400584,-0.00724788464591139,true
-0.0024394857614817855,-0.007946307003893968,true
-0.025182168252720016,-0.004615836516983496,true
-0.03659288604055,0.00487324985683478,true
0.03235636405746645,-0.005150894130444714,true
0.004030209906129567,-0.0007767338242151006,true
-0.0002865598319494733,-0.00046067117342715735,true
-0.015213851721687321,-0.00039352532836087195,true
-0.024758142984987686,0.0009117427201684458,true
-0.020783496782249555,0.00038435436508442444,true
0.05770309253872363,-0.007555495791200323,true
0.05233207460375633,-0.00913156862617212,true
0.01945889759152286,-0.005312966015149759,true
0.015657394196955332,-0.004084501970489873,true
0.07219359269904313,-0.015035300678170216,true
0.05304911645218646,-0.01150737923250901,true
0.05138074265867809,-0.011103878110362606,true
-0.039198563907965056,-0.00413757920045435,true
-0.042762207476943814,-0.0029458269688504013,true
-0.019634418605342763,-0.001092810105434161,true
0.042000486731489595,-0.011874053536464313,true
0.02279275382268553,-0.009302637074521752,true
0.024114775177585646,-0.008888892372356433,true
-0.020200857918611703,-0.004257101981022471,true
0.016040528063395065,-0.008043054222323598,true
-0.009059820832676646,-0.0055403368370721545,true
0.0034514633247793025,-0.006754435698697631,true
0.0055607112638380585,-0.003945033827227273,true
0.033188445816245915,-0.009385639622664449,true
0.04013741287359074,-0.010010248622136425,true
0.0373102461571484,-0.00908152468327482,true
0.07911665875370866,-0.01638163035143099,true
0.07666383295384471,-0.015255324528672703,true
-0.024582029284480167,-0.004329619310069546,true
0.012938791714383169,-0.012230165314478514,true
-0.022572745805670147,-0.006289112562098562,true
-0.006987703736930917,-0.007730554019116681,true
0.011958107834419418,-0.008000057778877315,true
0.00031164300985542237,-0.00593222484663386,true
-0.01043489587774904,-0.004389331056935883,true
-0.009140693786255483,-0.006290089944824273,true
-0.02077177961053933,-0.007698147879282663,true
-0.039182563945993176,-0.004791770047964217,true
-0.03260582207960161,-0.006326521427975018,true
0.042854958632103646,-0.011743434793877877,true
0.04591344963966948,-0.012367081051540732,true
0.017807514685156622,-0.009055122651500894,true
0.03140614910148509,-0.01022164207738245,true
0.007549068646188539,-0.007170487088215327,true
0.02605548742962982,-0.01097098795344531,true
0.022595873075129225,-0.010839619938299377,true
0.040696965037455346,-0.010490310033775721,true
0.0431296867380363,-0.010212084727293042,true
0.03999016088183405,-0.009494378572798626,true
0.03677933082876317,-0.01141369026546045,true
-0.0023711790541057765,-0.005626636839200283,true
-0.004233642602211818,-0.005293081532066923,true
-0.006640908441010618,-0.005105848114791908,true
0.03262892998900202,-0.009842899295874577,true
0.0024884038654261476,-0.006783920934502974,true
0.002778867558709597,-0.006638538014330925,true
-0.0050360513033715915,-0.0059788400857070795,true
0.03190826013568804,-0.00939462757783438,true
-0.012062158388212896,-0.0035299253602092684,true
-0.015013287958821397,-0.0031457724000583664,true
-0.22168310490446252,-0.01533315807941725,true
-0.04073571114618979,-0.0035077143770904373,true
-0.03757996224347715,-0.004234361437132683,true
-0.03589915957102552,-0.00404947390122351,true
-0.0404004182671206,-0.0014930873727252436,true
-0.018987074821307015,-0.006854965694375187,true
-0.03222087733508139,-0.00539361195075691,true
-0.011716271124932232,-0.0050692322767429965,true
-0.040525653169954046,-0.0030063963315546394,true
-0.034331127482542745,-0.004131867992195254,true
-0.03251723905013337,-0.00417943882534591,true
-0.015972401349675147,-0.0039841591978933,true
-0.026965487586609993,-0.003926792450973021,true
-0.0220456541977736,-0.004647176948626125,true
-0.028002217412817054,-0.003785362306381268,true
-0.04167267939135466,0.003985995070057813,true
-0.06418563451585313,0.005973928156873615,true
-0.056915439233323095,0.004986812516162814,true
-0.05535475131985901,0.0006033656256883013,true
0.005036708004718782,-0.009382265403248713,true
-0.005755345878934448,-0.008437471737196278,true
-0.0032581935567363995,-0.00841631109874405,true
0.08143690566004735,-0.006635761188396427,true
-0.02916240440730289,-0.0011949016337587381,true
-0.02280375422333769,-0.0022096630410442797,true
-0.003011050784402003,-0.0028537125918488004,true
-0.01099940157201218,-0.0037884014739472116,true
-0.021871948000375507,-0.0023254347467657477,true
-0.0219688680616269,-0.0026249015799754694,true
0.06340864731472884,-0.011152407489272598,true
-0.04663362041769714,0.0012888188960399893,true
-0.03648597658394859,-0.0005513348546365149,true
-0.02805981496508081,-0.0016882628144889167,true
0.0015676131489751333,-0.006783851415906983,true
-0.0011050922112583184,-0.007550169631952319,true
0.007578995454104787,-0.008057948014166372,true
0.03283926669390469,-0.01112388254928344,true
0.05410085897391792,-0.012982277092346645,true
0.05795651809296065,-0.0126727127875218,true
0.014493924916080703,-0.006123407489924598,true
-0.022969922755797345,-0.0034066810952519677,true
-0.017823597579563533,-0.004723046486873328,true
-0.01475315020851109,-0.0046987035011702705,true
-0.045575828815292874,0.0004968253185450022,true
-0.0448304632835409,-0.001317004569805852,true
-0.052759925358021875,-0.000663609752406466,true
0.006746334963023681,-0.005385773434374852,true
-0.0370565464609558,-0.0009432276388802591,true
-0.03739750532657282,-0.0011415902320970062,true
-0.03837321075101785,-0.0012611522027503735,true
-0.022142203215372525,-0.003661455508862807,true
0.010140895557185448,-0.008270219639399848,true
-0.01743681138305142,-0.004081216737865892,true
-0.0176515671958003,-0.0042469155926557756,true
-0.02627197712872209,0.00014843609752325515,true
-0.04871669166680248,0.001925808323314307,true
-0.014950080633180374,-0.0023909959231590283,true
-0.05572047974416461,0.0024017776777017358,true
-0.0047159509720455794,-0.003885144303757304,true
-0.028202973323054548,-0.0020469294490277623,true
-0.023672767365721104,-0.0022544874161308653,true
-0.017774466873011208,-0.003418160747093668,true
-0.02037719047925679,-0.0010956916186017768,true
-0.049435061736324504,0.0017740358533284567,true
-0.05541653341525676,0.0023562264569111785,true
-0.002451395354436503,-0.0029580015171012386,true
-0.02287831131411433,-0.002614759509160347,true
-0.015474582520686564,-0.004617223454211589,true
-0.03454686690146902,0.0014384478456671151,true
-0.04900517089865264,0.0010967616579984213,true
-0.05116928735384718,0.0016976714742620719,true
-0.04319281343201331,-0.00020552432195003467,true
-0.023270489470576083,-0.004121031527324459,true
-0.03634452011857725,-0.0027869003210108934,true
-0.024284769656676253,-0.004866505389498496,true
0.019153969961240414,-0.005778818886330431,true
0.007197929162762073,-0.005983664480938705,true
0.0033418436510211924,-0.005809163259656691,true
-0.05799606560449866,-0.0009409482567697969,true
-0.03572104380846608,-0.005643330256734552,true
-0.03038977655673014,-0.005422244742398233,true
-0.03236375008731862,-0.005926937263487891,true
-0.009757780654680581,-0.00348444855855104,true
0.011264159911220206,-0.005824952206728573,true
-0.019825076483227844,-0.002053414899882894,true
-0.002482805204358618,-0.004267259988434774,true
0.007581492736070672,-0.005558020957560028,true
0.0016351723450300781,-0.005005788095004404,true
-0.03408882960304571,-0.0015818399874513722,true
-0.040725456278427385,-0.0017152420653031852,true
-0.05495435260864423,0.0003265240097972688,true
0.036581281469261206,-0.009904988019521818,true
0.0031180926932684594,-0.007657951486205544,true
-0.014480180422231426,-0.004785091705783451,true
0.003924614411238148,-0.007540442857367657,true
-0.007090092156322281,-0.002586617752967646,true
-0.005282311309537824,-0.003250015938523171,true
-0.019899276241668873,-0.0015197334458372513,true
-0.012754306005556826,-0.0027600771257667994,true
-0.08187767989162764,0.0011169542497254659,true
-0.03405440834135676,-0.005075292756247865,true
-0.03560258296001917,-0.005375891950576847,true
-0.009502741604590081,-0.0029282565224047485,true
0.014638726544169867,-0.006825218559869173,true
0.004360425137942214,-0.005983139603878168,true
0.024784620109000288,-0.004355362653835418,true
0.02633631904510958,-0.006236734867912888,true
0.06938781134930627,-0.013006156569197555,true
0.05763201290512865,-0.011835985477175875,true
0.017592079676758132,-0.006208142807636402,true
0.04196613489701395,-0.011595857733383008,true
0.0429340667336755,-0.011212395538482356,true
0.039582004854612274,-0.011274420260675794,true
0.004116657686052294,-0.006239703458220475,true
0.019770280661198347,-0.009899583823281544,true
0.018597855309368194,-0.009586325380234406,true
0.021277397985514312,-0.009854439296607384,true
0.011558875052187556,-0.0034142348222392788,true
-0.02603676070600036,-0.00041795798687849217,true
-0.026046555738009403,-0.00020309006580641886,true
-0.022699448959593305,-0.0009223401492340633,true
0.03365659835665702,-0.005998262585844821,true
-0.01312012551219821,-0.0028848139804313194,true
-0.0035277944383540483,-0.003255269320266832,true
0.04351109134690434,-0.007350436060000631,true
0.04600024288944615,-0.00940157584583598,true
0.02352685034717683,-0.005489157703808353,true
0.0204678770286002,-0.005065459777292822,true
0.055744088909198686,-0.005762300608137261,true
0.08883412297405524,-0.01020950677942202,true
0.06176260239958298,-0.006880005916437004,true
0.05164257204102274,-0.005437905735053775,true
-0.031499260990228706,0.001686186917633059,true
-0.0016486008540133046,-0.004528403193422709,true
-0.022087457577276703,-0.0015263355456121008,true
-0.01401829511681485,-0.0028355406857871746,true
-0.0008478386947483596,-0.007616074742478843,true
-0.011756057905148776,-0.006246497395297881,true
-0.006188734142114072,-0.006954009850750328,true
0.024960167357664265,-0.008739477573668442,true
0.04372405552445624,-0.010999405948277197,true
0.02782140986920667,-0.009393331992008952,true
0.0312010228391828,-0.010715797084198175,true
0.010493635397762269,-0.0037865392329710507,true
0.014047397567704456,-0.004017902292065889,true
0.026633428710609808,-0.005755741390658917,true
-0.027464849359148058,0.003250509315533001,true
0.02075050439980286,-0.005781374196193664,true
0.010612119195385628,-0.004149063999736219,true
0.0541484288305778,-0.007864808925429678,true
-0.008462877932367219,-0.006076440297081376,true
-0.03013991997080878,-0.004354207676183566,true
-0.028627851106352686,-0.005171605361189949,true
-0.016085598143100732,-0.005031898751544306,true
-0.027127131091388534,-0.0037445977973266237,true
-0.025608655464554042,-0.004112731546503948,true
0.0007081943069287,-0.00010762409860692879,true
0.0009206581102716438,-0.0022328191178347945,true
-0.0014980614037718443,-0.0019826081269282286,true
0.07202395570731857,-0.009155465459582207,true
0.019997916305534602,-0.00594725129482096,true
0.028680497175215702,-0.006400603787208414,true
0.057641348953374694,-0.011333118117995228,true
-0.006056639719860257,-0.0007294268181980285,true
0.014875353626429666,-0.004566004365337328,true
-0.0037187481160334546,-0.001290527195099811,true
0.003352409466487183,-0.0036498087148935376,true
-0.011109492872426241,-0.0020755936486312604,true
-0.02179488127146323,-0.0013073725890251492,true
0.03298294386692091,-0.00942580667089929,true
-0.03140740402956599,-0.0010527922460914219,true
-0.030106957876831597,-0.000541762916249397,true
-0.016703635054240884,-0.0026986603380236562,true
0.0073504678667788426,-0.0029116795987220584,true
-0.009951825537981351,-0.001665468802479364,true
0.005023854184486254,-0.003581731607835162,true
0.015303390878293577,-0.005531442112638729,true
0.021928155784606163,-0.008693062325114936,true
0.03980000958836438,-0.009226969571992191,true
0.03500608838233665,-0.008880543003063623,true
-0.02912387678682793,-0.0015282056627765606,true
-0.0010067321683093766,-0.006699210567221642,true
-0.0043260767493400465,-0.006264235263654674,true
-0.002666020030710925,-0.005922687441741306,true
-0.04263470217342302,-0.002564542551365359,true
-0.03304261123646879,-0.003999852197266882,true
-0.06425780067186826,-7.425721468734547e-05,true
-0.03283122698695029,-0.0018511345317273886,true
-0.027175795825093996,-0.0036187163637866476,true
-0.03363110071601805,-0.002374577792556759,true
0.013789099827277607,-0.003548728797739917,true
-0.18361314883875202,0.019794285947948173,true
-0.182271733579902,0.01936139685003034,true
-0.07554179529252825,0.0028085042852257075,true
-0.07902007516861376,0.0020906855218998377,true
-0.08316308240631254,0.0029265324006713944,true
-0.08065495108809873,0.002528800958844321,true
-0.03625742113645192,-0.0029807989545354435,true
-0.01784929653436751,-0.0035973639405039726,true
-0.021728804190805917,-0.004028554882026886,true
-0.018015595576533427,-0.006273619328171692,true
-0.05678401987471837,-0.0018121260323817195,true
-0.06000693072910224,-0.0009327889174272491,true
-0.06887180497107037,6.76288753920784e-05,true
-0.08569405079582182,0.0031761000110730048,true
-0.08744811035904243,0.003297460101681443,true
-0.1558086094049872,0.029081571676223716,true
0.00822216167790768,-0.007112630776517456,true
-0.04371002588720696,0.0002656537412751153,true
-0.04654199153402838,0.00027705040889385024,true
-0.20418271093787077,0.019224862751009847,true
0.033698853233524395,-0.010168717269225427,true
0.0550246815690385,-0.013414705961044868,true
0.052951360803983105,-0.013127635891642175,true
0.004744713872851691,-0.00577781217463566,true
-0.01811707320626854,-0.004110829015781817,true
-0.011070265128392043,-0.00485161788458309,true
-0.010351805435904637,-0.004867382276287344,true
0.035083102276375455,-0.010777072655965364,true
-0.006604847522642343,-0.005586241351381416,true
0.0029810137400922976,-0.00612203216003368,true
-0.018316670981376237,-0.0033861016771644242,true
0.004119687926409155,-0.004569829480710913,true
0.05179210218074792,-0.010923065000177382,true
0.050341533050192844,-0.011229814065698313,true
0.037239465768803104,-0.009240252416805789,true
0.0036131471316925845,-0.007838046389466766,true
0.013261473414299174,-0.008683801718317827,true
0.012741230515695312,-0.009339962680325414,true
0.03978190772928092,-0.010205090465611341,true
0.0115936703996119,-0.007139323138872181,true
0.026259142108838285,-0.009271678484138152,true
0.017590138627524232,-0.008058030071213224,true
0.04940783710529206,-0.013873101265210644,true
0.01769706990482911,-0.007718726874893028,true
0.0038570754523292727,-0.005871650062027625,true
0.00037036013960745073,-0.005543665996814912,true
-0.039220703428023085,-0.0008194981909349919,true
-0.011771424401369468,-0.00627839270119071,true
0.0031702565442178754,-0.008157831335595153,true
-0.008570376534182467,-0.0067299706263228565,true
-0.006804766896094994,-0.005188026493176623,true
-0.009642443779849574,-0.005061528291708084,true
-0.0024061805639707945,-0.005818341992827478,true
0.062068796858022024,-0.014119500294724571,true
0.019000168552928187,-0.007793792604060865,true
0.016286718762642316,-0.007792996607819,true
0.014863328513033292,-0.0074149265860709995,true
4.487045646833731,-0.010388060157129342,false
4.509640058421143,-0.011160850238256859,false
4.501333743477058,-0.010114464985626265,false
4.494950411423529,-0.013007833336075802,false
4.479647963745236,-0.008556399680897941,false
4.488193360936311,-0.009128983681201963,false
4.476166235722017,-0.007582190550033147,false
4.523982286915556,-0.007441314958330336,false
4.522755444271432,-0.007079412130887669,false
4.533866784120818,-0.007013045303769977,false
4.392899156661972,-0.0027664142313187368,false
4.646322796475276,-0.03221995151345006,false
4.6381850421037605,-0.03104074191790937,false
4.513129782594922,-0.01697301188310496,false
4.575073122909984,-0.019367648895518397,false
4.56206951945768,-0.01829434002214103,false
4.58655715573255,-0.019682919142876842,false
4.642075149102499,-0.028845085659247066,false
4.587561445316624,-0.020523426253187177,false
4.575846415920822,-0.019411564365040795,false
4.566314111222065,-0.017850750473643262,false
4.478130696511841,-0.004017441158831625,false
4.472402851244813,-0.002676008234507893,false
4.4761053694051105,-0.0027571959720099903,false
4.5083860093463235,-0.009130014777610523,false
4.4762758664056905,-0.0035232929459961537,false
4.475752713947496,-0.0036023082364602665,false
4.478572324044075,-0.003190282327157651,false
4.482229829439619,-0.004260911354888514,false
4.424139999441785,0.006885220598978531,false
4.505181486139173,-0.004006492472916873,false
4.474576593523587,-0.01176790772901734,false
4.469428847037392,-0.007534911449438297,false
4.485464513583771,-0.009040728867557246,false
4.620367482292673,-0.027338424272333323,false
4.658129401592191,-0.029395502989532835,false
4.659979723953814,-0.02922745003836119,false
4.534165997277415,-0.020107740437878135,false
4.570213694421018,-0.019039815247684333,false
4.567294365514109,-0.018445042220532226,false
4.5472907081837395,-0.016115944382625313,false
4.648265341763198,-0.03396415094622132,false
4.65884815212541,-0.03465671363635747,false
4.612794597589157,-0.028643551002362766,false
4.507982940456213,-0.007636883743644213,false
4.533179759428794,-0.008243229322487111,false
4.525585364919755,-0.006912089879898664,false
4.560014587431925,-0.026981532184863155,false
4.617581185477118,-0.02866375057466325,false
4.5834551768989,-0.024127400818081957,false
4.556598643857004,-0.025086322268707023,false
4.574140920874426,-0.023401558524434013,false
4.592233013106953,-0.025034546714464506,false
4.571661692842589,-0.022166028150649303,false
4.527808396251601,-0.018484407556104615,false
4.5482115617965,-0.016020853343703956,false
4.5596691152894895,-0.017359424239069027,false
4.50583514781035,-0.013210563801900693,false
4.5161937792372955,-0.011137795965280362,false
4.524387617353268,-0.011971028853545368,false
4.520354838904582,-0.01122077495823287,false
4.644092538189384,-0.028599732984851606,false
4.634707807165596,-0.02721220458968307,false
4.600177857792284,-0.012748212034342676,false
4.56816018588472,-0.01013278755947808,false
4.437049769476651,0.007931948078184009,false
4.437214810253778,0.008288202102550352,false
4.6337409662935105,-0.030590139376431652,false
4.634861664228849,-0.03386646564850351,false
4.625499506109167,-0.02990034279295145,false
4.611374430261132,-0.027695910150721287,false
4.514645257182681,-0.01347657500981947,false
4.548654386974077,-0.014532745726206053,false
4.559673092163864,-0.01462876850341624,false
4.45650590754126,-0.011827508377784929,false
4.488714985544194,-0.013255535256171791,false
4.489667267163791,-0.012820691252131922,false
4.484087864669595,-0.012212771513573861,false
4.475635415344626,-0.005849978465621297,false
4.49494894478171,-0.006884331331045712,false
4.335859655743906,0.002117194073701867,false
4.505293438494715,-0.011340157142185003,false
4.529716751450799,-0.013876885855598459,false
4.533144541501969,-0.006837295616009986,false
4.586143273541502,-0.012586129066207014,false
4.6026860429244705,-0.013789574841111318,false
4.617110194321274,-0.015274898439690238,false
4.552647033353014,-0.019654834868634535,false
4.550315055395117,-0.0171608287465006,false
4.556793934938782,-0.017308699461626442,false
4.595505872257561,-0.029448608236749246,false
4.5709970449441615,-0.02415535836537333,false
4.453330604828943,-0.00508150872203153,false
4.5054830107872625,-0.007344619768849203,false
4.517948515870705,-0.008330801220909262,false
4.525837612355463,-0.00834654311655375,false
4.499735751700971,-0.006751934290602141,false
4.536034789150749,-0.009111276678585634,false
4.541574356066919,-0.009631063059500011,false
4.596924215631697,-0.029883083548629036,false
4.59770707949325,-0.028959640335196546,false
4.603016199039598,-0.029143276586002992,false
4.56646657916575,-0.025208201409764847,false
4.597610077228051,-0.030051910746345487,false
4.686212140169408,-0.036910627193694645,false
4.707717937877291,-0.038041252397371106,false
4.67050609106861,-0.03525107484443164,false
4.682214910576873,-0.03666251577447571,false
4.521506831977935,-0.018785739041293964,false
4.581679118857538,-0.022883930690950405,false
4.586065755883324,-0.02326912148779775,false
4.595225437640357,-0.023461752417540296,false
0.025325569960973793,0.16125972671364222,false
0.008319075915436014,0.1635756149275059,false
0.008317319207355456,0.1635863762229309,false
0.005754780972061724,0.16398244458374012,false
0.02536233743007754,0.16265664910811878,false
0.025432498689689442,0.16268618558025205,false
0.025345370924193755,0.16280413051418058,false
0.025431746949898026,0.16283958762542655,false
0.004927721208901947,0.16605544742379694,false
0.01150832553115344,0.17528803948743069,false
0.0026500849762738365,0.16401981502372612,false
0.0007653467583927931,0.16523275014195252,false
0.0014339591129008955,0.1652359408870991,false
-0.0008426611794150052,0.16751256117941493,false
-0.001043305594561117,0.16771320559456113,false
-0.001518711740029488,0.16818861174002947,false
-0.03176493603743036,0.19339307295385108,false
-0.03729249297204751,0.19339307295385172,false
0.4941025999999997,0.0859561317218918,false
0.4941025999999997,0.08670624695637051,false
0.4941025999999997,0.08872719746275978,false
0.4941025999999997,0.15221334005170614,false
0.4941025999999997,0.1577269820949928,false
0.49410259999999984,0.15819717269476202,false
0.49410259999999984,0.33771215198643967,false
0.4941025999999997,0.3391666990597473,false
0.49410259999999984,0.3436959846294957,false
0.4941025999999997,0.34668790095108615,false
-0.010941335208176195,0.1665083352081761,false
-0.011400624726453201,0.1669676247264531,false
-0.015669505035081466,0.17123650503508145,false
-0.12463878778194215,0.2658935479737256,false
-0.1988305466165956,0.33855283938138747,false
-0.19947543433230241,0.33855283938138747,false
-0.2247837576059586,0.33855283938138747,false
0.7307046870841123,0.048456787084112184,false
0.7307258902181205,0.04847799021812027,false
0.7325844625511682,0.049261294222121235,false
0.7326096595145037,0.04908131173852555,false
0.7348023696869869,0.05255446968698685,false
0.7349365860428013,0.052688686042801317,false
0.7424067295474254,0.06015803842490819,false
0.9740448973046176,0.2917969973046175,false
-0.06402259238357633,0.1742243923835763,false
-0.06423294093185239,0.17443474093185235,false
-0.09456701854427707,0.20467399278116422,false
-0.39066679121601267,0.5008685669590769,false
0.8522887573150838,0.032349857315083955,false
0.8537170870953064,0.03377818709530633,false
0.8540034682914679,0.03406456829146798,false
1.5453703682543167,0.19462347239894678,false
1.5652982269088112,0.19150622582387888,false
1.6241064037695554,0.18215448609867457,false
1.6286053937686584,0.23451436365850448,false
-0.1936807873440971,0.289268188124468,false
-0.2141415733009251,0.3225122611019176,false
-0.2171637495544132,0.32553444955441313,false
-0.21721484528848545,0.3255344495544131,false
0.9090360554193336,0.020891955419333696,false
0.909285801275663,0.0211417012756632,false
0.911805934425013,0.023661834425013045,false
0.9122644299421074,0.024120329942107444,false
0.981519492019855,0.0933753920198549,false
1.1077252875818622,0.07160518862106723,false
1.1260207686452046,0.07160518862106724,false
0.9371737894491805,0.014926989449180458,false
0.9372276564158838,0.014980856415883717,false
0.9392821633209586,0.017035363320958563,false
0.9475210570442603,0.02527425704426013,false
0.9478337466543245,0.025274257044260118,false
0.9630214330273743,0.04077463302737418,false
0.9632346302515424,0.04077463302737418,false
0.9692215834206198,0.04697478342061967,false
0.9940221849936028,0.07177538499360275,false
0.9531543498517118,0.013699949851711746,false
1.001125544100955,0.061671144100954936,false
1.0022877357875293,0.06283333578752939,false
0.9607463528788948,0.012844452878894796,false
0.9611087661349205,0.013206866134920503,false
0.9637035347393653,0.015801634739365356,false
0.9641500252730317,0.016248125273031766,false
0.9667543046387147,0.018852398079348062,false
1.0098370037568762,0.011928392119652229,false
1.024226751035892,0.01192839237808846,false
0.9655086314913388,0.01338303149133882,false
0.9655392335165768,0.013413614370057891,false
0.9657720193905561,0.01364641939055615,false
0.9662829444321175,0.014157344432117497,false
0.9692574877980228,0.01713188779802273,false
0.9713784595396319,0.018417173406630294,false
0.9683620892157921,0.0137066892157921,false
0.9683724131369408,0.013717013136940737,false
0.9708992285359306,0.014053515742647488,false
0.9710322796516139,0.016376879651614107,false
0.9716081033750087,0.01639035759625193,false
