-0.22943979995079922,0.01715201125055002,true
-0.2469369132748539,0.022638190479372294,true
-0.23978184346372172,0.02102926196161281,true
-0.23634115669263267,0.019718170186334982,true
-0.2506022438911507,0.022985884440890808,true
-0.2448438491223306,0.02126410852852384,true
-0.04202947653763378,0.00037790834399809015,true
-0.060062872023420755,0.0017866805430482302,true
-0.02647339621891942,-0.0006983584830859701,true
-0.02084543292678015,0.00031287747661323806,true
-0.018117686897155205,0.0010881173290258617,true
-0.2556322783342074,0.017161643177275088,true
-0.23932377971640084,0.015979967892328556,true
-0.23570855843387362,0.01526353195665972,true
-0.2498633203312659,0.017379461955439823,true
-0.05811220316673249,0.002851316072231491,true
-0.04124279866763919,0.002632064134082457,true
-0.02616378674726577,0.0016140517502874763,true
-0.023882332099325942,-0.0008465501144699628,true
-0.023621354636933378,-0.0003172457657661665,true
-0.021734772398319113,0.0003858399466896978,true
-0.24198396391800797,0.01902352329671944,true
-0.24784532729717856,0.022990599263988637,true
-0.24885472914322432,0.02266900299811936,true
-0.2452869147319955,0.021519536115273574,true
-0.24481207837195185,0.019996821950497762,true
-0.25851029169511186,0.02149399381261541,true
-0.2480573878742362,0.020972491452938086,true
-0.08189780596136342,0.0033610051184896905,true
0.0003956043597090897,-0.0020543460074272657,true
-0.03374814820488248,0.000603307441126355,true
-0.2793798286931711,0.030956566843389127,true
-0.11183543199877993,0.006968961379250377,true
-0.1250149300167722,0.008030353962711512,true
-0.13031151115111655,0.008350629960771641,true
-0.13965748354638247,0.01293684535500672,true
-0.11786934120321924,0.01027924299534494,true
-0.11683105574086672,0.010224347536730488,true
-0.17603232755648948,0.015342155983829514,true
-0.22705028080548695,0.02143749623688844,true
-0.2235243972163316,0.021424804370490616,true
-0.22696770421203216,0.020915745806244362,true
-0.47937859975630004,0.026073555064164644,true
-0.1572245722388445,0.006477946742674878,true
-0.153410796994359,0.005566056671531913,true
-0.1511236586164687,0.005406014535704412,true
-0.16314411004022816,0.006268535839941705,true
-0.14459512188091295,0.004830829005382453,true
-0.22978628318821828,0.022350590057032618,true
-0.209301402093532,0.01990226941389467,true
-0.21869919356517808,0.021450175558619958,true
-0.21971316432973872,0.021048061234598348,true
-0.23520371294608355,0.018981903767790367,true
-0.21657997777800708,0.018167577640397323,true
-0.21125701702154825,0.017263177290602963,true
0.008334309610313312,-0.003999479809294548,true
-0.036072865390561565,0.0003880677500283647,true
-0.04214796698824744,0.0013806907805292562,true
-0.007399313470960928,-0.0011858106948490488,true
-0.22924703361901622,0.020139619641739784,true
-0.19870840576990467,0.016746938486663587,true
-0.22096946876568524,0.019258632194232975,true
0.03912376474128368,-0.0029286444519424637,true
0.034780576832180415,-0.002236012674335347,true
0.0008576717812160684,1.1505234910266782e-05,true
0.005390471957385318,-0.0007287379846891151,true
-0.2150752332950691,0.02074253956926142,true
-0.2339976925345264,0.02101729492799484,true
-0.23410755087068197,0.021694620788310415,true
-0.2649078028072426,0.022427786114556758,true
-0.2684246369598241,0.022567753247649286,true
-0.26363720315336314,0.0227172058503588,true
-0.26408162488556886,0.022407642788596582,true
-0.28384277034901556,0.019827727655120836,true
-0.26562770014580583,0.016745714240656517,true
-0.27405582889387,0.017864448988431814,true
-0.24383309489976102,0.02197050724249222,true
-0.2119930660045043,0.019027345537753954,true
-0.233868628900625,0.021353689776994117,true
-0.22398484781975114,0.01989342310004169,true
-0.1838600913435654,0.014828879839438536,true
-0.20517397246979108,0.018263591114815625,true
-0.19637871753812947,0.017351601527072186,true
-0.23298177273856568,0.021229857930426144,true
-0.26531155074574253,0.024683822454733384,true
-0.21831190233424524,0.019852728505845962,true
-0.25975741645377115,0.023898433193307367,true
-0.2107343649753653,0.01914339190521419,true
-0.24688809674915224,0.022814725090814558,true
-0.2336959711991491,0.021592600360747838,true
-0.019946842131861042,-0.0024438718032063766,true
-0.025041620842345957,-0.0014014208054637378,true
-0.037836467913405836,-0.00034043714729517505,true
-0.024393369768187234,-0.001105473435706883,true
-0.036666359916710634,-0.0013507414079497737,true
-0.0171761572009827,-0.003091086137553517,true
-0.024870340086385112,-0.0019858056129209434,true
-0.2892387038970635,0.018238220868523947,true
-0.2713139652485323,0.016929976591021356,true
-0.2903627931639143,0.019153909248278117,true
-0.3101466055974024,0.0011658241488066712,true
-0.20946055458730456,0.020494101929817474,true
-0.20506377737932058,0.020735397014970708,true
-0.21146436775350402,0.021889590064746237,true
-0.7227208905287157,0.07123669799775283,true
-0.280860652152057,0.016650186034474768,true
-0.27896421661635495,0.016318547471063885,true
-0.24653857478687152,0.013792820489110735,true
-0.2555857151191362,0.017568735754775813,true
-0.2447669247151545,0.016322886099253253,true
-0.2520461954314112,0.017203115372864827,true
-0.12946093255753327,0.009869352866865397,true
-0.1541885484644006,0.012775070082727033,true
-0.15173623444295775,0.011567423425338175,true
-0.15245345271091248,0.011513070968084058,true
-0.23058975211237404,0.02266117008866257,true
-0.2113891059173728,0.022327773599390158,true
-0.22602367685921743,0.023903671224730166,true
-0.23885030182802414,0.02269585591051644,true
0.01175602882383009,-0.000971136974494427,true
-0.03442019169969568,0.001525329893958205,true
-0.04652377877481062,0.002781953265895351,true
-0.2447437650312448,0.014650186843928381,true
-0.256467681575997,0.017582931189898746,true
-0.2591782440841641,0.018550039680371652,true
-0.24545083884613117,0.016634701106794325,true
-0.24333256831032857,0.016326948643443737,true
-0.24734250628075344,0.016595740905079717,true
-0.23798013049202266,0.01548258058604432,true
-0.14928041421480853,0.01280391805005178,true
-0.1527601295275861,0.012605451334271323,true
-0.1502124099348099,0.012959170613304621,true
-0.1535610473388953,0.012944661988465722,true
-0.20205280248285984,0.012618823296299833,true
-0.198514471628554,0.012694083942934253,true
-0.19910965530330732,0.012626726823203469,true
-0.19715179284315104,0.01194194883394585,true
-0.22006051195212106,0.018605014270793974,true
-0.22028108052594242,0.018036889669516165,true
-0.21404914616948356,0.017337950724039763,true
-0.26617435100892695,0.01718299213720327,true
-0.2420464912977981,0.014716351857603852,true
-0.25122299758656386,0.015138284441268496,true
-0.24656256980888813,0.01291961153529217,true
-0.2873476661795794,0.01659184499248534,true
-0.2865523760479052,0.016606511899065257,true
-0.29588630207826416,0.017565820626889578,true
0.05961837867980857,-0.007973461197370621,true
0.08760480492630163,-0.00983289746387371,true
0.07229960976754246,-0.008079645402258362,true
0.009502793191599634,-0.0013284497743374785,true
-0.06896350286337372,0.0076189649469678294,true
-0.018638635519787616,0.0015740115543903532,true
-0.03529667530967562,0.003187764050742531,true
-0.17346951529642907,0.014361347259274945,true
-0.28332108575356874,0.02442883814397971,true
-0.26942679974260075,0.022640824415480987,true
-0.23670721199604416,0.019511562551563694,true
-0.17493427166265962,0.009945871785002877,true
-0.14667423678374825,0.006684218016301258,true
-0.16173887474531523,0.008477936934676716,true
-0.16066643296937666,0.007937097829040687,true
-0.23981300268732575,0.014715903750302642,true
-0.2455201641960182,0.014916629248363886,true
-0.24900643865086525,0.014517500304833869,true
-0.24840655386703148,0.015134479669374576,true
-0.10913932670803839,0.008318119990412445,true
-0.11241115184698025,0.008801258706710322,true
-0.11941582811497509,0.009277791289626108,true
-0.24572355966298198,0.0221013470790601,true
-0.2207944910375348,0.018603856926475384,true
-0.23662392486698547,0.02039230500071272,true
-0.22537683079052617,0.018947043310926004,true
-0.06079960681926494,0.002229878102705446,true
0.011822187674540297,-0.006090559010894128,true
0.021768861544425644,-0.006078449472374681,true
0.02844355402963114,-0.007491882568084446,true
-0.23202381788713375,0.022549883281700142,true
-0.13672271400539185,0.01158597473602875,true
-0.1417610425765049,0.012101883041275088,true
-0.27954613449313176,0.02200958698134041,true
-0.20452891294347156,0.012546445578210927,true
-0.2001912042027844,0.012296836848769935,true
-0.06594025408352869,0.005134092050865693,true
-0.06800045067066465,0.004140539916610106,true
-0.05512307773739156,0.0034858415474806337,true
-0.3059492999017054,0.02360269528956377,true
-0.20635538981229168,0.012240731430784899,true
-0.21729191031272882,0.013989141056776427,true
-0.041695577389157135,0.0013442728199186682,true
0.018394928391005122,-0.005709622642937978,true
0.06429341792219245,-0.009157010771128238,true
-0.030436792108548466,-0.001465483251023747,true
-0.04218118798328305,-0.0009500172432571619,true
-0.035607652727628225,-0.0014821637177555719,true
-0.023760904074409644,-0.0008503788595308065,true
-0.12186521789779114,0.00794730891430992,true
-0.055374585152194344,0.00027321134596983154,true
-0.047145606239980264,-0.00021740849004661666,true
-0.25640173281798523,0.012402195480551464,true
-0.2678468076070622,0.013996351316663755,true
-0.2521994237652501,0.012172852895526581,true
-0.1657824509933838,0.014019006033605758,true
-0.18313581959102987,0.015486512579618458,true
-0.1742712255882592,0.014462342551058896,true
-0.1735194371153225,0.015302527112719996,true
-0.1981701796018177,0.018074526051649345,true
-0.19418236288109836,0.018323598917837372,true
-2.9001256209736446,0.2748664841949444,true
-0.24810144934179978,0.024601473122188605,true
-0.17428623262510812,0.016467926451325013,true
-0.18039451025249026,0.015758357813057428,true
-0.21452130083467746,0.017645993860473663,true
-0.16092482285040505,0.012113435699366348,true
-0.16810302104349917,0.013583335964313395,true
-0.22871724037464425,0.020362439504850685,true
-0.21718093783038162,0.02257785001884967,true
-0.20078731277701012,0.02161497918483639,true
-0.17776491032652353,0.01879747215630803,true
-0.16050937664696524,0.01780077075713557,true
-0.18047489471697598,0.018743303062577335,true
-0.18855456315473113,0.019390030486896997,true
-0.17013678991922732,0.018089101121223847,true
-0.15143578185412976,0.01622797275632977,true
-0.22403532045580282,0.01691135634826367,true
-0.22099646474623424,0.01642420445975143,true
-0.2103897792319408,0.015059084219705712,true
-0.16346811679461348,0.016220612965588382,true
-0.16389593600431535,0.016952939067894177,true
-0.2430335932091417,0.0190593358700107,true
-0.2538373884925599,0.01977836286071627,true
-0.24263124257863977,0.018956313529571167,true
-0.24796158777447125,0.01927179301771352,true
-0.13918566877258576,0.004522657491863105,true
-0.15886646567226026,0.0068854947521928694,true
-0.21606393568744675,0.010650572960847912,true
-0.21877514114182206,0.010986290462628542,true
-0.22225050859904394,0.020099578975348295,true
-0.23458377591285784,0.02149194247736093,true
-0.22552195318445117,0.020102291241220455,true
-0.20136231801228877,0.01863522275896963,true
-0.2055086043985596,0.01880581928540459,true
-0.21039380831069776,0.019162671660533537,true
0.0031964923190013206,-0.004523921843593945,true
-0.2234434295383354,0.0251977979161985,true
-0.11183760093252337,0.0036809798963593487,true
0.002142545353147063,-0.005564485938553521,true
-0.0043433416541474035,-0.004085439999530746,true
0.03009971245420079,-0.007452171479614786,true
-0.2471690161036471,0.014944085830301476,true
-0.22052830777104782,0.012398551793629933,true
-0.28090402000734105,0.018154640750933954,true
-0.001078880196447085,-0.004005251471894372,true
0.04571342023495867,-0.007626652593212796,true
0.05954430466796545,-0.008982577129417565,true
-0.18545614950272116,0.010162899309546336,true
-0.13563765702839847,0.005541430142081319,true
-0.13563729806528346,0.005567105711886483,true
-0.1733927635299225,0.014576310273494153,true
-0.20753196200682777,0.01866395362570955,true
-0.22561145835238638,0.01966235514329473,true
-0.25154700523458906,0.022499812835956576,true
-0.2379776240592315,0.021374317998544515,true
-0.23723543514714607,0.021421616693330092,true
0.005323703113826794,-0.005313826732776042,true
0.05046547836084875,-0.009382865149271571,true
0.05435159823087732,-0.009748270547723745,true
-0.26000476544361883,0.015231544220694296,true
-0.06688496960596835,0.0006803431495970708,true
-0.07213952658295614,0.0008885358494704065,true
-0.17231316784384565,0.015042673257227995,true
-0.17937357301512769,0.015594981784014805,true
-0.2997361516142023,0.027837607593813873,true
-0.2563401029135368,0.023373614561176148,true
-0.24919510934958666,0.02259597141374886,true
-0.18626304831052953,0.014628167577050266,true
-0.19191643712874995,0.01613313309505862,true
-0.19493122393925355,0.01639471642668347,true
-0.20770342614893433,0.016944194812245655,true
-0.18748105459415776,0.01691161422016177,true
-0.16072419110561942,0.013421103246112148,true
-0.18167551340692567,0.016044067617470265,true
-0.06630915294604356,-0.0012678238540913545,true
-0.016252351173690394,-0.0025605131078195453,true
-0.01144546304543037,-0.0028772039013003348,true
0.005119527113622069,-0.0038434275618412783,true
-0.2727934406480794,0.024892051704674872,true
-0.24812923551257582,0.022181295605154888,true
-0.24623204196049597,0.01943056616768124,true
-0.23852584979279579,0.018641622924271933,true
-0.24979986825033051,0.020221020310673743,true
-0.08737532270925685,0.0029474943737032577,true
-0.29402670409611953,0.023642632357348314,true
-0.24710532133924346,0.018704366222279917,true
-0.2523158868266777,0.019059490128345236,true
-0.215624520997172,0.016873588213219798,true
-0.2061666783460061,0.016406378467655164,true
-0.215733301380313,0.016789727549461952,true
-0.23035609931172654,0.015405620549632015,true
-0.1979904654684871,0.011408201272938276,true
-0.18860208032826914,0.01021868618103039,true
-0.10550535269340046,0.006855832910358309,true
-0.1653787288256222,0.01275464451963118,true
-0.1726101727221946,0.013675313073654827,true
-0.1925276510103196,0.017968095565448608,true
-0.18536630335877782,0.016858246608288746,true
-0.19118587681681803,0.0174055665537811,true
-0.17699693901876157,0.015589761795600912,true
-0.18036877287658828,0.017018676022331355,true
-0.15945087080801507,0.014478968712674845,true
-0.1902904736096264,0.018355874777648273,true
-0.16196329520118824,0.014595528142136396,true
-0.17572276186939037,0.015966196199092744,true
-0.18517843893093866,0.00743772756402282,true
-0.1740351921909731,0.006383542404765533,true
-0.17810949596158587,0.0069978583205122236,true
-0.24698071321640447,0.020236554540184803,true
-0.1685108892387432,0.010090298418689289,true
-0.1615967715199504,0.009829869987117504,true
-0.11821908695645833,0.008700169916707606,true
-0.15866602572330274,0.01293592172986914,true
-0.16399902553295465,0.013325971766160766,true
-0.06426981530168367,0.0023048181622698782,true
-0.1686817198289246,0.014351449892556545,true
-0.1470548475201816,0.0017969699416948565,true
-0.17541601683857339,0.0028925073057891326,true
-0.061650193153596725,0.004031050106890338,true
-0.044986012218295096,0.0022278843085068167,true
-0.04933891804165785,0.0027122806704298064,true
0.5717692347636996,0.040286080316454975,true
-0.2581836179052194,0.015677773679712542,true
-0.2764465574404443,0.017106672508184012,true
-0.27094646001264966,0.016865337122036694,true
-0.24906644089172075,0.015287314757875231,true
-0.2599632843317359,0.016047014716842334,true
-0.2551396705643991,0.016022232671680542,true
-0.26356295859240675,0.019468678288877744,true
-0.25695450660624364,0.018098483649455654,true
-0.19692257852054207,0.013543307616324995,true
-0.2537048306329437,0.020772414040266557,true
-0.26753115937207356,0.022263717312003106,true
-0.2725766503207969,0.020235617910981496,true
-0.26857043818645926,0.020891114866633725,true
-0.2658287761807421,0.020187351499763695,true
-0.09746190363586854,0.007399828044994977,true
-0.1418219155958842,0.012659730949102,true
-0.13735605864115202,0.012225851220129563,true
-0.12974223628704823,0.005743761842255585,true
-0.07820863759549512,0.0012792225521747191,true
-0.11788235888445964,0.004597400162056675,true
-0.06291954119859278,0.0049099374859012945,true
-0.055444426017291215,0.004514451547945719,true
-0.052776203596529014,0.004181096870572942,true
-0.19812387959472433,0.01449831252341996,true
-0.17133104530747156,0.012600335274664698,true
-0.17479720488329042,0.012886642316272762,true
-0.10334816755902082,0.0042764295916596085,true
-0.07123496287246034,0.002182533162840672,true
-0.10495559349278477,0.0039024762181636974,true
-0.10146854319015708,0.004361225480796843,true
-0.09340250114521201,0.003556950982094076,true
-0.2265231607650311,0.02346376699755079,true
-0.18898479093158183,0.019824745876889177,true
-0.19057228956235361,0.019427683210507668,true
-0.21515190277082644,0.021199563916800584,true
-0.208368382727792,0.020235851838365265,true
-0.20494953771866473,0.019875006572497744,true
-0.08604944485689897,0.004747193185366594,true
-0.053754396021764905,0.0031008756352582656,true
-0.028714240771721106,0.0008756585619556778,true
-0.10207186060593282,0.006853263742025634,true
-0.10164008691749787,0.006807898242444044,true
-0.094283475758831,0.0060751019049926636,true
-0.1360262262566647,0.005526389785477093,true
-0.11665336827066347,0.004329030750229224,true
-0.11905311171304267,0.00450152024421982,true
-0.7518842901984606,0.07655666390694726,true
-0.772872322276392,0.07845281433330711,true
-0.8025577504427379,0.08138291504307643,true
-0.22162254323819486,0.02085488651234793,true
-3.5555259849402328,0.31881332867215006,true
-3.329138501797266,0.3033608225777899,true
-0.22214228950396375,0.016829829585316064,true
-0.2266294328140814,0.017885556747008285,true
-0.22842866318586164,0.01833205651874778,true
-0.21995931494557536,0.01808322571224691,true
-0.24837725640412142,0.022455228008917028,true
-0.2528612533417425,0.02301068720957783,true
-0.2475056245770511,0.023423497548566957,true
-0.24600804316135189,0.023552754748462523,true
-0.27086139286327393,0.026262165852201813,true
-0.09513303927198158,0.0030245113175854654,true
-0.24098349762579135,0.01791404045935399,true
-0.10536695315941608,0.004536169345478014,true
-0.16617091000653128,0.009201757789282478,true
-0.16892837486691048,0.00926728626321402,true
-0.17525809503167944,0.010544688810336295,true
-0.10269131966001316,0.007551793495171294,true
-0.11022791681263422,0.010822270695926561,true
-0.08291581717541768,0.007738269136390835,true
-0.0900873835776339,0.008211703314541685,true
-0.13667954531407506,0.009409480049893337,true
-0.1484258660728799,0.010766721306682436,true
-0.1323539751038758,0.009519043625615758,true
-0.23152864905043086,0.01506540957350272,true
-0.254166578535182,0.016989709532534786,true
-0.24362318976916042,0.015557736691245827,true
-0.08002951609748071,0.0026294386592195795,true
-0.04493300452547577,0.0008699556406323861,true
-0.0967261225767726,0.004186115584454281,true
-0.09638834292477627,0.005130862779012452,true
-0.03385184656717627,-2.8732072253179197e-05,true
0.011825299034776027,-0.003629474434676483,true
-0.01151447277790002,-0.002186450584081151,true
-0.2123064806996975,0.01596260775649988,true
-0.22167677865206192,0.016501341837008576,true
-0.19450808592911817,0.013258454735406239,true
-0.20570010305721786,0.014458643062738197,true
-0.23048672859893993,0.022257688887845017,true
-0.2327429922229481,0.022574714415115854,true
-0.23788295305186302,0.02305120235786237,true
-0.10429584914364079,0.010016192747938163,true
-0.12929037956880254,0.010609154672111931,true
-0.06580167384380634,0.0048837965732261845,true
-0.05005302530041958,0.006021225020440835,true
-0.06823451502363773,0.007615060806544949,true
-0.11531456183149628,0.0049389976034453775,true
-0.1473977223457103,0.008372300048395287,true
-0.16954443116959145,0.011116274869817866,true
-0.155779139501425,0.00956123538524245,true
-0.12086040101363696,0.0017622010995683168,true
-0.10954796545010578,0.002681787390439977,true
-0.11854243815373802,0.004636656740140216,true
-0.12660290176632816,0.010940704836752524,true
-0.12562696746045807,0.011764052047831736,true
-0.12455853406264955,0.011786891669769511,true
-0.28214491683425336,0.02181861278879202,true
-0.2909663590925945,0.023307619454483258,true
-0.29097123492067895,0.023451962130042858,true
-0.16157094828745827,0.015340377658240034,true
-0.17525139296604073,0.016960887499305494,true
-0.08328701340683975,0.006445587490577581,true
-0.23886210977728523,0.02330011608532931,true
-0.24604251678935873,0.023440849927441415,true
-0.2473083120525642,0.024371459569845405,true
-0.27447147716376635,0.019193817176133,true
-0.297247450248713,0.022292171673506667,true
-0.3001765648534782,0.022757535998501638,true
-0.2842652335193304,0.021332681638855572,true
-0.2643726286743969,0.016666804510522604,true
-0.2667815537419732,0.0164513274872512,true
-0.29067733328706585,0.01916231688605724,true
-0.14062290734079708,0.006703847653912298,true
-0.11087131465977934,0.004523657759663846,true
-0.10110499692768826,0.0037825091436461955,true
-0.13165048318875705,0.009753489452969333,true
-0.11352016204151116,0.00786705269142432,true
-0.23930653069754454,0.017083127081153754,true
-0.18686867481805236,0.010704781235430672,true
-0.18275285357705945,0.01023037477006497,true
-0.07915555837385907,0.006477121584509943,true
-0.060656217627820086,0.004540689935202957,true
-0.11152706238334126,0.009015986351527616,true
-0.12392842975290663,0.010441261801825003,true
-0.2295877333033649,0.019657099030509412,true
-0.26692146391684624,0.0238819881704678,true
-0.2718167463911501,0.025498295817214245,true
-0.2625466046686407,0.016736962772881364,true
-0.3313622262979259,0.02391875042754249,true
-0.3081580633043267,0.02163824798906261,true
-0.16121808367071,0.015046396838736681,true
-0.16275636790563236,0.01444629431524641,true
-0.09875642241950816,0.002798640302509342,true
-0.17798435732861645,0.01092678086589921,true
-0.28471628240679697,0.019286861427407848,true
-0.11210448394917544,0.008815222986252425,true
-0.12243738665245518,0.010344329067943664,true
-0.1338554909664243,0.011007837594026598,true
-0.0060655248404763995,-0.006421377076606838,true
0.010646936349066605,-0.007342412801145282,true
0.007281025422406551,-0.007229537442234951,true
-0.0230539560045967,-0.0034213617688847453,true
-0.031333177331988815,-0.0028636983770388147,true
-0.02864677913334232,-0.002679865063943354,true
-0.027320660404126867,-0.004058261497571214,true
0.045198690834909516,-0.010582431723377694,true
0.04915728180432813,-0.011218891080961302,true
-0.18469105278750442,0.011382530408619862,true
-0.2692985117619723,0.020957471608192113,true
-0.2756825529335729,0.021617989052728603,true
-0.05462643544239881,0.004983673692870422,true
-0.06828182377526362,0.006257953079706918,true
-0.06389256626601347,0.0060120792575509285,true
-0.03706950038607512,-0.0025811838973435475,true
-0.027328312068724298,-0.0029328649332882872,true
-0.028980468973813095,-0.0018192776874808858,true
-0.12985409669659134,0.00637570358124348,true
-0.14421083090290776,0.008155695566170101,true
-0.15551323597604946,0.009548643581212435,true
0.07316283071659951,-0.009126369961963088,true
0.07891083759869733,-0.009833108650211031,true
0.08400863886579535,-0.009502640056919393,true
0.020950123145885097,-0.005388960446285118,true
0.0036212245763658224,-0.0028212376214729884,true
-0.14966775076696404,0.009549836529042177,true
-0.13201974263492183,0.007289073904562682,true
-0.1159647270030239,0.005465340626226084,true
-0.12149616087952786,0.005102612275293517,true
-0.10283825884658238,0.0032428796496923873,true
-0.1457656701106388,0.0069055710425471595,true
-0.2189469070365046,0.017199747477623928,true
-0.21777790019261395,0.01663615713456748,true
-0.09446177509076348,0.0075697523679065515,true
-0.11273072191636824,0.008952152281871545,true
-0.10145158161377299,0.007862437940216793,true
-0.14743230939344137,0.00704201634192772,true
-0.16826713651709957,0.009369441796856365,true
-0.1785089589195039,0.010506975208462666,true
-0.02556185839210412,0.0017959253306852052,true
-0.02423944492194191,0.0026956340626545783,true
-0.06357555390171787,0.0055124719520366905,true
-0.11226283377075896,0.0065004753183869335,true
-0.11422723200876128,0.006497441226638201,true
-0.0900317898221864,0.004754757995632741,true
-0.2572661562187917,0.017962404979185914,true
-0.2390990219950584,0.016239843422585443,true
-0.23014862286708798,0.01508810821105902,true
-0.08140886445496115,0.0016416509602139029,true
-0.11347674094039822,0.0044800185953856875,true
-0.10720319839455972,0.005210388009719014,true
-0.11168117836681929,0.008505399922611762,true
-0.05128587043790889,0.004325277406898254,true
-0.05372039103509185,0.0044047135251766845,true
-0.27176362984662333,0.024855636210378868,true
-0.23568490024470867,0.021642590253234173,true
-0.24409270544594253,0.022055468003748135,true
-0.8957625985004938,0.09147209277030155,true
-0.16726172373568782,0.01465665584126824,true
-0.15551293918180809,0.01406529312911356,true
-0.753633433444657,0.07630862303617972,true
-0.26137355786864835,0.01660336591885364,true
-0.2533222883297469,0.01617400950925474,true
-0.03495323074489004,0.0013510028956532083,true
-0.0695834030758819,0.0036215151594019557,true
-0.05702047076746808,0.0025438143077762543,true
-0.19980624709071115,0.014132801576447529,true
-0.018251414814618228,-0.003764502486487603,true
-0.0009244006395779936,-0.005241145897836502,true
-0.051724907460249936,0.0007925951475309945,true
-0.021718440059162625,0.0003633218861198162,true
-0.03181406657522856,0.000670411113997349,true
-0.04614034916748766,0.0018471319515256102,true
-0.17965724227098467,0.009863678635823991,true
-0.12986314158333823,0.006113621399187585,true
-0.12035217588365832,0.004867955375054522,true
-0.2712535043489116,0.021242384151415855,true
-0.2577362055079475,0.01940158095285857,true
-0.22217635213128367,0.01712745885444117,true
-0.016708258755706362,-0.00407800992447363,true
-0.02386076980021168,-0.003756018525969601,true
-0.02100867528939898,-0.004077505523701702,true
-0.062457106381984207,0.0003158639897330451,true
-0.07029962879993207,0.0016272539990673518,true
-0.05385474193343076,0.0003834068014668124,true
-0.2264797029588862,0.013709877028060674,true
-0.22410030708046147,0.013102148058846547,true
-0.23316358264114678,0.013556329456304389,true
-0.24780411738992875,0.011365399186150482,true
-0.23689129849474871,0.022700691787716526,true
-0.23927016716185856,0.023233595701819793,true
-0.25945931275769907,0.025737238624877368,true
-0.25999919873940336,0.015215924252699325,true
-0.21900214356417297,0.012847641784881791,true
-0.2897532360806487,0.018763703548441618,true
-0.09195873851528263,0.0066342585071392235,true
-0.10681084940725594,0.008254939724865296,true
-0.10364338356264724,0.007629302954206607,true
-0.09999004849101445,0.007676541715169349,true
-0.18984586900786948,0.017867539568490853,true
-0.0559177215804475,0.0028580226882790605,true
-0.030766675977932367,0.0030286944910541402,true
-0.04507977667172841,0.003479559307525748,true
-0.08728439766237539,0.00643082925888222,true
-0.0760771136797036,0.0052387749741165945,true
0.03602923536248026,-0.0068423548954391344,true
0.04240614428782885,-0.006044434513478525,true
0.04099384815779478,-0.0057293155568649,true
-0.13387284397522314,0.005144306305579466,true
-0.12032921871216928,0.005221545823330592,true
-0.1343259722360146,0.006450341894078171,true
-0.0915717838955617,0.00565302424849895,true
-0.12381599549139577,0.008393757958274128,true
-0.11022155763712033,0.008164407634124432,true
-0.10681165461794173,0.007371425507089635,true
-0.02392575813761172,-0.0016036398366895133,true
-0.02539139063597362,-0.0015210003683278905,true
-0.06324650304632662,0.0019526410521623627,true
-0.044153636025263565,-0.0026291825529870805,true
-0.010983647754881032,-0.003768683329104877,true
-0.03421623488500736,-0.0009715781275667357,true
-0.2526248596615351,0.017298988959833284,true
-0.24366893406418855,0.015324216218177034,true
-0.24557421896965842,0.01567230055855412,true
-0.1696267450259213,0.011092166977474255,true
-0.15026431957223713,0.009059777472704006,true
-0.16660912607455602,0.010294923979916493,true
-0.17506584020557148,0.011377580871693077,true
-0.17402286264499167,0.011195516088604751,true
-0.23459833853880674,0.018201525673995717,true
-0.24799442159221596,0.014649980127267703,true
-0.2757424701590868,0.016329882600797596,true
-0.26777443796614064,0.015739333727074534,true
-0.07606561024416664,0.00543821648942161,true
-0.1626285620557214,0.015903936406907015,true
-0.1569407758256834,0.015436357419978508,true
0.046701257296277277,-0.008353195676830127,true
0.03850500381226857,-0.006674637360816332,true
0.025368239745121035,-0.0054253898313820215,true
-0.1710082838762399,0.01631311370910668,true
-0.1863755668925134,0.017202950544931733,true
0.10258073694838354,-0.014768132868769823,true
0.021317223369337113,-0.006581218241641679,true
0.04536397472699849,-0.008352564791319184,true
-0.16110688519168337,0.011551402957379275,true
-0.20842031568172137,0.017610678098436527,true
-0.2257452969861215,0.019492644723499153,true
-0.22579947131149597,0.0159257617558074,true
-0.23617893122675354,0.01707815023842177,true
