0.7853197823770016,-0.10290945626780576,0.8244829773902893,-0.1120394691824913,true
0.7853196628651496,-0.10290931999512405,0.8243670463562012,-0.11167333275079727,true
0.7853188219503323,-0.10290939063652041,0.8121901750564575,-0.11136271059513092,true
0.7853197825421037,-0.1029094562423118,0.6076335906982422,-0.09536215662956238,true
0.7853196541462789,-0.1029093074499675,0.6603502631187439,-0.09899865090847015,true
0.7853188146731589,-0.10290939275353038,0.6395139098167419,-0.09860287606716156,true
0.7853185753523919,-0.10290938607013281,0.6611610651016235,-0.10090649873018265,true
0.7853196806994089,-0.102909348597314,0.6336445808410645,-0.09868951886892319,true
0.7853190992295006,-0.1029093956610403,0.6479443311691284,-0.1002446860074997,true
0.7853185956251658,-0.1029093901493821,0.6491108536720276,-0.0998622253537178,true
0.7853197825969165,-0.1029094562551535,0.7005388736724854,-0.10082244873046875,true
0.7853193352955501,-0.10290944772263041,0.6999135613441467,-0.10068908333778381,true
0.7853187999832046,-0.10290939669892309,0.6756479740142822,-0.0990133062005043,true
0.785319782176141,-0.10290945622461592,0.6982512474060059,-0.10154340416193008,true
0.7853194473516583,-0.10290933605662471,0.6615313291549683,-0.09734851866960526,true
0.7853188966245059,-0.10290936711499109,0.7069549560546875,-0.10197500884532928,true
0.7853186506264467,-0.10290940099253587,0.5667077898979187,-0.08963794261217117,true
0.7853200445571817,-0.10290972032305441,0.5034263730049133,-0.08329278230667114,true
0.785319260406852,-0.10290947257489111,0.5154498815536499,-0.08472034335136414,true
0.7853187349114331,-0.10290940688532801,0.5091288089752197,-0.08410446345806122,true
0.7853197830956006,-0.10290945610572493,0.5367869734764099,-0.08970122784376144,true
0.785319268655654,-0.1029094723759641,0.49960237741470337,-0.0864129513502121,true
0.7853189966236778,-0.10290935588318412,0.5159244537353516,-0.08734708279371262,true
0.7853197820585867,-0.10290945617883072,0.7293432950973511,-0.10445787012577057,true
0.7853194208923442,-0.10290936550802958,0.7392515540122986,-0.10572502017021179,true
0.7853188739223822,-0.10290937391797374,0.7266138195991516,-0.10456039011478424,true
0.7853197858066524,-0.10290945616765568,0.6305760145187378,-0.09797672927379608,true
0.7853195372111746,-0.10290925997728738,0.631118655204773,-0.09796649217605591,true
0.785318973256856,-0.10290935452774652,0.6159059405326843,-0.09646108001470566,true
0.7853197838191701,-0.1029094561765496,0.7804233431816101,-0.1101212128996849,true
0.7853198885361452,-0.10290965449365515,0.7293916344642639,-0.1059853658080101,true
0.7853192198131306,-0.10290946481651647,0.7679882049560547,-0.10879787802696228,true
0.7853186996539199,-0.10290940685281766,0.7368244528770447,-0.10657218098640442,true
0.794670606254186,-0.1018597318911152,0.7076500654220581,-0.09720609337091446,true
0.7946703251449831,-0.10185955889806265,0.6900902390480042,-0.09548250585794449,true
0.794669772121671,-0.10185963257556507,0.695273220539093,-0.0959242433309555,true
0.7946706108283692,-0.10185973175610055,0.6134837865829468,-0.08334250748157501,true
0.7946708640746685,-0.10185999591813195,0.6412559747695923,-0.08640152215957642,true
0.7946698179400615,-0.10185963073990434,0.6159584522247314,-0.08267329633235931,true
0.7946695665672687,-0.10185968247964387,0.6242443919181824,-0.08345997333526611,true
0.7946740289431653,-0.10185897221348313,0.706337034702301,-0.09458080679178238,true
0.7946696967790129,-0.10185965195154387,0.6765508651733398,-0.09038088470697403,true
0.7946706050184771,-0.10185973183716415,0.7520352005958557,-0.10177677124738693,true
0.794670628554036,-0.10185984481519895,0.7348246574401855,-0.09901903569698334,true
0.7946700145118358,-0.10185972590863736,0.7186463475227356,-0.09791103005409241,true
0.7946697493027778,-0.10185963684174863,0.5674536228179932,-0.08754681050777435,true
0.7946706462093989,-0.10185973154795404,0.6586677432060242,-0.09042922407388687,true
0.7946704502595433,-0.1018595530356923,0.6538028120994568,-0.08940760791301727,true
0.7946698801515627,-0.10185964665344863,0.6512824296951294,-0.08897638320922852,true
0.7946693885139788,-0.10185965793276013,0.5415611863136292,-0.08171488344669342,true
0.7946725845716683,-0.1018592582359461,0.6079590320587158,-0.08877623081207275,true
0.7946699272913371,-0.10185967128574162,0.5956809520721436,-0.08732490986585617,true
0.7946696674004611,-0.10185966166846055,0.6012842655181885,-0.0876847431063652,true
0.794670604720622,-0.10185973179563085,0.6058171987533569,-0.08551117032766342,true
0.7946705981455964,-0.10185979991528443,0.6170546412467957,-0.08669637143611908,true
0.7946699984665155,-0.10185971669116244,0.6100960969924927,-0.08601220697164536,true
0.7946694899570677,-0.10185967767288483,0.6264837980270386,-0.08792183548212051,true
0.7946710590218471,-0.1018599638350656,-0.26116707921028137,0.03863713890314102,true
0.7946701195431787,-0.10185974380487818,0.6910951137542725,-0.0919385626912117,true
0.7946695950429612,-0.10185967964858225,0.7007636427879333,-0.09310518950223923,true
0.7946706046998846,-0.10185973178772624,0.5192031860351562,-0.07917530089616776,true
0.7946702028631774,-0.10185968741456686,0.5132896900177002,-0.07837831974029541,true
0.7946696672987388,-0.1018596615725145,0.517151415348053,-0.07905600965023041,true
0.7946706061592261,-0.10185973180091056,0.734516978263855,-0.10084652900695801,true
0.7946703339272815,-0.1018595517571213,0.819385290145874,-0.10973786562681198,true
0.794669779599031,-0.10185963147113819,0.7812256217002869,-0.10655250400304794,true
0.9757746106354943,-0.09714996338937601,0.8499455451965332,-0.09492351114749908,true
0.9757743901266056,-0.09714975980766759,0.8728550672531128,-0.09661651402711868,true
0.9757741103109939,-0.09714997967072364,0.8704304695129395,-0.09724483639001846,true
0.9757736125029757,-0.09714991365257111,0.8622239232063293,-0.09630313515663147,true
0.9757746044325198,-0.09714996354271778,0.8987635970115662,-0.0933011844754219,true
0.9757743215783125,-0.09714979818270499,0.9769884347915649,-0.09700203686952591,true
0.9757737948022831,-0.09714986543811852,0.9781948924064636,-0.09758318215608597,true
0.9757746056060536,-0.09714996340914413,0.7627463340759277,-0.08289006352424622,true
0.9757747508151697,-0.09715019662208071,0.772516667842865,-0.08266368508338928,true
0.9757740794135207,-0.0971499767081801,0.7752621173858643,-0.08344220370054245,true
0.9757735856461898,-0.09714991452850551,0.9087522625923157,-0.0961839035153389,true
0.9757754577077719,-0.09714995680577548,0.9417349100112915,-0.09939530491828918,true
0.9757741732363108,-0.0971499549513698,0.9539563655853271,-0.10003574937582016,true
0.9757736672373065,-0.09714990392189841,0.9461925029754639,-0.09981490671634674,true
0.9757746028092851,-0.09714996344282333,0.8897666931152344,-0.0933268666267395,true
0.975774566592665,-0.09714998764240215,0.9928111433982849,-0.0992191880941391,true
0.9757740030436706,-0.09714993845405878,1.0023090839385986,-0.09944282472133636,true
0.9757735195054131,-0.09714990695558838,0.8646432161331177,-0.09692753106355667,true
0.9757746562237687,-0.09715012057638772,0.9209233522415161,-0.10107273608446121,true
0.9757740488231637,-0.09714996554583144,0.8915348052978516,-0.09782024472951889,true
0.9757735591078702,-0.09714991303433249,0.8753986954689026,-0.09278601408004761,true
0.9757750337670252,-0.09715019548060026,0.921163022518158,-0.09692366421222687,true
0.9757741337825541,-0.09714997545290828,0.9086418151855469,-0.09577378630638123,true
0.9757736329501862,-0.09714991129453936,0.9010429382324219,-0.09576025605201721,true
0.9757734104037448,-0.0971498855203275,0.8119652271270752,-0.08026769757270813,true
0.9757764513376227,-0.09714948977489507,0.8070273995399475,-0.07990121096372604,true
0.9757742133013498,-0.0971499190575547,0.8049936294555664,-0.07938078790903091,true
0.9757737019352766,-0.09714989321553574,0.8113040328025818,-0.08015899360179901,true
0.9757746049089164,-0.09714996347183406,0.939610481262207,-0.096712127327919,true
0.9757747237534541,-0.09715018027248937,0.9094923138618469,-0.09445125609636307,true
0.97577381657933,-0.09714986248666033,0.9157964587211609,-0.09503013640642166,true
0.9757747036379478,-0.09714996276527654,0.8108603358268738,-0.08884787559509277,true
0.9757744830315533,-0.09714982720906236,0.7891268134117126,-0.08692824095487595,true
0.9757739352313086,-0.0971498937460197,0.8196486234664917,-0.08888760954141617,true
0.9757734613210775,-0.09714989463954951,0.7712302803993225,-0.08519148081541061,true
1.095457260717107,-0.09794275056846721,0.9332600235939026,-0.08130846917629242,true
1.0954567017593582,-0.09794275261392096,0.933005154132843,-0.08147216588258743,true
1.0954564457081355,-0.09794265247429769,0.9500328302383423,-0.08436717838048935,true
1.0954572597513568,-0.09794275056638357,1.0533573627471924,-0.0983891636133194,true
1.0954568032781153,-0.09794275630774799,1.0967499017715454,-0.1015327200293541,true
1.0954562964375507,-0.09794269587894269,1.0918877124786377,-0.10082698613405228,true
1.0954572591665592,-0.09794275056105484,1.045905590057373,-0.096368707716465,true
1.0954569006200652,-0.09794266967730768,1.0110087394714355,-0.09405013173818588,true
1.095456380683562,-0.09794267074837909,1.026476502418518,-0.09459804743528366,true
1.0954572599938486,-0.0979427505454129,0.9113677740097046,-0.07790400087833405,true
1.0954573137183223,-0.0979429076427005,0.9262175559997559,-0.08001356571912766,true
1.0954567017840195,-0.09794275260819661,0.9385285973548889,-0.08110257238149643,true
1.0954562082408044,-0.09794270010308599,0.9105550646781921,-0.07835835963487625,true
1.0954579100437338,-0.09794287079920394,1.0707509517669678,-0.09634765982627869,true
1.095456811158714,-0.09794275211532644,1.060312032699585,-0.09503986686468124,true
1.0954563032863835,-0.09794269431341629,1.0544946193695068,-0.09490147978067398,true
1.0954572594981928,-0.09794275055890204,1.0548628568649292,-0.09638045728206635,true
1.0954568433770684,-0.09794272934837367,1.1160253286361694,-0.09848026186227798,true
1.0954563312504013,-0.09794268705073537,1.0992920398712158,-0.09805632382631302,true
1.0954561032674743,-0.09794268037612876,0.919898271560669,-0.08881169557571411,true
1.095457313691234,-0.09794290763901932,0.857861340045929,-0.08460759371519089,true
1.0954567017695935,-0.09794275261254626,1.0506446361541748,-0.09842590987682343,true
1.0954564457257523,-0.09794265247275855,0.9239471554756165,-0.08957494795322418,true
1.0954572607450994,-0.0979427504716182,0.8439867496490479,-0.08011090010404587,true
1.0954573567929897,-0.09794294874254574,0.8395462036132812,-0.07883530110120773,true
1.0954567171651037,-0.09794275902991428,0.8630045652389526,-0.08121208101511002,true
1.095456221557797,-0.09794270106859988,0.8487288355827332,-0.07992257922887802,true
1.095460150119315,-0.0979420303385477,1.166184663772583,-0.1045716181397438,true
1.0954568922587473,-0.09794267915507775,1.1701213121414185,-0.10537543147802353,true
1.0954563734925669,-0.09794267308273788,1.1505699157714844,-0.1033136397600174,true
1.0954561421209583,-0.09794268863545394,1.0162736177444458,-0.09948688745498657,true
1.095457334177559,-0.09794292874167,1.0374594926834106,-0.10030098259449005,true
1.095456985204914,-0.09794257745207438,1.0339109897613525,-0.10007961839437485,true
1.0954564529953172,-0.09794265115452204,1.0253206491470337,-0.09978649020195007,true
0.9315874757469453,-0.08393561537341863,0.6739200353622437,-0.07136691361665726,true
0.9315878257076411,-0.08393584749173429,0.6472008228302002,-0.06706276535987854,true
0.9315870366261767,-0.08393562746384577,0.6336439847946167,-0.06566981226205826,true
0.9315868128362161,-0.08393551972473443,0.6493102312088013,-0.06714772433042526,true
0.9315864091672728,-0.08393553753293498,0.669029951095581,-0.06236592307686806,true
0.9315874620224754,-0.08393561550218821,0.7207627892494202,-0.06857246160507202,true
0.9315871995838153,-0.08393545015135635,0.7063146233558655,-0.06681521981954575,true
0.9315867426945086,-0.08393551740832475,0.7197527885437012,-0.067769855260849,true
0.9315865381912621,-0.08393556503120721,0.8364186882972717,-0.07641277462244034,true
0.9315874352281874,-0.08393568349249249,0.8257633447647095,-0.07346625626087189,true
0.9315869366675342,-0.0839356002642951,0.8238550424575806,-0.07394824177026749,true
0.9315865152677753,-0.08393556124624549,0.8263241648674011,-0.0731457769870758,true
0.9315874608071038,-0.08393561549767312,0.6438890695571899,-0.06246253848075867,true
0.9315873542685452,-0.08393550786623799,0.6899062395095825,-0.06756908446550369,true
0.9315868777250396,-0.08393555493031689,0.6818244457244873,-0.06645620614290237,true
0.9315864645364934,-0.08393554941697919,0.814676821231842,-0.08316420018672943,true
0.9315874030201244,-0.08393561840275768,0.907417893409729,-0.08901748806238174,true
0.9315871482620138,-0.08393551490186069,0.9061334729194641,-0.08958271890878677,true
0.9315866989157906,-0.08393553079890073,0.8991369009017944,-0.08796700090169907,true
0.9315874664149496,-0.08393561545034105,0.7201659679412842,-0.0641292929649353,true
0.9315876689699161,-0.08393587969091544,-0.8271194696426392,0.12554660439491272,true
0.9315867871552214,-0.08393551452177976,0.7318120002746582,-0.0634891465306282,true
0.9315865787478226,-0.08393556623256636,0.7413247227668762,-0.06398536264896393,true
0.9315873253837503,-0.08393545540965529,0.7332514524459839,-0.06405939906835556,true
0.931587077714519,-0.08393560092509933,0.7124753594398499,-0.06167944148182869,true
0.9315864422685669,-0.08393554402223448,0.7198173403739929,-0.06145653873682022,true
0.9315905261060935,-0.08393488873222411,0.8567292094230652,-0.0821831002831459,true
0.931587148334177,-0.08393551501939178,0.8340612053871155,-0.0792965516448021,true
0.9315866989887793,-0.0839355309127833,0.8368295431137085,-0.07907740771770477,true
0.931587461779237,-0.08393561544469146,0.7601414918899536,-0.06684789806604385,true
0.9315875132315636,-0.08393579370112793,0.760118305683136,-0.06639397889375687,true
0.9315869696302657,-0.08393562094318556,0.7593691349029541,-0.06676013767719269,true
0.9315865438742821,-0.08393556556631586,0.7790392637252808,-0.06879667937755585,true
0.9315874609116424,-0.08393561544518144,0.6743688583374023,-0.06282970309257507,true
0.9315873252886694,-0.08393545531038205,0.7004923820495605,-0.06496721506118774,true
0.931586851596069,-0.08393553739878756,0.7173649072647095,-0.06733261048793793,true
0.931586637929217,-0.08393555393992594,0.7066806554794312,-0.06566954404115677,true
1.0273966970369863,-0.0985139737447872,0.9004501700401306,-0.09414228796958923,true
1.027394769026265,-0.09851397355859082,0.9151853322982788,-0.09528711438179016,true
1.027394238930678,-0.098514019650401,0.9030482769012451,-0.0940137505531311,true
1.0273950818325357,-0.09851411279886876,0.8315101265907288,-0.0813736766576767,true
1.0273948382734395,-0.09851391670109806,0.8238093852996826,-0.07993416488170624,true
1.0273942979047748,-0.09851401123358941,0.8346934914588928,-0.08092276751995087,true
1.0273938333927308,-0.0985140312416564,0.7847824096679688,-0.08426850289106369,true
1.0273950320331786,-0.09851411580098296,0.8148545622825623,-0.08682339638471603,true
1.0273947350782269,-0.09851401230131177,0.8645020127296448,-0.08998654037714005,true
1.0273942098974065,-0.09851402819628471,0.8286393880844116,-0.08761800080537796,true
1.0273950809254064,-0.09851411277920875,1.0051828622817993,-0.10048992186784744,true
1.027394829467604,-0.09851392108693546,0.9734795093536377,-0.096835196018219,true
1.0273945494261345,-0.09851412608748618,0.9863348603248596,-0.09737425297498703,true
1.0273951796699943,-0.09851411211134589,0.8697196841239929,-0.08360511809587479,true
1.0273964548713748,-0.09851384144030215,0.905291736125946,-0.08754020929336548,true
1.0273946688014677,-0.09851408434349401,0.8932110667228699,-0.08377360552549362,true
1.0273941527592534,-0.09851404711167248,-1.1195955276489258,0.13425767421722412,true
1.0273950781590722,-0.09851411278394695,0.895115077495575,-0.08624390512704849,true
1.0273947434868747,-0.09851400239369927,0.9214443564414978,-0.08854719251394272,true
1.027394217105451,-0.09851402584605598,0.8956114649772644,-0.0846930742263794,true
1.0273951796699943,-0.09851411211134589,0.7728700041770935,-0.08420894294977188,true
1.0273964550046415,-0.09851384157296808,0.7861742973327637,-0.08628088235855103,true
1.0273944033852578,-0.09851404313541531,0.8306366801261902,-0.08915596455335617,true
1.02739511916496,-0.0985141125061528,0.7919114232063293,-0.07829153537750244,true
1.0273949249006982,-0.0985139340563307,-0.6347450017929077,0.09353538602590561,true
1.0273943731417987,-0.09851402766623069,0.8095573782920837,-0.07986215502023697,true
1.0273941249504195,-0.09851405507306461,0.8191317319869995,-0.08067909628152847,true
1.0273988600410395,-0.09851338597300319,-1.0481796264648438,0.12243543565273285,true
1.0273947350426373,-0.09851401226559964,-0.8043707013130188,0.10680927336215973,true
1.0273942098689317,-0.098514028154701,0.8449221849441528,-0.08192353695631027,true
1.0273950817904265,-0.09851411277657995,0.972682535648346,-0.0939050018787384,true
1.027394838186643,-0.09851391658520928,0.9684555530548096,-0.09434539079666138,true
1.0273942978488506,-0.0985140111358186,0.9601144790649414,-0.09225186705589294,true
0.7468508625211445,-0.08325947432372104,0.6040017604827881,-0.07180812954902649,true
0.7468513045527723,-0.08325964204571927,0.6025015115737915,-0.07168856263160706,true
0.7468504303069685,-0.08325948018713043,0.5547844171524048,-0.06623592972755432,true
0.7468502076223446,-0.0832593832812909,0.5532712340354919,-0.06560029834508896,true
0.7468498052452084,-0.08325939833790011,0.5030427575111389,-0.07146018743515015,true
0.7468537116500387,-0.0832589690946929,0.5075497627258301,-0.0699014961719513,true
0.7468503111334103,-0.08325945451179925,0.5203559994697571,-0.07086673378944397,true
0.7468500941430701,-0.08325938533674689,0.5186033844947815,-0.07021243125200272,true
0.746850839679436,-0.08325947444972293,0.6262546181678772,-0.07302435487508774,true
0.7468506006755325,-0.08325928818734173,0.6317825317382812,-0.0738980695605278,true
0.7468501440476568,-0.08325937341953026,0.6287553906440735,-0.0736382007598877,true
0.7468497513292292,-0.08325939230972815,0.6991539001464844,-0.08535587787628174,true
0.7468525461455624,-0.08325890466324067,0.772292971611023,-0.08924756944179535,true
0.7468504922897595,-0.08325942155364836,0.7647897005081177,-0.08802216500043869,true
0.7468500514536871,-0.08325940198384395,0.7312412858009338,-0.08500347286462784,true
0.7468508393807793,-0.08325947448584682,0.5742433667182922,-0.06723027676343918,true
0.7468508713675512,-0.08325963159672574,0.6165351271629333,-0.07228408753871918,true
0.7468503438626297,-0.08325947652063186,0.5795820355415344,-0.0675857663154602,true
0.7468499223531072,-0.08325942399322543,0.582582414150238,-0.06748185306787491,true
0.7468508575561055,-0.08325947436449367,0.6550042033195496,-0.08383913338184357,true
0.7468512492396872,-0.08325967903638949,0.6819544434547424,-0.08342945575714111,true
0.7468502012303492,-0.08325938080699696,0.6882476210594177,-0.0845281109213829,true
0.7468508982498614,-0.08325947405275931,0.5572254061698914,-0.06979689747095108,true
0.7468504575828571,-0.08325945984100826,0.5947511792182922,-0.07428667694330215,true
0.74685002138393,-0.08325941293995609,0.5832756161689758,-0.07253362238407135,true
0.7468508399951662,-0.08325947445918057,0.6062925457954407,-0.07752957195043564,true
0.7468505638142968,-0.08325932604394991,0.5805040597915649,-0.07446902245283127,true
0.7468503307508736,-0.08325946851514368,0.5845972895622253,-0.07547653466463089,true
0.7468508504436336,-0.08325947441781723,0.5764651894569397,-0.07422333210706711,true
0.7468511560185788,-0.08325972512303513,0.5752242803573608,-0.07337398082017899,true
0.7468504101098566,-0.08325948850812859,0.6013285517692566,-0.0763641968369484,true
0.7468499800702876,-0.08325942325033821,0.4953238368034363,-0.0690511018037796,true
0.7468507392956896,-0.08325938284607155,0.6307336688041687,-0.07829368114471436,true
0.7468504922267609,-0.08325942147021936,0.6314448714256287,-0.07814338803291321,true
0.7468498548499317,-0.08325940978298653,0.6199916005134583,-0.07658349722623825,true
0.8374912921639038,-0.09352515684969052,0.6715303659439087,-0.07795851677656174,true
0.8374894564241172,-0.09352515666883109,0.6727281212806702,-0.07781017571687698,true
0.837488952548369,-0.09352520274859565,0.65501868724823,-0.0754203125834465,true
0.837489819662624,-0.0935252955692626,0.7953391075134277,-0.09633336961269379,true
0.8374896206062368,-0.09352513589695109,0.6850529313087463,-0.08657405525445938,true
0.837489345761695,-0.09352528142707374,0.7014930844306946,-0.08752593398094177,true
0.8374888573198163,-0.09352523453563512,0.6861448287963867,-0.08637059479951859,true
0.8374924221143059,-0.09352496677815114,0.7140833139419556,-0.08948689699172974,true
0.8374894482968527,-0.09352516611379383,0.7151479721069336,-0.08873230963945389,true
0.8374889456353971,-0.09352520472836319,0.728643536567688,-0.08981714397668839,true
0.8374897582734935,-0.09352529597542616,0.7301951050758362,-0.08891874551773071,true
0.8374894974611509,-0.09352511591655747,0.715540885925293,-0.08782979100942612,true
0.8374889874957978,-0.09352519563597106,0.7089692950248718,-0.0869254544377327,true
0.8374897691929961,-0.09352529591665247,0.8138961791992188,-0.09530160576105118,true
0.8374895637142147,-0.0935250931254689,0.7786757349967957,-0.09311645478010178,true
0.8374890441540048,-0.0935251983436409,0.8607231378555298,-0.09844914823770523,true
0.837488597154437,-0.09352521714408066,0.6712600588798523,-0.07665050774812698,true
0.8374897701436802,-0.09352540901494105,0.6711786389350891,-0.07601175457239151,true
0.8374892035638475,-0.09352529007392688,0.6678409576416016,-0.0758870542049408,true
0.8374887337604391,-0.09352524395804916,0.6539674401283264,-0.07456501573324203,true
0.8374899577874686,-0.09352555361108697,0.6232022047042847,-0.07789427042007446,true
0.8374892626106291,-0.09352531192431131,0.6140698194503784,-0.07602344453334808,true
0.837488785023838,-0.09352524698656932,0.7302894592285156,-0.09316238760948181,true
0.8374903710665624,-0.09352541626457204,0.6845502257347107,-0.08873377740383148,true
0.8374893227837626,-0.09352529758694197,0.7113983631134033,-0.09014907479286194,true
0.8374886215301911,-0.09352522089604733,0.5687365531921387,-0.08067717403173447,true
0.8374930984856368,-0.09352453150396338,0.5449296832084656,-0.0781114250421524,true
0.8374894161516167,-0.09352520531959597,0.5940229892730713,-0.08196385949850082,true
0.8374889181129579,-0.09352521372789734,0.595543622970581,-0.08219978213310242,true
0.8374897613737085,-0.09352529600000167,0.6856455206871033,-0.08717001974582672,true
0.8374895306614292,-0.093525096373025,0.7129241228103638,-0.08888418227434158,true
0.8374890157877959,-0.09352519459196826,0.7209729552268982,-0.08925250917673111,true
1.1101621674692252,-0.09249256033549272,1.0023210048675537,-0.09124831855297089,true
1.110162822230854,-0.0924926228137769,0.9786931276321411,-0.08885672688484192,true
1.1101617046132877,-0.09249255742544632,0.9692752361297607,-0.08777396380901337,true
1.1101612234396945,-0.0924925027593508,1.009170413017273,-0.09010658413171768,true
1.1101621337413874,-0.09249256059581942,0.8837186694145203,-0.07366841286420822,true
1.1101623605986606,-0.09249282488074678,0.8716115355491638,-0.07107970863580704,true
1.110161400505319,-0.09249245969752606,0.893630862236023,-0.0731763169169426,true
1.1101621776460797,-0.09249256026606557,0.9386036992073059,-0.08056143671274185,true
1.1101629273814744,-0.09249255386988,0.9360809922218323,-0.07915326952934265,true
1.1101617121950347,-0.09249255201122752,0.9289044141769409,-0.07817681133747101,true
1.1101612300509396,-0.09249250098223077,0.9424905776977539,-0.0794084370136261,true
1.1101610155482786,-0.09249248781863562,0.8694417476654053,-0.07805199921131134,true
1.110162111357343,-0.09249262872979805,0.9274251461029053,-0.0816655084490776,true
1.110161564637282,-0.0924925455053043,0.9712896347045898,-0.08481450378894806,true
1.1101611018524906,-0.09249250648225522,0.8976321816444397,-0.07943165302276611,true
1.1101621291173849,-0.09249256054880735,0.0822557806968689,0.030577385798096657,true
1.1101618617454982,-0.09249238750909879,0.07410723716020584,0.030426349490880966,true
1.110161358515099,-0.09249246121658757,0.07044072449207306,0.030993275344371796,true
1.1101611333312422,-0.09249251070547672,0.8604395389556885,-0.0727667436003685,true
1.1101624391803209,-0.0924928221696168,0.873546302318573,-0.0742870345711708,true
1.1101619272909007,-0.09249235675754364,0.8765100836753845,-0.0747169628739357,true
1.1101614144458876,-0.09249246148339255,0.8818820714950562,-0.07513494044542313,true
1.1101609733419608,-0.09249248101815125,0.9052160382270813,-0.07742270827293396,true
1.1101621277919451,-0.09249256059809352,1.133642554283142,-0.09482671320438385,true
1.1101617581732957,-0.09249250758702882,1.0961577892303467,-0.09078425914049149,true
1.1101612698611294,-0.09249248801579725,1.145815134048462,-0.09440766274929047,true
1.1101621290125214,-0.09249256057930116,0.9314542412757874,-0.0825204998254776,true
1.110161869882815,-0.09249238055901367,0.8227927088737488,-0.0749506950378418,true
1.1101613654346525,-0.09249246027319227,0.9566301107406616,-0.0856645256280899,true
1.1101621434707099,-0.09249256050510944,1.0143409967422485,-0.08702168613672256,true
1.1101619435984944,-0.09249235995707808,1.0258305072784424,-0.08966775983572006,true
1.1101614285757238,-0.09249246476665095,1.0216774940490723,-0.08843384683132172,true
1.1101609853486551,-0.09249248257666048,0.9970543384552002,-0.08621271699666977,true
1.1101647935212995,-0.09249184043358649,0.9711182713508606,-0.08179036527872086,true
1.1101615213454241,-0.09249251495952125,0.9286712408065796,-0.0790659710764885,true
1.1101610645561106,-0.09249249873178755,0.9096028208732605,-0.07804735749959946,true
1.0163060766468925,-0.08323665026762146,0.9125779867172241,-0.07444197684526443,true
1.0163055232482388,-0.08323646058859158,0.9412190914154053,-0.07649104297161102,true
1.0163051002015806,-0.08323640261983913,0.826336145401001,-0.06918661296367645,true
1.0163064704852278,-0.08323661958863891,0.744069516658783,-0.05834711715579033,true
1.0163055965232703,-0.08323645772951314,0.7545717358589172,-0.05960691347718239,true
1.0163053739380383,-0.08323636082397318,0.7424012422561646,-0.05812656506896019,true
1.0163060046703385,-0.08323645201667772,0.87254399061203,-0.06984028965234756,true
1.0163054578851318,-0.0832364167341909,0.8662208318710327,-0.06902303546667099,true
1.0163060073079855,-0.08323645200888184,0.81723952293396,-0.0682227611541748,true
1.0163057742396864,-0.08323626031885441,0.9296201467514038,-0.07629115134477615,true
1.01630531669056,-0.08323635051656146,0.895637571811676,-0.07393143326044083,true
1.016306079457578,-0.08323645148241807,0.9188839197158813,-0.07978598773479462,true
1.0163058766045554,-0.08323630325552432,0.9339068531990051,-0.07941082864999771,true
1.0163054061667072,-0.08323637806268247,0.9513475298881531,-0.08012114465236664,true
1.016304999267331,-0.08323638188202687,0.742313802242279,-0.06159139797091484,true
1.0163056938132748,-0.08323635149116412,0.7607897520065308,-0.06293632835149765,true
1.0163050492332886,-0.08323639423917044,0.7971498370170593,-0.06794227659702301,true
1.0163062110068872,-0.0832367162555159,0.7721851468086243,-0.06382745504379272,true
1.016305556382715,-0.08323646849705632,0.7800641059875488,-0.06470199674367905,true
1.016305129100234,-0.08323640279703481,0.7653027772903442,-0.06301410496234894,true
1.0163060059081919,-0.0832364521063014,0.6548376083374023,-0.05934697017073631,true
1.0163053105970976,-0.08323635108510656,0.6920761466026306,-0.062011171132326126,true
1.0163060053499162,-0.08323645196040844,0.9275872707366943,-0.07821052521467209,true
1.0163057374219717,-0.08323629477972166,0.8888901472091675,-0.07356491684913635,true
1.0163050832438192,-0.08323640073404781,0.8631914258003235,-0.07188990712165833,true
1.0163060050854504,-0.08323645200540872,0.8826573491096497,-0.08165289461612701,true
1.0163058479124953,-0.08323626574858402,0.8982369303703308,-0.08331535756587982,true
1.016305380373659,-0.08323636364425276,0.9031552672386169,-0.08293424546718597,true
1.1879215494354367,-0.06866559596059517,1.101357102394104,-0.06928689777851105,true
1.1879213605430563,-0.06866543633709585,1.1222865581512451,-0.07070190459489822,true
1.1879209707094551,-0.06866551841674519,1.115559458732605,-0.06933293491601944,true
1.18792063346348,-0.06866552494814704,0.41127410531044006,0.010833083651959896,true
1.1879238711588065,-0.06866495571436973,0.2983037829399109,0.024867331609129906,true
1.1879212204142544,-0.0686654860733866,0.26503607630729675,0.02852862887084484,true
1.1879210298057312,-0.06866557147019138,0.28778383135795593,0.025524333119392395,true
1.1879206842487724,-0.0686655399815192,0.29637983441352844,0.025826994329690933,true
1.1879214952160162,-0.06866559643864917,1.0627858638763428,-0.06464382261037827,true
1.1879213001103268,-0.06866539427557017,1.078934907913208,-0.06566670536994934,true
1.187920917531069,-0.06866549545117694,1.0341997146606445,-0.062115203589200974,true
1.1879215494368993,-0.06866559596001083,0.9585631489753723,-0.04964524507522583,true
1.1879220813083746,-0.0686655103183974,-1.1246594190597534,0.1692492961883545,true
1.1879209707185723,-0.0686655184181183,-0.8116584420204163,0.14530110359191895,true
1.1879207945724137,-0.06866553495120031,-1.302882432937622,0.18341216444969177,true
1.1879214956478021,-0.06866559643886451,0.9934669733047485,-0.05192844942212105,true
1.1879212506814822,-0.06866543930969576,0.9916232824325562,-0.05139698460698128,true
1.1879210568221155,-0.06866559463949834,0.985881507396698,-0.05091911554336548,true
1.1879207077120029,-0.06866554522740448,1.159985899925232,-0.06744591146707535,true
1.1879214951631665,-0.06866559634646864,0.8294060826301575,-0.016797838732600212,true
1.1879213000510853,-0.0686653941376957,0.8248977661132812,-0.017150739207863808,true
1.1879209174735714,-0.0686654953320073,0.8186126351356506,-0.015534897334873676,true
1.187920588216201,-0.06866551558633,1.1696006059646606,-0.07198069244623184,true
1.1879236390834016,-0.06866483189039724,1.20992112159729,-0.07357566058635712,true
1.1879212084201274,-0.0686655057095749,1.20237135887146,-0.07281201332807541,true
1.1879208396461804,-0.06866551411985,1.2092162370681763,-0.07293085753917694,true
1.187921495915407,-0.06866559637458737,0.9791478514671326,-0.05540833994746208,true
1.1879215410268653,-0.06866579462673685,1.0055893659591675,-0.05812649428844452,true
1.1879210730565457,-0.0686656049334865,0.9343375563621521,-0.052304137498140335,true
1.187920721861277,-0.06866554697854364,0.9078284502029419,-0.051135532557964325,true
1.187921499846243,-0.06866559633694938,0.9522100687026978,-0.05188913270831108,true
1.1879213000679436,-0.0686653941253519,0.9619690179824829,-0.05253766477108002,true
1.1879211004074246,-0.06866561275876588,0.9573017358779907,-0.05202365294098854,true
1.1879207457621896,-0.06866554705993086,0.9545149803161621,-0.05056309327483177,true
1.1879214946666847,-0.06866559643473998,1.0307906866073608,-0.06330841779708862,true
1.1879211677080497,-0.06866556801903549,1.0799986124038696,-0.06645840406417847,true
1.1879209814254552,-0.06866552668683462,1.0563541650772095,-0.0647536888718605,true
1.1879206426376911,-0.06866552758145353,1.0441251993179321,-0.06445714831352234,true
1.069470051331033,-0.05995132211017428,1.1150593757629395,-0.06792077422142029,true
1.0694688373909549,-0.0599513219273943,1.0957940816879272,-0.0667039155960083,true
1.069468510045182,-0.059951368006517694,1.0777387619018555,-0.0648234635591507,true
1.0694682280060372,-0.05995137934706087,0.8262335658073425,-0.03844901919364929,true
1.0694700317453087,-0.059950891367612544,0.8318813443183899,-0.03945646062493324,true
1.0694687904246643,-0.059951408257912314,0.8361275792121887,-0.039917368441820145,true
1.069468469856104,-0.05995138869456739,0.8470523357391357,-0.04124739393591881,true
1.069469078092908,-0.05995146128385014,0.7947221398353577,-0.03964614495635033,true
1.0694690176616295,-0.05995150727281328,0.8158104419708252,-0.041318539530038834,true
1.0694688268566621,-0.059951341114325284,0.8188155889511108,-0.041745588183403015,true
1.0694685011286431,-0.05995137217892877,0.8302067518234253,-0.043051280081272125,true
1.0694690784439838,-0.05995146122274488,1.1742502450942993,-0.07243523746728897,true
1.0694688971300317,-0.05995125764034197,1.134122371673584,-0.07110714167356491,true
1.0694684093552542,-0.05995141147188459,1.0625947713851929,-0.06491314619779587,true
1.0694691432390082,-0.05995146070381685,0.9055700898170471,-0.04878270626068115,true
1.0694689497680958,-0.059951312376978226,0.8953604102134705,-0.047301121056079865,true
1.0694686073730089,-0.05995138719118109,0.8919054269790649,-0.04710662364959717,true
1.0694684522712976,-0.05995139769087897,0.9030436873435974,-0.04845917597413063,true
1.0694690787082899,-0.05995146128157212,1.0180704593658447,-0.05737081542611122,true
1.069469076189332,-0.05995161837285042,1.0304166078567505,-0.05806465074419975,true
1.069468682961482,-0.05995146334574571,1.0248512029647827,-0.05713379383087158,true
1.0694683759428152,-0.05995141083274469,0.8769606351852417,-0.03976435214281082,true
1.0694690788759615,-0.059951461156052974,0.8705067038536072,-0.038396015763282776,true
1.069468853595894,-0.05995129577121729,0.873144268989563,-0.038585811853408813,true
1.0694686829464461,-0.05995146322472353,0.8702445030212402,-0.03733092546463013,true
1.0694682396336006,-0.05995137883581739,0.7866125702857971,-0.042247287929058075,true
1.0694700317670471,-0.05995089141102962,0.8483020663261414,-0.04473419114947319,true
1.0694687904502693,-0.05995140830699887,0.7823840379714966,-0.040493592619895935,true
1.0694684698831585,-0.05995138873713207,0.7969335317611694,-0.04242759570479393,true
1.0694690783148324,-0.0599514612387714,0.8545729517936707,-0.0411672368645668,true
1.0694690489586973,-0.05995157420824655,0.8253521919250488,-0.03788972645998001,true
1.0694686734155505,-0.05995145525951218,0.8149041533470154,-0.03630795702338219,true
1.06946836759896,-0.059951409142466,1.0337278842926025,-0.058263227343559265,true
1.0694691485493246,-0.059951694556180254,1.0100080966949463,-0.05208885297179222,true
1.0694687020462204,-0.05995147461536703,1.0078473091125488,-0.052003469318151474,true
1.0997496477625757,-0.062210663818480595,1.21527099609375,-0.0754900649189949,true
1.0997495990703339,-0.06221073198420106,1.2090691328048706,-0.07268206775188446,true
1.0997492233332793,-0.06221064879148152,1.2093462944030762,-0.07284180819988251,true
1.0997489077669595,-0.06221060977423631,0.8616290092468262,-0.0421794168651104,true
1.099749609617152,-0.06221075423585621,0.8976112008094788,-0.044905345886945724,true
1.0997492281394217,-0.06221065329903836,0.9063951969146729,-0.04575332999229431,true
1.0997489119180486,-0.06221061064683345,0.9026680588722229,-0.045364487916231155,true
1.099749648249837,-0.06221066381864041,1.0686535835266113,-0.05648787319660187,true
1.0997494536115155,-0.06221046414243252,1.0524914264678955,-0.05582354590296745,true
1.099749106589725,-0.06221056236164232,1.0280581712722778,-0.05342112109065056,true
1.0997496475697262,-0.06221066378773626,0.8788179755210876,-0.04335707053542137,true
1.099749572820225,-0.06221066677719639,0.33766746520996094,0.014438997022807598,true
1.0997492085359772,-0.062210633705736894,0.31245166063308716,0.018113065510988235,true
1.0997488949284995,-0.062210606046037564,0.8747536540031433,-0.041608698666095734,true
1.0997496485840896,-0.06221066370395251,0.808939516544342,-0.04450220242142677,true
1.0997494085500372,-0.06221051528145525,0.9317976236343384,-0.05403495579957962,true
1.0997490684969864,-0.062210568675936,0.9246454834938049,-0.053610026836395264,true
1.0997496506919062,-0.06221066376864701,0.9078015089035034,-0.05454837158322334,true
1.0997497451122278,-0.062210910931351275,0.9461925029754639,-0.05516568943858147,true
1.0997491018162922,-0.06221056220660495,0.9378857016563416,-0.05507930740714073,true
1.09974880379363,-0.06221058221298718,0.9037054777145386,-0.052204083651304245,true
1.0997506743765435,-0.06221009384751673,0.8941298127174377,-0.04951166734099388,true
1.099749354271648,-0.062210610747087704,0.8543739318847656,-0.04708089306950569,true
1.0997490220631616,-0.06221059118002912,0.83742755651474,-0.046029359102249146,true
1.099749647707707,-0.06221066375381113,0.9044713973999023,-0.05189463123679161,true
1.0997495989383888,-0.06221073187236803,0.9394164085388184,-0.05383182689547539,true
1.099749223200647,-0.06221064864867169,0.8517947196960449,-0.046751126646995544,true
1.0997489076277513,-0.06221060963014836,0.8566177487373352,-0.04695816710591316,true
1.0997498747942056,-0.06221091439999277,0.15699705481529236,0.04456423595547676,true
1.099749475999456,-0.06221046090990724,0.1503351628780365,0.044907208532094955,true
1.0997491257493672,-0.06221056612731904,0.13449852168560028,0.039445847272872925,true
1.099748824063859,-0.062210584927661045,0.30946874618530273,0.017450010403990746,true
1.0997495466317182,-0.06221058921362178,0.3352320194244385,0.015842443332076073,true
1.099749188940417,-0.0622106130226422,0.33000290393829346,0.0166015587747097,true
1.0997488780163958,-0.06221060048223721,0.8648715019226074,-0.051539044827222824,true
0.9671364957694051,-0.06161907640919432,0.8653116226196289,-0.053784530609846115,true
0.9671362847959494,-0.061618890147819544,0.8554108142852783,-0.05480397492647171,true
0.9671359435528313,-0.061618975381643924,0.8547585010528564,-0.053205229341983795,true
0.9671357904702043,-0.06161902737105961,0.8016290068626404,-0.05244510620832443,true
0.9671364951819534,-0.06161907648382834,0.8653023838996887,-0.05610097572207451,true
0.9671363669128802,-0.06161892766766456,0.8041833639144897,-0.05175597965717316,true
0.9671360153626893,-0.061619002474646974,0.8467887043952942,-0.05479918792843819,true
0.9671365001637025,-0.061619076432203275,0.848365843296051,-0.05659382417798042,true
0.967136127312232,-0.061619092961147884,0.9267536401748657,-0.0646577849984169,true
0.9671365056097315,-0.06161907635938545,0.7982016205787659,-0.054375987499952316,true
0.9671367198878966,-0.06161932715862721,0.7757802605628967,-0.053155478090047836,true
0.9671361422126512,-0.06161909053460209,0.7855318784713745,-0.05411084368824959,true
0.9671358209185604,-0.06161902526860366,0.7671025991439819,-0.05253053084015846,true
0.967136495136889,-0.06161907648217371,0.7246939539909363,-0.04120060056447983,true
0.9671363774761997,-0.061618953941776335,0.7500771284103394,-0.044317491352558136,true
0.9671360250423131,-0.061619011227880584,0.7381741404533386,-0.04276982322335243,true
0.9671357190109833,-0.06161900900514056,0.6964864134788513,-0.04217953234910965,true
0.9671364199108425,-0.061619079471769686,0.7599971890449524,-0.04911557585000992,true
0.967136229894659,-0.06161897599424989,0.7590190768241882,-0.04883785545825958,true
0.9671358970344792,-0.06161899188856598,0.7314132452011108,-0.04468058794736862,true
0.967136497396912,-0.06161907641918962,-0.9284263849258423,0.16172713041305542,true
0.9671365689850433,-0.06161930964343687,0.7405062317848206,-0.03910350799560547,true
0.9671361124190541,-0.06161908972930409,0.7390875220298767,-0.0377972349524498,true
0.96713579477883,-0.06161902755156436,0.7369013428688049,-0.038004446774721146,true
0.9671364951657812,-0.06161907642013746,0.713967502117157,-0.04464619606733322,true
0.9671363615877677,-0.061618916285560835,0.7181214094161987,-0.04573601484298706,true
0.967136010471492,-0.061618998373860395,0.7181764841079712,-0.045399010181427,true
0.9671357065350191,-0.06161900490598339,0.7260256409645081,-0.046341150999069214,true
0.9671364952001328,-0.06161907647618449,0.6481504440307617,-0.04042423143982887,true
0.967136246103739,-0.06161894664023393,0.6532753705978394,-0.04092742130160332,true
0.9671360734676556,-0.061619061403525584,0.6686643362045288,-0.04229995980858803,true
0.9671357607942966,-0.06161902239245673,0.7359561920166016,-0.04117404669523239,true
0.9671366919938569,-0.0616193380136617,0.756306529045105,-0.04410949721932411,true
0.9671361370900866,-0.061619091889353446,0.7396126985549927,-0.041830167174339294,true
0.967135816417603,-0.06161902601458162,0.8287866115570068,-0.0814312994480133,true
0.7812910738475961,-0.07613327712770916,0.8892298936843872,-0.08989885449409485,true
0.7812906431041525,-0.07613335921685753,0.8971443176269531,-0.09046413004398346,true
0.7812902707391632,-0.07613336575109715,0.8476663827896118,-0.08199308067560196,true
0.7812912000014687,-0.0761335503002636,0.8828330636024475,-0.08454568684101105,true
0.781290532554719,-0.07613334233142441,0.9213936924934387,-0.08756344765424728,true
0.781291217498308,-0.07613343725386719,0.7262133359909058,-0.07977563142776489,true
0.7812910207244319,-0.07613323357187464,0.7239131331443787,-0.07843596488237381,true
0.7812905961530915,-0.07613333828134251,0.7009045481681824,-0.07665470242500305,true
0.7812902308287745,-0.07613335781397426,0.6675512194633484,-0.06488601118326187,true
0.7812926856931118,-0.0761328674693808,0.6991677284240723,-0.06898339092731476,true
0.7812908802337484,-0.07613338436109518,0.6778138875961304,-0.06570478528738022,true
0.7812904762854651,-0.07613336478973178,0.6525887846946716,-0.06204305961728096,true
0.7812912118164695,-0.07613343730155908,0.7233003377914429,-0.07442259043455124,true
0.7812909934459202,-0.07613324119381074,0.7243587970733643,-0.07335413247346878,true
0.7812905728570361,-0.07613333573033249,0.7172338962554932,-0.07216831296682358,true
0.7812912093353982,-0.07613343732756396,0.6402187347412109,-0.06634114682674408,true
0.7812912308401483,-0.07613359445627917,0.6263642907142639,-0.06338270753622055,true
0.7812903581784358,-0.07613338692518443,0.45095622539520264,-0.032509732991456985,true
0.7812911450276856,-0.07613344032571753,0.9310709834098816,-0.09160422533750534,true
0.7812905044537994,-0.07613335275453777,0.8707262873649597,-0.0856846272945404,true
0.7812912093983202,-0.07613343725886652,0.5607918500900269,-0.055152397602796555,true
0.7812907684312475,-0.07613345058607704,0.5716263651847839,-0.05619153752923012,true
0.7812903789652114,-0.07613338840823435,0.5696262121200562,-0.055591925978660583,true
0.7812912089071156,-0.07613343726561017,0.6426143050193787,-0.06489038467407227,true
0.7812908234513548,-0.07613344299290545,0.6236025094985962,-0.06205889582633972,true
0.7812904269792427,-0.0761333825639772,0.6399776339530945,-0.06426779180765152,true
0.7812912090471272,-0.07613343731147594,0.640899121761322,-0.06155816838145256,true
0.7812909526450643,-0.0761332801677477,0.6538115739822388,-0.06265905499458313,true
0.7812905382730082,-0.07613334063924497,0.6370427012443542,-0.05965748801827431,true
1.1482771251582125,-0.059580238760151207,0.8172935247421265,-0.038949478417634964,true
1.148276726091583,-0.05958023699662017,0.9459414482116699,-0.048385508358478546,true
1.1482771761345785,-0.05958023838661167,1.0580922365188599,-0.061676640063524246,true
1.1482775817138509,-0.059580152668345016,1.0892651081085205,-0.06312859058380127,true
1.1482768124879308,-0.0595802241958318,1.0832778215408325,-0.06213092431426048,true
1.1482764971737538,-0.05958017729698818,1.067902684211731,-0.06181928887963295,true
1.148277124426284,-0.05958023885730986,0.8492586612701416,-0.041155438870191574,true
1.1482768843503106,-0.05958009958123545,0.8143134117126465,-0.039100874215364456,true
1.1482765590289876,-0.059580145673506106,0.9465746283531189,-0.0489770770072937,true
1.1482771246565033,-0.059580238790958216,1.0882986783981323,-0.05862966552376747,true
1.1482769436827884,-0.05958003520786742,1.0898597240447998,-0.05806064233183861,true
1.1482766091967738,-0.059580138575973995,1.123862624168396,-0.061638422310352325,true
1.1482771242070517,-0.05958023880561166,0.9166947603225708,-0.042658399790525436,true
1.1482768274551276,-0.059580202637621156,0.9171464443206787,-0.04158603772521019,true
1.148277125158102,-0.05958023881470646,1.0956752300262451,-0.05692870169878006,true
1.148277137560009,-0.05958041705249648,1.0585886240005493,-0.052954092621803284,true
1.1482767354534924,-0.059580244320528664,1.0987519025802612,-0.0575098991394043,true
1.148277126590058,-0.059580238816942854,1.07912015914917,-0.0568896122276783,true
1.1482771940215741,-0.059580472125737374,1.0852465629577637,-0.056552737951278687,true
1.1482767497950455,-0.059580252188035115,1.080069661140442,-0.05709133669734001,true
1.1482764422842993,-0.059580190007810986,1.0849720239639282,-0.05724276974797249,true
1.1482771242772083,-0.05958023886283548,0.8825181126594543,-0.04249800741672516,true
1.1482770011329242,-0.0595801025773892,0.9362531304359436,-0.04658728092908859,true
1.1482766604130408,-0.05958016911508084,0.9002320170402527,-0.04439336061477661,true
1.1482763647690717,-0.059580170008762395,1.1198548078536987,-0.06228525936603546,true
1.1482771218577712,-0.059580395943035415,1.1566295623779297,-0.06410744786262512,true
1.1482769004123148,-0.05958007351894948,1.140113115310669,-0.06288114935159683,true
1.1482764256639284,-0.05958018840315341,1.1510993242263794,-0.06455446779727936,true
1.1482771242576795,-0.05958023880481745,1.094529151916504,-0.05884888023138046,true
1.1482768174628655,-0.059580217562596585,1.1113834381103516,-0.060588106513023376,true
1.148276501528456,-0.059580175268648894,1.130824089050293,-0.06197775527834892,true
0.9444521237163396,-0.05800848307787273,0.9956477284431458,-0.06570644676685333,true
0.9444506116718854,-0.058009131897895645,1.0318025350570679,-0.06825932115316391,true
0.9444501604961306,-0.05800914138619898,0.6739934682846069,-0.04170586168766022,true
0.9444508852255843,-0.058009203336467044,0.6884349584579468,-0.04132474586367607,true
0.9444505023259124,-0.05800920885061634,0.6909127831459045,-0.041519585996866226,true
0.9444502043293597,-0.05800915348293931,0.6802282333374023,-0.04124174639582634,true
0.9444508925198368,-0.05800920323892926,0.943134605884552,-0.061462972313165665,true
0.9444507105835006,-0.0580089995613975,1.001350998878479,-0.0651739239692688,true
0.9444503838155259,-0.05800910426949469,1.0164330005645752,-0.06601554900407791,true
0.9444508843325549,-0.05800920327887569,0.7854651808738708,-0.04920987784862518,true
0.9444506216903318,-0.058009112608454254,0.8097879886627197,-0.049741704016923904,true
0.9444501683644863,-0.05800914417931922,0.8771610856056213,-0.05462184548377991,true
0.9444508845301196,-0.058009203354841436,0.8726338744163513,-0.05743199586868286,true
0.9444505871558702,-0.058009174952561304,0.8675766587257385,-0.05696885660290718,true
0.9444502786329634,-0.058009137724392146,0.876409113407135,-0.057750850915908813,true
0.9444513196800224,-0.05800911708973021,0.8669021725654602,-0.05636683106422424,true
0.9444504200743864,-0.05800912517083105,0.8665758371353149,-0.05615849420428276,true
0.9444501332167397,-0.058009131703631193,0.7446942329406738,-0.04779798164963722,true
0.9444508062890967,-0.058009206237733646,0.7665297985076904,-0.048512015491724014,true
0.9444503127752895,-0.05800911864061967,0.7307446002960205,-0.04611806944012642,true
0.9444508848287976,-0.0580092032605374,0.7649621367454529,-0.04641994833946228,true
0.9444503792182429,-0.05800910304831452,0.731709897518158,-0.04263885319232941,true
0.9444508846458811,-0.05800920333080848,0.7788868546485901,-0.05423254519701004,true
0.9444507414087112,-0.05800902451589859,0.812628984451294,-0.05519866198301315,true
0.9444502617487402,-0.05800914553329541,0.7999210357666016,-0.053709857165813446,true
0.944450884900242,-0.0580092033143524,0.7053897976875305,-0.03964582085609436,true
0.9444506577707868,-0.0580090462002589,0.714489221572876,-0.039743032306432724,true
0.9444503391247183,-0.05800910667506434,0.7002442479133606,-0.03792927786707878,true
0.7566495450257262,-0.053587838740857915,0.6429428458213806,-0.048381149768829346,true
0.7566495999448362,-0.05358807195843704,0.6066516637802124,-0.044935502111911774,true
0.7566491919948145,-0.053587852040187386,0.6478008031845093,-0.05056000500917435,true
0.7566489141924927,-0.0535877898674625,0.49516233801841736,-0.03822719305753708,true
0.7566499580705041,-0.05358766386381152,0.7098761200904846,-0.05931023508310318,true
0.7566489678699484,-0.053587775309536456,0.7301498055458069,-0.06047810614109039,true
0.7566495432584136,-0.053587838744392456,0.6320611238479614,-0.04538039490580559,true
0.7566491962566939,-0.05358785366063331,0.6147070527076721,-0.04422695189714432,true
0.7566490526977782,-0.05358773711662021,0.6416541934013367,-0.04599807783961296,true
0.7566495527786077,-0.05358783868568324,0.5114516615867615,-0.03841972351074219,true
0.7566493771416386,-0.053587635881893116,0.5478755235671997,-0.03996197134256363,true
0.7566490735899606,-0.053587741105529337,0.5642814636230469,-0.04119128733873367,true
0.7566489369258689,-0.05358778750834834,0.6940721869468689,-0.049861516803503036,true
0.7566500128843056,-0.05358756739956645,0.7074348330497742,-0.05476653575897217,true
0.7566492576021622,-0.053587810312110455,0.7500510811805725,-0.05871831253170967,true
0.7566489717307243,-0.053587773078423315,0.7203266024589539,-0.05623086541891098,true
0.7566495440530084,-0.0535878388029487,0.5241769552230835,-0.041276104748249054,true
0.7566495629439639,-0.05358803708518539,0.5265898108482361,-0.04006600007414818,true
0.7566491835063043,-0.053587847402068345,0.5254449844360352,-0.04014720395207405,true
0.7566489067608271,-0.05358778945252292,0.5291469097137451,-0.04041745513677597,true
0.7566495429041552,-0.05358783882303471,0.5454624891281128,-0.0416160449385643,true
0.756649244237372,-0.053587830274372646,0.5555108785629272,-0.041739847511053085,true
0.7566489600879096,-0.053587779245975284,0.5414838194847107,-0.04117974266409874,true
0.7566495427614157,-0.05358783881895783,0.7037237882614136,-0.05101391300559044,true
0.7566492945553536,-0.05358773833676042,0.688472330570221,-0.049968067556619644,true
0.7566490036335969,-0.05358775423095857,0.7354683876037598,-0.05342097207903862,true
0.7566495433499133,-0.05358783873902449,0.693512499332428,-0.05374068766832352,true
0.7566491877212944,-0.0535878499390067,0.7049484252929688,-0.054461318999528885,true
0.7566489104462027,-0.053587789705593664,0.6880675554275513,-0.05355246737599373,true
0.7566495428131915,-0.0535878388236983,0.7111498117446899,-0.052171092480421066,true
0.7566494191767602,-0.05358770253820408,0.750878095626831,-0.05591189116239548,true
0.7566491115176653,-0.053587769075967774,0.7349845170974731,-0.053864262998104095,true
0.7566488443196222,-0.05358776996957152,0.8888311982154846,-0.06647368520498276,true
0.9589044726913785,-0.06845099707003824,0.9141796231269836,-0.0674717053771019,true
0.9589042670680357,-0.06845098219673733,0.9110567569732666,-0.06743663549423218,true
0.958903901163138,-0.0684509761226592,0.8974428772926331,-0.06598155945539474,true
0.9589045863997913,-0.06845105342493042,0.9949370622634888,-0.07229159772396088,true
0.9589049273569371,-0.06845122127834272,0.9334675073623657,-0.06745419651269913,true
0.9589042044030262,-0.06845105941542619,0.919430136680603,-0.06622820347547531,true
0.9589038467949775,-0.06845099899378461,0.9324958920478821,-0.06734105199575424,true
0.9589045645670351,-0.06845105352878227,0.7834783792495728,-0.0554475262761116,true
0.9589042267877289,-0.06845103892126503,0.7455302476882935,-0.050998713821172714,true
0.958903866289618,-0.06845099202104886,-0.7993823885917664,0.1314796656370163,true
0.9589056801592845,-0.06845091444325771,0.9400994777679443,-0.06727111339569092,true
0.9589043087162141,-0.0684509142606868,0.9217756986618042,-0.06557808816432953,true
0.958903936776774,-0.06845096033980597,0.8602748513221741,-0.06221749261021614,true
0.9589045650060812,-0.06845105354847157,0.849716067314148,-0.060305822640657425,true
0.958904370144463,-0.06845085134976557,0.8501079678535461,-0.05997839570045471,true
0.9589038176870724,-0.06845100427710656,0.8436841368675232,-0.05993884429335594,true
0.9589046331106923,-0.06845105303752021,0.9074252843856812,-0.06790108233690262,true
0.9589044362921016,-0.06845090481199473,0.9180504083633423,-0.06737855076789856,true
0.9589040472307597,-0.06845097961842628,0.9252656698226929,-0.06708604097366333,true
0.9589045675570056,-0.0684510535723923,0.8659195303916931,-0.06397410482168198,true
0.9589043578316228,-0.06845085741926782,0.893866777420044,-0.0660281553864479,true
0.9589041602388139,-0.06845106852301706,0.8941487669944763,-0.066031813621521,true
0.9589038081835319,-0.06845100478168363,0.8233533501625061,-0.055841393768787384,true
0.9589047283115726,-0.06845131767076922,0.8626335263252258,-0.05966709181666374,true
0.9589041711609344,-0.06845106992901989,0.8559293150901794,-0.058189183473587036,true
0.9589038177179471,-0.06845100422847296,0.8698796629905701,-0.0590975396335125,true
0.9589051480465088,-0.0684509674247846,1.0091804265975952,-0.07495646923780441,true
0.9589042267669334,-0.06845103895188427,0.9435623288154602,-0.06764441728591919,true
0.9589037057503229,-0.06845098204365407,0.9626216292381287,-0.0688108280301094,true
0.9589064327301796,-0.06845072436323407,0.7731390595436096,-0.048922065645456314,true
0.9589043026755282,-0.06845092369773757,0.7607846856117249,-0.04738154262304306,true
0.9589039316468266,-0.06845096231259398,0.7752195000648499,-0.04897085204720497,true
0.9508828057834195,-0.06865842704466613,0.8724307417869568,-0.06576840579509735,true
0.9508826251098892,-0.06865824843858,0.879142701625824,-0.06584984809160233,true
0.9508822365319168,-0.06865834206800897,0.8470852971076965,-0.06282075494527817,true
0.9508828397521972,-0.0686584267650185,0.7208303213119507,-0.04665328189730644,true
0.9508826429108487,-0.0686582785437014,-0.8648743033409119,0.14174240827560425,true
0.9508822527102454,-0.06865835334965051,0.7443296313285828,-0.04709693789482117,true
0.9508819148840487,-0.06865835716943099,0.9104142785072327,-0.0680040642619133,true
0.9508827529224995,-0.0686585402802988,0.9643139243125916,-0.07167360186576843,true
0.9508823278803843,-0.06865842133270694,0.9392337799072266,-0.06963100284337997,true
0.9508821470348452,-0.06865833225193453,0.9583024382591248,-0.07104188203811646,true
0.9508827776940808,-0.06865842726469816,0.8882367610931396,-0.0638803094625473,true
0.950882963922801,-0.06865869306590816,0.872025191783905,-0.06086841970682144,true
0.95088238240967,-0.06865844354384538,0.8750751614570618,-0.06163559481501579,true
0.9508820272493139,-0.06865837752976288,0.8641299605369568,-0.06012299656867981,true
0.950882770936048,-0.06865842735076155,0.9221563935279846,-0.06555034965276718,true
0.9508827013230797,-0.06865843033933071,0.9309758543968201,-0.06707528233528137,true
0.950882300970287,-0.06865839726938437,0.8952988982200623,-0.06485724449157715,true
0.9508819563467414,-0.06865836961694137,0.7816234827041626,-0.06289724260568619,true
0.9508827668364921,-0.06865856256657484,0.7598080635070801,-0.06097562983632088,true
0.950882333414792,-0.06865842556205078,0.7710551619529724,-0.06169261410832405,true
0.9508821523375889,-0.06865833071145926,0.7749249935150146,-0.06171155348420143,true
0.950882814693883,-0.06865842697564015,0.7102394700050354,-0.04793341085314751,true
0.9508824271082874,-0.06865841880589853,0.7149710059165955,-0.04821424186229706,true
0.9508822419446518,-0.06865834559925008,0.7109662294387817,-0.046816784888505936,true
0.9508819057029327,-0.06865835462105264,0.914094090461731,-0.07017132639884949,true
0.950882729251432,-0.06865849548758614,0.9715930223464966,-0.07529547065496445,true
0.9508823171571619,-0.06865841227626616,0.9781057834625244,-0.07560494542121887,true
0.9508819703702615,-0.06865837327088642,0.9843845367431641,-0.07598859816789627,true
0.950882771838341,-0.06865842725823994,0.9285919070243835,-0.06667690724134445,true
0.9508825455623872,-0.06865824722842627,0.9470410346984863,-0.06608253717422485,true
0.95088216785547,-0.06865832694819769,0.947710394859314,-0.06660712510347366,true
0.9508828057841063,-0.06865842704394928,0.8535442352294922,-0.06249866262078285,true
0.950882625113662,-0.06865824843793654,-0.1566014587879181,0.059646300971508026,true
0.9508822365383929,-0.0686583420660337,-0.13136357069015503,0.058762650936841965,true
0.9508820613160708,-0.06865836947290901,-0.13449683785438538,0.0581442229449749,true
0.6,-0.05556313876604511,0.5816355544781336,-0.15173338591764052,false
0.6000590314208861,-0.05556340882210115,0.5816355544781336,-0.15173338591764052,false
0.6,-0.05554792511466353,0.5816355544781336,-0.15173338591764052,false
0.6,-0.05527505173260048,0.5816355544781336,-0.15151519129303245,false
0.6038688289010596,-0.05549324635720854,0.5816355544781336,-0.15173338591764052,false
0.6010317307870725,-0.052359877559829904,0.6013082580257727,-0.15173338591764102,false
0.6,-0.07742682793886224,0.5816355544781336,-0.17680033629667335,false
0.6,-0.07742682793886224,0.5619743717990517,-0.17366696749929428,false
0.6,-0.08996030313168657,0.5816355544781336,-0.20186728668001008,false
0.5999999999999998,-0.08996030313168986,0.5619743717990515,-0.19873391787839295,false
0.7428050143992797,-0.05610815310001461,0.7196087048618119,-0.17366696749929428,false
0.7434199211420858,-0.05549324635720854,0.7196087048618119,-0.17366696749929428,false
0.7427190081422785,-0.07875175779289503,0.7037918016922392,-0.1962245659351735,false
0.7594571311384567,-0.05613604854711472,0.719608704861812,-0.17366696749929428,false
0.7473576029696716,-0.052400243505702625,0.7246821123185974,-0.1745116464753742,false
0.7465532899394649,-0.052360782090323695,0.7196087048618119,-0.17366787202978856,false
0.772527632314112,-0.10471975511965975,0.7196087048618119,-0.2520011874337718,false
1.0378370707122597,-0.05499912319871274,1.0378370707122597,-0.27657401465473486,false
1.0326892153968363,-0.05499912319867102,1.0378370707093818,-0.2765740146542671,false
0.9754419408208663,-0.052359877559829404,0.9578444174038634,-0.3115351945839749,false
0.6,-0.05556313673001586,0.32679553888424717,-0.11099959155171228,false
0.6,-0.05536205864102414,0.32679553888424717,-0.11086840383552782,false
0.6359512378605753,-0.054169780849908165,0.32679553888424717,-0.10967612604441182,false
0.6,-0.05235987755982993,-0.06343698215558746,-0.04833221560413101,false
0.6713453770032318,-0.052359877559829904,-0.06343698215558752,-0.04833221560413059,false
0.6,-0.10471975511965975,-1.8019009213834558,-0.13698477951810029,false
0.8496664726759159,-0.052359877559829904,0.7393732194530971,-0.17246115023574576,false
0.8497661230480197,-0.052359877559829904,0.7393732194530971,-0.17255888562355975,false
0.855130751948482,-0.05349672957559865,0.7393732194530971,-0.17366696749929436,false
0.8477389211420858,-0.06707164258072451,0.7196087048618119,-0.1852453637228103,false
0.8491811067561702,-0.08119140256864836,0.7196087048618119,-0.20080730932481852,false
0.8497812794067957,-0.06686050427982759,0.719608704861812,-0.1862004426888107,false
0.8352054459525694,-0.09622704072313683,0.5816355544781336,-0.2018672866757062,false
0.8320720771551904,-0.09622704072313681,0.561974371799052,-0.19873391787832712,false
0.8333412238860398,-0.0949578939922873,0.5619743717990519,-0.19873391787832714,false
0.6686104904794841,-0.09936040952051595,0.09254417436692519,-0.12353306674122866,false
0.7156110224401706,-0.052359877559829404,0.09254417436692516,-0.07339916598316298,false
0.6654771216821049,-0.10249377831789508,-0.8484969790655444,-0.12353306674122858,false
0.8587481593938924,-0.0647253575211689,0.7300936922049882,-0.18456131691506125,false
0.8558664324254726,-0.052359877559829904,0.7196087048618119,-0.16931410998530244,false
0.8753342534269127,-0.10471975511965975,0.5619743717990519,-0.2238008682573599,false
0.8753230894335623,-0.10463997717131271,0.5619743717990519,-0.22380086825735995,false
0.6707791680350824,-0.09719173196491762,0.07304418950063611,-0.11726632914647042,false
0.6944909790638216,-0.10249792255498408,-0.37583512473658254,-0.09847026059928482,false
0.6632511448803402,-0.10471975511965975,-0.5326465840152819,-0.12353306674122863,false
0.665477121682105,-0.10249377831789495,-0.6901326132850069,-0.09846611636219578,false
0.878519921815496,-0.052359877559829404,0.8425943916704616,-0.18999169937532534,false
0.8747286651289813,-0.052359877559829515,0.818582571073216,-0.18620044268881075,false
0.8872621403184977,-0.052359877559829404,0.8781598605087043,-0.19873391787832712,false
0.893073128039683,-0.06216042984075121,0.8781598605087043,-0.2085344701592488,false
0.8970250606339911,-0.05236783456527578,0.8781598605087043,-0.20500861247853175,false
0.8648122962933574,-0.05239622411688816,0.7361167637796514,-0.17632042041024554,false
0.8433949771551903,-0.052359877559829404,0.6013082580257727,-0.15486675471501965,false
0.9029289843053933,-0.052359877559829904,0.6603994663439154,-0.21440076186522314,false
0.8997956155080141,-0.052366798174935524,0.6406898157500515,-0.21127431368294963,false
0.9052614613252056,-0.05316076933739629,0.053545639137106756,-0.2175341306626018,false
0.7216703,-0.05316077374930577,0.09254417436692519,-0.07026579718578396,false
0.7216703,-0.10052862858991633,0.05354563913710675,-0.11750847331850721,false
0.7216703,-0.10023452116917439,0.05354563913710675,-0.11726632914647045,false
1.0511004219001514,-0.07854877783626335,1.0178085498891978,-0.24685639973641477,false
1.1883266277021236,-0.10263893274247031,1.1988554053171054,-0.29914687381903365,false
1.1879757609455135,-0.07742682793886224,1.1988554053171054,-0.2990017193944584,false
1.129434641834629,-0.10249377831789508,0.8781598605087043,-0.34913562015252414,false
0.7216703,-0.05237722883791864,0.07304418950063919,-0.06630494510417442,false
0.7216703,-0.10249377831789486,-0.25854860390039136,-0.11726632914647023,false
0.7458507049992079,-0.052359877559829515,-1.007947950881608,-0.0483322156041302,false
1.0949987399465484,-0.05237067462450888,1.0378370707093816,-0.22381166532203944,false
1.0699101954381574,-0.052359877559829904,0.8781598605087043,-0.19873391787832756,false
1.0667768266407773,-0.052359877559829404,0.8582837272217495,-0.19560054908094793,false
1.0949771461209412,-0.052359877559829404,0.8781598605086991,-0.22380086825735834,false
1.120690956555473,-0.06521678292897123,0.8781598605087043,-0.23665777362650173,false
1.0699101954381574,-0.052359877559829904,0.5619743717990519,-0.19873391787832756,false
1.1701779969542883,-0.05235987755982991,0.5619743717990519,-0.2990017193944584,false
1.1721678455155309,-0.05434972612107247,0.5619743717990517,-0.29900171939445835,false
1.1999690990558554,-0.052359877559829904,-1.6295597370262014,-0.32879282149602534,false
1.1999985598992688,-0.05236178099941892,-1.755023621187109,-0.32882037889984994,false
0.7528637224401699,-0.052359877559829904,0.3659095179234676,-0.11365290000000039,false
0.9103810355774672,-0.052359877559829904,0.3659095179234676,-0.11365290000000039,false
0.7027323244000577,-0.10249127559994214,-0.04691069109555997,-0.11365290000000078,false
0.7027323243920534,-0.10249127560794669,-0.06343698215558757,-0.11099708884176385,false
0.75286372244017,-0.052359877559829904,-0.5946288893295999,-0.11365290000000078,false
0.7538325407839862,-0.052359877559829904,-0.594628889335251,-0.11365290000000078,false
0.7528637224401702,-0.052359877559829904,-0.690132613285007,-0.09846611636219624,false
0.7538325407839926,-0.05235987755982946,-0.6901326132850069,-0.09846611636219585,false
0.7560080139918822,-0.053206486008117726,0.3463491173898227,-0.11184620000000045,false
0.7560485842697905,-0.05316591573020947,0.34634911738982266,-0.11180562972209224,false
0.7810746578238306,-0.052359877559829515,0.32679553888424717,-0.11184620000000045,false
0.7506308888144896,-0.05858361118551032,0.24864170601359403,-0.10473285395695403,false
0.7579349267022736,-0.05235987755982929,0.09254417436692519,-0.11099959155171213,false
0.741187778453275,-0.06802672154672496,0.07304418950063607,-0.11099959155171224,false
0.7412132538986569,-0.06804502410283766,0.07304418950063607,-0.11101789410782492,false
0.7287046253409079,-0.08050987465909211,0.05354563913710675,-0.107815900677184,false
0.7215409572207121,-0.08767354277928785,0.034048140280496186,-0.11184620000000045,false
0.7568546224401705,-0.052359877559829904,0.019819180567797856,-0.11184620000000084,false
0.6,-0.05744010173632837,0.7221350875391048,-0.17836220527543317,false
0.6,-0.052359877559829904,0.7289012600174409,-0.18004815357727083,false
0.8111053066334133,-0.0979069640374352,1.141527747529013,-0.42706545006906266,false
0.6,-0.07513342079863228,1.349683516043688,-0.8236039528423202,false
0.6,-0.058053263369530095,1.3698581860762657,-0.8266984654457958,false
0.6000000077419483,-0.05520656925632173,1.3732201533961916,-0.8272137298728625,false
1.103035398786209,-0.052359877559829904,1.081755175851755,-0.22822452122638048,false
1.1360777687661228,-0.052359877559829904,1.0817551758517552,-0.2282245212263821,false
1.1370239975402314,-0.06473827270848652,1.101491984444136,-0.24983472483174474,false
1.1153444767284857,-0.052359877559829404,1.0817551758517552,-0.24053359916865624,false
1.1114099679589724,-0.052359877559829404,1.0565530099803337,-0.23659909039914295,false
1.1738125969542879,-0.0769780334443777,1.1410305573891897,-0.2743835635099101,false
1.1984307528388363,-0.08733543516332544,1.166155190543981,-0.2886443176755106,false
1.1999999995773325,-0.052359877559829904,1.460838134938169,-0.3205426057934382,false
0.6,-0.06372381174940811,1.4190557200459204,-0.8313861017953285,false
0.6,-0.06372381174940811,1.4224088262205914,-0.8347392079699995,false
0.6,-0.052359877559829904,1.4505028415230266,-0.8390263125532929,false
0.9397584,-0.0531057494922053,0.4977848698112148,-0.1346322194922053,false
0.9397584,-0.05307275316986464,0.4899867188965548,-0.1333518418139359,false
0.9397584,-0.053060115790432495,0.4899867188965548,-0.1333518418139359,false
0.939888763172565,-0.06736632672252138,0.4899867188965549,-0.14870147911928427,false
0.943667644996412,-0.06735872735752138,0.48998671889655493,-0.14868979344176203,false
0.9397584,-0.053730955417577414,0.4827133525302662,-0.1352574254175774,false
0.9397584,-0.0894459991553913,0.47521580653500806,-0.1709724691553913,false
0.6366320496283042,-0.061750159629055196,0.8601475537725172,-0.20258114041010106,false
0.6,-0.052359877559829904,0.8277951952908227,-0.19747542285065256,false
0.6272466409222455,-0.052359877559829404,0.8601475537725172,-0.20258114041010106,false
0.6286173563501393,-0.052359877559829404,1.0771628287218968,-0.418225699931587,false
0.8272728675598291,-0.052359877559829904,0.21167330536375328,-0.08894871000000079,false
0.828149945770495,-0.052359877559829404,0.21167330536375384,-0.08894871000000037,false
0.8272728675598295,-0.052359877559829904,0.20512166057837222,-0.08894871000000037,false
0.8272728675598291,-0.052359877559829904,0.06143302924080907,-0.08894871000000076,false
0.8283828577197693,-0.052359877559829904,0.054525689888776756,-0.08783871984006059,false
0.84648254339586,-0.05537649183917792,-1.0437665777276481,-0.07275564844331783,false
0.8272728675598291,-0.052359877559829904,-1.951077273211422,-0.08894871000000037,false
0.8283828577197686,-0.052359877559829904,-1.9586610721388382,-0.08783871984006117,false
0.8294028823822182,-0.05448989238221852,-1.965643446899101,-0.08894871000000037,false
0.6,-0.061764802958661824,0.8280953391362369,-0.19775641209489875,false
0.6,-0.058032594046271146,0.8324941189612994,-0.1984229830075706,false
0.6255527297143244,-0.05236488874160109,0.8695685935907395,-0.20427702261801609,false
0.686297239883047,-0.052359877559829404,0.9416585367323455,-0.21561744440912783,false
0.8154185110674348,-0.052359877559829904,1.0947390115892701,-0.23957664808166512,false
0.6793626162566417,-0.10471975511965975,1.0866024054996641,-0.41983523792102967,false
0.6270233151384629,-0.052359877559829904,1.086602405499663,-0.41983523792103,false
0.6,-0.06010132,0.21171783761722102,-0.0999369800000036,false
0.6,-0.06010132,-0.7702569620435141,-0.0999369800000036,false
0.6029253199788076,-0.059952628961879154,0.8383286296476619,-0.1985322986307334,false
0.6190979888698633,-0.06223374207745012,0.8563009654975439,-0.2026130787051306,false
0.6,-0.052359877559829904,0.8449565908596408,-0.20049282841947072,false
0.9564017,-0.05769701418862371,0.4362567605959199,-0.13227595417542393,false
0.9564017,-0.10190035286242985,0.20620224689321132,-0.14268122284340642,false
0.9564017,-0.10459325847792028,0.20620224689321132,-0.1545917839150306,false
0.9564017,-0.052359877559829404,0.05318330377006486,-0.1269388175466296,false
0.9564017,-0.10455321119042568,-0.1906695788376682,-0.18607968119042567,false
0.9564017,-0.10459325847792028,-0.19541750671224845,-0.18531730210214292,false
0.6000000000125009,-0.06086017,0.21628054130425867,-0.0991781300000032,false
0.6,-0.06086017,0.21514164129455582,-0.0991781300000032,false
0.6,-0.06086017,0.2052429581482565,-0.0991781300000032,false
0.6,-0.06086017,-0.020406125472044123,-0.0991781300000032,false
0.6,-0.06086017,-0.6240179262597652,-0.0991781300000032,false
0.6,-0.06086017,-0.776312325074613,-0.0991781300000032,false
0.6,-0.060860170000000005,-0.7926776490596635,-0.09844998433243247,false
0.9627687,-0.0542972642877663,0.4941356250336499,-0.13581623538997784,false
0.9627687,-0.052359877559829904,0.47489998234700465,-0.13307008750779847,false
0.9627687,-0.052359877559829404,0.20638097156061694,-0.09619639153298137,false
0.9627687,-0.07693632593253569,-0.7145565733557768,-0.09619037592247828,false
0.9627687,-0.10459761352414926,-0.7145565733557768,-0.1760893994784117,false
0.9627687,-0.07386953354513753,-1.6674659317133034,-0.10234200752878364,false
0.9627687,-0.09545603310420556,-1.6674659317133034,-0.16387501106056687,false
0.6,-0.061829174823743546,0.1851014849651923,-0.09525932517625643,false
0.6,-0.06313263426719232,0.16632414260225425,-0.09395586573280768,false
0.6293917787195735,-0.0612396,0.16632414260225425,-0.0958489000000034,false
0.6,-0.0612396,0.10302359068878575,-0.0958489000000034,false
0.7191227292357947,-0.08960737076420537,0.04547469504905998,-0.10345402076420589,false
0.7191384294089112,-0.08959167059108888,0.04549035919626424,-0.1034383205910894,false
0.7183523412171193,-0.09037775878288065,0.04470170517512969,-0.10422440878288117,false
0.715556550025588,-0.09317354997441193,0.0418231182894731,-0.10702019997441245,false
0.7154160551284332,-0.09331404487156675,0.04167544528524498,-0.10716069487156726,false
0.7153981230811124,-0.09333197691888762,0.04165657164971876,-0.10717862691888813,false
0.7277409060314912,-0.08098919396850883,0.053545639137106756,-0.09483584396850935,false
0.7313032720611378,-0.07742682793886224,0.047784188278984584,-0.09127347793886276,false
0.7313682691825298,-0.07742682793886224,0.047784188278984584,-0.09127347793886276,false
0.7313859020303705,-0.07734419796962956,0.047784188278984584,-0.09119084796963008,false
0.6000864044212725,-0.05521752765202031,0.837809209372116,-0.19376707260286385,false
0.6,-0.05803098889737435,0.841073763528507,-0.19993149242588143,false
0.6148031337913933,-0.052359877559829404,0.8586499282899246,-0.19703341205836078,false
0.5999999999999998,-0.05254872424259631,0.847583005971881,-0.20095847021447755,false
0.6000271209378841,-0.05254872424576473,0.8476152074024671,-0.20096355071034772,false
0.6,-0.052359877559829904,0.847807228797004,-0.20099384635683396,false
0.6242829995040695,-0.052359877559829404,0.8766364610089183,-0.20554007906467825,false
0.6104851109775372,-0.052359877559829404,1.0755052476403224,-0.4182067542226146,false
0.7385229879358283,-0.0808969818326823,0.05354563913710675,-0.09470309183247023,false
0.7555528103177551,-0.06303470307261566,0.06703015272884416,-0.07684081307247864,false
0.6,-0.05803073138821513,0.8391314769797393,-0.19681410836795446,false
0.6088876233873,-0.052359877559829904,0.8597839302137823,-0.2029080843863122,false
0.6847905801008474,-0.052359877559829404,0.949864021498294,-0.21708521895727595,false
0.6,-0.10339756201530066,1.4333620247512637,-0.8364114867665644,false
0.9399018515216689,-0.09772670818691498,1.8404557545015368,-0.8975876783635593,false
0.70401034488034,-0.10471975511965975,-0.004945234512409247,-0.11322556835347693,false
0.7058337400051848,-0.10289635999481522,-0.004945234512409247,-0.11140217322863233,false
0.7563702224401705,-0.052359877559829515,-1.3309720851658784,0.0018016851539354728,false
0.6295564637376291,-0.05803056350519531,0.8785099391186154,-0.20587613888618161,false
0.6115692916551562,-0.05519522053251236,0.8605232726079026,-0.2030407959134987,false
0.6115268272701256,-0.05519522053251236,0.8605232726079026,-0.2030407959134987,false
0.6,-0.052359877559829904,1.5006968579763775,-0.8466636507129697,false
0.7077016070683971,-0.1027817929316028,0.014551310017565107,-0.11413296034909137,false
0.7079896216821049,-0.10249377831789508,-0.06343698215558752,-0.11099959155171224,false
0.711122990479484,-0.09936040952051595,-0.06343698215558752,-0.11099959155171224,false
0.7581235224401699,-0.052359877559829904,-0.06343698215307025,-0.048332215604495354,false
1.000768210560141,-0.052359877559829904,-0.06343698215558752,-0.048332215604130147,false
1.0940926908840332,-0.05235987755982946,-0.9081524031317026,-0.06399905959102573,false
0.701368091887932,-0.053051927477965395,0.9585546156160373,-0.20890155120607062,false
0.746246658953037,-0.06366498455039393,1.0125981790977705,-0.22867960469512738,false
0.6797585775598297,-0.052359877559829904,0.9471512944381864,-0.21841569443818648,false
0.7082443304780831,-0.06595643047808307,0.052989047869348216,-0.07972728782193843,false
0.7077915875184281,-0.06550368751842806,0.014005669419340117,-0.07346230406272336,false
0.6988381334525937,-0.05655023345259367,-0.005485416239597862,-0.0703298121831159,false
0.7015266037592144,-0.05923870375921436,-0.005485416239597862,-0.0703298121831159,false
0.7350970946130387,-0.06860989452141388,0.014005669419340117,-0.07970100294531546,false
0.6952616199999998,-0.05297372,-0.04446829303908839,-0.06406482842390138,false
0.6843515661344947,-0.05241618556906122,0.9376411290885729,-0.20427584852313938,false
0.6829687041502648,-0.055186143781764896,0.9477194021902994,-0.21850694182179947,false
0.6914890678426456,-0.055186143781764896,0.9586101825540451,-0.22021740506719745,false
0.6914747690049642,-0.05508399976915853,0.9586101825540452,-0.22021740506719745,false
0.6797585775598297,-0.052359877559829904,0.9472640215199166,-0.2184354215199168,false
0.7501586331077607,-0.052359877559829904,1.0307511255028705,-0.23152246995493975,false
0.7320789148569136,-0.05333431356698745,0.05298904786934833,-0.06406482842390095,false
0.7293070165442942,-0.05610621187960696,0.033497029942881285,-0.06406482842390115,false
0.7318373245102161,-0.053046964257602136,0.029750050153554697,-0.06353588876781824,false
0.7318050555309419,-0.05297372,0.029549262303837254,-0.06343037553094188,false
0.7345991341235159,-0.05297372,0.014005669419340117,-0.0609323365442942,false
0.7304465526764906,-0.054340607962247794,-0.017886123801998388,-0.06343875910859156,false
0.7289201599054669,-0.05787181579696565,-0.02738379445305489,-0.06544357570243253,false
0.6139184840443522,-0.05710108866536355,-0.6904861195718358,0.05032882729028422,false
0.7417096449070546,-0.10471975511965975,0.48498631034917894,-0.19123809586627144,false
0.7417628124019099,-0.10471009354208369,0.48498631034917894,-0.1912260918035938,false
0.7428512999111713,-0.10468909213341482,0.48498631034917894,-0.19118769326653867,false
0.7422798665630002,-0.10414953343699981,0.40899812631826116,-0.1898099880703468,false
0.7417256995216652,-0.10470370047833476,0.3331312214830045,-0.18661848681997856,false
0.7697704451267695,-0.07665895487323049,0.20058793692039245,-0.13194556286482617,false
0.7420435508096479,-0.10461305727142393,-0.29107489483517707,-0.190273511904771,false
0.7424085150739551,-0.10466882723992156,-0.7288527146051325,-0.19032928187326859,false
0.7585127660225184,-0.08791663397748162,-0.7288527146051325,-0.10979201066315089,false
0.7940695224401706,-0.052359877559829404,-0.8440630201779118,-0.08638479290219919,false
1.1178040643269893,-0.05616171204114239,1.1059750508142596,-0.23737405228584696,false
1.1267955203178566,-0.057575749579088314,1.1257667241803813,-0.2449514707387683,false
1.1208734707021923,-0.05615557,1.0862050477463314,-0.2404496007021924,false
1.1384807826310293,-0.06176151823930485,1.1455804800344758,-0.2496946720746547,false
1.179425589394459,-0.05615557,0.5205038738204683,-0.2990017193944591,false
1.2,-0.05615557,-1.2083407853849784,-0.31957613,false
1.2000000000000017,-0.05615557,-1.5097332419171263,-0.31957613000000173,false
0.7543977373241914,-0.05610621187960707,0.014005669419340089,-0.06093233654429375,false
0.7547745599973011,-0.055708840002698844,0.01400566941934009,-0.06093233654429353,false
0.7057636448803397,-0.10471975511965975,-1.9797463516506042,0.023673744165297994,false
0.7551704882581263,-0.055312911741873694,-1.9797463516506022,0.07308058754308366,false
0.7581235224401701,-0.052359877559829904,-2.0,0.07898665590717158,false
1.0911110320034942,-0.058571601860018085,0.00514512438127969,-0.06419515638477402,false
1.0914901378426227,-0.058571601860018085,0.005145124381279703,-0.06419515638477402,false
1.1235503617058722,-0.052359877559829404,-0.033505929621287116,-0.05798343208458523,false
1.1732441561073823,-0.10205602125259247,-0.033505929621287116,-0.10767722648609523,false
0.7393880652975531,-0.07109533470244694,-0.40906691622771363,-0.009717938304815946,false
0.752785881799568,-0.057697518200432014,-0.40906691622642477,0.0047647676268459255,false
0.70576364488034,-0.10471975511965975,-0.7759456051104754,-0.01777295143285304,false
0.7078555426984083,-0.10262785730159169,-0.7759456051104754,-0.018601885220760978,false
1.18701612166518,-0.052359877559829404,1.149524492544496,-0.23736834410535057,false
1.184937994666313,-0.053189168660060335,1.1308264364424763,-0.23446092600625268,false
1.2,-0.053311719676505304,1.2057406446264187,-0.2460905984026444,false
1.2,-0.0531462590976213,1.2057406446264187,-0.2460905984026444,false
1.2,-0.052359877559829404,1.2057406446264187,-0.2489980165017423,false
1.1492196863769077,-0.052359877559829904,0.9078920586663898,-0.19957190881707781,false
0.7473502,-0.08935931351325697,-0.4273230877294564,-0.027364380038689018,false
0.7473502,-0.08953635124393904,-0.4273230877294564,-0.027363583637516925,false
0.7473501999999995,-0.0712568281150358,-0.4293797146311751,-0.01026859811478567,false
0.7473502,-0.0851028676657356,-0.7759456051104754,-0.018601885220760978,false
1.199012182884864,-0.05311363930844648,1.073190474051168,-0.2259757435764178,false
0.7695262775423579,-0.09818252245764199,-0.5015615397939501,-0.025093622457642087,false
0.7668429356451526,-0.10086586435484739,-0.5043800230819182,-0.027776964354847486,false
0.766852454011658,-0.10085634598834192,-0.5044396358670964,-0.02776744598834202,false
0.7629890448803403,-0.10471975511965975,-0.5130123981812459,-0.03163085511965985,false
0.7671532711387141,-0.10055552886128578,-0.5130123981812459,-0.02639863402247644,false
0.7677699679405985,-0.09993883205940146,-0.5130123981812459,-0.02639863402247644,false
0.7678078755418237,-0.0999009244581762,-0.5130123981812459,-0.02639863402247644,false
0.7679161556333481,-0.0997926443666518,-0.5130123981812459,-0.02639863402247644,false
0.7934153408585165,-0.07429345914148344,-0.9887612498335638,-0.001204559141483541,false
0.7959568732575218,-0.07175192704104592,-0.9887612498455128,0.0013369729589539775,false
0.7561206803280476,-0.10375441470140741,-0.6656443018401101,-0.03991755423344373,false
0.7565300357730474,-0.1029267246949162,-0.6656443018401103,-0.039089864226952514,false
0.7711318253891994,-0.1029267246949162,-0.776137170320103,-0.02448807461080052,false
1.2000000000000006,-0.052359877559829904,1.031651445476096,-0.21813752244017087,false
1.0520107998705661,-0.05235987836859894,0.10153802911220677,-0.07014832150196733,false
1.049107081041139,-0.05235987836375634,0.08346642869454013,-0.06724460093800577,false
0.6,-0.0835599103627648,-0.7774001709948861,0.033563070011078305,false
0.9016383780768912,-0.09817731745104316,-0.7774001709948861,0.018976895037151165,false
0.7224881637462249,-0.05528335129537225,-1.319033796259772,0.06272918121817495,false
0.7707458754020295,-0.05527711255461476,-1.376043212899933,0.07148712494328863,false
0.7707617840806671,-0.05527711255461476,-1.376043212899933,0.07148712494328863,false
0.6000046816232251,-0.06789978308291883,0.8401712319858994,-0.20658993344559315,false
0.6,-0.07037225576475198,0.8405721325040774,-0.20946798826882934,false
0.6,-0.07039292799883709,0.8405755948002523,-0.20949212279908944,false
0.6,-0.07029183383634371,0.8406676224157542,-0.20948305625209795,false
0.6049688229265296,-0.06706163503077771,0.8470606477092163,-0.20767705981346435,false
0.6883925096788702,-0.06565975,0.944397178372615,-0.22018801869271504,false
0.7034956347588364,-0.06565975,0.9623136948676724,-0.223001410108836,false
0.7640164391859933,-0.06565975,1.0340786548788654,-0.23424556569287203,false
0.6000449507213071,-0.05835518389492781,-0.8147329695930111,0.06843007042930327,false
0.6000000004429463,-0.06565975,0.8398388329934664,-0.20399888255052007,false
0.6431670981223168,-0.06565975,0.890734776723869,-0.21172772860155226,false
0.6431649207334028,-0.06567765707152416,0.8907347767238691,-0.21174781306199042,false
0.6431443689124298,-0.06565975,0.8907316373646008,-0.21174731845217104,false
0.6,-0.09380766441659971,1.0198600200761898,-0.4121679844927895,false
0.81102282918651,-0.0938076644163463,1.2697199503711063,-0.45100508560094255,false
0.6000000078267012,-0.06847454022932492,1.475922349427577,-0.8428971808326142,false
0.6,-0.058127188616100466,-0.8147334425432433,0.06869868964491821,false
0.8053503520837383,-0.10291671183725415,-1.414389786778516,0.027589622857523644,false
0.80631851832496,-0.1029991266103324,-1.414389786778516,0.026539041843223643,false
0.806331851998815,-0.1029991266103325,-1.414389786778516,0.02653904184322342,false
1.139821514220433,-0.10471975511965975,-1.7623430467939247,0.03926867745383189,false
1.1470872623611692,-0.10193398744276849,-1.762343046793925,0.03926867745383189,false
0.6,-0.071289330251182,0.84286774030079,-0.21264577055197206,false
0.6001546448129552,-0.07138129880286034,0.8430513595658333,-0.21276671355573845,false
0.6000632276065437,-0.09809970188196758,-1.1321626210423532,0.07158747306496328,false
0.6,-0.09894214517175226,-1.968610714530426,0.06907675519487744,false
0.9405195157662799,-0.10439172257821752,-0.8357981609227146,0.022402177421782465,false
0.9406625578047955,-0.1042626002316337,-0.8356829582680628,0.022531299768366292,false
0.9407341626391006,-0.10419802015366514,-0.8356254029464312,0.02259587984633485,false
0.9411159195182374,-0.10385434225714944,-0.8353198040325361,0.022939557742850544,false
0.9411311126146092,-0.10384069158960664,-0.8353076957938225,0.022953208410393347,false
0.9614938961933124,-0.08688044777311321,-0.8217499917395388,0.039913452226886775,false
0.9674339485055239,-0.08650793853924006,-0.8265579448213158,0.040673042223448294,false
0.9900195098214138,-0.06632168363160124,-0.8091580770846162,0.06047221636839875,false
0.9659562590974459,-0.10471975511965975,-0.8618909693367657,0.022074144880340235,false
0.9903329817901086,-0.10310581405651134,-0.8618909693397178,0.023688085943488646,false
0.6006997323754372,-0.06566811783993669,0.8406855135927938,-0.2041367990572932,false
0.6883468592726623,-0.06565975,0.9443923535296728,-0.22018814425701044,false
0.7956015802344278,-0.09380764467570013,1.2515042829187024,-0.4481932473599747,false
0.6091113209240667,-0.055394941745682824,-1.2263745597673616,0.12863088336435588,false
0.6,-0.10182846092509523,-1.2829017985186568,0.07928744751639838,false
0.6,-0.07458664662150073,-1.3017890324003538,0.10838661420184882,false
0.8709711875242113,-0.10445053214002888,-0.8973806118042691,0.03147126785997113,false
0.8737074261883749,-0.10182112301380657,-0.894858032215988,0.03410067698619344,false
0.873726733221249,-0.10180279941174901,-0.894840692044747,0.034119000588251,false
0.8803084139692894,-0.10016257943467607,-0.8930602313250221,0.035759220565323935,false
0.8734822255763965,-0.10471975511965975,-0.9004300958157161,0.031202044880340257,false
0.9094928192489616,-0.10471975512081559,-0.9364406894882833,0.03120204488149396,false
0.9113810823787827,-0.1037756235547607,-0.9364406894883053,0.032146176445239316,false
0.9143408158947647,-0.10377562355245087,-0.9364406894882848,0.032146176447549135,false
0.9122922861844134,-0.10471975511965975,-0.9392401564237328,0.031202044880340257,false
1.1968124789549612,-0.10471507147664069,-1.2086515380847367,0.046306172346865265,false
0.6126199409748193,-0.06800423981757295,0.8551023554784144,-0.208966654321168,false
0.6198083698219033,-0.102252008801272,0.9265306436525713,-0.30745428263193997,false
0.6000000078267205,-0.0684745379262485,1.4759462949210322,-0.8429008240229805,false
0.6,-0.06565975,0.8428801140878,-0.20701836408779994,false
0.6431403985336395,-0.06565975,0.8907533634174349,-0.2117512148837954,false
0.6000000078267219,-0.06847453775607032,1.475948064292181,-0.8429010932239502,false
0.6,-0.0703214054807066,0.8406880655572603,-0.20948727103796688,false
0.6108583579438378,-0.06798512452356299,0.8530262505307603,-0.20863081711048548,false
0.6125716988961792,-0.06783148750497649,0.855020892350797,-0.20875848095959426,false
0.6124255716915122,-0.06784550557048409,0.8550393235119237,-0.20893705739089552,false
0.605134976290553,-0.06851313200801672,0.8489322108503836,-0.21078816656784727,false
0.6075078237995389,-0.09837411526311594,0.8551376187010243,-0.2444817101646013,false
0.8253951427634125,-0.06565975,1.1068661273144134,-0.24560813455100078,false
0.8248216601020703,-0.06565975,1.106360378318162,-0.24552938410449732,false
0.6006408637727558,-0.05443354408771281,-1.2023138403520275,0.13360405591228688,false
0.6006361726049315,-0.054400035533977015,-1.202530072421576,0.13363756446602268,false
1.1996695330126232,-0.052359877559829904,-0.4156230630126232,0.013055252440170056,false
0.6,-0.05332351951512834,-1.2266468923821683,0.13733172251972742,false
0.6,-0.09890169196292045,-1.3777917164007922,0.09660370303182161,false
0.6328932805579118,-0.10036027108897884,-1.3777917164007925,0.09514512390576324,false
0.6000670604839841,-0.06108382479765462,-1.3779757328167317,0.14591958973462688,false
0.6013662785275222,-0.061900975129279875,-1.3779757328167317,0.14510243940300155,false
0.942994427559874,-0.05235987755987398,-0.6070250780677179,0.041348949999999995,false
0.9406270310170728,-0.052359877559829904,-0.6237571238516817,0.04401204885800125,false
0.9325875055864705,-0.052359877559829904,-0.6606297566860948,0.051755871973359346,false
0.9325976649645122,-0.052359877559829904,-0.660629756686095,0.05174571259531768,false
0.9168773958298655,-0.052359877559829904,-0.7715338178847246,0.06746598172996435,false
0.9429944275598299,-0.052359877559829904,-0.8474379158013843,0.041348949999999995,false
0.9414399146034663,-0.052359877559829904,-0.85729309324632,0.04290346295636355,false
0.9429944275598299,-0.052359877559829904,-1.1468557830533674,0.041348949999999995,false
0.8212574190395373,-0.05252177014560034,-1.217748219039537,0.13883052985439936,false
0.8223033053501324,-0.052359877559829404,-1.218794105350132,0.1389924224401703,false
0.8230005822250225,-0.052359877559829904,-1.2198398822250225,0.1393409224401701,false
0.8231886113122311,-0.05276119245558067,-1.220027911312231,0.13893960754441934,false
0.8242556117954435,-0.052359877559829904,-1.2210949117954435,0.1393409224401701,false
0.9583464219621585,-0.07144004807997043,-1.2293707573678045,0.12026075192002958,false
0.9583464219626172,-0.07144004808030038,-1.3778314544992742,0.14311659958389866,false
0.9940256104261631,-0.052359877559829904,-1.218806890426163,0.13951522244016995,false
0.994056382288473,-0.052359877559829904,-1.2188066123285017,0.13951522244016995,false
1.0162718154237549,-0.09308102155486653,-1.2410530954237549,0.09879407844513333,false
0.9944963403873541,-0.052359877559829904,-1.2193647203873539,0.13960232244016996,false
0.9945057224411571,-0.052384204409033304,-1.219374102441157,0.13957799559096656,false
0.996448214253801,-0.052359877559829904,-1.2193445096382323,0.13960232244016996,false
0.9964480965435948,-0.05237384948829876,-1.219349941445185,0.1395883505117011,false
0.9979523035774288,-0.055905582399697035,-1.2228206835774287,0.13605661760030283,false
0.994731973647066,-0.052359877559829904,-1.2196439536470658,0.1396459224401701,false
0.9958489664786973,-0.055187429712040825,-1.2207609464786973,0.13681837028795918,false
0.9970366947245655,-0.05560728643187877,-1.2209199449097887,0.13639851356812124,false
0.9981965524338218,-0.05526750749473644,-1.2231085324338218,0.13673829250526356,false
1.0009079058700678,-0.05587707584676734,-1.2267051364402428,0.1370139747234077,false
1.0009148067333131,-0.05598330011235587,-1.2267051364402428,0.1369008495945739,false
1.0012364393051842,-0.06058219487223504,-1.2267051364402428,0.13198032226282358,false
1.0012507291342532,-0.06058219487223503,-1.2267051364402428,0.1319803222628236,false
1.0292663554446355,-0.06123627607280551,-1.25989053544464,0.13648172392719482,false
1.0331753415499108,-0.06123627607618154,-1.264513440122894,0.13719564249680172,false
1.1286897806495004,-0.055920270369562514,-1.3779757328167317,0.16045950179766882,false
1.0326234149712434,-0.06916836227767154,-0.628393707240881,0.0285220922696377,false
0.6,-0.05243238029261802,-1.2834063616454834,0.146748919707382,false
0.6,-0.06980676417216936,-1.289426841726695,0.12937453582783065,false
1.089006658409672,-0.07765332083607386,-0.621813754801519,0.018798775555773056,false
1.0890259456182292,-0.07788703761159498,-0.621813754801519,0.018545771571694847,false
1.0890268546853488,-0.0778980250887443,-0.6218137548015192,0.018533875027426136,false
0.6,-0.05465052856792266,-1.2770513648659663,0.1449054714320772,false
0.6,-0.052359877559829904,-1.277866699381425,0.14719612244016994,false
0.6,-0.06980650609395167,-1.2919120093102123,0.12974949390604817,false
0.6003564553022823,-0.06399096324924425,-1.2919120093102123,0.1355650367507556,false
1.0878261089028594,-0.052359877559829904,-0.6087628689028595,0.04374898244017009,false
1.0879733937221947,-0.05278952041048711,-0.6089101537221948,0.04331933958951288,false
1.088155869698104,-0.05278949874071934,-0.6089085860586618,0.04331936125928065,false
1.1004480996277395,-0.06947659147196308,-0.6213848596277396,0.026632268528036906,false
1.1025370772754348,-0.06914416034680551,-0.6234738372754349,0.02696469965319448,false
1.1067158792112317,-0.07047029706476896,-0.622911424260699,0.026752847984698208,false
1.0972813065078857,-0.05476919601425758,-0.6095266665078858,0.041339663985742466,false
1.1977209975874203,-0.06902771937385149,-0.7243517414205083,0.04288432445923647,false
1.1978399471731924,-0.06636171215446092,-0.7243517414205085,0.04555033167862706,false
0.6,-0.05969653254825536,-1.2832808306287953,0.14004676745174438,false
0.600000000000353,-0.052359877559829904,-1.2772636408860865,0.14747712244016992,false
0.60066009155177,-0.05493959107249399,-1.2790026423812324,0.14489740892750586,false
0.6006594919655089,-0.054632394670644374,-1.279030408040216,0.14520460532935545,false
0.6,-0.05401732800504633,-1.283425717149615,0.14588155095627905,false
0.6,-0.05466464968073417,-1.2793366814033313,0.14525015031926555,false
0.6,-0.054767934079202676,-1.2794087156450922,0.14514686592079704,false
0.6,-0.052359877559829904,-1.282511735681472,0.14755492244016982,false
0.6,-0.059890011081167066,-1.2831623397791774,0.14002478891883266,false
0.6,-0.08024744993148338,-1.302300451591841,0.11971130379258471,false
1.1228817956855943,-0.052359877559829904,-1.269699565685594,0.14756282244016977,false
1.1286622261136805,-0.06689852419826836,-1.2754799961136802,0.13302417580173131,false
1.122903568760459,-0.052359877559829904,-1.269725338760459,0.1475668224401701,false
1.1229150157327397,-0.052389190550220566,-1.2697353247169025,0.14753750944977945,false
1.1286847270153157,-0.0581753352968597,-1.2755064970153158,0.14175136470314031,false
1.1288291229685568,-0.058153062551264297,-1.2756508929685568,0.14177363744873572,false
1.1324102352462386,-0.06698558951095364,-1.275506497015316,0.1329411104890464,false
1.1513859518819056,-0.06735804570229537,-1.3023006126322987,0.13669805149704103,false
0.7433049034036066,-0.052359877559829904,-1.2744536999999998,0.14756882244016994,false
0.7437679767865424,-0.05237646682593428,-1.2744536999999998,0.14755223317406557,false
0.7438175495259797,-0.05237645439238433,-1.2744527715853986,0.14755224560761554,false
0.7472630160148098,-0.052359877559829904,-1.2743788910025995,0.14756882244016994,false
0.7497843254170294,-0.05256365909624591,-1.2744388366581396,0.14736504090375394,false
0.7706627088426058,-0.05258390393244415,-1.2740673669503535,0.1473447960675557,false
0.7435922692505043,-0.052359877559829904,-1.2744547,0.14756982244017008,false
0.7438021333404887,-0.052359877559829904,-1.2744507565953296,0.14756982244017008,false
0.75211810452875,-0.052359877559829904,-1.2742947545760224,0.14756982244017008,false
0.7521177426100496,-0.052391982752346994,-1.2743115142108465,0.147537717247653,false
0.7437370156879284,-0.052359877559829904,-1.2744551999999998,0.14757032244016993,false
0.7441654063706993,-0.05236347580702964,-1.2744490116964289,0.1475667241929702,false
0.7513080863604709,-0.052359877559829904,-1.2743130379239216,0.14757032244016993,false
0.743959848132048,-0.052359877559829904,-1.2744523008343156,0.14757052244016983,false
0.7627754514883771,-0.052751309232625984,-1.2743069658691284,0.14717909076737373,false
0.776088616390706,-0.052865012168616304,-1.2741258236904691,0.14706538783138343,false
0.7774827292024051,-0.052359877559829904,-1.2738447204208625,0.14757052244016983,false
0.7774801986073615,-0.052591252846794834,-1.2739619065425598,0.1473391471532049,false
0.9012765734428158,-0.05244408418516064,-1.2720414023373579,0.1474863158148391,false
0.7438233209826708,-0.052359877559829904,-1.2744555,0.1475706224401701,false
0.7548148455690146,-0.052359877559829904,-1.2742500915460964,0.1475706224401701,false
0.7548114335937637,-0.05253318727907582,-1.274408092387854,0.1473973127209242,false
0.7816397969540771,-0.052359877559829904,-1.2737738143431008,0.1475706224401701,false
0.781639654586039,-0.05237297934241072,-1.273780407084309,0.14755752065758931,false
0.7438512332452196,-0.052359877559829904,-1.2744555999999998,0.14757072244016994,false
0.7522912037117263,-0.052359877559829904,-1.2742973446765287,0.14757072244016994,false
0.7522892090762274,-0.05253612464662458,-1.2743897117263179,0.14739447535337527,false
0.7776587431563334,-0.0526785113728342,-1.27400440596717,0.14725208862716563,false
0.8018973851144436,-0.052359877559829904,-1.2734366720822436,0.14757072244016994,false
0.6805370192789922,-0.09420575895972676,0.6631306819287331,-0.20807546016745215,false
0.6903525005188084,-0.08746270052649074,0.6815446736489023,-0.20425763698143792,false
0.684001912951897,-0.10208887676259965,0.6729222044017157,-0.22921499411621243,false
0.6886773742170509,-0.10471975511965975,0.7553219544549898,-0.24491657355238106,false
0.7034489594581804,-0.1020954588860157,0.6880562715249346,-0.26380268975187393,false
0.7089267915143717,-0.10209545888627206,0.6815446736489023,-0.2627689240495459,false
0.7744463028270593,-0.08453746527926898,0.7184083959889768,-0.3475941640953052,false
0.8892154813685484,-0.10418395185960973,0.8461699389221295,-0.6097713721502876,false
0.68857077755983,-0.052359877559829904,0.6008992833988904,-0.15301375298150866,false
0.68857077755983,-0.052359877559829904,0.582807300832223,-0.15013218636819414,false
0.6885707775598298,-0.052359877559829404,1.0963007089495762,-0.7382960089495758,false
0.6943339107864585,-0.05812301078645843,1.1031275594661405,-0.7451228594661404,false
0.6885707775598298,-0.052359877559829904,1.1065409847244234,-0.7485362847244235,false
0.6914523441731439,-0.055241444173143917,1.1099544099827057,-0.7519497099827056,false
0.6885707775598294,-0.052359877559829404,1.1099544099827057,-0.7519497099827056,false
0.6,-0.08212431,0.5817235847242298,-0.18650717586882137,false
0.6,-0.08212431,0.5817235847242298,-0.18926766619151703,false
0.6,-0.08289845,0.5817235847242298,-0.219078679254399,false
0.6113144000138099,-0.08288890934895894,0.8748124474169008,-0.30908344509829166,false
0.6346517185023117,-0.08212431,0.8748124474169008,-0.3353635792541899,false
0.7517473762235236,-0.08213733317726067,0.8748124474169008,-0.45932360885357926,false
0.7613581560194583,-0.052359877559829404,0.5279354614829251,-0.14562685601945835,false
0.7593947927953296,-0.052359877559829904,0.5156338956479016,-0.14366349279532958,false
0.7785471840905801,-0.052359877559829904,0.5313965775598297,-0.16281588409058004,false
0.7783442767485327,-0.052359877559829404,0.5301246515343777,-0.1626129767485327,false
0.8003028905882937,-0.07466772769611003,0.5279354614829251,-0.1845715905882937,false
0.9576378449773985,-0.052359877559829904,0.5241506247400646,-0.3419065449773984,false
0.9526811568736233,-0.052359877559829904,0.5105549064236048,-0.3369498561199971,false
0.9526252748565218,-0.052359877559829904,0.5102049337032581,-0.3368939748565218,false
1.1537636195142111,-0.06987603472673687,0.5488252136549396,-0.5380323195142112,false
1.016437568206504,-0.052359877559829904,0.2222774827184961,-0.09038517336517032,false
1.0575014999493664,-0.052359877559829904,0.1837404548626562,-0.09291207725219272,false
0.7864921448803401,-0.10471975511965975,0.5862666311537765,-0.2213484703255453,false
1.1130344337032365,-0.052359877559829404,0.2953396452909805,-0.10265395655404647,false
1.1282613770978875,-0.06251499762743641,0.2761217567838954,-0.10881813150921946,false
1.1707656579928278,-0.10466240412256778,0.23770138155762163,-0.15504944367301732,false
