-0.6911352295056695,-0.08006799858544582,-0.6215760707855225,-0.09224894642829895,true
-0.6911356844537079,-0.08006804565330826,-0.60031658411026,-0.09647147357463837,true
-0.6911360789060651,-0.08006804013383104,-0.6468468308448792,-0.09290942549705505,true
-0.6911326842149449,-0.08006734663008157,-0.6706649661064148,-0.09074818342924118,true
-0.6911354398915511,-0.08006802530678124,-0.6542031168937683,-0.09335877746343613,true
-0.6911358668899672,-0.08006802637088632,-0.6510154604911804,-0.0933157280087471,true
-0.6911351214780573,-0.08006810635024147,-0.6330405473709106,-0.0940682590007782,true
-0.6911352915652239,-0.08006790926613115,-0.66721111536026,-0.08891842514276505,true
-0.6911357401017137,-0.08006801271695883,-0.64540696144104,-0.09170576930046082,true
-0.6911359416856593,-0.08006805300595941,-0.6774417757987976,-0.08695390820503235,true
-0.6911351216918252,-0.08006810620637585,-0.6739696264266968,-0.08713506907224655,true
-0.6911352707481725,-0.08006792734250717,-0.6747182607650757,-0.08795852959156036,true
-0.691135721668931,-0.08006802097176474,-0.6617012023925781,-0.08948951959609985,true
-0.6911361106918504,-0.08006803225576758,-0.6745671629905701,-0.08709964156150818,true
-0.6911338117331506,-0.08006796712659238,-0.6599398851394653,-0.08951205760240555,true
-0.6911353983656667,-0.080067966944608,-0.6221493482589722,-0.09635195881128311,true
-0.6911358313719285,-0.08006801302611476,-0.6275471448898315,-0.09522809088230133,true
-0.6911351214010449,-0.08006810623781192,-0.6471961736679077,-0.09077803045511246,true
-0.6911353129166488,-0.0800679024277813,-0.6893914937973022,-0.08491017669439316,true
-0.6911357586624451,-0.0800680071520994,-0.6770818829536438,-0.0871087908744812,true
-0.6911361421173284,-0.08006802668759537,-0.5856526494026184,-0.09977811574935913,true
-0.691132684179027,-0.08006734675559585,-0.6106730103492737,-0.09659542888402939,true
-0.6911354398421199,-0.08006802542234986,-0.6035742163658142,-0.09806028008460999,true
-0.6911358668251777,-0.08006802649267648,-0.613652229309082,-0.09743446111679077,true
-0.6911351205643392,-0.08006810628640756,-0.6618386507034302,-0.09039440006017685,true
-0.6911355902658273,-0.08006811489430905,-0.6804993748664856,-0.08725547045469284,true
-0.6911359974997565,-0.08006805694255552,-0.6827920079231262,-0.08739355206489563,true
-0.691134776386069,-0.08006833819389378,-0.6702344417572021,-0.089300237596035,true
-0.6911357463618734,-0.08006801042099786,-0.6572605967521667,-0.09266240894794464,true
-0.6911359474340623,-0.0800680540169908,-0.6658101081848145,-0.09174306690692902,true
-0.6911352364422383,-0.0800679836628709,-0.7032561898231506,-0.08056893199682236,true
-0.6911356906582314,-0.08006804095314869,-0.7054734826087952,-0.08027587831020355,true
-0.6911360842079156,-0.08006803872959625,-1.0452897548675537,-0.08227149397134781,true
-1.0351976164884056,-0.07898263306829618,-1.0688464641571045,-0.08048798888921738,true
-1.035198131162105,-0.07898246033813626,-1.0721701383590698,-0.08018670976161957,true
-1.0351976241217837,-0.0789824545743839,-1.0531913042068481,-0.07804925739765167,true
-1.0351971003784854,-0.07898251713347254,-1.0071003437042236,-0.08524222671985626,true
-1.0351980424054585,-0.0789824517462428,-1.0074381828308105,-0.08371023088693619,true
-1.0351984548773794,-0.07898239708034306,-1.0437190532684326,-0.08071205019950867,true
-1.0351965142361317,-0.07898208262644768,-1.117483139038086,-0.07562067359685898,true
-1.0351977755528525,-0.07898233233859324,-1.1223180294036865,-0.07594704627990723,true
-1.0351984264907745,-0.07898238700230809,-1.1055127382278442,-0.07758399844169617,true
-1.0351976605332025,-0.07898245486790406,-1.0192409753799438,-0.08267133682966232,true
-1.0351976510656642,-0.07898259011289557,-1.038108468055725,-0.08091051131486893,true
-1.0351985430025878,-0.07898240367620302,-1.0333532094955444,-0.08160759508609772,true
-1.0351978027566937,-0.07898228467544183,-1.0798519849777222,-0.07824432104825974,true
-1.0351980360028992,-0.0789824462502731,-1.0885480642318726,-0.07707931846380234,true
-1.0351986332228182,-0.07898238205786379,-1.091929316520691,-0.07875990122556686,true
-1.0351976610193203,-0.07898245487529044,-1.0965313911437988,-0.07826438546180725,true
-1.0351977545672637,-0.07898238036477527,-1.0923092365264893,-0.07806279510259628,true
-1.0351982053507598,-0.07898240417447343,-1.1031428575515747,-0.07729536294937134,true
-1.0351985963782893,-0.07898239163308825,-1.0512984991073608,-0.07945509254932404,true
-1.0351976600338808,-0.07898245488393676,-1.056580662727356,-0.07994420826435089,true
-1.035197893410634,-0.07898226865295584,-1.0634030103683472,-0.07889009267091751,true
-1.035198327050551,-0.07898235387088685,-1.0576441287994385,-0.07959955930709839,true
-1.0351976377255292,-0.07898245467835817,-1.0626726150512695,-0.0784081295132637,true
-1.0351972248155046,-0.07898262248938706,-1.0874162912368774,-0.07551523298025131,true
-1.0351980552748663,-0.07898246062836076,-1.0750999450683594,-0.07719431817531586,true
-1.0351984660796427,-0.07898240019753251,-1.0977580547332764,-0.07424655556678772,true
-1.035198648716271,-0.07898237878791878,-0.9825842380523682,-0.0892377719283104,true
-1.0351960918584435,-0.07898188490437934,-1.0189635753631592,-0.08445031940937042,true
-1.0351979965777909,-0.07898240180273149,-1.0518821477890015,-0.08112374693155289,true
-1.0351984151452132,-0.07898238223093659,-1.043849229812622,-0.08112645149230957,true
-1.0351976591634584,-0.07898245482744748,-0.984474778175354,-0.08633498102426529,true
-1.035197893482451,-0.07898226854562455,-0.9592726826667786,-0.0896776020526886,true
-1.0351983271210026,-0.07898235377957565,-1.0072273015975952,-0.08415646106004715,true
-1.1994084124160678,-0.09618518818591519,-1.3623567819595337,-0.07737202197313309,true
-1.1994088897295048,-0.09618517994054022,-1.1695832014083862,-0.10451673716306686,true
-1.1994093903841663,-0.09618512891163321,-1.184983730316162,-0.10256308317184448,true
-1.1994096130492604,-0.09618511575068987,-1.3618112802505493,-0.0773012712597847,true
-1.199408549289937,-0.09618511395111738,-1.3606311082839966,-0.0770288035273552,true
-1.1994090954527004,-0.09618513776417081,-1.191395878791809,-0.09903563559055328,true
-1.1994093420750964,-0.09618511350858702,-1.1742275953292847,-0.10195250064134598,true
-1.1994084605040625,-0.09618518851403371,-1.205434799194336,-0.09607619047164917,true
-1.1994087090310648,-0.09618499682464278,-0.946397066116333,-0.12545114755630493,true
-1.1994092354013222,-0.09618508702447576,-1.180882453918457,-0.10067939013242722,true
-1.1994096876882931,-0.09618510657645848,-1.177889347076416,-0.0996076762676239,true
-1.1994085579632547,-0.09618509688096853,-1.1429601907730103,-0.10464239865541458,true
-1.1994088419615812,-0.0961851355051738,-1.154263973236084,-0.103984534740448,true
-1.1994093490276734,-0.09618511593786634,-1.1579740047454834,-0.10294758528470993,true
-1.1994095749585483,-0.09618512381724598,-1.2319642305374146,-0.09526976197957993,true
-1.1994084618537506,-0.09618518857771577,-1.150567889213562,-0.1055329442024231,true
-1.1994087259431925,-0.0961850085862849,-1.1797674894332886,-0.1016576811671257,true
-1.1994092497587807,-0.09618508828499883,-1.1801077127456665,-0.10126867145299911,true
-1.1994084472415592,-0.09618518842106127,-1.183411717414856,-0.0990443080663681,true
-1.1994086495149885,-0.09618498787319604,-1.2178444862365723,-0.09722088277339935,true
-1.1994091843013783,-0.09618509268246579,-1.2130553722381592,-0.0978456363081932,true
-1.1994094242623654,-0.09618513627949554,-1.2212461233139038,-0.09723649173974991,true
-1.1994084630488622,-0.09618518850039474,-1.1859599351882935,-0.09696705639362335,true
-1.1994085830480365,-0.09618505217711759,-1.2009161710739136,-0.09747298061847687,true
-1.1994091252139254,-0.09618511872158443,-1.195947527885437,-0.09909041225910187,true
-1.199409594040079,-0.09618511961563429,-1.1839501857757568,-0.09845079481601715,true
-1.1994057133800626,-0.09618485930373752,-1.2075767517089844,-0.0980369821190834,true
-1.199408776466321,-0.0961850586398087,-1.1732616424560547,-0.10331857949495316,true
-1.1994090430236937,-0.09618517341472706,-1.1953140497207642,-0.10036257654428482,true
-1.1994095234475908,-0.09618513439493333,-1.181742548942566,-0.10092668980360031,true
-1.1994076198238888,-0.09618518179790027,-1.2049719095230103,-0.09812506288290024,true
-1.1994088897157205,-0.09618517993796812,-1.1752989292144775,-0.103157177567482,true
-1.1994093903443175,-0.09618512891022697,-1.1843963861465454,-0.10186123847961426,true
-1.1994084632402209,-0.09618518850646131,-1.3666174411773682,-0.0773247629404068,true
-1.199408825768042,-0.09618511715981963,-1.3933833837509155,-0.07553332298994064,true
-1.1994093350569999,-0.09618511108758082,-1.398190975189209,-0.07529941946268082,true
-0.7580823918960646,-0.10417486058620984,-0.7126899361610413,-0.11464890092611313,true
-0.7580823813032466,-0.1041749511158607,-0.7390010356903076,-0.11191447079181671,true
-0.7580830002247942,-0.10417485017024525,-0.739754855632782,-0.11199483275413513,true
-0.7580832705724279,-0.10417476734044326,-0.7342151403427124,-0.11259988695383072,true
-0.758082387268025,-0.10417486057410043,-0.7690038681030273,-0.10762208700180054,true
-0.7580821638705214,-0.10417511822463313,-0.7735600471496582,-0.10932793468236923,true
-0.7580829263856182,-0.1041748765262017,-0.774109423160553,-0.1091763824224472,true
-0.7580834564938388,-0.10417481160325905,-0.7677076458930969,-0.1104818806052208,true
-0.7580822877324606,-0.10417485992168017,-0.7041234374046326,-0.11486687511205673,true
-0.7580825112097518,-0.10417472427469146,-0.8038392066955566,-0.10214105248451233,true
-0.7580830972597945,-0.10417479081834588,-0.7999703884124756,-0.10332780331373215,true
-0.7580836038160738,-0.10417479171086473,-0.7792565226554871,-0.10676741600036621,true
-0.7580823899776202,-0.10417486062765595,-0.7630292773246765,-0.11057222634553909,true
-0.7580822577607285,-0.10417507742711367,-0.771129846572876,-0.10870955884456635,true
-0.7580832239910681,-0.10417475964123032,-0.7691960334777832,-0.10961637645959854,true
-0.7580823392598582,-0.10417486026640263,-0.7707109451293945,-0.11136049777269363,true
-0.7580814540113576,-0.10417485388108344,-0.761227011680603,-0.11195865273475647,true
-0.7580825379958177,-0.10417469044592607,-0.7562265396118164,-0.11328613013029099,true
-0.758083121270356,-0.1041747788057299,-0.7585521340370178,-0.11298660188913345,true
-0.7580836242719129,-0.1041747878300902,-0.7605209946632385,-0.11267969012260437,true
-0.7580823907362411,-0.1041748606988454,-0.7740398645401001,-0.10932619869709015,true
-0.7580829427609713,-0.10417487402650825,-0.7786823511123657,-0.10870720446109772,true
-0.7580834706422672,-0.10417481185688184,-0.7800058722496033,-0.10836239904165268,true
-0.7580823910474925,-0.10417486053986554,-0.7483466267585754,-0.11228461563587189,true
-0.758082619761145,-0.10417465833685886,-0.7714166045188904,-0.10921823978424072,true
-0.758083192646182,-0.10417475952432509,-0.7719680070877075,-0.10937812924385071,true
-0.7580823840209405,-0.10417486052457434,-0.7561784386634827,-0.11127614229917526,true
-0.7580826105698978,-0.10417465692836611,-0.7776803374290466,-0.10847833007574081,true
-0.7580831847797473,-0.10417476030352764,-0.7909098267555237,-0.10663119703531265,true
-0.7580836782535869,-0.1041747803221945,-0.7367753386497498,-0.11223229765892029,true
-0.7580823959337063,-0.10417492877619122,-0.7334620356559753,-0.11201751977205276,true
-0.7580827200743836,-0.10417473080338918,-0.7146174907684326,-0.11419200897216797,true
-0.7580832781659681,-0.1041747694263111,-0.7326550483703613,-0.11258536577224731,true
-0.7580835273881006,-0.10417480655883071,-0.7267069220542908,-0.11255476623773575,true
-0.7580821637839995,-0.10417511833002213,-0.7393859624862671,-0.11169300228357315,true
-0.7580829262854145,-0.10417487662614058,-0.7313197255134583,-0.11333546042442322,true
-0.7580834563690229,-0.10417481168673073,-0.7443771958351135,-0.11175518482923508,true
-1.033907854040139,-0.09384218587335158,-1.026079535484314,-0.10099595785140991,true
-1.0339082189852862,-0.09384212385116407,-1.0358551740646362,-0.10161843150854111,true
-1.0339087150550679,-0.09384211088802195,-1.0224652290344238,-0.10265253484249115,true
-1.0339078538130717,-0.0938421858679681,-1.0713706016540527,-0.09420754015445709,true
-1.033908154748974,-0.09384204654989221,-1.0721189975738525,-0.09386405348777771,true
-1.0339088857634158,-0.09384213280924505,-1.0679466724395752,-0.09429850429296494,true
-1.0339078531913783,-0.09384218585082046,-1.0306730270385742,-0.10239563137292862,true
-1.033908063753211,-0.09384198226788634,-1.0593777894973755,-0.09887855499982834,true
-1.0339085824749095,-0.09384208563544626,-1.0502429008483887,-0.10006764531135559,true
-1.0339078038049951,-0.09384218553888557,-1.0404691696166992,-0.09844104945659637,true
-1.0339070383850169,-0.09384217914292162,-1.0816054344177246,-0.09262856096029282,true
-1.0339082734749945,-0.09384217728473106,-1.0819647312164307,-0.09258054196834564,true
-1.0339087622065866,-0.09384212625565723,-1.0812876224517822,-0.09299732744693756,true
-1.033907853261321,-0.09384218587845146,-0.9841092228889465,-0.10308058559894562,true
-1.0339078055397921,-0.09384234299186449,-1.0160295963287354,-0.09995273500680923,true
-1.0339086390556314,-0.09384208774507372,-0.9929395318031311,-0.1015586256980896,true
-1.0339078493839517,-0.09384218583889842,-1.0429986715316772,-0.09693386405706406,true
-1.0339080803688083,-0.09384198610860559,-1.0640045404434204,-0.0942314937710762,true
-1.0339083491281613,-0.0938422017966241,-1.064611554145813,-0.09406373649835587,true
-1.0339088279689872,-0.09384213686582177,-1.0450215339660645,-0.09734576940536499,true
-1.0339078540237385,-0.09384218589776591,-1.0186619758605957,-0.09939780086278915,true
-1.0339078930302672,-0.09384221012365188,-1.048561453819275,-0.09552024304866791,true
-1.0339084376973167,-0.09384216094252551,-1.0376560688018799,-0.09749826788902283,true
-1.0339089047005687,-0.09384212944288561,-0.983106791973114,-0.10681917518377304,true
-1.0339078401906785,-0.09384229880624914,-1.0778385400772095,-0.0960678830742836,true
-1.0339084083624914,-0.09384217986842569,-1.0661462545394897,-0.09716226160526276,true
-1.0339088793783942,-0.0938421337481028,-1.064064860343933,-0.09545054286718369,true
-1.0339078531862085,-0.09384218585044857,-1.0763028860092163,-0.09381357580423355,true
-1.0339083341737507,-0.09384220211275444,-1.0694994926452637,-0.09479022771120071,true
-1.0339088149603923,-0.09384213609862943,-1.044934630393982,-0.0985843762755394,true
-1.0339078540353044,-0.09384218592263135,-1.1154022216796875,-0.09013555943965912,true
-1.0339081870672617,-0.09384208543901278,-1.1095508337020874,-0.0904315635561943,true
-1.0339086875953072,-0.09384210133086332,-1.0640439987182617,-0.09818459302186966,true
-0.9701332210755081,-0.09378344518355759,-1.0024815797805786,-0.09483478218317032,true
-0.9701337402937669,-0.09378345636130776,-1.0005812644958496,-0.0950007289648056,true
-0.970134215913436,-0.09378339612781861,-1.0110671520233154,-0.09364233911037445,true
-0.9701332225411029,-0.09378344524845672,-0.9627972841262817,-0.09782789647579193,true
-0.9701333914847896,-0.093783252939747,-0.9912973642349243,-0.09420781582593918,true
-0.9701339153037908,-0.09378335409833856,-0.9837680459022522,-0.09534779191017151,true
-0.9701343663257113,-0.09378336915306264,-1.0021915435791016,-0.0955820307135582,true
-0.9701332505652651,-0.09378349122104654,-1.0083249807357788,-0.09550416469573975,true
-0.9701337991578225,-0.09378342529298823,-0.992295503616333,-0.09727266430854797,true
-0.9701342668738522,-0.09378339001126527,-0.9704190492630005,-0.10152628272771835,true
-0.9701332218255803,-0.093783445151254,-1.0055584907531738,-0.09571439772844315,true
-0.9701337476831762,-0.09378345375929921,-1.0106797218322754,-0.09535803645849228,true
-0.9701342223330152,-0.09378339578520568,-1.0129936933517456,-0.09458982199430466,true
-0.9701326066347784,-0.09378356547787085,-0.9882126450538635,-0.09728273749351501,true
-0.9701333834310677,-0.09378325891980305,-1.002026081085205,-0.09528414905071259,true
-0.9701341440874471,-0.09378338899293649,-0.9851371049880981,-0.09691379219293594,true
-0.9701332230867327,-0.09378344524320863,-0.9611489176750183,-0.09708228707313538,true
-0.9701333014256802,-0.09378338881053438,-0.9841011166572571,-0.09474550932645798,true
-0.970134076778123,-0.09378336786039311,-0.9895754456520081,-0.0946182832121849,true
-0.9701332106475211,-0.09378344514566905,-0.9791379570960999,-0.09754540771245956,true
-0.9701334160975835,-0.09378324249693423,-0.9968422651290894,-0.09591805934906006,true
-0.9701339367692794,-0.09378334769244703,-1.000683069229126,-0.09507416188716888,true
-0.9701305039554774,-0.09378272508245293,-0.9807588458061218,-0.09867507964372635,true
-0.9701338356994912,-0.09378339960915989,-0.9952895045280457,-0.09606043994426727,true
-0.9701340767931728,-0.09378336781835674,-0.9960728883743286,-0.09646058082580566,true
-0.9701305495085,-0.09378311595809086,-1.0125751495361328,-0.09691163897514343,true
-0.9701335318562733,-0.09378331528069432,-0.9936394095420837,-0.09887921810150146,true
-0.9701342605819356,-0.09378339105267082,-1.0096864700317383,-0.09725351631641388,true
-0.9701332222041321,-0.09378344517053817,-0.9437949657440186,-0.10391919314861298,true
-0.9701334410843316,-0.09378324297190532,-0.9590050578117371,-0.1022796779870987,true
-0.9701339582797406,-0.0937833441601163,-0.9565136432647705,-0.10283345729112625,true
-0.9701344027897104,-0.09378336441056576,-0.6819232106208801,-0.09163219481706619,true
-0.6924420585174488,-0.07979030083582622,-0.7147132158279419,-0.08671527355909348,true
-0.6924422955473383,-0.07979033946005656,-0.7099179029464722,-0.08704821020364761,true
-0.6924429066236581,-0.07979032777109386,-0.6843916177749634,-0.09144178777933121,true
-0.6924422197298497,-0.07979023539448044,-0.7089194059371948,-0.0879046842455864,true
-0.6924426532921225,-0.07979029587732299,-0.6998676657676697,-0.08974964171648026,true
-0.6924419394522808,-0.07979039236585853,-0.6589671969413757,-0.09332845360040665,true
-0.6924415677023162,-0.07979059711403229,-0.6810894012451172,-0.09122922271490097,true
-0.6924425744123687,-0.07979029889390961,-0.6988215446472168,-0.08853466063737869,true
-0.6924429592563051,-0.07979031545164474,-0.6348908543586731,-0.09450189769268036,true
-0.6924390965166553,-0.07978966574922525,-0.6369969844818115,-0.09495338797569275,true
-0.6924424814988734,-0.0797903624428317,-0.6471407413482666,-0.09328517317771912,true
-0.6924428797640566,-0.07979033479014566,-0.645774245262146,-0.0937161073088646,true
-0.6924419571711663,-0.07979039253103072,-0.6957600712776184,-0.08744405210018158,true
-0.6924423997449833,-0.07979040849516005,-0.6874951720237732,-0.0889289453625679,true
-0.6924428087869611,-0.07979034355837455,-0.6886909604072571,-0.08863624930381775,true
-0.6924419577370222,-0.07979039245058019,-0.6689473986625671,-0.08783064037561417,true
-0.6924421066871029,-0.07979021359429166,-0.7216508984565735,-0.07984908670186996,true
-0.6924423418754255,-0.07979038929746075,-0.7241644859313965,-0.08011701703071594,true
-0.6924427583628837,-0.0797903346314096,-0.7083703875541687,-0.08140155673027039,true
-0.6924419580420604,-0.07979039252249585,-0.6824914813041687,-0.08430113643407822,true
-0.6924420276356064,-0.07979037492869988,-0.6854690313339233,-0.08469018340110779,true
-0.6924424877230242,-0.0797903572702809,-0.6869366765022278,-0.08496765047311783,true
-0.6924428851284554,-0.07979033345806104,-0.6888861060142517,-0.08478850871324539,true
-0.6924419572381265,-0.07979039252962274,-0.6796389222145081,-0.08653774112462997,true
-0.692442162844057,-0.07979019036638811,-0.7207790017127991,-0.08026851713657379,true
-0.6924428032373987,-0.07979034325250406,-0.6793106198310852,-0.08640990406274796,true
-0.692441957676473,-0.07979039244222542,-0.7372375726699829,-0.08614874631166458,true
-0.6924423483846673,-0.0797903940637085,-0.7039021849632263,-0.08979187160730362,true
-0.6924427640255764,-0.07979033626168146,-0.7166669368743896,-0.08798472583293915,true
-0.6924419577121547,-0.07979039247757373,-0.6942521333694458,-0.08439107239246368,true
-0.6924419619805054,-0.07979050545003685,-0.7227462530136108,-0.0800752267241478,true
-0.6924426593300949,-0.07979029742411044,-0.7271572351455688,-0.0795099139213562,true
-0.6924428527705354,-0.0797903403840097,-0.6121248006820679,-0.10635384172201157,true
-0.6177079867609134,-0.09868525706652757,-0.623436689376831,-0.10567191988229752,true
-0.617708254251585,-0.09868507704495351,-0.6320746541023254,-0.10457827150821686,true
-0.6177087912604751,-0.0986851567575727,-0.6354679465293884,-0.10454495996236801,true
-0.6177079676747723,-0.09868525700163042,-0.5719451308250427,-0.11040952056646347,true
-0.6177081672600774,-0.09868505997276111,-0.5687633752822876,-0.11164975166320801,true
-0.6177087166023743,-0.09868516344159844,-0.5774760246276855,-0.11069349944591522,true
-0.617709189286878,-0.0986851800032271,-0.5999738574028015,-0.10859045386314392,true
-0.6177079978902161,-0.09868532525311402,-0.6312326192855835,-0.10530740022659302,true
-0.617708579279898,-0.09868524203020837,-0.6340740919113159,-0.10516045242547989,true
-0.6177090717276658,-0.0986852030049954,-0.6286682486534119,-0.10672702640295029,true
-0.6177082281337855,-0.0986850609121573,-0.64462810754776,-0.10588761419057846,true
-0.6177087690249801,-0.09868515546404924,-0.635823130607605,-0.10711498558521271,true
-0.6177078865535056,-0.09868525644551696,-0.6244345307350159,-0.10192276537418365,true
-0.6177081077268461,-0.09868512079752675,-0.6060540676116943,-0.10500594973564148,true
-0.617708914213069,-0.09868519144011918,-0.6085152626037598,-0.105014368891716,true
-0.6177079802742554,-0.09868525711370528,-0.5861939191818237,-0.10891411453485489,true
-0.6177076977158804,-0.09868552302865388,-0.6041818857192993,-0.10802444070577621,true
-0.6177084857017301,-0.09868527350276457,-0.6099032163619995,-0.10657749325037003,true
-0.6177089905403322,-0.09868520748671378,-0.6085882782936096,-0.10628732293844223,true
-0.6177077376085467,-0.09868552123495498,-0.6237746477127075,-0.105003222823143,true
-0.6177087540261279,-0.09868515604498616,-0.6258842349052429,-0.10536026209592819,true
-0.6177079071479137,-0.09868525658304318,-0.6292178630828857,-0.10599598288536072,true
-0.6177081161798585,-0.0986851082568117,-0.6497736573219299,-0.1042361855506897,true
-0.6177086711662133,-0.09868518306998433,-0.6477074027061462,-0.10444220155477524,true
-0.6177091505860717,-0.09868518688800598,-0.6563847064971924,-0.10322727262973785,true
-0.6177063664753899,-0.09868511799134808,-0.6192882061004639,-0.10393175482749939,true
-0.61770829742719,-0.09868511781040486,-0.6126139760017395,-0.10489765554666519,true
-0.6177088280146181,-0.09868516388920959,-0.625600278377533,-0.10324316471815109,true
-0.6177079833861375,-0.09868525712631142,-0.6406665444374084,-0.10129416733980179,true
-0.6177077737972073,-0.0986855148544151,-0.6463383436203003,-0.10196749120950699,true
-0.6177085014753186,-0.09868527315022992,-0.6522498726844788,-0.10163148492574692,true
-0.6177090042801304,-0.09868520820992088,-0.633346438407898,-0.10444135963916779,true
-0.6839714981473672,-0.09162479607604168,-0.7442586421966553,-0.09596741944551468,true
-0.6839718576410722,-0.09162473408585153,-0.7441852688789368,-0.09579307585954666,true
-0.6839723422346081,-0.09162472111827102,-0.7607349157333374,-0.09423642605543137,true
-0.683971497649469,-0.09162479602142076,-0.6840258240699768,-0.09718924760818481,true
-0.6839714708813693,-0.09162493127398219,-0.6820953488349915,-0.09764467179775238,true
-0.6839720355049862,-0.09162479421637389,-0.6835781931877136,-0.09748560935258865,true
-0.6839724966255714,-0.0916247447876617,-0.7091891765594482,-0.09282676875591278,true
-0.6839708995805422,-0.09162491631459148,-0.6935598254203796,-0.09596692770719528,true
-0.6839716577540884,-0.09162460975707425,-0.6905155181884766,-0.09615448117256165,true
-0.6839721707365923,-0.09162470765269431,-0.6892651319503784,-0.09671644866466522,true
-0.6839724013555388,-0.09162473982967202,-0.6889265775680542,-0.09642970561981201,true
-0.6839688682688584,-0.09162407585077931,-0.7214862108230591,-0.09918967634439468,true
-0.6839715777101784,-0.09162473954942144,-0.7108516097068787,-0.09873833507299423,true
-0.6839723356339386,-0.09162471859599237,-0.7148123383522034,-0.09815383702516556,true
-0.6839714976435519,-0.09162479602104111,-0.6497544646263123,-0.10284388065338135,true
-0.6839714967101932,-0.0916247959888615,-0.6561904549598694,-0.10342289507389069,true
-0.6839717789417096,-0.09162463884730432,-0.6511809825897217,-0.10356757789850235,true
-0.683972274876331,-0.09162469932415816,-0.6810004711151123,-0.10044547915458679,true
-0.6839702602894658,-0.09162452472630664,-0.6959120035171509,-0.09557104855775833,true
-0.6839718882581837,-0.09162476762418025,-0.6916849613189697,-0.09621827304363251,true
-0.6839723686712351,-0.09162473039978071,-0.6927357316017151,-0.09554056078195572,true
-0.6839714981454522,-0.09162479601958312,-0.7008965015411377,-0.09738378971815109,true
-0.6839718108352901,-0.09162467581569606,-0.7236495614051819,-0.09382021427154541,true
-0.683972064210245,-0.0916247760443158,-0.6960527896881104,-0.09830787032842636,true
-0.6839725214274137,-0.09162474075311831,-0.6991187930107117,-0.09372950345277786,true
-0.6839714114643449,-0.09162499434336685,-0.6902263164520264,-0.09638022631406784,true
-0.6839720137694751,-0.09162480466812738,-0.6817800402641296,-0.09732480347156525,true
-0.6839724777367444,-0.09162474670869049,-0.6816543936729431,-0.09705609083175659,true
-0.6839714978205739,-0.09162479607909106,-0.6946459412574768,-0.09738717973232269,true
-0.6839719108758472,-0.0916247875297439,-0.6913559436798096,-0.09609615802764893,true
-0.683972388279003,-0.09162473650096288,-0.6991583704948425,-0.09479913115501404,true
-0.6839714981756302,-0.09162479607386854,-0.742256760597229,-0.09551049023866653,true
-0.6839715594585801,-0.09162477848133758,-0.7209110260009766,-0.0985260009765625,true
-0.6839720855693575,-0.09162476082470652,-0.7365645170211792,-0.09672287851572037,true
-0.6839725398308174,-0.09162473701248139,-0.7460100054740906,-0.09560143202543259,true
-1.1674351011002961,-0.09126374246233335,-1.1584023237228394,-0.09469101577997208,true
-1.1674353175703203,-0.09126354029923606,-1.1677563190460205,-0.09467819333076477,true
-1.167435821218111,-0.09126364147375061,-1.1571353673934937,-0.09626764059066772,true
-1.1674351018875528,-0.09126374239836002,-1.1612001657485962,-0.09441335499286652,true
-1.1674352222918276,-0.09126360607839337,-1.1551687717437744,-0.09613049775362015,true
-1.167435737324647,-0.09126367262253056,-1.148669719696045,-0.097691610455513,true
-1.1674361827629598,-0.09126367351748624,-1.173863172531128,-0.09370490908622742,true
-1.16743167640988,-0.09126301558155385,-1.405194640159607,-0.06759801506996155,true
-1.1674351538351722,-0.09126374535944705,-1.2008174657821655,-0.09220553189516068,true
-1.1674356806288626,-0.09126371228660471,-1.3583111763000488,-0.0713043361902237,true
-1.1674359167461634,-0.09126365776504068,-1.3663442134857178,-0.07123272866010666,true
-1.1674351014308,-0.09126374239371694,-1.1658843755722046,-0.09422469884157181,true
-1.1674355507892147,-0.09126375433353691,-1.1528410911560059,-0.09750501066446304,true
-1.1674357934674424,-0.09126364658608968,-1.1523785591125488,-0.09726804494857788,true
-1.1674362305592592,-0.09126366439422859,-1.160346508026123,-0.09693510085344315,true
-1.167435206418233,-0.09126363483123867,-1.1920595169067383,-0.09437704086303711,true
-1.167435723102924,-0.09126368189655833,-1.1903644800186157,-0.09459372609853745,true
-1.1674361705874832,-0.09126367638028957,-1.2217652797698975,-0.0908529981970787,true
-1.1674351016944606,-0.09126374240705397,-1.17389976978302,-0.094846710562706,true
-1.1674350914668319,-0.09126385537665507,-1.4128810167312622,-0.06667309254407883,true
-1.1674356449447212,-0.09126373643876105,-1.3635910749435425,-0.07033953815698624,true
-1.1674361033165226,-0.09126369031388484,-1.39753258228302,-0.06755264848470688,true
-1.1674351014324214,-0.09126374246410568,-1.156958818435669,-0.0968003198504448,true
-1.1674355433439627,-0.09126375164578893,-1.1581368446350098,-0.09655329585075378,true
-1.1674360150057963,-0.0912636890993483,-1.3974820375442505,-0.06708985567092896,true
-1.1674351018398876,-0.09126374241180049,-1.2409166097640991,-0.08844559639692307,true
-1.1674351062305586,-0.09126383293446638,-1.231559157371521,-0.09020760655403137,true
-1.1674356520890075,-0.09126373199488827,-1.247222661972046,-0.08845952153205872,true
-1.1674358897876143,-0.0912636491766334,-1.2576420307159424,-0.08715539425611496,true
-1.1674351010776525,-0.09126374237920967,-1.1807836294174194,-0.09506036341190338,true
-1.16743532571942,-0.09126354266748168,-1.1910054683685303,-0.09345217794179916,true
-1.16743582816971,-0.09126364090130737,-1.1886948347091675,-0.09421811997890472,true
-1.1674351013252753,-0.09126374235939261,-1.1056158542633057,-0.10445418953895569,true
-1.1674352933655463,-0.09126353951841872,-1.1232484579086304,-0.10398385673761368,true
-1.167436027846573,-0.09126369113858884,-1.1413706541061401,-0.10100799053907394,true
-0.9184852912327984,-0.06820368230864819,-0.8852842450141907,-0.07574863731861115,true
-0.9184855996641788,-0.06820362929804033,-0.8969539999961853,-0.07551533728837967,true
-0.9184859628272491,-0.06820360972706979,-0.893621027469635,-0.07585304975509644,true
-0.9184852901982983,-0.06820368229162707,-0.9007919430732727,-0.07624688744544983,true
-0.9184857270174143,-0.06820368051749412,-0.9090880751609802,-0.07468099147081375,true
-0.9184860739024359,-0.06820363108611614,-0.9182459115982056,-0.07446805387735367,true
-0.918485466858591,-0.06820347958319482,-0.9309260845184326,-0.07316061109304428,true
-0.9184858495630568,-0.06820358478556897,-0.9250443577766418,-0.07272914052009583,true
-0.9184861791176182,-0.06820360358392175,-0.9700027108192444,-0.06935376673936844,true
-0.9184852639537995,-0.06820386059764352,-0.9616762399673462,-0.07151177525520325,true
-0.9184857161776226,-0.06820368787342336,-0.9692394733428955,-0.07052738964557648,true
-0.9184860644193625,-0.06820363249895865,-0.9724489450454712,-0.0703936219215393,true
-0.9184852904910942,-0.06820368226797854,-0.9600818157196045,-0.07177314162254333,true
-0.9184854975849784,-0.06820348608404936,-0.9587205052375793,-0.07225141674280167,true
-0.9184858758420452,-0.06820358063673444,-0.9654474854469299,-0.07136081904172897,true
-0.9184852909859684,-0.06820368237832732,-0.9099010229110718,-0.07630635052919388,true
-0.9184854310303785,-0.06820351227257529,-0.9303513169288635,-0.07175979018211365,true
-0.9184858178033181,-0.06820360062315867,-0.9276885390281677,-0.0728738084435463,true
-0.9184861520911739,-0.06820360964678095,-0.8554903864860535,-0.07909631729125977,true
-0.9184853957842465,-0.0682035906601376,-0.8507375717163086,-0.0797828808426857,true
-0.9184857859269463,-0.06820362656186377,-0.8600928783416748,-0.07901958376169205,true
-0.9184852908687786,-0.06820368229834824,-0.8667486310005188,-0.07899073511362076,true
-0.9184856561733344,-0.06820369146797035,-0.883775532245636,-0.07683713734149933,true
-0.9184860119609138,-0.06820362892482461,-0.8956934213638306,-0.07606864720582962,true
-0.9184852907569627,-0.06820368224420548,-0.9115610122680664,-0.07578228414058685,true
-0.9184856616546723,-0.06820369418605272,-0.9056892991065979,-0.0772773027420044,true
-0.9184860167639789,-0.06820363003025567,-0.9045048356056213,-0.07744455337524414,true
-0.918485291282136,-0.06820368232305019,-0.9412727952003479,-0.0676499679684639,true
-0.9184855880642362,-0.06820361097588931,-0.9283279180526733,-0.07113488763570786,true
-0.91848595281093,-0.06820360490378768,-0.8908448219299316,-0.074187271296978,true
-0.7324264671210727,-0.05626842720419395,-0.7689449191093445,-0.05435611307621002,true
-0.7324263430996698,-0.056268691379015905,-0.7607910633087158,-0.05693723261356354,true
-0.7324268200120145,-0.05626844362918418,-0.7631126046180725,-0.056321509182453156,true
-0.7324271128315909,-0.05626837793634591,-0.7631223797798157,-0.055991072207689285,true
-0.7324264718733098,-0.056268427205499634,-0.7386709451675415,-0.06426579505205154,true
-0.7324266146973226,-0.056268248347981685,-0.764208197593689,-0.0602748766541481,true
-0.7324269356600285,-0.0562683419773989,-0.7568581104278564,-0.06135398522019386,true
-0.7324272131135364,-0.056268353258286885,-0.7277628779411316,-0.06390411406755447,true
-0.7324247324816346,-0.05626792183572674,-0.7517142295837402,-0.058126967400312424,true
-0.7324265360668449,-0.05626847319794132,-0.7595464587211609,-0.057415448129177094,true
-0.732427022564771,-0.05626833807604291,-0.7577869296073914,-0.05728994309902191,true
-0.7324264670946591,-0.05626842722458234,-0.773621678352356,-0.05445466190576553,true
-0.7324263430124018,-0.056268691469604254,-0.7500917315483093,-0.057997290045022964,true
-0.7324268199261491,-0.05626844371371272,-0.7548126578330994,-0.05745502933859825,true
-0.7324271127447064,-0.05626837801201249,-0.7488799095153809,-0.0581560842692852,true
-0.7324264720653567,-0.056268427224011305,-0.7230895161628723,-0.064786396920681,true
-0.732426585771801,-0.056268319560215975,-0.7709085941314697,-0.05761357769370079,true
-0.7324269091372149,-0.05626836662907464,-0.7637742757797241,-0.05855625122785568,true
-0.7324271904185283,-0.05626836111444374,-0.8699080348014832,-0.04144173488020897,true
-0.732424991399897,-0.05626809801132233,-0.7366419434547424,-0.06080201640725136,true
-0.7324267110884648,-0.05626829735332231,-0.7467727065086365,-0.05904600769281387,true
-0.7324270182928984,-0.056268335961629265,-0.744551420211792,-0.05928192660212517,true
-0.7324264670913134,-0.056268427223493914,-0.7215705513954163,-0.06271041929721832,true
-0.7324263430078113,-0.056268691469362635,-0.7567744255065918,-0.05625644326210022,true
-0.7324269707289027,-0.05626832629629409,-0.7569754123687744,-0.05587664991617203,true
-0.7324263921238998,-0.05626842655052467,-0.6962537169456482,-0.06835352629423141,true
-0.7324265954784472,-0.056268290898637975,-0.7395690679550171,-0.06197487562894821,true
-0.7324269179873373,-0.056268357443067574,-0.7253410220146179,-0.06368802487850189,true
-0.7324264716854224,-0.056268427271853605,-0.7377480864524841,-0.06190606579184532,true
-0.732426700955036,-0.05626827887539006,-0.741897463798523,-0.06136757507920265,true
-0.7324270096849794,-0.05626833227285301,-0.7380199432373047,-0.06180744618177414,true
-0.7324264640269142,-0.056268427174375,-0.7319281101226807,-0.06030203029513359,true
-0.7324266446280421,-0.05626822339531043,-0.7041708827018738,-0.06484411656856537,true
-0.7324268109365627,-0.056268442683706815,-0.7154875993728638,-0.06344602257013321,true
-0.732427104845991,-0.05626837680753888,-0.7065145373344421,-0.0645727813243866,true
-0.9162902034048199,-0.06595982178272439,-0.9497003555297852,-0.07110659778118134,true
-0.9162913534673971,-0.06596015790158324,-0.955695629119873,-0.06959454715251923,true
-0.9162917035444628,-0.06596012616122261,-0.9581010937690735,-0.06946420669555664,true
-0.9162910378232415,-0.06596019401270953,-0.9571599960327148,-0.06823113560676575,true
-0.9162909780481246,-0.06596041081438485,-0.9666855931282043,-0.06760552525520325,true
-0.9162914446995373,-0.0659602052313206,-0.964040994644165,-0.06842315942049026,true
-0.9162910311332026,-0.06596019394411964,-0.9149349331855774,-0.07143968343734741,true
-0.9162908264827105,-0.06596045566399353,-0.9293236136436462,-0.07014090567827225,true
-0.9162915893378395,-0.06596009498448885,-0.9156262278556824,-0.07244432717561722,true
-0.9162919076701042,-0.06596011451504957,-0.8493319749832153,-0.07776723802089691,true
-0.9162900617905044,-0.06595972031688925,-0.9060441255569458,-0.07360564172267914,true
-0.916291527848746,-0.06596013338238169,-0.9095339179039001,-0.07303854078054428,true
-0.9162918552808739,-0.0659601278657461,-0.8983240127563477,-0.07425162196159363,true
-0.9162910386404154,-0.0659601940461589,-0.9330727458000183,-0.06957820802927017,true
-0.9162914603705086,-0.06596019608114488,-0.9248454570770264,-0.0711417868733406,true
-0.9162917968836307,-0.06596014357561272,-0.917164146900177,-0.0722939744591713,true
-0.9162910393900178,-0.06596019403930252,-0.9098105430603027,-0.07564836740493774,true
-0.9162913808740183,-0.06596019090311718,-0.9242968559265137,-0.07352177798748016,true
-0.9162917273745791,-0.06596013623753003,-0.9261577725410461,-0.07345379143953323,true
-0.9162909719385717,-0.06596019344384828,-0.8599342703819275,-0.07793974876403809,true
-0.9162904142572929,-0.06596001894835063,-0.8870638608932495,-0.07437187433242798,true
-0.9162915432804383,-0.06596011989710991,-0.9049711227416992,-0.07184812426567078,true
-0.9162918684871374,-0.06596012371959041,-0.8809656500816345,-0.07549946010112762,true
-0.9162909088766547,-0.06596045176346207,-0.8924679756164551,-0.07712797820568085,true
-0.9162914288750281,-0.06596021005998177,-0.9031447768211365,-0.07560896128416061,true
-0.9162917693470811,-0.06596014512874117,-0.8951202630996704,-0.07646501064300537,true
-0.9162910394760527,-0.06596019396709571,-0.8769994378089905,-0.07534558326005936,true
-0.9162911791356595,-0.06596002382239935,-0.9111108183860779,-0.07176102697849274,true
-0.9162915535948196,-0.06596011218277224,-0.9164103865623474,-0.07054254412651062,true
-0.9162918772806754,-0.06596012120784242,-0.8583579659461975,-0.07927072048187256,true
-0.9162894712372011,-0.0659594738010975,-0.8710636496543884,-0.07606668025255203,true
-0.9162915123229776,-0.06596014833130158,-0.8690935373306274,-0.07649844884872437,true
-0.9162918419258476,-0.06596013210200947,-0.8874615430831909,-0.07409460842609406,true
-1.1154492291888034,-0.0665652689816653,-1.1717774868011475,-0.06594904512166977,true
-1.1154496214662077,-0.06656528494212344,-1.158551812171936,-0.06760967522859573,true
-1.115449964944727,-0.06656522001071964,-1.1860989332199097,-0.0639505609869957,true
-1.115449229832525,-0.06656526904705698,-1.0846022367477417,-0.07406660169363022,true
-1.1154495112385925,-0.06656517841386136,-1.1001830101013184,-0.072449691593647,true
-1.1154496950244046,-0.06656523379138794,-1.1027926206588745,-0.0722426325082779,true
-1.1154492294199683,-0.0665652690355895,-1.1594314575195312,-0.06272709369659424,true
-1.1154492503937687,-0.06656538199342993,-1.1458971500396729,-0.06700950860977173,true
-1.1154496635646436,-0.066565263098701,-1.121635913848877,-0.07133692502975464,true
-1.1154500016771831,-0.06656521699254657,-1.2761127948760986,-0.05102284997701645,true
-1.1154489173072326,-0.0665654735540196,-1.1410245895385742,-0.06643541902303696,true
-1.1154495892890248,-0.06656527815620752,-1.1425871849060059,-0.06725426763296127,true
-1.1154499367775674,-0.06656521560936285,-1.1276108026504517,-0.0702623501420021,true
-1.1154492296523144,-0.06656526896640733,-1.1224337816238403,-0.06954141706228256,true
-1.1154493636824294,-0.06656510882315163,-1.122638463973999,-0.0710519403219223,true
-1.1154497419572313,-0.06656519091685718,-1.1506682634353638,-0.0676245465874672,true
-1.1154500692456368,-0.06656519744813144,-1.0896855592727661,-0.07275736331939697,true
-1.1154490145141982,-0.06656553056679182,-1.1453768014907837,-0.06668274849653244,true
-1.1154496054201386,-0.0665652844416785,-1.1640840768814087,-0.0645677000284195,true
-1.1154499508709659,-0.06656521856785713,-1.073663353919983,-0.07437574863433838,true
-1.1154490973908149,-0.06656552672890033,-1.0837873220443726,-0.07432189583778381,true
-1.1154494281249614,-0.066565069384151,-1.0747822523117065,-0.07526212930679321,true
-1.115449964709849,-0.06656522008411969,-1.0950005054473877,-0.07322058081626892,true
-1.115449229757756,-0.06656526899160167,-1.1037222146987915,-0.07232849299907684,true
-1.1154495509103308,-0.06656524054883078,-1.0998802185058594,-0.0737132728099823,true
-1.1154499033256475,-0.06656520331542252,-1.09347665309906,-0.07483162730932236,true
-1.1154492284678879,-0.06656526900175835,-1.0757943391799927,-0.07526475191116333,true
-1.1154494524120961,-0.06656508895783822,-1.1040949821472168,-0.07307752966880798,true
-1.1154498190757143,-0.06656516867244038,-1.1318761110305786,-0.06880846619606018,true
-1.1154499834399412,-0.06656521960467317,-1.1367237567901611,-0.06907493621110916,true
-1.1154489516567463,-0.06656550093959367,-1.156501293182373,-0.06598448753356934,true
-1.1154497730136632,-0.0665651731664937,-1.1427099704742432,-0.06835031509399414,true
-1.1154499414809933,-0.0665652167625796,-1.1853097677230835,-0.06559192389249802,true
-0.988428134322442,-0.058269783428170935,-0.9803528785705566,-0.06621263921260834,true
-0.9884289646157576,-0.05826963595028676,-0.994308590888977,-0.06423364579677582,true
-0.9884291145278788,-0.05826966336572573,-0.9806185960769653,-0.06579168885946274,true
-0.9884284426572797,-0.058269938012198284,-0.9731751084327698,-0.06631140410900116,true
-0.9884290189071037,-0.05826962020756928,-0.9736961722373962,-0.06583432108163834,true
-0.9884284380736235,-0.05826972080139355,-0.9816276431083679,-0.06286899745464325,true
-0.9884286227301984,-0.058269561128878766,-0.9704429507255554,-0.06569545716047287,true
-0.9884289554615387,-0.058269643218143104,-0.9724366664886475,-0.06532658636569977,true
-0.9884292435935933,-0.058269649749647275,-0.9707011580467224,-0.06466168910264969,true
-0.9884270397531737,-0.05826896172153781,-0.9743737578392029,-0.0654158666729927,true
-0.9884289187647662,-0.05826968083254453,-0.9872270226478577,-0.06355121731758118,true
-0.9884292120893637,-0.05826966084012433,-0.9931278228759766,-0.06329125910997391,true
-0.9884284889271832,-0.05826972119812432,-0.9701255559921265,-0.06494686752557755,true
-0.9884286955619329,-0.058269534936585196,-0.9763696789741516,-0.06346375495195389,true
-0.9884290189496091,-0.05826962016801347,-0.9793820381164551,-0.06321214139461517,true
-0.9884284485119,-0.058269720890821525,-0.9885162711143494,-0.06167887896299362,true
-0.988428096204324,-0.05826971450143924,-0.9919027090072632,-0.06224747747182846,true
-0.9884288023010654,-0.05826971264510399,-1.0066879987716675,-0.060331426560878754,true
-0.9884291103322415,-0.058269661616361206,-0.9922357201576233,-0.06262906640768051,true
-0.988427239494034,-0.05826900103413501,-0.8884205222129822,-0.07080432027578354,true
-0.988428762952775,-0.058269649851954916,-0.9262877106666565,-0.06822428107261658,true
-0.9884290761919008,-0.058269643784193505,-0.9199544191360474,-0.0689317137002945,true
-0.9884284895028935,-0.05826972126242332,-0.9408810138702393,-0.0680944100022316,true
-0.9884287425439325,-0.05826961092224566,-0.9546619057655334,-0.06741397827863693,true
-0.9884290586850295,-0.05826963438106125,-0.9580426812171936,-0.06675618141889572,true
-0.9884293310877682,-0.058269640381403226,-0.9410786032676697,-0.06906994432210922,true
-0.9884277265314592,-0.0582692475890319,-0.9648609757423401,-0.06469293683767319,true
-0.9884287778363547,-0.058269676872228095,-0.9605856537818909,-0.06562584638595581,true
-0.9884290890315519,-0.05826965103675792,-0.9865253567695618,-0.06162075698375702,true
-0.9884284894721994,-0.05826972121923121,-0.9433416128158569,-0.0682680532336235,true
-0.9884285424331741,-0.05826978933875101,-0.9340907335281372,-0.06866174936294556,true
-0.9884287323512527,-0.05826959134613047,-0.9266626834869385,-0.06975890696048737,true
-0.9884290500185438,-0.058269629954157985,-0.9260534644126892,-0.06925760954618454,true
-1.1794675264751417,-0.07346923761617868,-1.1981512308120728,-0.075746551156044,true
-1.1794679254864913,-0.07346924355547889,-1.1795114278793335,-0.07944580167531967,true
-1.179468308505626,-0.07346918312693924,-1.1861631870269775,-0.07873351871967316,true
-1.1794675491228481,-0.07346923781127866,-1.1774379014968872,-0.07729977369308472,true
-1.1794678456447871,-0.07346914718060435,-1.1655563116073608,-0.07994233816862106,true
-1.1794682393380003,-0.07346915558936366,-1.1692185401916504,-0.08039075136184692,true
-1.1794675480826795,-0.07346923775276941,-1.1833951473236084,-0.07974670082330704,true
-1.1794679961236818,-0.07346924325190186,-1.2000365257263184,-0.07753652334213257,true
-1.1794683701707571,-0.07346918787676907,-1.2066779136657715,-0.07741701602935791,true
-1.1794675486437134,-0.0734692378168471,-1.2308779954910278,-0.06992293149232864,true
-1.179467715314014,-0.07346904072509083,-1.251020073890686,-0.06843803822994232,true
-1.1794681280749848,-0.07346914417997187,-1.258982539176941,-0.0663171336054802,true
-1.1794683136971365,-0.07346918445407925,-1.2498146295547485,-0.06801158934831619,true
-1.1794675489625353,-0.07346923773224087,-1.257738709449768,-0.06912397593259811,true
-1.1794678953485833,-0.07346921648836492,-1.1991699934005737,-0.0775773897767067,true
-1.179468093970159,-0.07346916369316038,-1.2115763425827026,-0.07601398229598999,true
-1.179468454605861,-0.0734691675075683,-1.215372920036316,-0.07252735644578934,true
-1.1794675480407821,-0.07346923781684023,-1.1658802032470703,-0.07935196906328201,true
-1.1794677875952309,-0.0734690648130158,-1.1590306758880615,-0.08035777509212494,true
-1.1794681899151986,-0.07346913850294742,-1.1981463432312012,-0.07516912370920181,true
-1.1794675448867105,-0.07346923772094463,-1.171423316001892,-0.08208739757537842,true
-1.1794679669545323,-0.07346925367686452,-1.2249351739883423,-0.0748174861073494,true
-1.17946816202323,-0.07346913622743893,-1.1927107572555542,-0.08000114560127258,true
-1.1794675490991913,-0.07346923778545067,-0.9315760731697083,-0.10060103982686996,true
-1.1794676060741682,-0.0734692620117231,-1.218520164489746,-0.0703619197010994,true
-1.1794680365486667,-0.07346921283058139,-1.2004727125167847,-0.07333891093730927,true
-1.1794682284776734,-0.0734691508642705,-1.1951615810394287,-0.07320922613143921,true
-1.1794675483929793,-0.07346923773612571,-1.1975677013397217,-0.07713019847869873,true
-1.17946775469913,-0.07346903802471182,-1.2370648384094238,-0.07203712314367294,true
-1.179467966968767,-0.07346925369636291,-1.2149357795715332,-0.07603025436401367,true
-1.179468344721231,-0.07346918876832162,-1.2203476428985596,-0.0754864290356636,true
-1.1794672364289809,-0.07346946968493691,-1.153448462486267,-0.08375664055347443,true
-1.179467937447419,-0.07346924965516634,-1.224104642868042,-0.07410231977701187,true
-1.1794683189416608,-0.07346918550549215,-1.1766399145126343,-0.07847928255796432,true
-0.6104188479435538,-0.07274109343606029,-0.8054938316345215,-0.050936851650476456,true
-0.6104188854084087,-0.072741161599201,-0.6243639588356018,-0.07453431189060211,true
-0.6104193205940481,-0.07274107840366148,-0.6306020617485046,-0.07423268258571625,true
-0.6104196872976995,-0.0727410393883387,-0.6390030980110168,-0.07340937852859497,true
-0.6104186418899861,-0.07274135912796474,-0.6230148077011108,-0.07808361202478409,true
-0.6104190398769659,-0.07274088976001798,-0.628324031829834,-0.07757025212049484,true
-0.610419445215788,-0.0727409931282153,-0.6255022287368774,-0.07833040505647659,true
-0.6104188196937345,-0.07274109316386324,-0.6532976031303406,-0.07361692190170288,true
-0.6104184059196199,-0.07274121374158048,-0.6085079908370972,-0.08032498508691788,true
-0.6104192161180293,-0.0727410950549394,-0.6110973358154297,-0.08007503300905228,true
-0.6104195962079142,-0.07274103725508277,-0.6081827878952026,-0.08025859296321869,true
-0.61041875974832,-0.07274109268818739,-0.6674173474311829,-0.07536430656909943,true
-0.6104189700513596,-0.07274095700396128,-0.5849543809890747,-0.08752673119306564,true
-0.6104191862099738,-0.07274106488503157,-1.0253125429153442,-0.03453740477561951,true
-0.61041974129374,-0.07274102444575646,-0.5869836211204529,-0.08783924579620361,true
-0.610418847609715,-0.07274109337528768,-0.6249567270278931,-0.08306585997343063,true
-0.6104190203703325,-0.07274089276358328,-0.62245112657547,-0.08373928815126419,true
-0.6104194283604001,-0.07274099756595118,-0.6334069967269897,-0.082792267203331,true
-0.6104188123943155,-0.07274109309405892,-0.7313374280929565,-0.06194687262177467,true
-0.610418349305991,-0.07274115556924131,-0.6183866858482361,-0.07907115668058395,true
-0.6104192102510743,-0.07274109016844418,-0.6234322190284729,-0.07838174700737,true
-0.61041959109997,-0.07274103550573814,-0.6206200122833252,-0.07916535437107086,true
-0.6104188470717269,-0.07274109338439202,-0.6089407801628113,-0.0776681900024414,true
-0.6104190855462049,-0.07274092036205988,-0.6084420680999756,-0.07983299344778061,true
-0.6104194839867098,-0.07274099405618993,-0.5972938537597656,-0.0802411288022995,true
-0.6104188411641344,-0.0727410933416977,-0.6788622736930847,-0.07220681011676788,true
-0.6104186417753837,-0.07274135922445284,-0.6250298619270325,-0.08088768273591995,true
-0.6104192514356739,-0.07274110970110409,-0.6220625042915344,-0.08114610612392426,true
-0.6104196270330845,-0.07274104367406521,-0.6228750944137573,-0.08146505057811737,true
-0.6104188479714425,-0.07274109335272519,-0.645490288734436,-0.07470634579658508,true
-0.6104189762801917,-0.07274094450039606,-0.6429662704467773,-0.07551857829093933,true
-0.6104193889503812,-0.07274101931445921,-0.6318363547325134,-0.07752878218889236,true
-0.6104197461124834,-0.07274102313494309,-0.6618722081184387,-0.07237450033426285,true
-0.610418860902443,-0.07274120637955267,-0.6155542135238647,-0.07917340844869614,true
-0.6104191049379866,-0.07274094501229297,-0.6130765080451965,-0.07975173741579056,true
-0.6104195004117907,-0.07274099841062799,-0.6247904896736145,-0.07862311601638794,true
-0.7327878892125496,-0.054714242734409765,-0.7784447073936462,-0.05182640254497528,true
-0.7327880724433158,-0.05471408301483029,-0.7483313083648682,-0.056568875908851624,true
-0.7327883856201626,-0.05471416510393836,-0.7497188448905945,-0.05624759569764137,true
-0.7327886569295425,-0.05471417163563292,-0.8642129898071289,-0.040552787482738495,true
-0.7327873715567321,-0.05471387095358098,-0.7545636296272278,-0.056890010833740234,true
-0.7327882230876538,-0.05471420707458058,-0.7532991766929626,-0.056665435433387756,true
-0.7327885153506492,-0.05471417533339532,-0.7572135925292969,-0.05585413798689842,true
-0.7327879388935441,-0.054714243161544523,-0.7540560364723206,-0.05643260106444359,true
-0.732788155975222,-0.05471407775640842,-0.7365847229957581,-0.05930716544389725,true
-0.7327884580074712,-0.05471414502572693,-0.7428529858589172,-0.058324798941612244,true
-0.7327879234944829,-0.05471424305089031,-0.869335412979126,-0.040231142193078995,true
-0.7327880961169492,-0.05471404612385306,-0.7368947267532349,-0.05817670375108719,true
-0.73278840700826,-0.05471414957787507,-0.7380706071853638,-0.057990726083517075,true
-0.732787939634359,-0.05471424315944143,-0.7447875142097473,-0.056384406983852386,true
-0.7327880268499934,-0.054714225538508486,-0.7203181982040405,-0.06153574213385582,true
-0.7327883468236711,-0.05471420787814519,-0.7357037663459778,-0.05936528369784355,true
-0.7327879386123295,-0.054714243153838715,-0.7594212293624878,-0.05327019467949867,true
-0.7327881509751648,-0.05471407009453502,-0.7272317409515381,-0.06001873314380646,true
-0.7327884537923061,-0.054714143798802524,-0.7465077638626099,-0.05624837428331375,true
-0.7327885896520636,-0.05471419327893033,-0.7817515730857849,-0.05908343940973282,true
-0.7327880913565054,-0.054714050797969406,-0.7739395499229431,-0.06048186495900154,true
-0.7327884027974124,-0.05471415196834,-0.7646971344947815,-0.06149759516119957,true
-0.7327886715682989,-0.05471416702287321,-0.7325138449668884,-0.06130865961313248,true
-0.7327866510718458,-0.054713483561682215,-0.7404717206954956,-0.06136623024940491,true
-0.7327881997988979,-0.05471416223718757,-0.7350854277610779,-0.06224259361624718,true
-0.7327884952362476,-0.05471416330871789,-0.7431553602218628,-0.06071210652589798,true
-0.7327879390086227,-0.0547142431357147,-0.7690300345420837,-0.060690827667713165,true
-0.7327882948210365,-0.054714256451134896,-0.7596572637557983,-0.06176456809043884,true
-0.7327885781995559,-0.05471419428322813,-0.7800756096839905,-0.05904746428132057,true
-0.7327876196151157,-0.05471430537823751,-0.7534798979759216,-0.06048155203461647,true
-0.7327882460788872,-0.05471423999221161,-0.7490122318267822,-0.060454078018665314,true
-0.7327885354039358,-0.05471418532613228,-0.7481985688209534,-0.061177901923656464,true
-0.9634568705803059,-0.056364263158344766,-0.9267885684967041,-0.06607828289270401,true
-0.9634568633295837,-0.05636444139301083,-0.9650834202766418,-0.06194739043712616,true
-0.9634572467196705,-0.056364268688980444,-0.9610511064529419,-0.06406992673873901,true
-0.9634568692379842,-0.0563642630903119,-1.163018822669983,-0.03490027040243149,true
-0.9634568085591251,-0.056364496304861664,-0.9605962634086609,-0.06143179163336754,true
-0.9634572332972714,-0.0563642763898348,-0.9638445973396301,-0.06113050505518913,true
-0.9634567915968097,-0.05636426244741089,-0.9407299757003784,-0.06714928150177002,true
-0.963456345295033,-0.05636399185597747,-0.9793272018432617,-0.06290844082832336,true
-0.9634571643281933,-0.056364234760542996,-0.978529691696167,-0.06338389217853546,true
-0.9634575982401332,-0.0563641943245669,-0.9569451808929443,-0.06302931159734726,true
-0.963455079406805,-0.05636362235599676,-0.9554022550582886,-0.0624300017952919,true
-0.9634571207463474,-0.05636415272938167,-0.9483572244644165,-0.06352822482585907,true
-0.9634574268763658,-0.05636417618217755,-0.9636443853378296,-0.06222373992204666,true
-0.9634568652686066,-0.05636426308911964,-0.8823402523994446,-0.07237943261861801,true
-0.9634570493159491,-0.05636405952452131,-0.9109737873077393,-0.06854790449142456,true
-0.9634573664555849,-0.05636416289302029,-0.9282407164573669,-0.06750515103340149,true
-0.9634576395935668,-0.056364182909619656,-1.1917834281921387,-0.031849272549152374,true
-0.9634569852410428,-0.05636415545832324,-0.9765190482139587,-0.05871798098087311,true
-0.9634573090689382,-0.05636420252720193,-0.9747642278671265,-0.05907335504889488,true
-0.963457590698886,-0.05636419701100402,-1.1053743362426758,-0.041029442101716995,true
-0.9634569162630455,-0.056364353700166,-0.9362151026725769,-0.06535648554563522,true
-0.9634571056466359,-0.05636412388902526,-0.941314697265625,-0.0648212656378746,true
-0.9634574140226825,-0.05636416998664694,-0.9478316903114319,-0.064265675842762,true
-0.963456845830589,-0.05636426292423592,-0.9046445488929749,-0.06889329850673676,true
-0.963456565379599,-0.056364383414023514,-0.9174576997756958,-0.06617958098649979,true
-0.963457187804032,-0.056364264731939694,-0.9293599128723145,-0.06561463326215744,true
-0.9634574849149474,-0.056364206930311966,-0.921118974685669,-0.06577061116695404,true
-0.9634551279728872,-0.05636375773481034,-0.9533735513687134,-0.06420017033815384,true
-0.9634571157714663,-0.05636414292196603,-0.9491174817085266,-0.06469875574111938,true
-0.9634575599934773,-0.05636420786322045,-0.9512481093406677,-0.06486466526985168,true
-0.9634568708143858,-0.05636426307602921,-0.942172110080719,-0.06578268110752106,true
-0.9634572467517242,-0.05636426861523311,-0.943008542060852,-0.06597750633955002,true
-0.9634575366416793,-0.05636421322897762,-0.9480602145195007,-0.06491213291883469,true
-1.1188990202084685,-0.0656785563651462,-1.159694790840149,-0.06814258545637131,true
-1.118899182809248,-0.06567835923476359,-1.1982754468917847,-0.0640987679362297,true
-1.1188997199464723,-0.06567850299333956,-1.1840230226516724,-0.06584559381008148,true
-1.1188990206063,-0.0656785563852933,-1.2775782346725464,-0.049436818808317184,true
-1.1188991001472655,-0.06567853876421512,-1.1374589204788208,-0.06850775331258774,true
-1.1188994814220112,-0.06567852109805195,-1.1325491666793823,-0.06915298849344254,true
-1.1188990139188584,-0.06567855634715866,-1.0930742025375366,-0.07155534625053406,true
-1.1188988372485407,-0.06567882215158866,-1.1366620063781738,-0.06472141295671463,true
-1.1188993982325521,-0.06567857263050175,-1.1317644119262695,-0.06712682545185089,true
-1.1188990033474275,-0.06567855624502826,-1.1198945045471191,-0.07093049585819244,true
-1.1188987132096404,-0.06567876091022289,-1.1812348365783691,-0.06405576318502426,true
-1.1188993769811062,-0.0656785655057201,-1.1853101253509521,-0.06379760801792145,true
-1.118899719917655,-0.06567850296117157,-1.184643268585205,-0.06391424685716629,true
-1.1188970199587136,-0.06567779189267434,-1.1367270946502686,-0.0678141862154007,true
-1.1188993000614196,-0.06567846571236911,-1.1393686532974243,-0.06770378351211548,true
-1.1188996531926543,-0.06567847412100397,-1.1339397430419922,-0.06863705813884735,true
-1.1188990181414125,-0.06567855640398994,-1.1241081953048706,-0.06830137968063354,true
-1.1188992299494789,-0.06567836479992763,-1.1261498928070068,-0.06746608763933182,true
-1.1188995936687536,-0.06567845498095168,-1.1180107593536377,-0.06828558444976807,true
-1.1188989988898723,-0.06567855623248643,-1.1217186450958252,-0.06871744990348816,true
-1.1188986769230092,-0.06567872404433239,-1.163938283920288,-0.06449326872825623,true
-1.1188995480429733,-0.06567846528841953,-1.172481894493103,-0.06340444833040237,true
-1.1188998680108675,-0.06567848034071881,-1.132393479347229,-0.06600365042686462,true
-1.118896785818099,-0.06567791571308329,-1.0612730979919434,-0.07998032867908478,true
-1.1188992885687026,-0.0656784460763737,-1.1700137853622437,-0.061481773853302,true
-1.1188996433439842,-0.06567846953799136,-1.1676915884017944,-0.06195499375462532,true
-1.1188990191524977,-0.06567855640907247,-1.1362364292144775,-0.06821957230567932,true
-1.1188989791844604,-0.06567875470204271,-1.1823983192443848,-0.0630977675318718,true
-1.1188994295538304,-0.06567856502630966,-1.169181227684021,-0.0650283619761467,true
-1.1188997658906423,-0.06567850707155608,-1.1800386905670166,-0.06332311779260635,true
-1.118899020535918,-0.06567855645539165,-1.1387523412704468,-0.0690329447388649,true
-1.1188991070127008,-0.06567851903840964,-1.1661380529403687,-0.06561221927404404,true
-1.1188994864309514,-0.06567851603894678,-1.175500512123108,-0.06429480761289597,true
-1.1188998152643823,-0.06567849604577204,-0.3938851058483124,-0.06116463243961334,true
-0.5999999999999999,-0.06184049553041221,-0.571946957513471,0.03313537312772655,false
-0.5999999999999999,-0.10249377831789508,-0.571946957513471,0.008068422748693682,false
-0.5999999999999999,-0.052359877559829404,-0.571946957513471,0.08326927388579222,false
-0.5999999999999999,-0.052359877559829904,-0.5916139351328122,0.08640264268317083,false
-0.6693275613694514,-0.052359877559829876,-0.6704030432339327,0.0989361178726873,false
-0.6912329369071216,-0.052359877559829904,-0.6901326132850069,0.10206948667006693,false
-0.6914594868243855,-0.07742682793886224,-0.6901326132850069,0.07700253629103404,false
-0.6961112080917801,-0.052359877559829904,-0.6901326132850069,0.10206948667006693,false
-1.2,-0.052359877559829904,-1.3309720851658784,0.40287289121846076,false
-0.5999999999999999,-0.05549324635720854,0.24864170601359414,0.1490700186307533,false
-0.5999999999999996,-0.052359877559829904,-0.3885028985403847,0.01322989244017063,false
-0.673830053870106,-0.052359877559829404,-0.3758351247365826,0.011201791546072815,false
-0.814185291900086,-0.055401192776499165,-0.39623369458931235,0.010188577223501381,false
-0.5999999999999999,-0.052359877559829904,-0.14144520886564826,0.011201791546072815,false
-0.5999999999999999,-0.052359877559829904,-0.13456490006729405,0.013229892440170643,false
-0.5999999999999999,-0.052359877559829904,-0.06343698215558752,0.0018016851539350842,false
-0.5999999999999999,-0.10471975511965975,-0.43457315021616216,-0.016091135634724668,false
-0.5999999999999999,-0.10249377831789508,-0.4149857532133441,-0.0169985276303391,false
-0.5999999999999999,-0.052359877559829904,-0.25854860390039136,-0.008436463766928755,false
-0.5999999999999999,-0.06184049522687973,-0.25854860390039136,-0.016998527630339093,false
-0.6000784966166159,-0.06489335274934582,-0.24164560593434242,-0.019710742749345478,false
-0.5999999999999999,-0.06802672154672484,-0.19997921652299022,-0.023265265225097254,false
-0.5999999999999999,-0.052359877559829404,-0.0075657630462631,-0.007177267559829059,false
-0.5999999999999999,-0.052359877559829404,-0.004945234512409241,-0.007598421238201647,false
-0.5999999999999999,-0.052359877559829904,0.014551310017565044,-0.01073179003558078,false
-0.5999999999999999,-0.052359877559829404,0.053545639137106756,-0.016998527630338933,false
-0.5999999999999999,-0.052359877559829404,0.5619743717990519,-0.09846611636219571,false
-0.5999999999999999,-0.0640699615828556,-0.18645030734111767,-0.029669786864854997,false
-0.5999999999999999,-0.10383277564828358,-0.36918030672778435,-0.035557896622646745,false
-0.5999999999999999,-0.10383277545983023,-0.33263754709121784,-0.0414122037953536,false
-0.5999999999999999,-0.06512816899355336,-0.18666997649721606,-0.03076326653833894,false
-0.5999999999999999,-0.09919433494148489,-0.04090739236024052,-0.04141220379535371,false
-0.6877725142713755,-0.10471975511965975,-0.5441924854893054,-0.009403245119659343,false
-0.7002271394116459,-0.09296961842888758,-0.5552381337305794,0.0023468915711128365,false
-0.7015500918770523,-0.09200496363317894,-0.5560970570361468,0.0033115463668214745,false
-0.7008672172521158,-0.09263697904650818,-0.5552099022637539,0.00262609856237778,false
-0.7272936472306907,-0.07092959315963998,-0.5722516764500297,0.02438691684036043,false
-0.727312113324059,-0.07091578126317281,-0.5722608341495958,0.024400728736827595,false
-0.6979526019538042,-0.10471975511965975,-0.5340123978068768,-0.009403245119659343,false
-0.6979788512555791,-0.10470685382230231,-0.534012397806879,-0.009390343822301903,false
-0.7052804324826069,-0.09261856356732832,-0.555789950382737,0.0026979464326720853,false
-0.7051785467188335,-0.09282648584684923,-0.555449627702983,0.0024636602686656517,false
-0.7022434094640814,-0.10471975511965975,-0.5346245902965997,-0.009403245119659343,false
-0.9212237852383124,-0.09569370489644141,-0.5624894776507032,-0.0003771948964410021,false
-0.9692262507913934,-0.07517723565130832,-0.5756114705000153,0.020139274348692088,false
-0.6778389676814554,-0.07603403303703567,-0.6800445762663929,0.03723897626639289,false
-0.6747719344411619,-0.07759417835499441,-0.6806964112035612,0.035986242624580916,false
-0.6913610533445351,-0.0615521953183165,-0.6990474365566033,0.05384323187675667,false
-0.737085390995995,-0.09758939022574219,-0.7370921758929164,0.026935728472763543,false
-0.7370409419997014,-0.09758279171617659,-0.7370921758929163,0.027259830203254065,false
-0.7308451051558288,-0.052359877559829904,-0.7370921758929164,0.07510345860290052,false
-0.7435931043675821,-0.08856360446279965,-0.7370921758929163,0.03889973169993027,false
-0.6676041557321799,-0.10364849067237059,-0.6676717652569458,0.024866165256945683,false
-0.6712453151169434,-0.1006315134304564,-0.6712585759167122,0.028452975916712253,false
-0.6971660573819783,-0.10471607815553345,-0.680047967777349,0.02576477370022627,false
-1.1287398180903656,-0.052359877559829904,-0.7240377405305356,0.08223214053053562,false
-1.1572790314865824,-0.052359877559829904,-0.7525769539267524,0.11077135392675241,false
-1.1857342526744192,-0.052359877559829904,-0.7806164474947723,0.1392265751145893,false
-1.2,-0.052359877559829904,0.031284429708139175,0.15349232244017003,false
-1.1490303186497033,-0.052359877559829904,0.3487934920089537,0.10252264108987336,false
-0.6051546173010431,-0.052378244185454274,-0.8845385570135686,0.09148879552707123,false
-0.6297914586962254,-0.0919767206153379,-0.9204944964246105,0.06320941711304712,false
-0.6297615834115678,-0.0919767206153379,-0.9204944964246106,0.06320941711304712,false
-0.6581716664591492,-0.0919767206153379,-0.9565106954776728,0.0688689661209769,false
-0.5999999999999998,-0.0806576225994784,-0.9086474755095946,0.09247295291011645,false
-0.5999999999999999,-0.08483447692357765,-0.9120056116326865,0.09165423470910888,false
-0.6375099127096466,-0.08483447692360901,-0.9565106954776722,0.09864940584441703,false
-0.5999999999999999,-0.052359877559829904,-0.9657228945105045,0.17784611695067473,false
-0.7143122667101641,-0.052359877559829404,-1.1012276375733552,0.19903859330336177,false
-0.745007530139447,-0.052359877559829404,-1.137582450010568,0.20469814231129158,false
-0.5999999999999999,-0.06322654213011826,-0.14973492503880848,-0.03548687809890855,false
-0.5999999999999999,-0.052359877559829904,-0.14906917911013576,-0.023882047559829533,false
-0.628816342347908,-0.052359877559829404,-0.14906917911013862,-0.023882047559829034,false
-0.5999999999999999,-0.06362504474047592,-1.0273416744918875,0.10562512975141186,false
-0.599999999999997,-0.06646399226353883,-1.027368532870561,0.10281304060702542,false
-0.6049324195251554,-0.05238253328773067,-1.0332159191023507,0.11780946628946463,false
-0.65290617820232,-0.052361244057998385,-1.09004268451269,0.12668376225237168,false
-0.5999999999999999,-0.052359877559829904,-1.207463433189353,0.2970120556295232,false
-0.7548412316316717,-0.052359877559829904,-1.3971402519132512,0.33184764272174955,false
-1.2,-0.052359877559829904,-1.9806833683639014,0.4135201047814368,false
-1.2,-0.055176169354991034,-2.0000000000000044,0.41633639657659893,false
-0.5999999999999999,-0.052359877559829904,-0.12890140266811045,-0.027194667559829522,false
-0.5999999999999998,-0.052359877559829904,-0.04064269768416362,-0.04137620977385653,false
-0.6001320031187559,-0.052359877559829904,-0.04064269768416363,-0.04137620977385659,false
-0.603915911028456,-0.10469420946399201,-1.0536223759166865,0.07281782415494596,false
-0.6202017320470908,-0.10471975511965975,-1.0727699635364725,0.07578218660904135,false
-0.600028503008204,-0.10328121933850958,-1.0556020020074994,0.07734891833780495,false
-0.5999999999999999,-0.10285739528180146,-1.0565727368641444,0.07792433214594599,false
-0.6000285030082039,-0.10285739528180146,-1.056606514595839,0.07792960686943665,false
-0.6094797699330161,-0.10298595415073115,-1.0716101438385148,0.08295297765602598,false
-0.6253917127613856,-0.10154242053015669,-1.089776764932922,0.08442167270169296,false
-0.6252055013459888,-0.10011230062413834,-1.0929445021803486,0.08634550145849818,false
-0.6119952624511121,-0.10375719987789864,-1.0896153240688644,0.09987146149565088,false
-0.6027201620129704,-0.09730333456153184,-1.0896153240688642,0.10268042755825726,false
-0.7712180922985602,-0.09226825174536324,-0.11319939421071368,-0.06839026174536289,false
-0.7830872919312609,-0.08589152140452344,-0.11410540247827163,-0.06201353140452309,false
-0.7843669176225884,-0.0923349418462444,-0.1128392643378568,-0.06845695184624405,false
-0.7859257114062224,-0.10467166701602124,-0.07405861673568238,-0.08091047414730451,false
-0.9879370764120471,-0.08063687568917444,-0.10802738125172004,-0.05675888568917409,false
-0.8939656991190675,-0.0846625161110073,-0.012559695669894788,-0.060784526111006945,false
-0.9817747924694797,-0.10220930504489312,0.11981857166167753,-0.08091047414730457,false
-1.2000000000000008,-0.10471975511965975,-1.1176153143153806,0.07936775511966049,false
-1.1985421731669887,-0.10471975511965975,-1.1082513708890798,0.07790992828664842,false
-1.2,-0.10249377832092885,-0.8493798651604713,0.0771417783209288,false
-1.1339381804111952,-0.052376145383662615,-1.1339136732549995,0.13148422787133676,false
-1.1379875893655869,-0.08557967058581648,-1.1339136732549995,0.0982807026691829,false
-1.1408375250291853,-0.07978843368824372,-1.1445527734127978,0.10509309893759344,false
-1.1468535162001114,-0.08026219487559816,-1.1445527734127978,0.10525292178377266,false
-1.103371137801738,-0.052359877559829904,-1.133913673255,0.13150049569517006,false
-1.100860592065663,-0.07480958968938778,-1.1445527734127978,0.11070552696998304,false
-1.103371137801738,-0.07466027571302929,-1.1626138397546035,0.11366105496253633,false
-1.2,-0.07480958968938778,-1.3992481718213592,0.1499925231967103,false
-1.2,-0.09725930181894626,-1.3992481718213592,0.1499925231967103,false
-1.199975121414465,-0.09725930181894626,-1.3992481718213592,0.1499925231967103,false
-1.2,-0.061258658154160685,-0.7197569828416,0.05713734184583926,false
-1.1858994634718312,-0.052359877559829904,-0.37583512473658254,0.0519355859120012,false
-1.198432938661347,-0.05548870361554712,0.7987567261617564,0.06134023504579985,false
-1.198432938661347,-0.09622704072313693,1.9890932496731832,0.0206018979382101,false
-1.080716,-0.10470724355772783,-1.2573285433883847,0.10001296045877155,false
-1.080716,-0.10471975511965975,-1.2573285433883847,0.10624964427598893,false
-1.0669306501476437,-0.10471649307216475,-1.257328543388385,0.1118335312165362,false
-1.080716,-0.09700487670424673,-1.4025748476974584,0.14744827204971506,false
-1.080716,-0.052359877559829904,-1.4025748476974584,0.23673827033854983,false
-1.0662281935525153,-0.09700487670424685,-1.4025748476974584,0.19209327119413233,false
-1.080716,-0.0970048766995501,-1.4300428650397388,0.2855798650397387,false
-1.080716,-0.09700487670424673,-1.4391094428380045,0.2869638943760193,false
-0.6096888542045233,-0.10374074485858242,-1.1090194496762575,0.0815078954717341,false
-0.603179725312519,-0.10284058326742074,-1.1090194496762582,0.08801702436373926,false
-0.5999999999999999,-0.052359877559829404,-1.1517501600680151,0.13392746006801512,false
-0.6046896798577894,-0.09723161596657703,-1.2900163578485193,0.26750397799072984,false
-0.6974565548458361,-0.09723161596657703,-1.3996101347390963,0.2843308798932602,false
-0.6992760740124861,-0.052359877559829904,-1.454714843263759,0.3376160692512729,false
-0.6447477966863804,-0.10471975511965975,-1.9807643000043553,0.9181937989100912,false
-1.2,-0.05714337993532266,-0.5366002426288256,0.030632620064677124,false
-1.1988454386174978,-0.052359877559829904,-0.5326465840152819,0.03426156105766781,false
-1.1989006441692553,-0.053541271041528865,-0.5326465840152819,0.03313537312772638,false
-1.1768569503321702,-0.06489335274934582,-0.3629599403686141,-0.0002604024171757313,false
-1.2,-0.08996030312837866,-0.2727663334623017,-0.002184303128378806,false
-1.1977192506875562,-0.10471857415115571,-0.25854860390039136,-0.019223323463599673,false
-1.191452513092798,-0.10249377831789508,-0.21949790188998328,-0.02326526522509731,false
-1.1988105507322602,-0.05812358832821458,-0.4348301536054766,0.013152962404045558,false
-1.2,-0.052359877559829904,-0.1773773122450587,0.020106122440170016,false
-1.1973624067006605,-0.07116009034410395,0.2681718647640761,-0.0013316836434435209,false
-1.2,-0.07429727744709906,0.2709888410099095,-0.0018312774470991416,false
-1.1534512944636517,-0.07429727744689393,0.5619743717990517,-0.04837998298324228,false
-1.1902040767721485,-0.10440036298260677,0.561974371799052,-0.05023880026884189,false
-1.2,-0.052359877559829904,1.0811365246668445,0.020106122440170016,false
-1.1816955627137655,-0.052359877559829904,1.8609150005451263,0.0018016851539355283,false
-1.199871300308523,-0.052359877559829404,-0.3367141243334611,0.008068422748693738,false
-1.2,-0.06489335274934582,-0.3269039045340592,-0.0060373527493458035,false
-1.1827720875242484,-0.06802672154672496,-0.2390209027096455,-0.02639863402247644,false
-1.1796923796656391,-0.06639213544617839,-0.2198322457041817,-0.027843755780539256,false
-1.1795850577920222,-0.06639213544212413,-0.21916363198065889,-0.027951077650101908,false
-1.195328081524724,-0.08371608434457957,-0.21949790188998328,-0.029532002819855574,false
-1.1702386123347321,-0.10249377831789508,-0.06343698215558752,-0.07339916598316298,false
-1.2,-0.05683360491643494,-0.35234338724380926,0.0011723950835650643,false
-1.2,-0.05689189315951272,-0.3519795798819165,0.0011141068404872806,false
-1.2,-0.056898124637705674,-0.3519406859725727,0.0011078753622943277,false
-1.2,-0.07742682793886224,-0.08736162388277671,-0.01942082793886224,false
-1.2,-0.06013682968212013,-0.3486305805248474,-0.0025558296821202448,false
-1.1997378242239103,-0.08998419584114475,-0.3171637646163978,-0.03266537161723465,false
-1.1903138251190069,-0.08996030312837866,-0.10243707140619865,-0.04206547800937194,false
-1.1997139315111442,-0.05527849379948821,-0.08293621236316115,0.002016437711655855,false
-1.2,-0.05873977664064666,-0.3176196685758388,-0.0013717766406467977,false
-1.1842600875242486,-0.0836935655336204,-0.21949790188998328,-0.04206547800937188,false
-1.1967935627137656,-0.052359877559829904,-0.21949790188998328,0.0018016851539355283,false
-1.2,-0.052359877559829404,-0.08339096199328973,0.005008122440170459,false
-1.1999616525080004,-0.05238423236058375,-0.3487970191819878,0.004839420147416569,false
-1.1999540867081635,-0.05354011976313064,-0.3484124957006156,0.0036759669450328325,false
-1.2,-0.07344746455067784,-0.34178887557736715,-0.016185464550677917,false
-1.1999856859191358,-0.07344749515350388,-0.3416993429159763,-0.016199809234368118,false
-1.1981896266050374,-0.05577804738095719,-0.3367141243334611,-0.00032642077591995416,false
-1.1956527815080098,-0.06677994034096978,-0.3171637646163978,-0.013865158832960009,false
-1.196899562713765,-0.06489335274934582,-0.29761964894933124,-0.01073179003558089,false
-1.168699243537353,-0.10249377831789508,-0.043938997734229844,-0.07653253478054206,false
-1.1968995627137655,-0.052359877559829904,-0.06343698215558752,0.0018016851539355283,false
-1.1988871409311856,-0.06768440506625044,-0.3367141243334611,-0.011588264135064683,false
-1.19963771129482,-0.07890302938331197,-0.3369385855962209,-0.022056318088491858,false
-1.1970505820543422,-0.08692495367157693,-0.3171637646163978,-0.032665371617234595,false
-1.1992165450941719,-0.10162439190092296,-0.31716376461639784,-0.04519884680675107,false
-1.2,-0.1025808608604695,-0.316627774280805,-0.04537186086046943,false
-1.2,-0.0836935655336204,-0.08293621236316118,-0.029532002819855463,false
-1.2,-0.052359877559829404,-0.08240145299513431,0.004849122440170661,false
-0.9423407,-0.061557201387908246,-0.9189652242541443,0.08720449609440208,false
-0.9423407,-0.0616916377157396,-0.9158268272886132,0.08671103371649652,false
-0.9472677797769893,-0.08346574474619672,-1.0149319905970102,0.09293220715376999,false
-0.9423407,-0.052359877559829904,-0.8794429044325807,0.32671901355412675,false
-0.9423407,-0.052359877559829904,-0.8763143769858736,0.32622621105152494,false
-0.9423407,-0.08877230000000019,-0.8565842962413096,0.2867032018927175,false
-0.9423407,-0.05235987755982995,-0.777828857523307,0.307562690739704,false
-0.9423407,-0.052359877559829904,0.9561809747176249,0.030720472781035457,false
-0.5999999999999999,-0.10471975511965975,-1.1187526268436199,0.08412582684362005,false
-0.6040573531840419,-0.10444773102212425,-1.1276024856649745,0.0889183324809326,false
-0.6015808614271038,-0.06901356737372719,-1.199796531280813,0.16358886985370927,false
-0.653289865199207,-0.10280664377688886,-1.2541462342509642,0.1662295690517573,false
-0.5999999999999999,-0.100004045647132,-1.3004883445689739,0.265861544568974,false
-0.622348545495861,-0.10000404565371901,-1.3269010451049073,0.2699256996090462,false
-0.5999999999999999,-0.052359877559829876,-1.356785720779893,0.32215892077989317,false
-0.5999999999999999,-0.10471975511965975,-1.9480370931360018,0.9134102931360026,false
-0.6279547322558529,-0.10471975511965975,-1.9807772210671857,0.9181956844322101,false
-1.2,-0.08936445183187454,-0.334291494693069,-0.03218245183187447,false
-1.2,-0.08937717226425941,-0.334212117859292,-0.032195172264259345,false
-1.1999657601495277,-0.08936455518832437,-0.33407718947570464,-0.03221679503879654,false
-1.2,-0.08962038789259937,-0.3326944267998525,-0.0324383878925993,false
-1.2,-0.09670728054147945,-0.3268197968040827,-0.039525280541479385,false
-1.2,-0.10471975511965975,-0.3075855503542972,-0.047537755119659686,false
-1.1902836304925648,-0.09981141666128579,-0.24700721101266618,-0.05234578616872099,false
-1.2,-0.08747862,-0.23070350805956258,-0.03029661999999994,false
-1.2,-0.09364501833055253,-0.17308938237162697,-0.03646301833055246,false
-1.19953322798853,-0.09364501833064232,-0.17018259618914575,-0.0369297903421123,false
-1.2,-0.10289461582660761,-0.32673867543903123,-0.045725615826607585,false
-1.1998062079871432,-0.10289461582660764,-0.32552939292988126,-0.045919407839464355,false
-1.2,-0.09969715813491634,-0.30750445502519697,-0.04252815813491631,false
-1.1998673059874347,-0.09272178950509884,-0.3316280149462548,-0.03569248351766412,false
-1.2,-0.09612785052964387,-0.33044134761473615,-0.038965850529643936,false
-1.2,-0.09675033373812907,-0.32669499470400315,-0.03958833373812913,false
-1.1998848702835567,-0.09675033373812907,-0.32597657318432427,-0.03970346345457236,false
-1.1996261686395948,-0.10272544073794436,-0.30467377882467667,-0.0460102127494144,false
-1.2,-0.08747862,-0.23057888236204063,-0.030316620000000072,false
-1.1998827909922163,-0.08747862,-0.22984851964450803,-0.03043382900778374,false
-1.1995532279885301,-0.08971673091459491,-0.22779491868393015,-0.03300150292606484,false
-1.199416966042125,-0.08747862,-0.22694602333950872,-0.03089965395787503,false
