0.10192292562781843,0.16227349613640563,0.062167756259441376,0.1614147126674652,true
0.10192303076608925,0.16227366912206495,-0.0030646214727312326,0.16905274987220764,true
0.10192387737093844,0.1622735954294855,0.009922654367983341,0.16852030158042908,true
0.10192292313705381,0.1622734962261003,-0.16294412314891815,0.1841190755367279,true
0.1019234192700576,0.1622734813099812,-0.17578653991222382,0.18554607033729553,true
0.10192421072590485,0.16227354505059388,-0.1627798229455948,0.18379320204257965,true
0.10192024300707633,0.16227358226447985,-0.08351577073335648,0.17997542023658752,true
0.10192326556651377,0.1622735106978735,-0.09303662925958633,0.18122465908527374,true
0.10192444083084329,0.16227356759872474,-0.0072791394777596,0.1718730628490448,true
0.10192268977206351,0.1622735137124194,-0.0628882572054863,0.1788870096206665,true
0.10192358146712596,0.16227353136780642,-0.06234822794795036,0.1788497120141983,true
0.10192434836150988,0.16227355518356087,-0.03725126385688782,0.17266641557216644,true
0.10192297790127544,0.1622736922614881,-0.12527930736541748,0.18283218145370483,true
0.10192383132823027,0.16227359772092664,-0.05782710388302803,0.17533010244369507,true
0.10192292522181146,0.1622734961710583,-0.052592724561691284,0.17500261962413788,true
0.10192317461859024,0.16227356751885594,-0.05665675178170204,0.17458979785442352,true
0.10192436895181306,0.1622735580401458,-0.12456716597080231,0.17950394749641418,true
0.10192267700967653,0.16227349313556622,-0.11902226507663727,0.1782858669757843,true
0.1019239684253222,0.16227358070479403,-0.11840028315782547,0.17889262735843658,true
0.101922924018887,0.16227349611773767,0.05657375603914261,0.16329722106456757,true
0.1019233299715799,0.16227348693583923,0.021042698994278908,0.16682691872119904,true
0.10192413481825549,0.16227354948140035,0.028387149795889854,0.16619788110256195,true
0.10192292519171822,0.1622734961178683,-0.07219747453927994,0.17782653868198395,true
0.10192361802892047,0.16227354682447762,-0.08204406499862671,0.17839014530181885,true
0.1019243793794175,0.16227355936351645,-0.04133370891213417,0.1721469610929489,true
0.10192316178160321,0.16227357700066228,0.05339872092008591,0.16324150562286377,true
0.10192399094255691,0.16227357593533095,-0.015382460318505764,0.16942329704761505,true
0.030092497697454174,0.15819028106703303,-0.1956535428762436,0.17578865587711334,true
0.03009289005245719,0.15819027188283244,-0.21637441217899323,0.17894266545772552,true
0.03009367453208192,0.15819033441842256,-0.22754821181297302,0.1804713010787964,true
0.030084175893488635,0.15819104076668344,-0.0021330849267542362,0.15698513388633728,true
0.03009314704912855,0.15819032156715657,-0.013436418026685715,0.15756745636463165,true
0.030092489888047885,0.15819028129834642,-0.09640742093324661,0.1671469807624817,true
0.03009242818323185,0.1581904673714741,-0.19571569561958313,0.17754501104354858,true
0.03009327597080738,0.1581903694742078,-0.108278788626194,0.16826695203781128,true
0.030092489937751876,0.1581902813240955,0.07924486696720123,0.15048269927501678,true
0.030092428249794523,0.1581904674400864,0.09338199347257614,0.14909270405769348,true
0.030093653189155523,0.15819033734434762,0.08565131574869156,0.15024413168430328,true
0.030085255572055714,0.15819078650692153,-0.20650608837604523,0.17819227278232574,true
0.03009267505546212,0.1581904012975945,-0.20768000185489655,0.17832453548908234,true
0.030093851963672036,0.15819033635384783,-0.20389199256896973,0.17827272415161133,true
0.030092164521046655,0.15819010284959062,-0.20512333512306213,0.17906589806079865,true
0.030093026302903975,0.1581902756015148,-0.11738051474094391,0.16949234902858734,true
0.030092493658872566,0.15819028121196987,-0.15232636034488678,0.17574800550937653,true
0.030092455041109994,0.1581904782414062,-0.1741538941860199,0.17858538031578064,true
0.03009367449646258,0.15819033447928674,-0.18332143127918243,0.17965175211429596,true
0.030092499092475244,0.15819028104140986,-0.1901993453502655,0.17628321051597595,true
0.030092713313554953,0.158190371674128,-0.19592535495758057,0.1768367886543274,true
0.030093882597314714,0.1581903401053899,-0.1815965622663498,0.17526917159557343,true
0.030092135710795914,0.15819006431381666,-0.003975928761065006,0.1583840399980545,true
0.03009340117698811,0.15819038214733208,-0.016555683687329292,0.1591959446668625,true
0.030092497895019582,0.15819028110669595,-0.10837920010089874,0.1656213104724884,true
0.03009286493692173,0.158190279488317,-0.1420101672410965,0.16816554963588715,true
0.030093653133394682,0.15819033728926687,-0.11553248018026352,0.16664773225784302,true
0.2929597709293154,0.17605871481322227,0.047496285289525986,0.19467879831790924,true
0.29297008911071776,0.17605798552604765,0.04063643142580986,0.1951325684785843,true
0.292970921554431,0.17605800934396326,0.025529686361551285,0.1962992548942566,true
0.29296888037562896,0.17605769259255277,0.15662020444869995,0.1867818981409073,true
0.2929698994954977,0.17605793429809044,0.159929558634758,0.18689531087875366,true
0.2929693654619355,0.17605795024975493,0.044629115611314774,0.1955360770225525,true
0.2929701812389981,0.1760580200238707,0.08709302544593811,0.19053497910499573,true
0.29297099982261715,0.17605801912756935,0.10972729325294495,0.18990127742290497,true
0.2929690035414962,0.17605777196471759,0.08414334058761597,0.1921946406364441,true
0.29297041041666827,0.1760580494981428,0.07756994664669037,0.1929663121700287,true
0.29296936368771903,0.17605795018604467,0.07900088280439377,0.19323141872882843,true
0.2929703730568039,0.17605805163821903,0.06867273896932602,0.19432421028614044,true
0.292969366467071,0.17605795018044315,0.10245292633771896,0.19249126315116882,true
0.2929690676066146,0.17605788201203978,0.06746487319469452,0.19585764408111572,true
0.2929700357335191,0.17605796520662362,0.0690024346113205,0.19605204463005066,true
0.2929693639418022,0.17605795028081134,0.05401843786239624,0.1968819499015808,true
0.29296987186484286,0.17605793399954633,0.08941197395324707,0.19339096546173096,true
0.2929693463978006,0.17605795057768087,0.027802204713225365,0.1976289600133896,true
0.2929692716941653,0.1760581204128283,0.0760597363114357,0.19359563291072845,true
0.2929706421852261,0.1760580098600438,0.06533893942832947,0.1950443685054779,true
0.29295968648452436,0.1760586771304573,0.04780418798327446,0.19803543388843536,true
0.29296960540684724,0.17605805076852396,0.058016832917928696,0.19682881236076355,true
0.2929709101649666,0.17605800801352056,0.036597322672605515,0.19896744191646576,true
0.2929690426197322,0.17605783727640328,0.029658712446689606,0.1955496221780777,true
0.29297044762140784,0.17605804532491354,0.034824829548597336,0.19470970332622528,true
0.5623342691256339,0.17808911424145213,0.3447295129299164,0.19357672333717346,true
0.5623351880933256,0.1780892079019979,0.33258360624313354,0.1946323961019516,true
0.56233427063615,0.17808911417577397,0.2869222164154053,0.2001381814479828,true
0.5623345429614452,0.17808919505906706,0.27355608344078064,0.20149120688438416,true
0.5623354531295923,0.1780891939874673,0.2746551036834717,0.2014564871788025,true
0.5623342705500165,0.17808911423204382,0.259488970041275,0.20386427640914917,true
0.5623343700258525,0.17808930051713112,0.4529034197330475,0.18419726192951202,true
0.5623357180601031,0.17808916328474783,0.4547191262245178,0.18444426357746124,true
0.5623342695107185,0.1780891142387408,0.433481901884079,0.18701831996440887,true
0.5623346852682221,0.1780891173911764,0.4386824667453766,0.18631865084171295,true
0.5623355750728374,0.1780891720563393,0.43238896131515503,0.186711847782135,true
0.562326204340216,0.17808961955697217,0.4544453024864197,0.1866164356470108,true
0.5623349630178676,0.17808913412247654,0.4808935225009918,0.18449638783931732,true
0.5623358111615472,0.178089169407964,0.4284121096134186,0.1879028081893921,true
0.562333919031362,0.17808895708755218,0.2730576992034912,0.20258204638957977,true
0.5623348948372926,0.17808911213402048,0.2774505019187927,0.2023264467716217,true
0.5623361323999183,0.17808919647511504,0.3291217088699341,0.1910160928964615,true
0.5623340690058707,0.17808918869991444,0.3345675766468048,0.19065648317337036,true
0.5623354776893466,0.1780891891393895,0.3641323447227478,0.18849597871303558,true
0.5623250619144002,0.17808987381310187,0.48557811975479126,0.18122704327106476,true
0.5623350170593768,0.17808915461926067,0.4661431908607483,0.18289148807525635,true
0.5623358570940554,0.17808917460814,0.45650896430015564,0.1836763173341751,true
0.5623337797886698,0.1780888565796723,0.3814925253391266,0.18919230997562408,true
0.5623352651026701,0.17808921572252534,0.38195663690567017,0.1893436461687088,true
0.5623342294036309,0.17808911490440735,0.47801610827445984,0.1813947707414627,true
0.562330090808112,0.17808938563826987,0.5491055846214294,0.17860625684261322,true
0.5623346285004845,0.17808914267684547,0.5359209179878235,0.1797225922346115,true
0.5623359246871132,0.17808918311288058,0.48085469007492065,0.18524789810180664,true
0.14620724324081083,0.15764919241916542,-0.021724024787545204,0.1731421947479248,true
0.14620810979991564,0.15764922549230137,-0.013596559874713421,0.1717708259820938,true
0.14620885638226844,0.15764925315133252,-0.05775434896349907,0.17394834756851196,true
0.14620664801179872,0.15764896342056597,-0.05612614005804062,0.17383846640586853,true
0.14620829643390165,0.15764929119391605,-0.058515388518571854,0.17440137267112732,true
0.1462074884096793,0.15764919532259786,-0.11230532079935074,0.17817021906375885,true
0.14620768866052497,0.15764929580601286,-0.12009381502866745,0.1778610348701477,true
0.14620849746747616,0.15764927991230973,-0.11113087832927704,0.17684178054332733,true
0.14620748542910916,0.15764919531220886,-0.1546822041273117,0.17764267325401306,true
0.14620803766309137,0.15764919711339181,-0.14905031025409698,0.176692932844162,true
0.14620747922882316,0.15764919556456922,-0.11037323623895645,0.17499776184558868,true
0.14620785249519216,0.15764919368474697,-0.1274721771478653,0.17589125037193298,true
0.1462086379105449,0.15764925148519665,0.009062360040843487,0.16874243319034576,true
0.1462066480977276,0.15764896350122445,-0.0767868384718895,0.17764253914356232,true
0.14620829655980053,0.15764929128802124,-0.0821731761097908,0.17953310906887054,true
0.14620748823797639,0.15764919534707458,-0.010936301201581955,0.17065612971782684,true
0.14620797661569376,0.1576491819440982,-0.016949865967035294,0.17286118865013123,true
0.14620748805696437,0.1576491953807071,-0.09122658520936966,0.17618140578269958,true
0.14620796437562017,0.1576491803965861,-0.03793520852923393,0.1700577735900879,true
0.14620748865269018,0.1576491953462173,0.13995243608951569,0.15326806902885437,true
0.1462076124385407,0.15764935246605974,0.12463347613811493,0.15585245192050934,true
0.14620879510538767,0.157649246534754,0.0020291011314839125,0.16479533910751343,true
0.14620708170587926,0.15764894819446568,0.006225709803402424,0.16597579419612885,true
0.14620836447894983,0.15764929692121268,-0.012058177031576633,0.1668217033147812,true
0.28353982854332277,0.168031392254314,0.19911766052246094,0.17095689475536346,true
0.2835402401872109,0.16803138650422886,0.24127712845802307,0.16814132034778595,true
0.2835410756357087,0.16803144693646888,0.20393666625022888,0.1704503893852234,true
0.2835398297714982,0.16803139225838537,0.05316169932484627,0.18692588806152344,true
0.2835400791807441,0.1680314731429743,0.038668978959321976,0.1898336559534073,true
0.28354131873748245,0.16803145269289202,0.035651691257953644,0.1903308779001236,true
0.28353982770098385,0.16803139232666817,0.21306729316711426,0.17259378731250763,true
0.28354031954487724,0.16803137590705175,0.1534460335969925,0.17649312317371368,true
0.28353982149119533,0.16803139247847226,-0.00022209699091035873,0.1924700289964676,true
0.2835397768600812,0.16803158470530719,0.02209251932799816,0.19020646810531616,true
0.28354067565892876,0.16803148352513866,0.006476863753050566,0.19217199087142944,true
0.2835398234617982,0.16803139243457918,0.1835535615682602,0.17477552592754364,true
0.28353979120183237,0.16803158931321088,0.1738487333059311,0.17734144628047943,true
0.2835410869206578,0.1680314455759141,0.1749454289674759,0.17706513404846191,true
0.28353982718385523,0.16803139244620005,0.06951947510242462,0.18253646790981293,true
0.283540385232966,0.1680313838311505,0.04030653461813927,0.18595843017101288,true
0.2835415583448975,0.16803147473075505,0.04224373772740364,0.1889854073524475,true
0.2835317599650797,0.16803211242335445,0.06064750626683235,0.18700188398361206,true
0.28354053909955645,0.16803143781521812,0.04808220639824867,0.1890375167131424,true
0.28354132945417093,0.16803145404396475,0.16577626764774323,0.17432887852191925,true
0.28353953936178494,0.1680313241930837,0.18426431715488434,0.17538389563560486,true
0.28354046268651306,0.16803140742002434,0.20053265988826752,0.17478854954242706,true
0.28354161825252366,0.16803147395406667,0.028418932110071182,0.18950079381465912,true
0.28353964648886604,0.16803148391972392,0.05368518456816673,0.18595772981643677,true
0.2835409724580833,0.1680314648610541,0.03867819905281067,0.18844403326511383,true
0.2835351126970555,0.1680317647105306,0.21191288530826569,0.17097724974155426,true
0.28354137210161545,0.1680314598703418,0.19088447093963623,0.17196300625801086,true
0.2754361728931791,0.17609307865725546,0.08569417148828506,0.19160357117652893,true
0.27543516444446464,0.17609297728276027,0.0798138752579689,0.19355811178684235,true
0.2754356162772209,0.1760929681055903,0.08486122637987137,0.1942891627550125,true
0.27543648986048336,0.1760930306545265,0.09685292840003967,0.1921682357788086,true
0.2754351662952753,0.17609297718927092,0.24551397562026978,0.17589235305786133,true
0.27543580866735584,0.17609298309513613,0.21795904636383057,0.17886921763420105,true
0.27543516375904653,0.17609297729567927,0.02010343223810196,0.19443798065185547,true
0.27543567176941397,0.17609296101780605,0.007728408556431532,0.1979512870311737,true
0.27543514620125764,0.17609297758878192,0.19310279190540314,0.1807655692100525,true
0.2754350714969098,0.17609314742393262,0.22179003059864044,0.18006768822669983,true
0.2754360201167909,0.17609305906034334,0.2151796668767929,0.1819901168346405,true
0.27543516626080333,0.17609297721182973,0.006478538271039724,0.19779400527477264,true
0.27543532000556725,0.17609313432788182,0.03509848192334175,0.19585086405277252,true
0.27543664175073773,0.17609302840618304,0.1892428994178772,0.180862694978714,true
0.275436641819434,0.17609302853902278,0.06860319525003433,0.18757928907871246,true
0.27543355192189495,0.17609285697329588,0.14561086893081665,0.1890857219696045,true
0.27543604589478293,0.17609306562215246,0.13971513509750366,0.1879100203514099,true
0.27542596319735035,0.17609361797078174,0.17672549188137054,0.18472149968147278,true
0.27543539114772914,0.1760930875599393,0.18281137943267822,0.18383194506168365,true
0.27543516563513765,0.17609297726589698,0.013157042674720287,0.19776226580142975,true
0.2754357268707083,0.1760929639691232,0.05175761505961418,0.1943296194076538,true
0.2754365838698455,0.17609302613586575,0.10496733337640762,0.188599094748497,true
0.030353348782804268,0.1573245617275156,-0.13091962039470673,0.1752016842365265,true
0.030356254583380343,0.15732463677641587,-0.12916123867034912,0.17497070133686066,true
0.030355505999995702,0.15732455497856418,-0.08468548953533173,0.16183896362781525,true
0.030355654650639913,0.15732469429598872,-0.23366861045360565,0.17332296073436737,true
0.030356829906850624,0.15732460803933243,-0.17406105995178223,0.16913875937461853,true
0.03035509976306408,0.15732430791254617,-0.2093401402235031,0.1732771247625351,true
0.030356379695702956,0.15732465664634457,-0.21188704669475555,0.1735321432352066,true
0.03035550500513909,0.15732455499018233,-0.20250388979911804,0.1715659499168396,true
0.0303558187422992,0.15732457623243834,-0.19789466261863708,0.1710181087255478,true
0.030356960453176263,0.15732462520852508,-0.17027632892131805,0.16964736580848694,true
0.030355237381094774,0.15732450901613368,-0.15433655679225922,0.1686609536409378,true
0.030356490554572846,0.1573246441376736,-0.1350332498550415,0.16632775962352753,true
0.03035550434376444,0.1573245549960431,-0.15610390901565552,0.17571505904197693,true
0.030355461207655726,0.15732475212759184,-0.1648806929588318,0.1759372353553772,true
0.030356673770301962,0.1573246083680732,-0.15841281414031982,0.17640142142772675,true
0.030346797816477117,0.1573253194523709,-0.07963676005601883,0.16826508939266205,true
0.030355718029841522,0.15732464556497117,-0.05388503149151802,0.16622084379196167,true
0.030355505097115237,0.1573245550002375,-0.1151048094034195,0.17090246081352234,true
0.030355539646202467,0.1573247547160874,-0.0880153700709343,0.1698288917541504,true
0.0303567368631954,0.1573246039669201,-0.15800993144512177,0.1779816448688507,true
0.03035550357569136,0.15732455507494367,-0.21571388840675354,0.1806030422449112,true
0.03035598040128326,0.15732454015316538,-0.20002837479114532,0.17847003042697906,true
0.030357086488345703,0.15732463669721827,-0.06151505187153816,0.16211667656898499,true
0.03035578103090908,0.15732459935941084,-0.06260215491056442,0.1638682782649994,true
0.030356196449519507,0.15732461558087804,-0.06411119550466537,0.16508938372135162,true
0.20635011435607997,0.15919013340599364,0.10775268077850342,0.16607066988945007,true
0.20635022774489342,0.15919029881248906,0.09275531768798828,0.1686662882566452,true
0.20635010993555808,0.1591901335019261,-0.0020976157393306494,0.16842855513095856,true
0.20635008396275184,0.15919033404978133,-0.1035533994436264,0.17941635847091675,true
0.20635093139293204,0.15919022923862913,-0.10465683788061142,0.1799672245979309,true
0.20635165690962262,0.15919021142612957,0.0316016860306263,0.17206484079360962,true
0.2063498932733574,0.1591901708701264,0.009487442672252655,0.17594456672668457,true
0.20635115639606139,0.15919021325458596,0.006337418220937252,0.17623090744018555,true
0.20635011535752174,0.15919013352343495,0.058430805802345276,0.16482876241207123,true
0.20635005233756087,0.15919031202212813,0.16237330436706543,0.15707284212112427,true
0.2063509075644378,0.15919021838975997,0.028236454352736473,0.16858090460300446,true
0.20635004388180223,0.15919031959779803,0.06296423077583313,0.16679151356220245,true
0.20635089748441277,0.15919022171115432,0.08336826413869858,0.16468779742717743,true
0.20635011415650176,0.15919013341025023,0.03503330051898956,0.1703297644853592,true
0.20635031792207423,0.15919023393291867,0.018863391131162643,0.1736866682767868,true
0.20635011427564204,0.15919013338199584,0.14378035068511963,0.1576206535100937,true
0.2063506336372458,0.15919012476957503,0.1723543107509613,0.1556463986635208,true
0.2063501110113234,0.15919013348873506,0.06236995384097099,0.1662139892578125,true
0.206350097505851,0.15919033629001572,0.06303825229406357,0.1665799915790558,true
0.2063513200980271,0.1591901846584231,0.05947762727737427,0.16711407899856567,true
0.20635011437842,0.15919013334106272,0.025600412860512733,0.17326727509498596,true
0.20635110200156526,0.15919022453649198,0.029762238264083862,0.1722467541694641,true
0.2063505464535402,0.15919011787073462,0.21791605651378632,0.1553296148777008,true
0.2996262539892787,0.1782775315370094,0.12838208675384521,0.19198130071163177,true
0.2996266133989238,0.17827755995131087,0.06941063702106476,0.1981258988380432,true
0.2996275129564493,0.1782775971854556,0.11685200780630112,0.19344644248485565,true
0.29962625119006836,0.17827753153110407,0.16791167855262756,0.18756872415542603,true
0.2996269074333479,0.17827753748767972,0.15731826424598694,0.18822240829467773,true
0.29962776328274143,0.17827758359987686,0.15623892843723297,0.18760894238948822,true
0.2996256489408051,0.17827726572351976,-0.6469043493270874,0.2734428942203522,true
0.2996267688881495,0.178277515256742,0.10615383088588715,0.19486550986766815,true
0.2996276455878254,0.17827758128046828,0.12450481951236725,0.19396887719631195,true
0.2996261300311065,0.1782776803524976,0.24486158788204193,0.18166592717170715,true
0.2996270954796769,0.17827760554308672,0.2719310522079468,0.17968374490737915,true
0.29962625146848154,0.17827753164149965,0.02099609188735485,0.1969938576221466,true
0.29962626641249734,0.1782777353850568,0.06585317105054855,0.19368349015712738,true
0.29962721249289226,0.17827763066697222,0.051811352372169495,0.19454827904701233,true
0.2996262524339427,0.17827753163209611,0.03640512749552727,0.1986808478832245,true
0.299626281404644,0.178277735044285,0.017390603199601173,0.20064449310302734,true
0.2996276457171101,0.17827758124171514,0.03317800536751747,0.19888830184936523,true
0.29962625450949587,0.1782775315079867,0.16199025511741638,0.18837688863277435,true
0.29962654197982874,0.17827760281146093,0.1747901737689972,0.18825514614582062,true
0.29962785532267067,0.1782775933173424,0.009606840088963509,0.19670827686786652,true
0.29962590270015554,0.1782773744809301,0.010939977131783962,0.19645929336547852,true
0.29962687990197256,0.17827752956228862,-0.000489062920678407,0.19705207645893097,true
0.299627739864422,0.17827758208810404,0.24952739477157593,0.1775948703289032,true
0.29962622156064067,0.17827772873693035,0.29865726828575134,0.1747276335954666,true
0.29962717374401227,0.17827762526625118,0.28343620896339417,0.17587293684482574,true
0.29962625435406076,0.17827753159497015,0.053013090044260025,0.19855773448944092,true
0.2996260529273787,0.17827760614327617,0.025245679542422295,0.20168296992778778,true
0.29962746382193256,0.17827760658298064,0.03103533759713173,0.2011198103427887,true
0.2877182321444443,0.1904449406293668,0.08139374107122421,0.20359399914741516,true
0.2877183629402905,0.19044512059865362,-0.039821356534957886,0.21577876806259155,true
0.2877198013329848,0.19044498997693812,0.018270529806613922,0.20771656930446625,true
0.28771765705891117,0.19044467641006757,-0.04198415204882622,0.21223151683807373,true
0.2877192909086157,0.19044504158545128,-0.03825117647647858,0.21146371960639954,true
0.2877201513011927,0.19044502134120142,0.022250687703490257,0.20702500641345978,true
0.2877179475174184,0.19044491640692504,-0.0397704653441906,0.21232159435749054,true
0.28771899582076516,0.19044496558889928,-0.024368682876229286,0.21056018769741058,true
0.2877182308191339,0.19044494067708492,0.15694107115268707,0.19977419078350067,true
0.28771881964699847,0.19044492472167576,0.16538205742835999,0.19861967861652374,true
0.287719750884567,0.1904449896490567,0.22008775174617767,0.19730617105960846,true
0.287718221432046,0.1904451413311068,0.028532041236758232,0.21222813427448273,true
0.2877196873330243,0.1904449929139192,0.02422734536230564,0.2130083590745926,true
0.2877182317128354,0.19044494060795086,0.01387296337634325,0.2146483212709427,true
0.28771909609427626,0.1904450011716939,0.020106395706534386,0.21429672837257385,true
0.28771998575013535,0.19044500668668596,0.11177387833595276,0.20632816851139069,true
0.2877177832246811,0.19044470743101527,0.08154087513685226,0.2098051905632019,true
0.2877193315834543,0.19044504215341848,0.07940395921468735,0.2107529640197754,true
0.2877181943950454,0.1904449411944411,0.007400662172585726,0.2103274166584015,true
0.28771863913969725,0.19044496182471546,0.0409274697303772,0.20686538517475128,true
0.28772002166773014,0.19044501079290288,0.06998951733112335,0.21054497361183167,true
0.2877178293664099,0.19044474233910919,0.07183151692152023,0.20923364162445068,true
0.2877198012722778,0.19044498997658676,0.05274078994989395,0.21149732172489166,true
0.28771822963669375,0.19044494060396414,0.162728950381279,0.19920150935649872,true
0.28771931815790797,0.19044504220893788,0.20537148416042328,0.19601400196552277,true
0.4177883357163465,0.20834548369183434,0.20095205307006836,0.22793249785900116,true
0.4177897843229236,0.20834555626916584,0.19480113685131073,0.22792525589466095,true
0.41777902479057005,0.2083459890222025,0.11517678946256638,0.22673296928405762,true
0.4177886098424518,0.2083456038174144,0.1010461077094078,0.2279137223958969,true
0.4177901600873814,0.20834553886615953,0.3443954885005951,0.21114002168178558,true
0.4177878150340693,0.20834523661140347,0.2040950059890747,0.22732116281986237,true
0.4177890073831054,0.20834546880179047,0.18052969872951508,0.2289796620607376,true
0.41779002364094503,0.2083455325467472,0.18997575342655182,0.22875821590423584,true
0.41778558588857895,0.20834549044103629,0.1285056173801422,0.23294083774089813,true
0.41778937025835183,0.20834556548580416,0.1466303914785385,0.231586754322052,true
0.4177903320338841,0.20834555645976113,0.1801573634147644,0.22681517899036407,true
0.4177878508921201,0.20834525032125878,0.1535780429840088,0.23180194199085236,true
0.4177890236815154,0.20834547025899583,0.15007774531841278,0.2317940890789032,true
0.41779003746759197,0.20834553243309487,0.30649620294570923,0.21357934176921844,true
0.4177882836772475,0.2083456699717322,0.32543522119522095,0.2117898166179657,true
0.41778885993082,0.20834548209438503,0.3428623080253601,0.20992541313171387,true
0.41779035789039887,0.2083455587771795,0.17883510887622833,0.2313721776008606,true
0.4177881761210239,0.20834560630152563,0.2349216490983963,0.22695674002170563,true
0.417789308742323,0.20834554900409355,0.23811180889606476,0.22640421986579895,true
0.4177883327514704,0.20834548372032843,0.1524622142314911,0.2294948548078537,true
0.4177876345859998,0.2083452178665494,0.15368437767028809,0.22986675798892975,true
0.4177889585223771,0.20834546739100432,0.16498424112796783,0.2286847084760666,true
0.4177899820286492,0.20834553339952647,0.15454959869384766,0.22972871363162994,true
0.41778833409619476,0.20834548375136833,0.17526459693908691,0.23086854815483093,true
0.41778892581523563,0.20834546971281429,0.1793215423822403,0.23042653501033783,true
0.4177904094317541,0.20834556257235326,0.11851973086595535,0.23279878497123718,true
0.4177881223195864,0.2083455582380557,0.11535824835300446,0.23492050170898438,true
0.4177892621350289,0.2083455344281426,0.12338116019964218,0.23405836522579193,true
0.29276469530535265,0.20869108691890798,0.1459583342075348,0.2173406332731247,true
0.29276434735556994,0.2086909963839209,0.08427237719297409,0.22532978653907776,true
0.29276549649997596,0.20869109732931532,0.07584323734045029,0.22707979381084442,true
0.29276469160941715,0.20869108694951785,0.22332733869552612,0.2157483845949173,true
0.292763992330568,0.2086908211401873,0.2715577185153961,0.20950119197368622,true
0.29276585237829233,0.20869118714805707,0.2387419492006302,0.21218128502368927,true
0.2927667975008063,0.20869116713137292,0.054140765219926834,0.22157812118530273,true
0.2927644990037972,0.20869117846072438,0.05701553449034691,0.22182902693748474,true
0.2927656384318139,0.20869114256282792,0.05720416456460953,0.2221408188343048,true
0.29276661568524043,0.208691151521347,0.24261054396629333,0.21038194000720978,true
0.2927642813966006,0.2086909086299088,0.22812387347221375,0.2106977254152298,true
0.29276595663908733,0.20869118616332377,0.18837331235408783,0.21395716071128845,true
0.29276466678695856,0.20869108723557006,0.05845324322581291,0.2267579734325409,true
0.2927646070550036,0.20869125696464044,0.10824627429246902,0.22265011072158813,true
0.29276573108978166,0.2086911686107528,0.09459290653467178,0.22417347133159637,true
0.29276469517214415,0.20869108690973198,0.023576656356453896,0.23190362751483917,true
0.29276554413590433,0.20869111189730116,0.039506252855062485,0.23047317564487457,true
0.29276653550793447,0.20869114339480788,0.11891376972198486,0.21732568740844727,true
0.2927642090374487,0.20869085358828857,0.10506341606378555,0.219572514295578,true
0.2927653838929388,0.20869107352845206,0.10736016929149628,0.21936942636966705,true
0.29276639937308496,0.20869113570998654,0.13517440855503082,0.21682538092136383,true
0.2927619407612352,0.208691093661203,0.30617570877075195,0.20494289696216583,true
0.29276573102559744,0.2086911687057268,0.317111611366272,0.2037489414215088,true
0.2927666943629978,0.2086911596797146,0.19152069091796875,0.215226411819458,true
0.2927642992837308,0.2086909297748707,0.22134222090244293,0.21321119368076324,true
0.2927654484626492,0.20869108480636892,0.2324630320072174,0.2129949927330017,true
0.2927664542099783,0.20869113731862196,0.22380594909191132,0.21275731921195984,true
0.2927639923360017,0.20869082115111873,0.004282766953110695,0.23226705193519592,true
0.29276531862518684,0.2086910706687864,0.013764174655079842,0.23107193410396576,true
0.2927667974228656,0.20869116714104072,-0.1256358027458191,0.22719117999076843,true
0.12567065473091177,0.20222966863024996,-0.11211909353733063,0.22291725873947144,true
0.1256722572860235,0.20222968957726836,-0.0958552211523056,0.2218286544084549,true
0.12567088351065747,0.20222961220694566,-0.020565090700984,0.20693543553352356,true
0.12567107952485881,0.20222976932589962,-0.14469002187252045,0.2195964902639389,true
0.12567213037278432,0.2022297088378916,-0.14805194735527039,0.21957220137119293,true
0.12567088103959914,0.20222961227030192,-0.1641024798154831,0.22931449115276337,true
0.1256709136024181,0.20222981608411725,-0.15427984297275543,0.2276480346918106,true
0.1256719862049938,0.20222971135556878,-0.15296372771263123,0.22760163247585297,true
0.1256708832967807,0.2022296122426069,-0.053800471127033234,0.21436123549938202,true
0.1256706046998,0.20222960927422523,-0.1884346306324005,0.22859156131744385,true
0.1256722151550947,0.202229696872406,-0.18181930482387543,0.22784282267093658,true
0.12567088163327728,0.20222961226272587,-0.08721005171537399,0.21649767458438873,true
0.12567096380485987,0.20222981197945405,-0.07859091460704803,0.21494007110595703,true
0.12567202974670433,0.20222971374366547,-0.11298850923776627,0.2197064757347107,true
0.12567087568685864,0.2022296123542051,-0.10494698584079742,0.21958914399147034,true
0.12567087981344474,0.2022298129162176,-0.08390272408723831,0.21615853905677795,true
0.1256724364305551,0.2022296644988064,-0.12184268236160278,0.22097301483154297,true
0.12567088258246278,0.20222961226150857,0.03216303139925003,0.21047616004943848,true
0.12567072402972604,0.20222973484143097,0.004550963640213013,0.21281711757183075,true
0.12567231291822706,0.20222968016751675,-0.005770630203187466,0.21327988803386688,true
0.12567088014994798,0.2022296121887726,-0.07264029234647751,0.21976147592067719,true
0.1256710136415987,0.2022297984227995,-0.047394320368766785,0.21601995825767517,true
0.12567207310317097,0.20222971320228622,-0.6553565263748169,0.2785075306892395,true
0.12567088156125933,0.2022296121890037,0.0863877385854721,0.20308880507946014,true
0.12567086286242551,0.20222980928302098,0.08608148247003555,0.2013988047838211,true
0.12567242289182062,0.20222966555005417,0.07395835220813751,0.20253212749958038,true
0.12567088297691445,0.20222961219336616,-0.12214548140764236,0.22517503798007965,true
0.12567124267502489,0.20222967418190177,-0.12556865811347961,0.22484785318374634,true
0.12567272760513382,0.20222967543953407,-0.126810684800148,0.2249470353126526,true
0.36102336098193266,0.2014552642035766,0.08843111991882324,0.21878868341445923,true
0.3610244706503908,0.20145543693860332,0.11879188567399979,0.215460404753685,true
0.36102375075467247,0.20145544259970832,0.3314625024795532,0.20026624202728271,true
0.36102225602849775,0.2014552748770033,0.36602815985679626,0.20058029890060425,true
0.3610242814742333,0.20145543672911562,0.3733817934989929,0.1990441232919693,true
0.3610257265399697,0.2014555185780687,0.16941699385643005,0.2125084400177002,true
0.3610235695304964,0.20145553409519343,0.1202993169426918,0.21758827567100525,true
0.3610246695900887,0.20145549819488248,0.12736468017101288,0.21766223013401031,true
0.3610237602457006,0.20145544246907357,-0.3286488354206085,0.26489022374153137,true
0.3610238099167912,0.20145564599560958,0.048631321638822556,0.2280493825674057,true
0.36102487616784495,0.20145554263264703,0.007620759308338165,0.23343710601329803,true
0.36102578845937877,0.20145552261258692,0.2541828155517578,0.20966145396232605,true
0.36102356963185145,0.2014555339472651,0.21517418324947357,0.21351684629917145,true
0.36102466965604935,0.20145549804220048,-0.6123190522193909,0.2984887659549713,true
0.36102376356181193,0.2014554424423411,0.12078652530908585,0.21503174304962158,true
0.36102394197919807,0.20145560785120664,0.1052870899438858,0.21678794920444489,true
0.36102499093060536,0.20145554057935183,0.10718018561601639,0.2162920981645584,true
0.3610237618678195,0.20145544244527452,0.17676910758018494,0.2140756994485855,true
0.3610243924994523,0.20145542642117376,0.16200707852840424,0.21503545343875885,true
0.3610237210982043,0.2014554429818572,0.12758101522922516,0.21817058324813843,true
0.3610236391559653,0.20145559130692064,0.11332468688488007,0.2200821489095688,true
0.36102521461877674,0.2014555059893957,0.10637769848108292,0.2202715128660202,true
0.36101338046673526,0.20145608316481597,0.2517622709274292,0.2094094455242157,true
0.3610250758194204,0.2014555292849256,0.25150081515312195,0.20884548127651215,true
0.3610237576950463,0.20145544249278705,0.3117048740386963,0.2010323405265808,true
0.3610237764018974,0.2014556451880435,0.31801748275756836,0.20114536583423615,true
0.07328321085095207,0.20374857341565977,-0.03482658416032791,0.21027852594852448,true
0.07328313847382764,0.20374873315908515,-0.05483854562044144,0.2143789827823639,true
0.07328423850359328,0.20374865106233356,-0.03986285254359245,0.21314872801303864,true
0.0732832451025319,0.20374857295463392,-0.1370367556810379,0.2194535732269287,true
0.07328283907438632,0.2037483947144738,-0.13394303619861603,0.2190348207950592,true
0.07328447367083105,0.2037486722483519,-0.14067772030830383,0.22017669677734375,true
0.07328324389009028,0.2037485729340797,-0.182109072804451,0.2229616492986679,true
0.07328315604822852,0.2037487430432615,-0.16838882863521576,0.2210695892572403,true
0.07328474199897372,0.20374863251059405,-0.1754227727651596,0.22151769697666168,true
0.07328324498777139,0.2037485729402086,-0.010085280984640121,0.20832711458206177,true
0.07328357542403141,0.20374865382243804,0.014945555478334427,0.2063024342060089,true
0.07328507817065175,0.20374863337227198,-0.017148401588201523,0.2096710205078125,true
0.07327649137759315,0.20374890223560335,-0.21885308623313904,0.22287312150001526,true
0.07328349322440875,0.20374870291010538,-0.20518124103546143,0.2213061898946762,true
0.07328501258823009,0.2037486271322378,-0.18405146896839142,0.22018569707870483,true
0.07328324406070741,0.20374857290014284,-0.19627518951892853,0.22225414216518402,true
0.07328313856268429,0.20374873299042962,-0.17358052730560303,0.2214508205652237,true
0.07328472819443446,0.20374863436429286,-0.16637574136257172,0.21958114206790924,true
0.07328324521738871,0.20374857294191984,-0.1726311296224594,0.22179652750492096,true
0.07328352617177317,0.20374868330029866,-0.113737553358078,0.21503140032291412,true
0.0732845738013862,0.20374865983359272,-0.1118256226181984,0.2147882729768753,true
0.07328324287373181,0.20374857293269324,-0.1453145295381546,0.2244844287633896,true
0.0732832766412175,0.2037487767096753,-0.1299264281988144,0.2227121889591217,true
0.07328435724483173,0.2037486719950146,-0.13715223968029022,0.22389404475688934,true
0.07328324412213807,0.20374857300505556,-0.13803927600383759,0.21717047691345215,true
0.07328368954702214,0.20374859424690175,-0.10525119304656982,0.21482914686203003,true
0.07328471420280969,0.20374863654208847,-0.11693760752677917,0.2153010070323944,true
0.0732832448507584,0.20374857301294255,-0.14314734935760498,0.22123070061206818,true
0.0732835917273979,0.20374864437016835,-0.150038480758667,0.22252750396728516,true
0.07328509113665876,0.2037486348794001,0.3183126449584961,0.20965835452079773,true
0.5916772280447034,0.1926730839615969,0.3021916449069977,0.2119467407464981,true
0.591678686226794,0.19267294672918428,0.3165227770805359,0.21084262430667877,true
0.5916771086273754,0.19267289768831047,0.381386935710907,0.21176612377166748,true
0.5916775845055743,0.19267289607021962,0.3951980769634247,0.21082141995429993,true
0.5916789699318616,0.1926729727537796,0.32706496119499207,0.2111217975616455,true
0.591676869948799,0.1926729351400555,0.3377332389354706,0.21381765604019165,true
0.5916779277401599,0.19267293815034334,0.3453923761844635,0.21307069063186646,true
0.5916770794601977,0.19267289810021046,0.4760863482952118,0.20139524340629578,true
0.5916770022365867,0.1926730577314853,0.49128201603889465,0.20166800916194916,true
0.5916780425006007,0.19267297564929758,0.5183768272399902,0.19989705085754395,true
0.5916771098450722,0.19267289769302157,0.4753817617893219,0.19961683452129364,true
0.5916774306789957,0.19267296905114667,0.4890275299549103,0.1990126669406891,true
0.5916788486592458,0.19267295956046238,0.5095772743225098,0.19743095338344574,true
0.5916671349871608,0.19267353852142613,0.38229650259017944,0.21184515953063965,true
0.5916778840820582,0.1926729226981381,0.37814608216285706,0.21281959116458893,true
0.5916787993286857,0.19267295419102853,0.38447052240371704,0.20625115931034088,true
0.591676248908715,0.19267264694250122,0.519256055355072,0.1969960331916809,true
0.5916781408797209,0.19267299521231715,0.5147759318351746,0.19775491952896118,true
0.5916790175181235,0.1926729764148989,0.45530712604522705,0.2015921175479889,true
0.5916769023675326,0.19267297222416857,0.4878714978694916,0.1996142864227295,true
0.5916784261860429,0.19267297266515399,0.5123419165611267,0.198870450258255,true
0.5916684425043789,0.19267340311861794,0.4491754174232483,0.2042006552219391,true
0.5916773531287725,0.19267301791469538,0.4807327389717102,0.20131149888038635,true
0.5916783460478305,0.1926729868487546,0.4750451445579529,0.20270538330078125,true
0.5916771082600832,0.1926728976180737,0.3175632357597351,0.2172248214483261,true
0.5916776302783795,0.19267288566761612,0.32390761375427246,0.21717527508735657,true
0.5916785836477843,0.19267294982305017,0.3251669406890869,0.21708917617797852,true
0.26198430982855025,0.19583660559388552,0.2745543420314789,0.1928890496492386,true
0.26199613740390965,0.19583592327532343,0.2974657416343689,0.19068031013011932,true
0.26199483492503717,0.19583584104959553,0.08412793278694153,0.211217001080513,true
0.2619955068517792,0.19583583246458067,-0.4773378074169159,0.2676946222782135,true
0.2619948228167287,0.1958358412187565,0.137478306889534,0.20475223660469055,true
0.26199478100940293,0.195836027289989,0.1427099108695984,0.20440354943275452,true
0.26199673065845497,0.19583591609623394,0.04101133719086647,0.21487726271152496,true
0.2619951032209388,0.19583595132477946,0.03626147657632828,0.21707235276699066,true
0.2619948378550513,0.19583584102964266,0.1943248063325882,0.2012343853712082,true
0.2619954916754078,0.19583582985090417,0.1810188740491867,0.20201517641544342,true
0.26199644232693986,0.1958358900842693,-0.022468222305178642,0.22473379969596863,true
0.2619916883711683,0.19583592711907732,0.15089362859725952,0.2039322555065155,true
0.2619957880345563,0.19583591898216596,0.14799928665161133,0.2042827159166336,true
0.26199669409707554,0.19583591244957707,0.002635007491335273,0.21574513614177704,true
0.2619950556962635,0.19583598033176544,-0.004487502388656139,0.216300830245018,true
0.2619960691017043,0.19583593425014295,-0.011155901476740837,0.21720609068870544,true
0.2619948349489526,0.1958358410688545,0.18241409957408905,0.1996041089296341,true
0.2619949762348735,0.19583602110140103,0.16623832285404205,0.2007986605167389,true
0.2619960001351984,0.19583594138121085,0.17674845457077026,0.20006732642650604,true
0.26199483807274565,0.19583584097304105,-0.009743933565914631,0.2181652933359146,true
0.2619951505288717,0.19583592185786577,-0.005802692845463753,0.2182246893644333,true
0.26199615101577006,0.19583592078342696,-0.022293733432888985,0.2197360098361969,true
0.26198484245896353,0.19583660061258246,0.18248561024665833,0.20189470052719116,true
0.26199615118856134,0.19583592078353104,0.1523996740579605,0.20477840304374695,true
0.34791172180251717,0.20396147098919648,0.32833072543144226,0.2038402110338211,true
0.3479117737050997,0.2039616745571935,0.2955121099948883,0.2047136276960373,true
0.34791333349797776,0.20396152071862783,0.3332575559616089,0.20235048234462738,true
0.3479084626234008,0.20396155714249192,0.2820720076560974,0.20494608581066132,true
0.34791320979148255,0.20396153247769866,0.2905541658401489,0.20475347340106964,true
0.3479117252568937,0.20396147095160444,0.2364351749420166,0.21236872673034668,true
0.3479119900838094,0.20396159116215984,0.22677001357078552,0.2124512642621994,true
0.34791350768500906,0.20396152621437072,0.23953674733638763,0.2115795761346817,true
0.3479117222918231,0.20396147089537678,0.06663816422224045,0.23149383068084717,true
0.3479123794623402,0.20396145597119947,0.08009665459394455,0.23017124831676483,true
0.34791381412468525,0.20396155249838024,0.10612082481384277,0.21527992188930511,true
0.347911530382886,0.20396156259226966,0.0697186067700386,0.2204475700855255,true
0.34791359905256747,0.20396153565343486,0.043802015483379364,0.22233401238918304,true
0.3479117252216186,0.20396147097349815,-0.5204095244407654,0.28714245557785034,true
0.34791200656782484,0.2039615813831358,-0.4955596923828125,0.28498905897140503,true
0.3479135208824725,0.20396152745846682,-0.5195505023002625,0.2875412702560425,true
0.3479117244855375,0.2039614708764739,0.29253968596458435,0.20716498792171478,true
0.34791156571559,0.20396159340572767,0.3280450105667114,0.20427396893501282,true
0.34791316805487915,0.20396153873558848,0.292268842458725,0.20993366837501526,true
0.3479117248860739,0.2039614709889694,-0.5033183693885803,0.2857954800128937,true
0.3479120722358017,0.2039615423388224,-0.5182211399078369,0.28688928484916687,true
0.3479135731432602,0.2039615328621718,-0.5132935643196106,0.28678542375564575,true
0.3479117218843312,0.20396147097834902,0.2706875205039978,0.2070513814687729,true
0.3479124110825657,0.20396145977535093,0.2902298867702484,0.20484185218811035,true
0.34791340112705005,0.20396152000999218,0.25524887442588806,0.2077377438545227,true
0.34790949632743473,0.20396140875209506,0.2315269410610199,0.2129465639591217,true
0.34791221883116513,0.20396147411979546,0.23540161550045013,0.21202144026756287,true
0.3479136887413602,0.20396154491055596,0.22854653000831604,0.21298086643218994,true
0.516456299337066,0.20496236044526764,0.17652371525764465,0.22923310101032257,true
0.5164568798508874,0.2049624334946782,0.18741793930530548,0.2286037802696228,true
0.516458394849571,0.204962401919445,0.21563535928726196,0.2260720282793045,true
0.5164565601308012,0.2049623428466375,0.20978944003582,0.23085898160934448,true
0.516457253347505,0.20496233164356686,0.21422666311264038,0.23071391880512238,true
0.5164582482466755,0.2049623918783345,0.3769344389438629,0.21494245529174805,true
0.5164543249007265,0.20496228061880717,0.3934040069580078,0.21446654200553894,true
0.5164570601539996,0.20496234598646224,0.3951205909252167,0.21448172628879547,true
0.5164580837643649,0.20496240065193064,0.39238736033439636,0.2148723304271698,true
0.5164565633802635,0.20496234282233522,0.37195777893066406,0.21663798391819,true
0.5164568633386388,0.2049624433447939,0.37635815143585205,0.21590101718902588,true
0.5164583816885628,0.20496240058761112,0.41305094957351685,0.21268394589424133,true
0.5164565602088553,0.2049623427617564,0.26112985610961914,0.22400212287902832,true
0.5164572534250486,0.2049623315659903,0.2737058103084564,0.22219417989253998,true
0.5164586879710558,0.20496242488886365,0.27189427614212036,0.22257451713085175,true
0.5164563860521605,0.2049624504034223,0.27852070331573486,0.2227233201265335,true
0.5164575027451732,0.20496240333774615,0.27041375637054443,0.2237911969423294,true
0.5164584601301416,0.20496240884990571,0.2370101809501648,0.22544287145137787,true
0.5164562665189855,0.20496231862837297,0.24111279845237732,0.22569388151168823,true
0.5164579006629002,0.2049624297775046,0.23254984617233276,0.22662042081356049,true
0.5164565622132858,0.20496234283352244,0.36803683638572693,0.21577300131320953,true
0.5164566635736104,0.20496253902902614,0.41684284806251526,0.2128550112247467,true
0.5164577416609314,0.204962444475068,0.41791075468063354,0.2122204601764679,true
0.5164586631157908,0.2049624244642437,0.2324976921081543,0.230050191283226,true
0.5164563860544,0.20496245040155694,0.27331700921058655,0.2274056375026703,true
0.5164575027508864,0.20496240333615592,0.2611585855484009,0.2281205654144287,true
0.5164584601412975,0.20496240884862382,0.43596944212913513,0.21147562563419342,true
0.516456763907579,0.20496249999224228,0.41235020756721497,0.21181146800518036,true
0.5164578288389067,0.20496243951320994,0.40118199586868286,0.2119307518005371,true
0.2754347464564963,0.1760927439391143,-3.5996434688568115,0.51277756690979,false
0.23256000207942107,0.15707963267948966,0.2291164374199626,0.07790992828664856,false
0.25554121318171935,0.15707963267948966,0.2486417060135938,0.07759808286879959,false
0.25888301444608564,0.16101902017486222,0.2486417060135938,0.08013590508841298,false
0.24863005057754162,0.15930786128735736,0.24864170601359378,0.07700478809713712,false
0.11343012070231864,0.15707963267948966,0.09254417436692447,0.0738691674936548,false
0.23139164613051622,0.15707963267948966,0.24864170601359378,0.07073579869627566,false
0.10504978497412608,0.15708053310518538,0.09254417436692448,0.052843878333311445,false
0.17465798411904848,0.1571731064762728,0.09254417436692447,0.07487003328605259,false
0.025217058315248973,0.15707963267948966,0.014551310017564417,0.040309502718099355,false
0.570571561187713,0.20353041160026206,0.5619743717990512,0.07386916749365474,false
0.19610077410464352,0.15713901421818952,-0.024441876147705942,0.11327981348032536,false
0.2481927760774739,0.15707963267948966,0.014551310017564406,0.11433754823660403,false
0.24821764476831026,0.15707963267948966,0.014551310017564415,0.11434052311804772,false
0.27238618992628444,0.20943951023931953,0.0925280549078758,0.13271659999999974,false
0.272477166777383,0.20941607455000405,0.0925441743669245,0.13271659999999974,false
0.27263480811234275,0.20936655505889964,0.0925441743669245,0.13271659999999974,false
0.273727614263698,0.20864105105100791,0.09134100842844489,0.13271659999999974,false
0.23987577008735955,0.20943951023931973,0.057818104696469697,0.13271659999999974,false
0.2394895343875065,0.20943951023932073,0.05736872101365889,0.13271659999999974,false
0.24254032794115665,0.20943951023931973,0.057818104696475886,0.13271659999999874,false
0.24328599535012774,0.20627910693632995,0.03815215226342042,0.13271659999999974,false
0.22190039201872544,0.2019009763388377,0.01481750545209029,0.13271659999999974,false
0.22177011305723643,0.20314487771756212,0.014551310017564434,0.1332967580736209,false
0.17385886941291478,0.15707963267948966,-0.1609532541409528,0.1311771978420933,false
0.1801297085741452,0.15930560948125405,-0.16095325414095282,0.1334031746438577,false
0.24033461429153188,0.15926439588927604,-0.10243707140619931,0.1333619610518797,false
0.36748439472760625,0.15707963267948966,-0.024441876147705932,0.13117719784209342,false
0.37954844181457664,0.15921039121345718,-0.024441876147705932,0.13330795637606074,false
0.4502402805600583,0.1619847732333538,-0.004945234512409524,0.13608233839595746,false
0.20391937849974257,0.15707963267948966,-0.18046446202984395,0.13958419079504708,false
0.2040101897567158,0.15711935479986364,-0.18046446202984395,0.13961925479987,false
0.23440084727620691,0.15759910968798285,-0.16095325414095285,0.1410967812427238,false
0.288991753084068,0.1572158353825257,-0.12193994246192164,0.1407135069372667,false
0.2980767538285057,0.15813988125953282,-0.12193994246192164,0.14163755281427381,false
0.2033202507638706,0.15707963267948966,-0.21949790188998358,0.14396248031248454,false
0.20336345501980624,0.15707963267948966,-0.21949790188998358,0.14396248031248465,false
0.17033438229348433,0.15919273737934936,-0.29761964894933157,0.15209051532622758,false
0.2018154641556429,0.15796531725069152,-0.25854860390039175,0.15220338742813233,false
0.20371246668630286,0.15796531725069152,-0.2585486039003918,0.15220338742813233,false
0.16454129089159178,0.15930560948125416,-0.3171637646163985,0.15533675622551152,false
0.16463646509011184,0.15930560948125416,-0.3171637646163985,0.15533675622551152,false
0.2661773570075351,0.15707963267948966,-0.2194979018899837,0.15313373908774797,false
0.30976740799493063,0.15930560948125405,-0.21949790188998364,0.15847012502289054,false
0.10007131461183119,0.2079972974518322,-0.2969948110303535,0.14752759999999987,false
0.09983691451012987,0.20804016451090368,-0.29761964894933157,0.14752759999999987,false
0.0999171703097372,0.20789977016014477,-0.2976196489493316,0.1475302785515783,false
0.08376036627345283,0.20943951023931973,-0.3466440750827174,0.14752759999999987,false
0.08590465932462647,0.20943951023931973,-0.3466440750827112,0.14752759999999887,false
0.08376038641869521,0.20943951023931953,-0.35627111517448923,0.1490700186307533,false
0.08590465932462639,0.20943951023931953,-0.35627111517448923,0.14907001863075311,false
0.0,0.16243897827863318,-0.9581469696230082,0.14752759999233617,false
0.0,0.16243897827863318,-0.9679717483434244,0.14907001863075325,false
0.0,0.15930560948125405,-0.9781155438001303,0.14752759999999987,false
0.20977681386822275,0.15946367454068786,0.25563829576670183,0.07163791810152093,false
0.21040833665676698,0.15975581335619438,0.2560954066370241,0.07181233001974288,false
0.21054168146957694,0.1598428503213779,0.25617742851413483,0.07186365295544213,false
0.21090658532456139,0.15984252023795437,0.2565474904863613,0.07185849483820012,false
0.21104915096507088,0.1598745063569913,0.2567172985781614,0.07183125238690952,false
0.22339321161389433,0.15768852255383103,0.27058311240376964,0.07033635317516584,false
0.2687405509242755,0.20943951023931953,-0.05902181480582412,0.156491600000001,false
0.26692901548974945,0.20943951023931953,-0.06083964887441931,0.1564915999999998,false
0.2654099491620257,0.20943951023932067,-0.06237698379506559,0.1564915999999998,false
0.2575912593389828,0.20943951023932073,-0.07048165673835786,0.15649159999999984,false
0.25761048571537415,0.20943951023931973,-0.07046895473193586,0.15649159999999973,false
0.25758098529952467,0.20943214981762812,-0.07051475810233847,0.15649159999999976,false
0.25650658943692894,0.20907711303856455,-0.07571587031419215,0.15697236152155644,false
0.2953446641408815,0.208596351517008,-0.03687938135560603,0.15649159999999984,false
0.25656160964384994,0.20909411468283723,-0.07571587031419215,0.15698936316582912,false
0.2950789667971946,0.2085192306492259,-0.037359271823911966,0.15649159999999984,false
0.27187670098655514,0.20943951023931953,-0.40614141500020295,0.21268019999999987,false
0.272109447507604,0.2093545937382856,-0.40614141500020295,0.21268019999999987,false
0.2740296118409758,0.20924029864842106,-0.406141415000203,0.2129199351136243,false
0.25683597039192235,0.20943951023931953,-0.4244312816169173,0.21311914670452237,false
0.22522732848228766,0.20943951023931973,-0.45828761209310465,0.21268019999999987,false
0.243193393414286,0.2090005635347973,-0.4427284516282124,0.21268019999999987,false
0.2162829562517633,0.20607415858566025,-0.47934597418439073,0.21268019999999987,false
0.225227336497396,0.20943951023931953,-0.47934597418439073,0.21604555165365938,false
0.2258108748690213,0.20943951023931953,-0.47934597418439073,0.21604555165365938,false
0.23670770205141947,0.2065029625332841,-0.47934597418439073,0.21310900394762375,false
0.08721193169196755,0.1606665676332089,-0.4787668778527031,0.15835882909450177,false
0.0,0.15743506465873747,-1.388804720030887,0.15798348363898945,false
2.082302053059426e-05,0.15743506465873747,-1.388804720030887,0.15798348363898945,false
0.17695197427079162,0.1785707,-0.38650390682746555,0.1774491325566741,false
0.17804874828290282,0.1785873137450776,-0.3865039068274658,0.17636897228964066,false
0.26055059880334436,0.1808981012263896,-0.4913639963667959,0.20103799878984124,false
0.20874335142029474,0.15707963267948966,0.27292742936511105,0.06749633473467337,false
0.2087778787746782,0.15709557518926384,0.27296855224101874,0.06750568172292332,false
0.19073008429799723,0.15707963267948966,0.25494965549329596,0.06746084148419093,false
0.2273737893247195,0.15707963267948966,0.2919111492241712,0.06714305278003793,false
0.23046787878707523,0.15707963267948966,0.2953243016496186,0.0668239898169463,false
0.2689470001208565,0.20943951023931953,-0.589307885849133,0.24146789999999974,false
0.26896329830911303,0.2094342646938716,-0.5893078858491331,0.24146789999999974,false
0.279974242731194,0.20943951023932073,-0.5785112459564613,0.24146789999999974,false
0.2832091476240869,0.20943951023931953,-0.5754543815043154,0.24146789999999974,false
0.2753912657882839,0.20943951023931953,-0.5833154706177542,0.24146789999999974,false
0.23984661902825163,0.20918170596999847,-0.6216962335242608,0.24146789999999974,false
0.2378528474356885,0.2084847435889931,-0.6260755165879609,0.24146789999999974,false
0.2254972780041515,0.20943951023931953,-0.6384727191328974,0.24146789999999974,false
0.20335024339241364,0.19970488868015873,-0.6997433851301087,0.24146789999999974,false
0.2298222159068862,0.20943951023931953,-0.7736054850759629,0.26290899477093976,false
0.2679659595201504,0.20943951023931953,-0.7377685520775352,0.2648996000000061,false
0.2898424685784522,0.20943951023932073,-0.7166968685700292,0.2648995999999999,false
0.2886199221991327,0.20902243946958565,-0.7193257773467486,0.2648995999999999,false
0.30793554422488434,0.20943790390547593,-0.700895466623933,0.2648995999999999,false
0.30840995145797007,0.20943790390547593,-0.700895466623933,0.2648995999999999,false
0.2100607769510377,0.20765696419271973,-0.8116708710356332,0.2648995999999999,false
0.2367861174633345,0.20936047287933882,-0.7910382409380805,0.2648995999999999,false
0.2367861174633345,0.20936047287933882,-0.9229545116693131,0.2857051397887652,false
0.031613981060385474,0.20434851614403857,-1.4243154909998887,0.26489959999999957,false
0.031613981060385474,0.20434851614403857,-1.9599288575936988,0.3450196331017743,false
0.256336830413696,0.20943951023931953,-0.765088307929146,0.26729709999999973,false
0.272158265966802,0.20943951023931953,-0.7508290127144965,0.2672970999999998,false
0.25441756865742254,0.2088021065618239,-0.7691135441424746,0.26729709999999973,false
0.31481225742627206,0.20943951023931984,-0.7103349985936828,0.26729709999999884,false
0.31521949606500593,0.20943951023931953,-0.7143520180917078,0.26793450367749444,false
0.3157869744629215,0.20943838420626,-0.7143520180917077,0.26793337764443576,false
0.30602747201394226,0.2069580415955904,-0.7259813304424634,0.26729709999999973,false
0.26084642741032005,0.20943951023931953,-0.8566080376496393,0.26729709999999973,false
0.3298395,0.18300205980378104,-0.21708053289122917,0.17393489395239925,false
0.3298542637137176,0.18300205980378104,-0.21708053289122917,0.17393489395239925,false
0.3298395,0.20943951023931973,-0.363627584313423,0.20037234438793794,false
0.2752048817257382,0.20943951023932073,-0.7733957144130907,0.27168869999999967,false
0.27600340842746296,0.20932725112896336,-0.7733957144130907,0.27168869999999967,false
0.2944141086244566,0.20943951023931962,-0.7554054732155114,0.27168869999999967,false
0.2916071733007465,0.2086059449896542,-0.7606703604100177,0.2716886999999997,false
0.2992638478015786,0.20943951023931953,-0.755405473215512,0.27168869999999967,false
0.395949862528861,0.20943951023931953,-0.6827143474019773,0.27168869999999967,false
0.4059018136320955,0.20928136259425165,-0.6774695190852362,0.27168869999999967,false
0.4110064023239005,0.20931829834917945,-0.674523631274128,0.27168869999999967,false
0.4111738161672488,0.2093194980771864,-0.6744279444763478,0.27168869999999967,false
0.28296427299296334,0.20943951023931953,-0.8831174832322872,0.27168869999999967,false
0.2732433449360136,0.1800083196808407,-0.27539199938235664,0.17657974539051685,false
0.21908057810608214,0.20943951023931973,0.23238746679690322,0.10056220106985919,false
0.21847212682562378,0.20921149581982995,0.23220590417886952,0.10036332682692431,false
0.21840676668956066,0.2091869971672427,0.23218641309615368,0.10034195642616428,false
0.21834800940795576,0.20916494118419637,0.23216896788401478,0.10032270033974462,false
0.22132697028447068,0.20943951023931973,0.23506332503065341,0.10013273501449754,false
0.22132697028447068,0.20939319778211216,0.23517365800913892,0.10006871449321961,false
0.22376075318139382,0.20922845066827328,0.23821380942201442,0.09962709309110612,false
0.4335551943439626,0.20943951023930993,0.48776165720467385,0.05966262689997884,false
0.14571174102110257,0.15707963267948966,-0.7726251839029266,0.22273074683109695,false
0.21055759538749208,0.17429099939531656,-0.7726251839029225,0.239942113546708,false
0.21132597085565952,0.17429099939531656,-0.7726251839029267,0.23994211354692385,false
0.27177054316182186,0.20891354054816869,0.3533043737620337,0.09050546939978818,false
0.272968698506285,0.20929135770508914,0.3542811654916496,0.09072683301463542,false
0.25878823068221657,0.203610651819776,0.34415976569534945,0.08666776498686714,false
0.25878823068221657,0.20355949624506406,0.3442206814224042,0.0866068492598124,false
0.1957619730680119,0.20854532441490725,0.28057844901125706,0.08722282405675486,false
0.19572249503678574,0.20850584638368108,0.28057844901125706,0.08718334602552869,false
0.24538696845962976,0.20940395341260562,0.33518493712878955,0.08224133133084022,false
0.3549037991983779,0.15707963267948966,-0.6249784684030816,0.22273074683109687,false
0.09517673632477718,0.15707963267948966,0.21790877722270638,0.04874388178156046,false
0.10157189671011899,0.15707963267948966,0.2255267786665298,0.04752104072307886,false
0.11681781892038881,0.15989311425164923,0.24368719354373417,0.04742002962830391,false
0.1301659262049792,0.162807608126539,0.2595863032042603,0.04778352112725791,false
0.12864352837908938,0.16280760812951656,0.2618517697009488,0.047420028419819515,false
0.37643106579129154,0.20943951023931953,0.5527602894802649,0.047506576550346236,false
0.337872374651078,0.16171156514796817,-0.6060648783546564,0.2252003021783591,false
0.3857963537212169,0.16558591513600363,-0.6060648783546564,0.2311393907613493,false
0.3860967715001963,0.16558591513600363,-0.6060648783546563,0.2311393907613493,false
0.37746810814441517,0.17123032826604279,-0.6244678600332043,0.23678380389138837,false
0.16403961922934718,0.1573406647919834,0.302525088957055,0.05486140506427557,false
0.18421153109691332,0.15710243086421669,0.32279639286789047,0.05452377909323955,false
0.1576006387890049,0.1598819583973009,0.30141473717611444,0.052074070010191396,false
0.3001728159984019,0.16576250397683928,0.4468989275592203,0.05504260241602091,false
0.09353659639142411,0.15707963267948966,0.24245281081784814,0.044169628253065626,false
0.16419982357311785,0.15707963267948966,-0.7728801604585142,0.2269422037976521,false
0.17885228402858916,0.15963040933877212,-0.7728801604585142,0.231014757456773,false
0.2527045318533232,0.15707963267948966,-0.735901913601021,0.22846398079749053,false
0.47438363297991576,0.16484010139548966,-0.33556157562044536,0.1574678886830802,false
0.17686733849934858,0.1587862131748485,0.32857931291798015,0.05217325875621695,false
0.11075757069347683,0.15995303035233246,0.2741134229494137,0.041696199331603206,false
0.12599683091648742,0.16286400053431382,0.29226365223150763,0.04169619933286836,false
0.12278357745569847,0.16286400053431416,0.2922636522315099,0.04169619933286839,false
0.01843599250173876,0.15707963267948966,-0.3022993261543487,0.08492692518122844,false
0.01967768151061043,0.15708504343267696,-0.3025659690372247,0.0861740249432874,false
0.019865303327613035,0.15707963267948966,-0.30258368004703157,0.0863562360071027,false
0.01604620999999984,0.15792829760970656,-0.306937381075491,0.0833858076097064,false
0.02171613536155611,0.15707963267948966,-0.3032148166180366,0.08820706804104578,false
0.02171614675283422,0.15707963267948966,-0.3758351247365829,0.09984350986830232,false
0.0565275384435218,0.15707963267948966,-0.3758351247365829,0.12567605951196625,false
0.01604620999999984,0.1593056094788206,-0.5813232645393526,0.08476311947882045,false
0.01604620999999984,0.15930560948125405,-0.6901326132850072,0.10206948667006668,false
0.017997585947668787,0.20943951023931973,-0.49113286016197866,0.12050938594766879,false
0.01604620999999984,0.2073321321411255,-0.49338835440287554,0.11856991822347074,false
0.024257502602975385,0.20943951023931953,-0.49109016237417685,0.1267693026029754,false
0.024624637049099493,0.2054189365134119,-0.4933883544028755,0.1271364370490995,false
0.03786461314430077,0.2094276466911355,-0.4978131143335375,0.14037641314430077,false
0.038898009945945354,0.20317277264456146,-0.5130123981812464,0.14280328103599502,false
0.023835506739227904,0.15930560948125405,-0.5326465840152825,0.12713643704909955,false
0.021716152649710108,0.15707963267948966,-0.5720796923374012,0.13119834532919977,false
0.02877939382916536,0.15707963267948966,-0.5770790458086764,0.13826158650865503,false
0.03675872845881162,0.15707963267948966,-0.5916139351328127,0.14684404182898886,false
0.02171614371744927,0.15707963267948966,-0.611292634782421,0.13744393543685154,false
0.02173205800877807,0.15707963267948966,-0.611292634782421,0.13744393543685154,false
0.021719092957373436,0.15707963267948966,-0.6506867901221093,0.14371067303160975,false
0.01767182065341919,0.15930560948125405,-0.8627225819318713,0.12937999013467325,false
0.01604620999999984,0.15707963267948966,-1.0079479508816083,0.14997741062636794,false
0.01604620999999984,0.2031727726483566,-1.1323513840244588,0.17162154264835644,false
0.29216143240170683,0.19184356334569788,0.45445241332953645,0.06827810241786829,false
0.2641008134587522,0.19266973920971314,0.4279833727688012,0.06751269989966413,false
0.26442182294706573,0.19266973920400493,0.4283655213550756,0.06745156079599507,false
0.25859772115517743,0.19779130665554312,0.4283655213550756,0.06674902645564496,false
0.2005843582634815,0.20682725419439957,0.373781044056072,0.07270575866666076,false
0.20747039321618224,0.20924087323240553,0.3919690914316899,0.07237449124061907,false
0.24694951757140082,0.20943951023931973,0.4283655213550756,0.06674902645564496,false
0.2027117579441136,0.15707963267948988,-0.7395593193444688,0.22870120267948946,false
0.20274675952826265,0.15707963267948988,-0.7395593193444688,0.22870120267948946,false
0.20061808359290256,0.1570947076088708,-0.741725936741608,0.2287162776088706,false
0.20342920790016752,0.15730694677004772,-0.7395593193444701,0.22892851677004752,false
0.2034430252006704,0.15731132945445736,-0.7395593193444697,0.22893289945445716,false
0.20407103450643707,0.15751001530303899,-0.7395593193444701,0.2291315853030388,false
0.22552316618580717,0.15707963267948966,-0.7182906357333593,0.22870120267948946,false
0.22588258942710007,0.15707963267948966,-0.7179798522754954,0.22870120267948946,false
0.2432085336342547,0.15708885467409162,-0.7038171331565667,0.22871042467409142,false
0.22930117335742214,0.16211172808185614,-0.7364418076508882,0.23373329808185594,false
0.3200557862938042,0.16006238139026116,-0.18033887707432655,0.15460360939026113,false
0.32020305258239773,0.16004236593824836,-0.18021423955749932,0.15458359393824833,false
0.32059621322085996,0.1599890345792543,-0.1798821417287928,0.15453026257925428,false
0.3209173940553654,0.15994557568158393,-0.1796115203565542,0.1544868036815839,false
0.3426411156530057,0.15768970499484444,-0.16377321559468416,0.15223093299484441,false
0.32849012369808306,0.16172476761075946,-0.19069205129970124,0.15626599561075943,false
0.3901485135908441,0.20943951023931953,-0.3491858620694832,0.2039807382393195,false
0.44634978596447417,0.15707963267948966,-0.30066737932345344,0.15162086067948963,false
0.4674985625749006,0.16206947981397957,-0.3317958502028597,0.15661070781397954,false
0.4730715073373756,0.15928300743267926,-0.33179585020273406,0.15382423543267923,false
0.17213128244449202,0.15708924775696553,-0.7772987318268935,0.22882943775696563,false
0.1864038347820013,0.15707963267948966,-0.7734099419017092,0.23125577084152937,false
0.27283510846822934,0.16453790301428609,-0.7364474752701484,0.2415170474360741,false
0.3061077113829972,0.18602269527709703,-0.7734099419017092,0.26300183969888513,false
0.31985760757681475,0.15707963267948966,-0.17432678293579412,0.15177244267948967,false
0.3295414498131717,0.1592830776991121,-0.18230651641633244,0.1549185591872035,false
0.3362459567509105,0.16108117488211787,-0.19966088800323767,0.1567166563702093,false
0.4078391614559335,0.19794139750135561,-0.35602240131904966,0.20472275288727093,false
0.20077897598912864,0.15707963267948966,-0.5538519982468427,0.19886697267948966,false
0.195594472251774,0.15707963267948966,-0.5591889303101838,0.19886697267948966,false
0.19435685918851703,0.15707963267948966,-0.5604912215969604,0.19886697267948966,false
0.28393984110227266,0.20943951023932073,-0.776863294066426,0.27356579999999986,false
0.2858894897634118,0.20930149381201119,-0.7754864308243969,0.27356579999999986,false
0.28610077524016836,0.20930149381201113,-0.7754864308243969,0.27356579999999986,false
0.28618399416356394,0.20938704936765912,-0.7754864308243969,0.2736513555556478,false
0.2863445570105225,0.20943951023931973,-0.7754864308243969,0.27370381642730846,false
0.286365751703912,0.20943951023931973,-0.7754864308243969,0.27370381642730846,false
0.3298034304198141,0.20930149381201113,-0.7385858131300703,0.27356579999999986,false
0.32984033858683226,0.20930797577422003,-0.7385858131300703,0.27357228196220873,false
0.3172248275505761,0.20930149381201124,-0.7570295628280612,0.27356579999999986,false
0.3848416268748878,0.20943951023931973,-0.7008669475218754,0.27356579999999886,false
0.2675521268781708,0.2094395102393204,-0.47023067613702957,0.2222441897606796,false
0.26479527070456726,0.2094395102393204,-0.4730360393466057,0.2222441897606796,false
0.28597973243534885,0.2094395102393204,-0.45244494720939293,0.2222441897606796,false
0.2859868988980038,0.20933603843753573,-0.453418550335652,0.22234766156246427,false
0.2988951844065023,0.2094395102393204,-0.44090233703685966,0.2222441897606796,false
0.29890803917915426,0.2094395102393204,-0.4409023370368597,0.2222441897606796,false
0.2840411033850814,0.20908871141653235,-0.4585014961126048,0.22259498858346766,false
0.24505026121666718,0.2090020576410037,-0.49838291748045527,0.2226816423589963,false
0.32597962846212064,0.2094395102393204,-0.41885424512878594,0.2222441897606796,false
0.3259673113859858,0.209436138802801,-0.41889638701304477,0.22224756119719902,false
0.22593638654231854,0.17280566000000003,-0.8575173552696385,0.25887804000000003,false
0.22775359841570417,0.17280565999999997,-0.8557260606346668,0.25887804000000003,false
0.22817343839524837,0.17280565999999997,-0.8553137560553369,0.25887804000000003,false
0.22776271897142192,0.1727730200661575,-0.85614007474018,0.25891067993384254,false
0.22843830596314457,0.17273816603109643,-0.8557418123022866,0.2589455339689036,false
0.22627426550207577,0.17234384066019992,-0.8615839070935092,0.2593398593398001,false
0.2262587288535021,0.1723389889822473,-0.8616454471418893,0.2593447110177527,false
0.2634903384987417,0.20943951023931953,-0.8195136701504615,0.2771056999999997,false
0.2597019348054776,0.20814722973533775,-0.8275182611619438,0.2771056999999997,false
0.2598593275286377,0.20825677036822868,-0.8275182611619439,0.27718754282084934,false
0.25992065534670655,0.20827774951230585,-0.8275182611619438,0.2772085219649264,false
0.32528457680328304,0.20943951023931953,-0.771905520094559,0.27837028269194086,false
0.3217314532486539,0.20943951023931973,-0.7824366512377825,0.2771056999999997,false
0.2510777725715728,0.2094395102393194,-0.8566479828108918,0.2771056999999997,false
0.26966725427168114,0.20943951023931953,-0.8752374645109993,0.27710569999999846,false
0.593439776811621,0.20943951023931953,-1.2588910166552054,0.3369867296042648,false
0.18245325323431444,0.1570796326794895,-0.8846280310298154,0.2481652926794895,false
0.17585970309752727,0.15709955360131211,-0.8925484183924453,0.24818521360131213,false
0.17587656568394766,0.15707963267948966,-0.8936577580264091,0.24834004841587776,false
0.16675162615432215,0.15740655626833544,-0.9051383695518006,0.24849221626833545,false
0.16149567861333355,0.15707963267948966,-0.9109883397248594,0.24816529267948967,false
0.16150660891162358,0.15707963267948966,-0.9109883397254516,0.24816529267948967,false
0.16143544338768093,0.15711627001809275,-0.9112019807384147,0.24820193001809276,false
0.1812730985438407,0.1641782087194878,-0.9109883397254519,0.2552638687194878,false
0.0,0.15832734175221974,-1.9391937814437683,0.24941300175221975,false
0.4728618727388986,0.1919293,0.3043194937314661,0.016386679007432542,false
0.4721296847741217,0.19348671567530895,0.32267463221534237,-0.0027006474412206716,false
0.41642104690288073,0.1919293,0.21261664262969687,0.051648704273183826,false
0.4170387304150104,0.1919293,0.21261664262969687,0.0516487042731838,false
0.36214800956996573,0.20943951023932073,-0.21141058523932055,0.19309029999999971,false
0.3684396453235202,0.20856622854903772,-0.2105373035490377,0.1930902999999997,false
0.3790520345580218,0.20943951023931429,-0.20074446355334058,0.1930903000000052,false
0.37906709815951606,0.20943951023931964,-0.20074446355330028,0.19309029999999863,false
0.4925735550743482,0.20408646136916464,-0.16740731869372338,0.19309029999999971,false
0.3248030879289236,0.20943951023931953,-0.7791009941129279,0.2794388999999997,false
0.32252503431928875,0.20883937587577592,-0.7828940383146974,0.2794388999999997,false
0.4097034815296703,0.20943951023931973,-0.7235992040786681,0.2794388999999997,false
0.4098322289131336,0.20942249985855857,-0.7350096873234968,0.28124811171299213,false
0.4611247957192838,0.20943951023931973,-0.7051242427187854,0.2794388999999997,false
0.4611247957192838,0.20943778684275532,-0.7051351046424159,0.2794388999999997,false
0.40970348287040553,0.20943951023931973,-0.7720137420187907,0.28710922111811676,false
0.27784528841547707,0.20943951023931953,-0.47948938065071756,0.22534348976068044,false
0.25909639424107317,0.20943951023932053,-0.49836684630376366,0.22534348976067944,false
0.2585666176366745,0.20943951023932053,-0.4989269580559021,0.22534348976067944,false
0.29729239938430274,0.20942785820674154,-0.46191855045035213,0.22535514179325844,false
0.2972802876099946,0.2094117109871759,-0.46532595065491356,0.22587202816913587,false
0.2835083591293839,0.20943951023931953,-0.4829711406627524,0.22534348976068044,false
0.3417385341080802,0.20943951023931973,-0.42658007948567633,0.22534348976067864,false
0.34174878665439623,0.20943951023931973,-0.4265800794856863,0.22534348976068025,false
0.34170036215017224,0.20942949348037984,-0.4267053038920076,0.22535350651962013,false
0.22608921205735652,0.17435530999999999,-0.8622711975003177,0.26042769,false
0.22524452902261496,0.17435530999999999,-0.863120361006613,0.26042769,false
0.2373377875157235,0.17435530999999999,-0.8513613053412414,0.26042769,false
0.23940816322837682,0.1743387689353154,-0.8495911033375805,0.26044423106468456,false
0.23939088981175635,0.17433355530353498,-0.8496571729870716,0.26044944469646497,false
0.2389453912969584,0.17419908026593117,-0.8513613053412414,0.2605839197340688,false
0.29091704077399716,0.17409320408423345,-0.8163569948893872,0.2606897959157665,false
0.2383044537615343,0.17430947829107876,-0.8695550630351129,0.2633471705418421,false
0.238595088848009,0.17409320408423348,-0.8695550630351128,0.263347170541842,false
0.45157751834707605,0.20943951023931973,-0.748699428347076,0.2841186,false
0.47031396139892373,0.20943951023931953,-0.7486994283539792,0.2841185999999988,false
0.47031396139892373,0.20943951023931953,-0.7709395439293378,0.2876405498851401,false
0.26018936864521436,0.20943951023931973,-0.5084895371164655,0.22714348976068027,false
0.2602330698020352,0.20943951023931973,-0.5084895371164555,0.22714348976067866,false
0.24407529479720094,0.20943951023931973,-0.5261538748536806,0.22714348976068027,false
0.24406882234223104,0.2094372851698131,-0.5261817644215641,0.2271457148301869,false
0.22924619424709058,0.20943951023931973,-0.5438266373984468,0.22714348976067866,false
0.22918284819035412,0.20943951023932053,-0.5443043888160342,0.22714348976067947,false
0.24789108974076945,0.20943951023931973,-0.5261538748536807,0.22714348976068027,false
0.2581263543862898,0.20876257188679054,-0.5169704534575243,0.22782042811320946,false
0.25804655949828637,0.20873633849025747,-0.517299114465587,0.22784666150974253,false
0.2310191349297904,0.17231692750119557,-0.8899679488572697,0.2645267275011956,false
0.23101913495321824,0.17231692750119557,-0.8907454109005697,0.2646492173495876,false
0.2342646469968201,0.1723158330161777,-0.8899679488572698,0.2645256330161777,false
0.23426464699754712,0.1723158330161777,-0.8907454109005699,0.26464812286456973,false
0.4665613751787636,0.20943951023931953,-0.7340104851787633,0.28555379999999975,false
0.4667716917671328,0.20943951023931953,-0.7339720278477924,0.28555379999999975,false
0.46676857909556135,0.20938858918365216,-0.7341255418913061,0.28555379999999975,false
0.4670539773442686,0.2093902685730975,-0.7339911505699386,0.28555379999999975,false
0.4698247099593296,0.20828748661593668,-0.7372738199593294,0.28555379999999975,false
0.49058606297291335,0.20943951023931973,-0.7580351729729131,0.28555379999999975,false
0.49060417063427025,0.20943664305322393,-0.75805328063427,0.28555379999999975,false
0.5068511143287763,0.20943951023931973,-0.7580351729729133,0.28555379999999975,false
0.49857011116011885,0.20650646349316937,-0.7710060977418838,0.29054067658176497,false
0.4985907605330795,0.20648581412020872,-0.7710060977418838,0.2905200272088043,false
0.30027091294893393,0.20943951023931937,-0.47036287952136124,0.22714348976068063,false
0.3002936270205923,0.20943951023931937,-0.47034331408023783,0.22714348976068063,false
0.30663788428933475,0.20943951023931934,-0.4649600801538833,0.22714348976068066,false
0.34423395839210746,0.2094203711758348,-0.43624881056583853,0.22716262882416519,false
0.3393889725775662,0.20927808635038928,-0.4410977462482082,0.22730491364961072,false
0.3444226583158128,0.20942116760377252,-0.43610773602663017,0.22716183239622748,false
0.3555319251351361,0.20943951023931973,-0.4282659962205524,0.22714348976068027,false
0.35554964450056337,0.20943951023931973,-0.42826599622055717,0.22714348976068105,false
0.3558901637094233,0.20943951023931973,-0.42826599622055717,0.22714348976068105,false
0.3552517630467371,0.20936848504974562,-0.4291541479736519,0.22721451495025438,false
0.22811466265360736,0.17141702,-0.8997321441996117,0.26516598,false
0.22808607819966698,0.17140815048795735,-0.8998448007029203,0.2651748495120426,false
0.24773918707989262,0.17141701999999998,-0.8817774787979571,0.26516598,false
0.24652140477151077,0.17115641426328645,-0.8853604426312061,0.2654265857367135,false
0.2345105829773452,0.17230141589724177,-0.9033179923531042,0.26652161511451555,false
0.23452364075755033,0.17220802329218687,-0.9033179923531041,0.26652161511451555,false
0.201510838938328,0.17113470408883574,-0.939277645708906,0.26544829591116426,false
0.12690085687007283,0.1806908733098216,-1.1018923088753763,0.2778320818046951,false
0.4963585083373752,0.2094021126586514,-0.7290312269620155,0.2867503,false
0.4963278940728267,0.2093962851762845,-0.7290679788590444,0.2867503,false
0.4962448833514602,0.20938053248293845,-0.7291673255970205,0.2867503,false
0.49341284487857645,0.2088425564114602,-0.7325601528829276,0.2867503,false
0.49284862678472086,0.2087352183313647,-0.7332370966844693,0.2867503,false
0.49276277040907074,0.20871887618160037,-0.7333401609183088,0.2867503,false
0.49242783764121845,0.2086537838771532,-0.733750675360009,0.2867503,false
0.4963585083373752,0.20646841948011818,-0.7475423534549259,0.2867503,false
0.5127196806763061,0.20943951023931973,-0.7658204506763062,0.2867503,false
0.5130380353993322,0.20943951023931973,-0.7658204506763062,0.2867503,false
0.3529227595757002,0.17802102872282133,-0.6861139009082854,0.24930807218546414,false
0.3529554133225363,0.17802102872282127,-0.6861139009082853,0.2493080721854642,false
0.012437575641738391,0.1773163,-0.15254957983634787,0.008549655478086282,false
0.5936244654489105,0.20054646512405672,0.4265044750060884,0.03300529824202936,false
0.5936244654489105,0.20647516186756554,0.4265044750060884,0.03300529824202947,false
0.5936244654489105,0.20943951023931953,0.4265044750060884,0.033005298242029135,false
0.5936244654489105,0.20943951023931953,0.4265044750060884,0.03299517463222279,false
0.5772250776061513,0.20647516186756532,0.36923867894743306,0.08070776052628337,false
0.5968667817491775,0.20943951023931953,0.4265044750060884,0.01521920801150306,false
0.2630627183369393,0.20943951023931973,-0.11419199190238044,0.16443178923292961,false
0.28375106757109386,0.20943951023931953,-0.5837732429687134,0.24287428976068046,false
0.24776232974415238,0.2094395102393204,-0.6206843136105473,0.2428742897606796,false
0.24125096423911263,0.20943951023932073,-0.6281395166900199,0.24287428976067993,false
0.24159407659575632,0.20943951023931953,-0.6281395166900314,0.24287428976068046,false
0.23856362251404833,0.20864598583291444,-0.6391559237713901,0.24366781416708555,false
0.1975051614134763,0.2090766167536469,-0.6946390018109975,0.2437776479340441,false
0.23982947448726402,0.2089196796282888,-0.6576386886589158,0.24704552293356685,false
