0.03916319501328769,-0.009130012914685542,true
0.039047383491051524,-0.00876401275567322,true
0.026871353106125206,-0.008453319958610511,true
-0.17768619184386147,0.007547299612749428,true
-0.12496939102753502,0.003910656541497345,true
-0.14580490485641695,0.004306516686368819,true
-0.12415751025076838,0.00200288733995016,true
-0.1516750998583445,0.004219829728390814,true
-0.1373747680603722,0.0026647096535406117,true
-0.13620774195313823,0.0030471647956642894,true
-0.08478090892443113,0.002087007524684756,true
-0.08540577395140336,0.0022203643848466015,true
-0.10967082596892241,0.0038960904984187833,true
-0.0870685347701351,0.0013660520626858352,true
-0.12378811819669,0.005560817387019454,true
-0.07836394056981844,0.000934358269661803,true
-0.21861086072852798,0.013271458380364698,true
-0.2818936715522684,0.01961693801638327,true
-0.26986937885320206,0.018189129223526973,true
-0.2761899259362134,0.018804943427266796,true
-0.24853280961919066,0.013208228261963481,true
-0.2857168912409507,0.016496521025751998,true
-0.2693945428883262,0.015562273089471501,true
-0.05597648696123558,-0.0015484139469398445,true
-0.046067866880045605,-0.0028156546621822126,true
-0.05870505432323059,-0.0016510161968105036,true
-0.1547437712879146,0.004932726893859596,true
-0.1542008820064017,0.004942767801231471,true
-0.16941303272417163,0.006448274513040864,true
-0.004896440637560007,-0.007211756723135301,true
-0.05592825407188129,-0.0030757113143549536,true
-0.017331014857075888,-0.005888413210445809,true
-0.048494246776875194,-0.0036627741335867603,true
-0.08702054083212785,0.004653638520200745,true
-0.104580086096979,0.006377053040118166,true
-0.09939655158257799,0.005935389244609568,true
-0.18118682424542243,0.01851722427452554,true
-0.15341488930507619,0.015458473758555538,true
-0.17871136571533008,0.019186334407545025,true
-0.17042517464908635,0.01839970914437776,true
-0.08833699424086427,0.007278165421700747,true
-0.11811883160567305,0.011478767244569837,true
-0.04263540442262137,8.29605897772201e-05,true
-0.05984597111385048,0.0028408091182156175,true
-0.07602366698910024,0.003948695854544951,true
-0.22721612648478462,0.01431282633397428,true
-0.1360029030033747,0.011430507474067167,true
-0.14086763816008652,0.012451945122675029,true
-0.1433874504564333,0.012883263444220111,true
-0.2531082022003497,0.020144774486066705,true
-0.18671355251295252,0.01308302742387335,true
-0.19898897521919356,0.014534761419885453,true
-0.1933854018822726,0.014174918562095351,true
-0.18885340596726508,0.016348561467967426,true
-0.17761595689880072,0.015163428479165353,true
-0.18457390147402286,0.01584750971951708,true
-0.16818569193002908,0.013937842190764313,true
-1.0558381382321285,0.14049710273820662,true
-0.10357500578890622,0.00992118111366648,true
-0.09390595225502785,0.008754490146343025,true
-0.27546741866472835,0.022684430891558485,true
-0.28138051284547716,0.023481367674271447,true
-0.2775182519506858,0.02280365192228409,true
-0.06015362789537115,0.0010132027939525473,true
0.024714956218592543,-0.007878313869690678,true
-0.013444157898744091,-0.004692872531909753,true
-0.1258290654389611,0.002226452241876925,true
-0.10291932287349281,0.0005332457805489049,true
-0.10534364079805447,-9.485671929482242e-05,true
-0.11354968929664633,0.0008467784959396429,true
-0.07701100742095368,0.003848779067295874,true
0.0012141132132524879,0.00014776131317907615,true
0.002421097604180522,-0.0004333167179674524,true
-0.21302827153012582,0.014259899884897911,true
-0.20325808297230474,0.014486511538691432,true
-0.20051196202765642,0.013707773007637647,true
-0.0670213230538741,0.0009660110131666094,true
-0.03404054769648035,-0.002245348112513701,true
-0.021817807650983623,-0.002885794424450361,true
-0.029581164261842652,-0.0026650027944483262,true
-0.0860079096940507,0.0038230968160838236,true
0.017036576805619874,-0.0020692004517369467,true
0.026535080894928065,-0.002292886267277583,true
-0.11113030337229546,0.00022237589203170927,true
-0.054851303982252575,-0.00392261550807349,true
-0.08423924352531209,-0.00067027918368745,true
-0.10037486363896764,0.004363898954284878,true
-0.054612011248867276,0.000226531268373395,true
-0.06713231859700719,0.0013761891465270543,true
-0.07473069471776428,0.0013896552425221448,true
-0.16380818327666957,0.016882187947619365,true
-0.1687490517976752,0.017248278811169027,true
-0.17078058384578343,0.017769131148523784,true
-0.16446966913269478,0.016990899613736732,true
-0.0361641236467094,0.00043783614391505743,true
-0.06628240989160716,0.0026989241761262994,true
-0.059977357858169156,0.0021197260802386653,true
-0.16491436781107405,0.00830208717018377,true
-0.1866476696198407,0.010221586254186413,true
-0.15612531176481692,0.008262284204603537,true
-0.20454318092175494,0.011958413824138897,true
-0.16219723712320433,0.016634281392174793,true
-0.16245154762651515,0.01647058673133353,true
-0.1454236154697932,0.01357547409380834,true
-0.04209989700416439,-0.00044641304693582295,true
0.0012930984934300671,-0.0035899637216061098,true
-0.0035685839589130186,-0.002884290255109584,true
-0.04955166910918618,0.0015740428445898402,true
-0.08444816114862963,0.0038925379391217957,true
-0.06897987826504393,0.0033446233130954295,true
-0.18408948598414399,0.02003874966707886,true
-0.16923975771856647,0.017929341923572845,true
-0.15692810442913063,0.016840180226700183,true
-0.18490114356261222,0.01958434046820974,true
-0.024706958276766056,0.001595210972925254,true
-0.035144778459129,0.002902885250645193,true
-0.04096168391687671,0.003041214532742309,true
-0.04059440263326364,0.0015622932768356995,true
0.020568485259101044,-0.0005375325139043152,true
0.003835708620814504,-0.00011363677557764407,true
-0.1755578317068054,0.009130984800414646,true
-0.23759597364530505,0.013335313923828432,true
-0.04481206561541873,-0.00048315726427716754,true
-0.17150929025013584,0.008367704519534364,true
-0.25147051109605156,0.01783185036757233,true
-0.2559111531797085,0.019107647641338002,true
-0.2324521519261511,0.016730678014804268,true
-0.24672738597506383,0.01802012183972186,true
0.07072451365326793,-0.006629587801196102,true
0.07466441988267114,-0.007432752322945782,true
0.055113542278917516,-0.005370966677279515,true
-0.07918252437651252,-0.0015441988195326328,true
-0.05799784149414844,-0.0023580538528200495,true
-0.06154599544356154,-0.0021370409423004666,true
-0.07013580384828355,-0.0018438390474280336,true
-0.2576674403847017,0.012568701756761377,true
-0.2843870028774409,0.016873082131855746,true
-0.29794305183156,0.018265815201787508,true
-0.28227658162741487,0.016787795394309163,true
-0.2625564580716917,0.02156961445606692,true
-0.21082467277305528,0.015363153897116191,true
-0.22527257622794983,0.017120230331810607,true
-0.2118339541508074,0.01616566214747575,true
-0.09516784989399041,0.007522790408766869,true
-0.10582409046347796,0.010469427231620601,true
-0.10773189420995366,0.009987358494027612,true
-0.10526235040037413,0.010789784259169682,true
-0.2876983912499138,0.02147307701691445,true
-0.2416811147589627,0.016366423400734298,true
-0.24976243200055226,0.017479348787414514,true
-0.11690964330465137,0.0007713492302497543,true
-0.024169509610395434,-0.0050818696596240664,true
-0.02545367534254972,-0.005647204006926088,true
-0.03244979801399617,-0.004031470102798335,true
-0.21142149847366543,0.019806322485405745,true
-1.7587071386125552,0.20948248408582815,true
-0.19977478688056316,0.020446367991151557,true
-0.19026185598094636,0.01995020358360243,true
-0.19833587293776644,0.019876056341299728,true
-0.21911171827466913,0.02225615944327064,true
-0.21176910189457399,0.022479005285414258,true
-0.07486131668302831,0.0017517884490782093,true
-0.09752594294706152,0.0046389633745896885,true
-0.09475715587507083,0.004858123195078529,true
-0.1714459698892834,0.0170877173786476,true
-0.17146920754842765,0.01754181480737106,true
-0.17221783472731156,0.017175483265992872,true
-0.15254728014900132,0.015138886188760012,true
-0.25721860257424,0.021105912352606365,true
-0.23109494323910884,0.0189682402491943,true
-0.21422194433135955,0.016602926910849636,true
-0.22490598244978588,0.01826600989876917,true
-0.1269465269968557,0.0043716857751979615,true
-0.11220943672798622,0.003226859176800656,true
-0.12434596202943293,0.004500269097269902,true
-0.19588495524180694,0.017140436141192067,true
-0.20358545297375685,0.018579751819391824,true
-0.19270080644588194,0.017591243713638544,true
-0.24261142372476208,0.014245528350592715,true
-0.21254046975061636,0.011690719416266926,true
-0.1628927223485821,0.00852747192417172,true
-0.19875482181299486,0.010896027390906754,true
-0.022212218643607118,-0.0019758090886386886,true
-0.05391532011396638,0.001678725068716469,true
-0.04105968910127489,0.0011398731124991485,true
-0.15767549554600135,0.014908994015471105,true
-0.12210471874542872,0.010973632146936668,true
-0.1341836020785978,0.014740478818000391,true
-2.146989680408179,0.23277172132889662,true
-0.1322800006634972,0.012270207656898457,true
-0.10595038704537685,0.009966809879756552,true
-0.1317827521281867,0.013820951619676586,true
-0.25452517549290077,0.01430516916157401,true
-0.24122215767187782,0.012232959214417055,true
-0.1967577232590676,0.009358078582059143,true
-0.2354836959586306,0.02022257712865036,true
-1.6621399266936059,0.1920493200822363,true
-0.21783699484971497,0.018651872645993717,true
-0.20826239296341997,0.01783495879153614,true
-2.0755784865058833,0.22094882162573604,true
-1.8317654363556561,0.20532328562775937,true
-0.18247202492477888,0.016590491198390733,true
-0.05471254614208054,0.004609110897841551,true
-0.05893928513183333,0.0041685257885479,true
-0.0672798187839092,0.006262144079925661,true
-0.14284910203835643,0.011451344774694547,true
-0.14434979297898076,0.011571079414112215,true
-0.19206601315456373,0.01702355045957611,true
-0.1935789735868526,0.01765908493620194,true
-0.24380704773406947,0.011799210902749963,true
-0.2393039489242086,0.0133574729227416,true
-0.2264943116636532,0.012392720722355283,true
-0.22824670964828864,0.01304695408474417,true
-0.1205962215115588,0.010235119574635188,true
-0.1150680689372513,0.009361218626813925,true
-0.11809475340358333,0.00962117265964256,true
-0.047695851182744775,-0.002096485566553591,true
0.025440425465460548,-0.005988664778554684,true
0.01793920821835815,-0.004762743446790327,true
-0.015608765652753265,-0.0017440708807838906,true
-0.1726074726624871,0.016029197722407643,true
-0.1303157442046179,0.010975544058006562,true
-0.1672683083210953,0.01567371020517165,true
-0.16426750820286917,0.015777570925350523,true
-0.09184665423655591,-0.0005796590173498956,true
-0.06489680578494472,-0.00016977672075162153,true
-0.05860258017093145,-0.0012687301143859409,true
-0.18962549207997004,0.01346257658180823,true
-0.15209927836456483,0.008972782897706102,true
-0.16357440521495414,0.01072579055588474,true
-0.14055829419972554,0.00572990250874493,true
-0.16634650402273188,0.00879030359111864,true
-0.16225304118864825,0.007782933850512791,true
-0.17038566098669394,0.009036142310750117,true
-0.17162687566121793,0.009885744302856145,true
-0.14552185834060005,0.006895291671180193,true
-0.2515261432668513,0.014208321446558606,true
-0.11611707049152087,0.0049657017013571975,true
-0.11540562080113226,0.0051160334373061556,true
-0.12685825433647346,0.0066759125567482785,true
-0.16596092621999514,0.015566640073128787,true
-0.16476133514344704,0.015714980951954102,true
-0.182470265300139,0.018104890165149143,true
-0.0421507121491963,-0.002808074043431183,true
-0.15243668929749044,0.006951080642491711,true
-0.1359962613310004,0.005999347446131967,true
-0.15134402852342954,0.007154639736116533,true
-0.12340910817235029,0.0040380697864214055,true
-0.12234147618991909,0.0047928564743399404,true
-0.10884540906770912,0.003708060751674805,true
-0.1072946531976573,0.004606550457695452,true
-0.1219486115358579,0.005695324907131358,true
-0.12851969247092598,0.0065997411982383625,true
-0.023593589993777364,-0.0017763098443987074,true
-0.058813828717419026,0.0004086383453671266,true
0.02323409370152496,-0.004923949894064333,true
-0.16622853827458473,0.016874709395953674,true
-0.1663111312085911,0.017513654442549542,true
-0.16964824592224592,0.01763823586898608,true
-0.18352129363211267,0.018960228224807127,true
-0.21428775308318393,0.015631283191012507,true
-0.22341944316025064,0.017501867390963224,true
-0.10719932579532232,0.00036285937708750715,true
-0.15294014533185174,0.004791638860740563,true
-0.12609095967035933,0.003376222794080036,true
-0.26875206833805243,0.01284804686431286,true
-0.2925634152771712,0.015413106461810974,true
-0.24346642687854536,0.01156134582109515,true
-0.24194529514237684,0.011325431594794919,true
-0.15184424068660518,0.006355276254174952,true
-0.1245654078510654,0.0046409140986834185,true
-0.1165160605608977,0.0042726854152371485,true
-0.10784116260167154,0.0012442417825218322,true
-0.13146969459871283,0.0036358959289349846,true
-0.14088646848352693,0.004718593616432953,true
-0.10099081042242153,0.002385918627633113,true
-0.22644346432686713,0.0188241477316112,true
-0.23855082504949676,0.021413116244939745,true
-0.21653053826929614,0.019316142780583467,true
-0.1715584784387738,0.011931123553323722,true
-0.1740819351596421,0.013339284340537355,true
-0.18125729801809376,0.014315740673756516,true
-0.16767065235318568,0.013084063968604676,true
-0.24071926788287334,0.014440488607324276,true
-0.18273696525443772,0.010827120280720443,true
-0.13887192993269215,0.007678041716356235,true
-0.21252892020805092,0.01306085345948911,true
-1.027906348420516,0.123069946346904,true
-1.0360546245852924,0.12291873699997975,true
-1.0397206340230258,0.12348573656095936,true
-0.24972159437555375,0.01972576710510822,true
-0.23661613686174787,0.018205787598445988,true
-0.23365184361551616,0.017775393883607937,true
-0.2282793429508314,0.01735752103796942,true
-0.20494493511487955,0.015069772745217286,true
0.02348042649119697,-0.0023341526062903295,true
-0.014003968942948974,0.0017082484465373304,true
0.03565386418733252,-0.0019151747334932162,true
-0.17870788773673407,0.009972060753823564,true
-0.2873691610090663,0.01754168552117187,true
-0.15353125469399087,0.006827934645102368,true
-0.09582114672846131,0.005470874368386877,true
-0.08433143632005202,0.0028246001213580174,true
-0.08848393452665149,0.004058617935329231,true
-0.11310664689345495,0.006279765579990715,true
-0.1390465221704389,0.010701475154865636,true
-0.18149028053884453,0.013426543883032757,true
-0.20055824368285013,0.014445141232188097,true
-0.10372808992966842,0.008794673422357027,true
-0.07508643183283348,0.0067454176169805535,true
-0.18996895480057963,0.014049789656162673,true
-0.27223695382644486,0.024889502432848584,true
-0.2617338606643531,0.023629544252330756,true
-0.2739041316818738,0.025109795755012987,true
-0.14376201405830846,0.013396162364330153,true
-0.1500846260140991,0.014213381267519906,true
-0.19906648437402552,0.015013690854707037,true
-0.08668562748828257,0.006945108974078254,true
-0.12066774487888399,0.009304917256120634,true
-0.09742215974169666,0.00345046374762345,true
-0.08239902340555028,0.0038254746055266103,true
-0.0649578762785541,0.003115233410315832,true
-0.2739911970250519,0.021644983911112026,true
-0.2555159418067441,0.020300023139666473,true
-0.21915521221622924,0.015294117642147428,true
-0.24412106419826296,0.019409261211723178,true
-0.2362414503951662,0.018534471753377274,true
-0.25100235180988983,0.020222297834685876,true
-0.3614683975707895,0.023889481935565088,true
-0.324229163994467,0.021225179952780435,true
-0.08871873461322188,0.005025926745736348,true
-0.12741559021280424,0.009671377930585312,true
-0.1531136574434957,0.011346493612389486,true
-0.13364865597580078,0.0015835573892817034,true
-0.11806891754216453,-7.909181729580383e-05,true
-0.11315011313504209,0.0003021181770667819,true
-0.0865644470413327,-0.0006213018179158786,true
-0.06563480239181119,-0.0020364682578023763,true
-0.07236151197685015,-0.000667416499274251,true
-0.7766465281530399,0.07949860860010693,true
-0.8896200882188956,0.09353228732349964,true
-0.9228851441069577,0.09719411494423144,true
-0.9001371984477753,0.09418990458958378,true
-0.891540849835244,0.09449253431121013,true
-0.12513563133967343,0.004021773828270903,true
-0.10898639219711881,0.0029986889056208277,true
-0.15372120287042446,0.006550291861975963,true
-0.229358400461527,0.019020350884785,true
-2.312581500368128,0.2379148065067519,true
-1.9995794127389885,0.21396662201003724,true
-2.490803227510036,0.2520776994008921,true
-0.1944545223430536,0.01673714701674346,true
-0.1962979682489261,0.017268454702714486,true
-0.20203954942541746,0.01774647909613286,true
-0.027934807786770932,0.0012196337603291307,true
-0.358515412533009,0.05186775761386843,true
-0.36302353393780407,0.0515146549298319,true
-0.3693082823379208,0.05313059799713363,true
-0.0183199822515403,-0.003315176859901847,true
0.021997482513888444,-0.004910828695959879,true
0.014450150451332577,-0.004146507618500508,true
0.02129539742199582,-0.004265343419326939,true
-0.2087736444482744,0.013257256427125289,true
-0.18233217506769783,0.010539300338292326,true
-0.2535835166943936,0.016361467435346166,true
-0.28009227165833517,0.017530014420579318,true
-0.2357114311435453,0.0167764636286383,true
-0.2259522820854607,0.016127729354271883,true
-0.23061936452943388,0.016641959817777344,true
-0.23340576544602754,0.018102453785099087,true
-0.1571308080593239,0.0053571786376513525,true
-0.10792255530418005,0.002207163954857025,true
-0.13156681634824574,0.003911837814974117,true
-0.14379544331975902,0.004208379267931189,true
0.04558932443190655,-0.007969452111246007,true
0.02632524429697236,-0.006752593668613999,true
0.008270251856673516,-0.004872095552633002,true
-0.24323466219869472,0.02150236015341158,true
-0.23758868742691885,0.0204944307426793,true
-0.23334121121247553,0.02003403981609217,true
-0.22241613411696837,0.018703994758648583,true
-0.27474693825755026,0.020305316327499816,true
-0.2536585756908043,0.018632967742774446,true
-0.2506532379055513,0.01820575293092227,true
-0.23926174930521782,0.016900092097656645,true
0.10478116665031556,-0.012483776244544088,true
0.0646534745435523,-0.011155884033222943,true
-0.006873637970061353,-0.004961734725911278,true
-0.1638990534219611,0.011168754443135698,true
-0.17410853955462535,0.012650191320898362,true
-0.17756318039394392,0.012844763541583919,true
-0.1664247649277002,0.011492221716748338,true
-0.05139861934244516,0.002580645855460896,true
-0.03905246833258147,0.0018869676286506695,true
-0.04461747999669918,0.0028176695148741313,true
-0.1925077407575735,0.020187058689933868,true
-0.19896237502235437,0.021555445392770198,true
-0.19632458460633107,0.02136548391780848,true
-0.1992241799252059,0.0226205377600934,true
-0.2828556693478035,0.017704090906759312,true
-0.22116796544090578,0.015216700261556429,true
-0.28708475247877274,0.019457815687102933,true
-0.27253493812198903,0.017523793032338142,true
-0.21489612652116175,0.0187842243742046,true
-0.2441168570336485,0.02206184774826654,true
-0.25456452006853514,0.023643498236129996,true
-0.035740483306357484,0.0016881817989067363,true
-0.05946105185437833,0.007862841584388033,true
-0.061621392933671526,0.007948005297215559,true
0.11552134833117433,-0.013279401100514308,true
0.10931953373453673,-0.010471335767683401,true
0.10959707106979688,-0.010631159408400988,true
-0.23811989852013338,0.02003119290912591,true
-0.2021384088076732,0.017305408348910485,true
-0.1933540312247488,0.01645732330674405,true
-0.19708085304582568,0.016846122730602292,true
-0.03109606472322568,0.005722790622038544,true
-0.04725802714362004,0.006386918239465064,true
-0.07169093531744708,0.008789441270991759,true
-0.2209316720486385,0.018853593252314886,true
-0.762082107610264,0.07664966380000399,true
-0.7872975479028901,0.08032369921672514,true
-0.22499524092535617,0.02060190737994183,true
-0.2908101320397476,0.017708461282525734,true
-0.16795178491569884,0.008175559481875629,true
-0.17510358500318146,0.008600541839540739,true
-0.1919481417884028,0.007662292185423664,true
-0.15355724213676392,0.007045221492769808,true
-0.1618634001599506,0.007131254799464221,true
-0.19604332607909147,0.010006498561682932,true
-0.20562086165910576,0.01269842650652285,true
-0.24537542238688248,0.015129717677582012,true
-0.2623214655484216,0.016181232077779974,true
-0.19527825030780455,0.01031603251701952,true
-0.1603331903995704,0.008378904976892643,true
-0.24795450350460202,0.015459522001676149,true
-0.24313115889041614,0.015252442524235195,true
-0.9427528199789132,0.10677515035546953,true
-0.9494143131214194,0.1071176694420022,true
-0.965250604063767,0.10165641340019196,true
-0.7902800778785564,0.07966059533165179,true
-0.7645175272072797,0.07805303254569784,true
-0.7697462850021235,0.0788121717973519,true
-0.23487737609378834,0.01067155565501439,true
-0.10182487314977617,0.007834545799348204,true
-0.11172547051067105,0.006814915221347834,true
-0.11237744249997483,0.008413746039660129,true
-0.16550678360756388,0.009173921162735181,true
-0.10183411128226472,0.005518100761753832,true
-0.16295300299839044,0.009862948010491403,true
-0.12034731096739515,0.006819814546208787,true
-0.11877065686765143,0.005025252254222852,true
-0.04038248713736625,-0.003038692037269017,true
-0.16893488503096565,0.0072430888594331305,true
-0.1913564593249999,0.008463849068579374,true
-0.1816042637412767,0.007508246846352505,true
-0.2000332217745785,0.009088494428445199,true
-0.24244254114595276,0.020418475917693885,true
-0.21705924906586038,0.0173014625892182,true
-0.22896188458897448,0.01884918800452815,true
-0.27064930553213196,0.019439476656030907,true
-0.20713923086589014,0.012503503621759768,true
-0.20811715307047074,0.012781120535990308,true
-0.23572265183336838,0.01693840394119736,true
-1.8955628823227544,0.22334620683224504,true
-0.22663033720022274,0.0225158016478314,true
-0.22804859038917735,0.023821854776854293,true
-0.23023445191002512,0.023614580776843218,true
-0.25316899304862417,0.01697288035280424,true
-0.249014952171569,0.015882901442573774,true
-0.2489595263635208,0.016219988192433393,true
-0.24111006557051107,0.015277853906914177,true
-0.31898605116937107,0.021194845036355617,true
-0.3138608755058997,0.020691525338630612,true
-0.2984717372631268,0.019319101594937556,true
-0.23117956877769508,0.020444975697224338,true
-0.2108301629487519,0.017509840794337587,true
-0.22752343853509394,0.01978892471501415,true
-0.1383492048605962,-0.019812273433431685,true
0.1079388198367911,-0.013765577366385687,true
0.1158536745228006,-0.01433077082712593,true
0.06637611205044858,-0.005859714924504808,true
0.10154186360097883,-0.008412136540747447,true
0.1401031599387197,-0.011430105322822876,true
-0.05507788150740223,-0.003642194173897703,true
-0.057377887580053244,-0.0023027313104991703,true
-0.08038604798490911,-0.0005213641436605382,true
-0.11373901136542608,0.01124734663071239,true
-0.08212495726903957,0.007149476542066047,true
-0.103476992637618,0.010428599073714961,true
-0.12870169159079348,0.014090305172450815,true
-0.05799087402502667,0.0017108468670078425,true
-0.05693219637255598,0.002779108720341955,true
-0.0640566766015429,0.0039650227635089075,true
-0.14107247459418726,0.00979229050081988,true
-0.15492694012588437,0.012750886920058616,true
-0.3303341327832332,0.04362365393372744,true
0.149779838382196,-0.015470785011787808,true
0.08943578291116028,-0.009551274540002638,true
-0.22049935930829334,0.02098103965606997,true
-0.20966440324646352,0.01994191305684692,true
-0.2116641668451552,0.020541462429573762,true
-0.1386769038877369,0.011243052591537905,true
-0.15768831395275862,0.014074547166565726,true
-0.1413127930261482,0.011865590756325678,true
-0.1403920872858052,0.01457526893002338,true
-0.12747937866282555,0.013474225173164572,true
-0.14424783702865396,0.016475852620970663,true
-0.330983600416086,0.020630760342516243,true
-0.202335277879913,0.011194728638141624,true
-0.0901849396157186,-0.0020964016769125793,true
-0.05901247360533035,-0.003548437915456254,true
-0.06499899094709827,-0.0025507001184286796,true
-0.08037381296202284,-0.0022391115826447677,true
-0.29901846315614233,0.01842479998711829,true
-0.3339634726376641,0.020479225365870997,true
-0.20170193067586872,0.010603068666212405,true
-0.05997844625837101,0.0009505732671907449,true
-0.05841721963798863,0.0015193928760288133,true
-0.02441398502837777,-0.00205828373437833,true
-0.23158236388448095,0.016921839015086225,true
-0.2311303831344489,0.017994164912410966,true
-0.05260189513185698,0.002651537115926403,true
-0.08968851355945962,0.006626324430693199,true
-0.04952483287323117,0.0020703451811243667,true
-0.06915696744088806,0.0026906265892645553,true
-0.06303063106381046,0.0030277341744586878,true
-0.06820708865460356,0.002488915490695104,true
-0.06330441832037104,0.0023374202598384977,true
-0.26575901161775395,0.01708223144611032,true
-0.2120238706969806,0.01299282164830061,true
-0.2480446433727881,0.015186808500304232,true
-0.02842155691537296,-0.002705089357273066,true
0.008352440520158488,-0.004527051919589707,true
-0.008163785101645837,-0.0033010758326473544,true
0.002822898562450993,-0.004974279394125945,true
-0.053747972341175565,0.0007313585734369868,true
-0.03689337935251391,-0.0010078889504267913,true
-0.017452412478162982,-0.002397580009700029,true
0.051195604726806176,-0.007697963688980604,true
0.0873519233851825,-0.010250189255268265,true
-0.2704566922115237,0.016303279698538765,true
-0.2560159267676375,0.016684457472790973,true
-0.2535377191800079,0.016489622853750115,true
-0.2642219709919573,0.016767407087112968,true
-0.0013162866352848246,-0.003453769074236404,true
0.056900288294978396,-0.007164924407871295,true
0.07198261674904927,-0.008006444734583222,true
-0.158985703458684,0.008799325430250506,true
-0.13466263302761206,0.00826740859153035,true
-0.06728908275886492,0.0033872986955393106,true
-0.07181701011376829,0.0005772074861585749,true
-0.07687392843013163,0.0010403183496541235,true
-0.06804116522582837,0.0002582868084833323,true
-0.07754914711456218,0.0016422860255059651,true
-0.07787458293907146,0.0018506309665482917,true
-0.19975590027606582,0.010211150053993971,true
-0.1779210077814063,0.009497190746009632,true
-0.21370571247926895,0.011891049200493248,true
-0.1794887480833447,0.01158925492107512,true
-0.21274048170008497,0.015370249855985112,true
-0.16556402999729103,0.00377665813379844,true
-0.13182175695741727,0.002810362532885434,true
-0.1445292259821387,0.004299288367481967,true
-0.23906108721271146,0.01836338245825804,true
-0.22996143619791087,0.018266013893826177,true
-0.24420609121135772,0.02007982880798556,true
-0.11370669920434562,0.00520668897202857,true
-0.14999793616462376,0.008652569846525265,true
-0.10884838881030523,0.0030278470310130395,true
-0.26148657617407534,0.015360596809925423,true
-0.04677383798001944,-0.005722571219291657,true
-0.026499162324141512,-0.006890330831553937,true
-0.12458841941045218,0.008207443838586868,true
-0.1419421435490218,0.009360901763488992,true
-0.11499485929644149,0.007589659277007249,true
-0.2451978911918462,0.01516811517494105,true
-0.2087738535744389,0.013625664539329486,true
-0.1923676099669137,0.012396453766795663,true
-0.06257674997899998,0.003726270704845304,true
-0.049215179834531386,-0.001178968359405716,true
-0.006598176421589663,-0.005130502219599216,true
-0.03632236927177046,-0.0026430923404876655,true
-0.23247258882992494,0.012311734054699645,true
-0.23005975209572782,0.013522037011037213,true
-0.23120419907026912,0.013440643449994294,true
-0.22750199704708196,0.013170334315746948,true
-0.2111870537760424,0.011971793884470408,true
-0.20113836567444476,0.01184798276331956,true
-0.2151651406031989,0.012408036581876544,true
-0.05292575450000214,0.002573925813367392,true
-0.06817696398513262,0.003619670780140777,true
-0.021180616029837118,0.00016678215191995305,true
-0.06313704401748532,-0.00015284892929902372,true
-0.051700762428325664,-0.0008734690605221862,true
-0.06858135501865148,3.5322329599934976e-05,true
-0.04549973106850158,0.0014167463432772365,true
-0.005771323549929153,-0.002324188624191398,true
-0.021664594420192196,-0.00027649392213632135,true
0.13218235389586241,-0.012885915235411237,true
-0.04472484956439482,0.0009792916929363404,true
-0.047847510094769063,0.0010143467025051506,true
-0.061461023870504894,0.002469416667264454,true
0.03603247586369751,-0.0038405442990304545,true
-0.025437419994571386,0.0009970247656435893,true
-0.03947406772242312,0.002222855939950877,true
-0.026407954747095452,0.0011099469980303672,true
-0.17542618531746235,0.013003527252670663,true
-0.21337397909943545,0.017452325100092314,true
-1.7582862548813845,0.19993065765806517,true
-0.01880620239134012,0.001179801047566792,true
-0.03712861005440993,0.0028728260963572644,true
-0.09862908545459992,0.0062334677295898255,true
-0.10918849769193328,0.008145230907814147,true
-0.1087964022909168,0.008472455649310859,true
-0.11521968081954925,0.008512159983750614,true
-0.05147934872501114,0.0005499707006175886,true
-0.04085402792875936,0.0010723540440961687,true
-0.033638377408066855,0.0013649386447629475,true
-0.09298503716531248,0.004476948750710322,true
-0.06503758041157881,0.0024227020328199123,true
-0.06475539324433754,0.002419254901496068,true
-0.13555045802102583,0.012609611012896246,true
-0.09627120198634675,0.008784225854105474,true
-0.10297485607075496,0.010261886455432856,true
-0.08902415472737701,0.009353464594960462,true
0.05027527855108638,-0.006505501813019815,true
-0.015341897951473227,0.0008066216659650821,true
0.003717923487805752,-0.0003598459864553316,true
-0.18576737318657,0.019528658717777758,true
-0.19811961706380332,0.021069381074694513,true
-0.18368443158197678,0.01948011026538901,true
-0.07845206399646276,0.002890021249568775,true
-0.07173992348406522,0.0028084003469776714,true
-0.1037969394242203,0.005837587122730803,true
-0.23005251844024655,0.02200514486771206,true
-1.8157569462517604,0.21040068681930565,true
-0.20655262138166264,0.02156141545482934,true
-0.04046763637681605,0.0006542929075176868,true
0.01343117139009209,-0.0030150615854696305,true
-0.01164854797315773,-0.0009725815106730318,true
0.007420291224279563,-0.002383549786181924,true
-0.06264601660094116,0.004778117802150858,true
-0.078857772138896,0.007790273359086719,true
-0.07580722095260828,0.007022848728829592,true
-0.08675206671235713,0.00853538096108307,true
-0.028726377408063386,0.0031080776979943714,true
-0.019906846926259658,0.0015831480040493368,true
-0.055583402750224775,0.0038011527778072235,true
-0.16925847364257884,0.005761127011255182,true
-0.191074703329412,0.007682932730253958,true
-0.1798271714618196,0.006965811453726725,true
-0.17595715882257423,0.006946777227257825,true
-0.24064334468884763,0.02072501612249264,true
-0.23591142119169195,0.02044417694360147,true
-0.23991601250587002,0.02184156071074414,true
-0.03678781524120178,-0.0015129717777968427,true
0.020710293095064558,-0.006636975167378309,true
0.027223466305362543,-0.006946533144952707,true
0.03350256637290261,-0.007330224897009852,true
-0.02229086481395748,0.0019815200168954855,true
-0.003841510863900832,0.002575710054201416,true
-0.003171772996156008,0.0020512018447240293,true
-0.09733857055461415,0.006159764423166431,true
-1.10748408390158,0.12830454940944458,true
-1.082245807228548,0.12742099300287568,true
-1.0853788991704563,0.1268025924178839,true
-0.018364445521866335,-0.09617024715159542,false
-0.01842347694275248,-0.09616997709553937,false
-0.018364445521866335,-0.09618546080297699,false
-0.018364445521866335,-0.09624013956043198,false
-0.022233274422925997,-0.09624013956043198,false
0.00027652723870019713,-0.09937350835781111,false
-0.018364445521866335,-0.09937350835781111,false
-0.038025628200948236,-0.09624013956043204,false
-0.018364445521866335,-0.11190698354832351,false
-0.038025628200948236,-0.10877361474670309,false
-0.2635027120897342,-0.056991120000000395,false
-0.2732044611157528,-0.055135339388023,false
-0.2738705020237278,-0.056991120000000395,false
-0.2748039064538487,-0.05518931804011479,false
-0.27458340382627966,-0.056782088045106816,false
-0.283489016159032,-0.056991120000000395,false
-0.3842630725417727,-0.04610623880236636,false
-0.9267647546788815,-0.056991120000000395,false
-0.9562711151744885,-0.05226314911430896,false
-0.9758351247365825,-0.046106238802366306,false
-0.42943387664651655,-0.03043939481547081,false
-0.43948016879626894,-0.03195926000000049,false
-0.4394933572564189,-0.03195926000000049,false
-0.46845001981525597,-0.03144891089822467,false
-0.4879540231554892,-0.03043939481547092,false
-0.49148184045760773,-0.03195926000000049,false
-0.500943664231075,-0.03043939481547092,false
-0.6634369821555874,-0.02103928842333358,false
-1.0503387376264524,-0.03195926000000049,false
-1.2901326132850068,-0.002239075639058938,false
-1.2317133334841497,0.09593733348414979,false
-1.2888077596643723,0.09590511999999962,false
-1.3788699421566024,0.11018068499481237,false
-2.02572679609816,0.09590511999999962,false
-2.0279203001323545,0.09590511999999962,false
-0.4956872523246083,-0.019425780000000385,false
-0.49586869532214845,-0.019425780000000385,false
-0.4979963528659541,-0.019425780000000392,false
-0.5025084286491587,-0.019425780000000392,false
-0.5074558256330748,-0.017905919625954447,false
-0.5171113554010831,-0.019425780000000392,false
-0.5269558104993639,-0.017900967446924265,false
-0.6634369821555874,0.004032614134729481,false
-0.8804299781454226,0.04134114,false
-0.8806493589607781,0.04134114,false
-0.8857172165809603,0.04134114,false
-0.8861909407859945,0.04134114,false
-0.8863704206611502,0.04134114,false
-0.8867864935992406,0.04134114,false
-0.9005603022481441,0.04134114,false
-0.9398504794174116,0.04134114,false
-1.0263872743242888,0.05506135135965076,false
-1.3545546922634684,0.11754969999999965,false
-1.370138811664094,0.11754969999999965,false
-1.372125351449821,0.12039272680672572,false
-1.372291358599366,0.12039272680672528,false
-1.3725084426496519,0.12039272680672528,false
-1.3849774002026938,0.11754969999999965,false
-1.3848850148557403,0.12265569999999948,false
-1.3848850148557403,0.12270331698233622,false
-1.3852483393519652,0.12265569999999948,false
-1.3945152031963446,0.12265569999999948,false
-1.403506379034023,0.12439572401950963,false
-1.515544013374902,0.1308342060203129,false
-1.582239737070014,0.12265569999999948,false
-1.5835758657052181,0.12265569999999948,false
-0.8742922122250513,0.04134113999999944,false
-1.6090884868872748,0.1451164230669677,false
-1.6260876108483586,0.12419638915164156,false
-1.6279074391073993,0.1480619739308895,false
-1.7601730957283843,0.12750448184995045,false
-1.7747256970230971,0.12381099999999967,false
-1.8171636553762003,0.13038866874735922,false
-1.9272820323196003,0.12381099999999967,false
-1.9701306527132583,0.13038866874735888,false
-2.554941727760134,0.12381099999999967,false
-2.579797628404548,0.12744311788343698,false
-1.1180062964851523,0.07935887999999999,false
-1.1180217852745804,0.07935887999999999,false
-1.118053871294752,0.07935887999999999,false
-1.120283157295861,0.07935887999999999,false
-1.1378697466891148,0.08139563768677827,false
-1.693058762214703,0.17105569999999948,false
-1.694833612788187,0.17105569999999948,false
-1.705653609301874,0.17107690318119223,false
-1.8996839109209087,0.17105569999999948,false
-1.9712607132794924,0.1767380317018185,false
-2.561062217678834,0.17105569999999948,false
-2.5614897766228353,0.17105569999999948,false
-1.7854571448936283,0.18539369999999966,false
-1.7863928063664312,0.18539369999999966,false
-1.805642320687158,0.18539369999999966,false
-1.8069937193893684,0.18539369999999966,false
-1.815972324015101,0.18539369999999966,false
-1.8161851249599286,0.18539369999999966,false
-1.8384811760569968,0.18539369999999966,false
-1.8409575656982344,0.18539370000005906,false
-1.855545094400184,0.18539369999999966,false
-1.8765428115915936,0.18539369999999966,false
-1.0351940672110527,0.06685551,false
-1.0423366658218443,0.06799788453469678,false
-1.8592569908694614,0.18972149999999965,false
-2.5514817276619883,0.18972149999999965,false
-1.8438248251173972,0.19188539999999987,false
-1.8500267679731275,0.19188539999999987,false
-1.8816703906628494,0.19188630790888156,false
-1.9205846154986435,0.19188539999999987,false
-1.9232857802028498,0.19188539999999987,false
-1.9277950541560562,0.19188539999999987,false
-1.9605087959912348,0.1967692786263311,false
-1.8339651668613097,0.1929678,false
-1.8657001077908526,0.1929678,false
-1.8659041936991807,0.1929678,false
-1.8907190525788513,0.1929678,false
-1.8993914482195358,0.19430414545262192,false
-1.937362905498917,0.19430414545262192,false
-1.9754298136521942,0.19430414545262192,false
-1.9857729883671076,0.1929678,false
-1.994499987948064,0.19430414545262192,false
-2.4317538415567874,0.1929678,false
-1.8750068585628097,0.1993499999999997,false
-1.8994291223964215,0.1993499999999997,false
-1.901307384488109,0.19963939393859048,false
-1.8859036531612392,0.200785,false
-1.8869052499513317,0.200785,false
-1.8878349493461184,0.200785,false
-1.892092002594437,0.200785,false
-1.8924249714935044,0.200785,false
-1.9013443148228077,0.2026101992888033,false
-1.9089463314235644,0.20078500000000002,false
-1.9131425292343334,0.20496669999999972,false
-1.917227287722385,0.20496669999999972,false
-1.9187249887869682,0.20496669999999972,false
-1.9367074547583591,0.20496669999999972,false
-1.9367774535204965,0.20496669999999972,false
-1.9188645184798823,0.2061449999999998,false
-1.944539495456299,0.2061449999999998,false
-1.9448688846318514,0.2061449999999998,false
-1.945314333922994,0.2061449999999998,false
-1.9599860366785455,0.20839691681412917,false
-1.9640540611997888,0.2061449999999998,false
-1.9640836760609903,0.2061449999999998,false
-1.9464139181613542,0.20993969999999984,false
-1.946424541266434,0.20993969999999984,false
-1.9564826635633623,0.20993969999999984,false
-1.9600534794102775,0.2114153003394203,false
-1.9713570738737978,0.21117019999999975,false
-1.9779856673449627,0.21117019999999975,false
-1.9780557247959463,0.21117019999999975,false
-1.8141724911361248,0.1897215,false
-1.8141892524679095,0.1897215,false
-1.815877288542875,0.1897215,false
-1.073696391005485,0.07332378,false
-1.0749813562960358,0.07332378,false
-1.0768200084486292,0.07332378,false
-1.9752443054364672,0.21369099999999985,false
-1.9752986304412905,0.21369099999999985,false
-1.9817214446975795,0.21369099999999985,false
-1.9947937916973895,0.21369099999999985,false
-1.9991977641746548,0.21436516512283554,false
-2.0143695328896056,0.21369099999999985,false
-2.0157107096912537,0.21865699999999988,false
-2.0161587365364912,0.21865699999999988,false
-2.016167500112345,0.21865699999999988,false
-2.0174174055682403,0.21865699999999988,false
-2.0212200643338742,0.21865699999999988,false
-2.02939626785482,0.21865699999999988,false
-2.038491117239583,0.22026450530687514,false
-2.2759859164051264,0.2561803781639139,false
-2.0190811178045975,0.2216067,false
-2.021933942676187,0.2216067,false
-2.038552456974291,0.22320502310446072,false
-2.047698393735975,0.2216067,false
-2.5379246958439836,0.2216067,false
-2.1407239978636103,0.2151659,false
-2.5959133720601084,0.2151659,false
-2.9112237663431504,0.2151659,false
-2.040877934495995,0.22427560000000002,false
-2.0418102653846617,0.2242756,false
-2.0419536875510116,0.2242756,false
-2.042239164154029,0.2242756,false
-2.0525220754610776,0.22584386886151417,false
-2.1381834609553434,0.2242756,false
-2.1574540852016812,0.2242756,false
-2.284147655303585,0.2433433396280379,false
-1.975345542163026,0.21482880000000001,false
-2.0826077037517927,0.2303078,false
-2.1021299748611524,0.2303078,false
-2.1387234790631555,0.2303078,false
-2.1397062944385814,0.2303078,false
-2.1710639673548635,0.2303078,false
-2.3928548208675062,0.24466917913249392,false
-2.427751841469871,0.2418292310344179,false
-2.0933261866348243,0.2325398,false
-2.0940120083822964,0.23253980000000002,false
-2.097572025179009,0.2325398,false
-2.097583274124981,0.2325398,false
-2.1070569248164754,0.2325398,false
-2.1071471619692344,0.23253979999999996,false
-2.1237943084883293,0.23348399878511522,false
-2.1242409919647662,0.23348399878511572,false
-2.1386075631764396,0.2325398,false
-2.1412572612462903,0.2325398,false
-2.4268075032713377,0.279432790829348,false
-2.432215615301552,0.27401538469844766,false
-2.144124000000013,0.2325398,false
-2.188654138633548,0.2355887185232506,false
-2.201235445580705,0.2325398,false
-2.221477721139149,0.23558871852325108,false
-2.461509,0.24087200000287234,false
-2.145557,0.23365579999999986,false
-2.168345122100895,0.23365579999999986,false
-2.4416670990430047,0.28289290095699515,false
-2.441684050269638,0.2828759497303618,false
-2.4471062873950093,0.2804171458586843,false
-2.4471725104026474,0.2804171458586843,false
-2.4485580186853046,0.2804171458586843,false
-2.6000000000000045,0.2916311668734357,false
-2.355691743887339,0.23365579999999986,false
-2.1290142978115387,0.2377518,false
-2.143285432583096,0.2377518,false
-2.2181464617779305,0.2377518,false
-2.3170102284653646,0.2377518,false
-2.3314056217996026,0.2393934,false
-2.203744708581103,0.2493734,false
-2.217924641243336,0.25150955835941813,false
-2.253339392334604,0.2493734,false
-2.254378927350994,0.24937340000000002,false
-2.2790934427309613,0.2493734,false
-2.2791209682938356,0.2493734,false
-2.2885616269686873,0.2493734,false
-2.29335857675862,0.24937340000000002,false
-2.2946442572090513,0.2493734,false
-2.5853483938399995,0.2493734,false
-2.06405,0.21906429557291615,false
-2.1749917129916496,0.2190574,false
-2.3232548249330076,0.2498260319055492,false
-2.3116945999999996,0.2517255999999994,false
-2.5964580361298824,0.2517256,false
-2.064744976839989,0.22507602316001118,false
-2.225477526993069,0.2529017,false
-2.226758016885954,0.2529017,false
-2.234560778769589,0.2529017,false
-2.2346981634112706,0.2529017,false
-2.2359169398557928,0.2529017,false
-2.237255178588219,0.2529017,false
-2.2384794493110736,0.2529017,false
-2.2572165587949717,0.2529017,false
-2.257328564500074,0.2529017,false
-2.276033939321027,0.2529017,false
