-0.048282398862716236,-0.005803999212142266,true
-0.04988360383973789,-0.0054187240669238135,true
-0.04329061552993929,-0.006277901207376119,true
-0.054775365068141735,-0.0047106431471339305,true
-0.07281199665376803,0.0009231058690447602,true
-0.0883945088983289,0.0025511268252285807,true
-0.08705541603871814,0.0023444857674331104,true
-0.10456823335697141,0.006288454708061969,true
-0.0230397271641003,-0.0032794758022217096,true
-0.019124294273076048,-0.004016106952404494,true
-0.0300001523147837,-0.0027475829575135946,true
-0.09259048795463465,0.0029470412554907233,true
-0.08360461049550927,0.0014423685764166083,true
-0.07168689925279592,0.0003795313270398837,true
-0.0662838686635312,-2.073045044674593e-05,true
-0.09724292722827599,0.0024905291992811524,true
-0.102446189911227,0.001971149227457225,true
-0.0969850180316274,0.0017278314441735443,true
-0.044150599075676644,-0.008027809935499161,true
-0.0312043568550322,-0.011522017998823866,true
-0.03684545012583462,-0.010188215552559901,true
-0.030002931401151955,-0.010901383181548485,true
-0.11671010376418911,0.0016946731118301361,true
-0.0574202208343646,-0.0073824090633341916,true
-0.04701525976564003,-0.008074950929959676,true
-0.1598050251436176,0.013115460413245739,true
-0.03430916563981068,-0.0020120117760529938,true
-0.04389272233927133,-0.0007284443255377165,true
-0.04165085813931291,-0.0009359080661894004,true
-0.24911026721497054,0.02148504653020679,true
-0.1332915642852759,0.008152717965887818,true
-0.13574568476756776,0.008377278978363559,true
-0.048694466175068674,-0.0038344248405253606,true
-0.042808807710120855,-0.00437938480856144,true
-0.08359561089134437,0.0026374547247901697,true
-0.09048850565197974,0.0034246079122926126,true
-0.08805739307133109,0.0033298448495012595,true
0.2617386325723412,-0.010260274189150043,true
-0.045200416126105286,-0.005151523055664367,true
-0.041997876473290285,-0.005850643117431553,true
-0.053615698168202164,-0.004965603922497501,true
-0.05696394018555517,-0.004463440118082196,true
-0.12884652044174838,0.011643747180486289,true
-0.1785600596419421,0.01652872562517975,true
-0.16498462583849582,0.015473436400373887,true
-0.16220154082292296,0.01575507581712978,true
-0.16674652425778203,0.011640453940136145,true
-0.22454857364629588,0.016689571833677093,true
-0.21362524827199375,0.016120786799913307,true
-0.20573892584637246,0.01603091162344643,true
-0.0830334662597769,0.0018914735022812976,true
-0.10685174618509169,0.00460858156648495,true
-0.09654621158826832,0.003234288960203606,true
-0.20907582390436077,0.014205357483975355,true
-0.1277463081426683,0.004437117154913017,true
-0.09998190556029957,0.0021071160790347224,true
-0.10556727543619765,0.002570242809372472,true
-0.09815300471768423,0.0022642490219634687,true
-0.14149716013215546,0.01011684007640256,true
-0.1289949140145056,0.009790943656902695,true
-0.1394381853561671,0.01097253018815425,true
-0.13376401586303807,0.00991260977869339,true
-0.1556662328248328,0.0066329856483567096,true
-0.05458152385477405,-0.0048843042888104815,true
-0.07420342505730909,-0.002761773380631348,true
-0.06275656241395075,-0.004212554984048718,true
-0.13204374436171662,0.004771618424525281,true
-0.13011116117868796,0.0035008519425194437,true
-0.12676378707529262,0.0031237224828030083,true
-0.12160806762099777,0.009167310998930672,true
-0.12948987208459034,0.010916475812467366,true
-0.12362878286623435,0.010143191101104822,true
-0.13132734293794782,0.011279588333033719,true
-0.05289409472893464,0.002024459034783002,true
-0.20067011849722208,0.019451731034363255,true
-0.19741871776950476,0.018972041428915787,true
-0.30755130678167464,0.027029300780961996,true
-0.287659684928643,0.024873976511282134,true
-0.19324396899176477,0.015016033435858847,true
-0.17576462489054173,0.013841383133523177,true
-0.16714080425359706,0.012961198867165971,true
-0.15588689660459298,0.01200685914944341,true
-0.17817927194982347,0.017165939834367053,true
-0.05678052501214187,-0.0034281753219980032,true
-0.23544074244109536,0.01666826131417723,true
-0.2362964223541179,0.016706459395744847,true
-0.027212383387307804,-0.004557235282882918,true
-0.19308852509737978,0.014570341760148237,true
-0.1880741954497489,0.01446971198612984,true
-0.19725244434068023,0.015556337844820703,true
-0.154656885505774,0.007936765134933285,true
-0.0530810999151754,-0.004361465584346733,true
-0.054896007008231884,-0.004072808774525441,true
-0.050491181193488166,-0.004436862161009358,true
-0.17965893409324135,0.013299429114650277,true
-0.19176415872564145,0.014478624167203885,true
-0.1912643752526993,0.0143978116021065,true
-0.1893077933658074,0.014368245380745201,true
-0.19252799951096333,0.01459371967782326,true
-0.15316409293065913,0.011931836676233362,true
-0.15160918802921303,0.011985727315396447,true
-0.14496438320571636,0.011006014471356004,true
-0.33404551297370355,0.02413412944692353,true
-0.33124161266273067,0.023031003840888492,true
-0.3306416120649525,0.023037061746481832,true
-0.3292448273740041,0.02295860017301697,true
-0.28598579355941584,0.023461092586847893,true
-0.1309744416493276,0.006460484135504763,true
-0.29228336333485583,0.02527836624867988,true
-0.3075157199292914,0.02661504044303785,true
-0.18596697461394385,0.013739123948329435,true
-0.19872532534406556,0.014992305368177958,true
-0.19307628679077582,0.014288911214003594,true
-0.20059142850464512,0.014994546843964549,true
-0.16494183077828206,0.016656313504931047,true
-0.18189872306544225,0.018288617871864893,true
-0.17987764405279805,0.018108802424844847,true
-0.14288237704409978,0.011379378579926006,true
-0.0407271328336504,-0.005011478103923148,true
-0.04762993313887423,-0.003913385930851429,true
-0.02859994906065444,-0.005800183930415814,true
-0.18808956102874944,0.009868041147784279,true
-0.18991760709273112,0.008798446912993294,true
-0.1955737062159841,0.009347874044023319,true
-0.197392502173543,0.008764021081745704,true
-0.19238685175108344,0.019623052662415846,true
-0.10523661646997948,0.008960784920426304,true
-0.09774537354159271,0.008219587242962498,true
-0.08539784663843977,0.007380622976399159,true
-0.023368700830714337,-0.004652485467289386,true
-0.038659695002152786,-0.0058028854188809376,true
-0.022707294188836116,-0.007138393898121348,true
-0.03300775808811186,-0.006292101423561486,true
-0.1289829827214068,0.0020319913681519225,true
-0.13428409160609212,0.008254688631544632,true
-0.10769645497455099,0.007281574081783426,true
-0.1305406806002627,0.009116278752652113,true
0.005149777890759155,-0.006342091683705586,true
-0.09913481613429315,0.004083935583424181,true
-0.09931715165839161,0.004067372949795214,true
-0.08992651068335603,0.003364799140102015,true
-0.16142603292417698,0.00913185238863165,true
-0.16137962159384123,0.00790568726633653,true
-0.15664514465493,0.007457760786107062,true
-0.16929074797078078,0.00883893326834187,true
-0.14756006884680603,0.006661298282043232,true
-0.08179894076577857,0.003535215218779489,true
-0.07277793198257951,0.0039608169934243626,true
-0.07854283676602243,0.0042944650410686735,true
-0.07097227471470205,0.0037720575586047134,true
-0.08652207134485264,0.0021158871367882442,true
0.023080372025630874,-0.009485276688418753,true
0.016100106258870067,-0.009264950054173007,true
-0.03983605727187389,0.0008546537323329412,true
-0.04236277217111184,0.00033850865781306916,true
-0.05354175465775801,0.0019049943452968676,true
-0.06217200509705856,0.0012259832272706328,true
-0.07469857453790818,0.0023613400119534694,true
-0.06842107359872573,0.0016799536154260553,true
-0.08913728514643249,0.0041583861204138595,true
-0.05496670335651832,0.0017989027390300782,true
-0.04924375577187101,-0.00012100725695249337,true
-0.04982442946333576,-4.4488576587509154e-05,true
-0.05756083337287676,0.0010127613774335992,true
-0.04786000089510645,0.00042406977839989923,true
-0.07785360031235644,0.0024260551402037756,true
-0.07852271462008587,0.002794661642795432,true
-0.08440655875909242,0.003080314083485733,true
-0.07493997679932407,0.0020289368195953728,true
-0.004544325237085367,-0.006446654423222176,true
-0.005299683713147485,-0.005948935873144143,true
-0.011230541110344827,-0.005658695312658668,true
-0.015347251083552726,-0.00469005905655942,true
-0.09816667843849192,0.00046215273092835296,true
-0.014391215206776886,-0.010839323515972,true
-0.013283315455802303,-0.010793941117927072,true
-0.015483210571143435,-0.01080176026672805,true
-0.0825080957522547,0.0030976733619384883,true
-0.07315009147406215,0.00199349100045057,true
-0.09006341436573995,0.004236387407434261,true
-0.09052015037470751,0.003923889773400149,true
-0.02892870996143304,-0.0025743271578771293,true
-0.06737240723808968,0.00048250478864622637,true
-0.07552014192218948,0.0017280124857925738,true
-0.07237593825226463,0.000956841945303516,true
-0.05218315923158168,-0.0029489272642804903,true
-0.031316362387325714,-0.005910000921553166,true
-0.031085119686894425,-0.005503608980435004,true
-0.0355365232294691,-0.004830179426303066,true
-0.06559897364537592,0.00041064386669255326,true
-0.08000938134628466,0.002384543410559825,true
-0.07513235167158194,0.0019748023077789667,true
-0.07489219644030598,0.002105043332375711,true
0.23168077199123283,-0.0013127423971140556,true
-0.19461144029511407,0.012408578326771287,true
-0.1923071951422013,0.012139840520038525,true
-0.17814478302829084,0.010376033452165472,true
-0.1675710455481406,0.008899218556624629,true
-0.13600185248837793,0.012435136483861367,true
-0.12968253792227846,0.012378848546262963,true
-0.13355718084424972,0.012351684025508972,true
-0.13575372950523307,0.012638755242796972,true
-0.1961084004061896,0.013535870276937187,true
-0.20082053610492911,0.01424759644734118,true
-0.20063768041156968,0.013691511306044499,true
-0.19894314006854646,0.013842271235567798,true
-0.1639818900922605,0.007468080012412656,true
-0.14978658274244117,0.005294098806841369,true
-0.15798070487145638,0.006633981952397998,true
-0.15160653091478074,0.005255750638164615,true
-0.16717401510974372,0.010252950294096633,true
-0.15184607682952642,0.005543550508138595,true
-0.15129210328583984,0.00529509739124856,true
-0.1511875639290885,0.005007319822480545,true
-0.16761389375441038,0.01351190923863483,true
-0.1591833807250394,0.012093803032647676,true
-0.15654205404774285,0.011908232909886435,true
-0.15547684343841306,0.011699893684500196,true
-0.10113718517963621,0.007246957669838079,true
-0.38557650202208316,0.0281724508548886,true
-0.17675799193999847,0.005007370943759033,true
-0.17156362717533077,0.005006596103036519,true
-0.07676762268018794,0.003768539117663311,true
-0.09412720657863807,0.0028920722642339705,true
-0.08512697626514443,0.0022516667322390604,true
-0.08240108869024632,0.0023187569703287045,true
-0.16844710772247581,0.014063371351660386,true
-0.17378316408788338,0.014375704719528107,true
-0.15764945064121,0.012904747846143427,true
-0.16991775889608304,0.013891602318093853,true
-0.3913565460879434,0.03159092118685531,true
-0.1597805176837391,0.0035555536529686405,true
-0.1692643767142119,0.004672631170058318,true
-0.16147729930741073,0.004358529613228898,true
-0.17838154202798573,0.007107185579218092,true
-0.1470311746446734,0.0032745037499274515,true
-0.1505185071447492,0.003004172545385028,true
-0.1628434089694143,0.0048233295279451055,true
-0.17868961116783796,0.008684287078317324,true
-0.17974095576028895,0.007918221963709879,true
-0.16962496134038113,0.007011700685311734,true
-0.17360632766678633,0.00749588117464095,true
-0.2084048461635384,0.021961256548523225,true
-0.2044404522745113,0.019904484703482064,true
-0.0892878597186181,0.0065702001574479835,true
-0.08829080096162653,0.007202646653292913,true
-0.08175788126548303,0.008309269641402772,true
-0.09744352124252981,0.009808090079289497,true
-0.10174230710315446,0.010315724312771682,true
-0.11080493204394092,0.011328188594177876,true
-0.14602208985884974,0.006755220165857376,true
-0.145991133865295,0.00694858566935215,true
-0.15645664794867528,0.008320595673339856,true
-0.15528691990650884,0.007823078612686343,true
-0.18756261244383457,0.02006251027234915,true
-0.17666921071409866,0.01814846681246679,true
-0.1819846878728525,0.01889364601637239,true
-0.1447700656828878,0.009169774505171258,true
-0.1407623740074919,0.008558194234301333,true
-0.1547245567163008,0.009315889914489436,true
-0.14239545832709116,0.008116316275509253,true
-0.19189750353356372,0.010340544873319424,true
-0.18128548779698384,0.008928257087247593,true
-0.1934647248211226,0.010897691896404979,true
-0.19369759814653276,0.010093266489420508,true
-0.10562680083995615,0.008244352804453,true
-0.005243636367297966,-0.004419671537396017,true
-0.07653032379184656,0.004581929601489523,true
-0.08124681857194763,0.004825957142866835,true
-0.0821888697244778,0.0030016548723413167,true
-0.0733971687460798,0.0012596098785476462,true
-0.07090859499515963,0.0013292082044290554,true
-0.08513512887137616,0.0031026359513340873,true
-0.032156689405852146,-0.0010065572079969165,true
-0.042856645598873144,0.0011572009587671045,true
-0.044542269940351265,0.00111896322329412,true
-0.041616467832102044,0.0007885433648775753,true
-0.06626139586333701,0.002631839765235927,true
-0.06493896012362965,0.002495631561844791,true
-0.07108115841415075,0.0029430347002510765,true
-0.0902037731733012,0.004094073436510054,true
0.29237936696755407,-0.0057194494697699605,true
0.20398876648510333,0.0004849542488423314,true
-0.03086338845514769,-0.009042225319275746,true
0.0038993169158685337,-0.00591229556334294,true
-0.04206029885038698,-0.0019244314811720231,true
-0.032095306484443475,-0.002466140848147738,true
-0.03927456490800041,-0.0020760167855237016,true
-0.034502980574567355,-0.0030146519990638387,true
-0.12031410644712248,0.005025987110353847,true
-0.06789707233877484,-0.0030559836563091303,true
-0.06178545648191602,-0.003834370920118277,true
-0.11856300754526639,0.004069948575174148,true
-0.028196317448471064,-0.001276976107391567,true
-0.03487401615278818,-0.00021154849232589423,true
-0.028445357840667373,-0.000832736823757188,true
-0.031688351415862126,-0.0006565853107215192,true
-0.04634485961674162,-0.0016094954397599254,true
-0.05360512096698633,0.0002807951767398176,true
-0.06189630992645778,0.0012687610190030563,true
-0.05973716662273232,0.0007730940473868325,true
-0.1402073943548765,0.010415376533112461,true
-0.050044507082783074,0.0010794794094451249,true
-0.04713630683781278,9.553641372665733e-05,true
-0.06141599360138039,0.0016754761041031796,true
-0.0619087645186569,-0.001623226945314124,true
-0.06001837662791154,-0.0028893110204116085,true
-0.05695589149519886,-0.0036423446906285045,true
-0.05308877212129093,-0.002988568249454135,true
-0.022198064570967957,-0.0016932549271314046,true
-0.033941453962628265,-0.00010137881967221818,true
-0.035402131034912854,-6.182967997947486e-05,true
-0.03388732021745944,1.7867282552333497e-05,true
-0.08782825927294291,0.0031568582709893406,true
-0.09068754326010081,0.002427946271486056,true
-0.08852287569530068,0.0022440747764824256,true
-0.08414918728288617,0.0022730087332457627,true
-0.09967054270220727,0.0027817661856589515,true
-0.07902428053504734,-0.00011042033771532789,true
-0.11557974317924863,0.0028364490979865056,true
-0.1656961734833754,0.012426885044593376,true
-0.1534559208954247,0.010452225063981295,true
-0.13751660678078437,0.008542165123850733,true
-0.14126190784647358,0.00929406388825399,true
-0.25726965842078875,0.022347880450987775,true
-0.09542522730749459,0.00033411264580652383,true
-0.2306848816059781,0.016105753304731803,true
-0.20926805742371768,0.014348130739352496,true
-0.09345332718233548,0.007402530226000362,true
-0.224207906020292,0.02216959216305451,true
-0.1068802419701543,0.00889032255263135,true
-0.22082770133379076,0.02197193801059863,true
-0.09543268946659131,0.0009825621338737517,true
-0.12804851932901945,0.004519328400881602,true
-0.12062694004864621,0.0038258926600177948,true
-0.08194267615853937,0.0006627985547615345,true
-0.16217615897531232,0.004793229284319141,true
-0.13106436424617007,0.001655040071666114,true
-0.27136337834288793,0.017189408077928812,true
-0.1544548371352535,0.0037594567131445447,true
-0.12185408905718137,0.007447786524095168,true
-0.2414432233446321,0.02150860309725003,true
-0.23970428403668426,0.021393939707038026,true
-0.12720541746891417,0.007626591362739452,true
-0.056530855910065514,-0.0013015576579703744,true
-0.11440323676928782,0.00510238471090791,true
-0.11249622937101281,0.005123526805415023,true
-0.12155897189821877,0.005533547908437235,true
-0.12530972754319597,0.0050772497443690515,true
-0.14073096024922224,0.005807034555434153,true
-0.11682598143964995,0.0035509822486144496,true
-0.09677658140486611,0.004767095510262033,true
-0.08711171615137986,0.003592967204979862,true
-0.09754341924963372,0.0042044036172534174,true
-0.09189597197714691,0.003887377707631458,true
-0.17571610127690515,0.013762115088349361,true
-0.16288613272348218,0.012616149807811214,true
-0.15332802621267272,0.011062896198272297,true
-0.1101715537182627,0.005379379212888162,true
-0.08842858492192446,0.003818723017968678,true
-0.0926824668718885,0.0038640016847273917,true
-0.10292270856799457,0.004678511693211783,true
-0.10819371715525075,0.005189945956748515,true
-0.18337125945667718,0.01734056188697971,true
-0.18052038147604038,0.016360978535396732,true
-0.1721188484593713,0.015744194808755635,true
-0.1648068433902508,0.014271465722579625,true
-0.34824341766803246,0.025105057726598864,true
-0.33457379653900027,0.022244851727200234,true
-0.189222226500775,0.005914022776401684,true
-0.3290700170283124,0.021753219617743007,true
-0.16358908041741815,0.01076753285514543,true
-0.14995227032613778,0.00836249669375757,true
-0.16154384311663844,0.01040926263901533,true
-0.16262984640305825,0.0101115075828387,true
-0.16454065871424128,0.007455033032608499,true
-0.1533919623024838,0.0061169923903236015,true
-0.16097966120521584,0.006637638085166604,true
-0.17499848526035153,0.008445256025752287,true
-0.08909967512046477,0.008494681297865285,true
-0.08117395730279692,0.00749300746405783,true
-0.22192233754298693,0.023628838200227258,true
-0.21509121959232474,0.022860044241305583,true
-0.1923022619966565,0.006709954131438045,true
-0.18213709463573824,0.0054836631583697545,true
-0.19515618376799213,0.0066113627430063465,true
-0.18303691970137237,0.005556125013098663,true
-0.29761546764491825,0.02121903613302118,true
-0.15379150699967103,0.0028273982122247673,true
-0.12893413986409852,0.0008598885988557944,true
-0.17600887733636114,0.00504751917923147,true
-0.08027937600363289,0.0012062787725107965,true
-0.08499723790230684,0.001965834981364961,true
-0.0651623151679167,-0.0004377214435250798,true
-0.01284104388797963,-0.0066132918470516305,true
-0.015519345243221294,-0.006032495588378567,true
-0.01804317664644084,-0.006200069558105273,true
-0.004706873781235854,-0.006986424231508026,true
-0.13283595503145285,0.0022619066603639937,true
-0.319078911301361,0.021599300200277755,true
-0.17840746802430774,0.006191530939508388,true
-0.3380723961771138,0.024460061811241218,true
-0.024693755194520106,-0.0043655782922314285,true
-0.14102714943996103,0.008653969791269978,true
-0.14139168728649576,0.008723342409137094,true
-0.14423749007095021,0.008779399161002552,true
-0.04976120257396138,-0.0042755678493366644,true
-0.02603636893485678,-0.006621235809064846,true
-0.0356896015811663,-0.0059283011006269065,true
-0.23197817536149168,0.022169660173304725,true
-0.08283445190617317,0.005244322437156973,true
-0.08193829092968441,0.005079039474672795,true
-0.09200936599596815,0.006259816012559913,true
-0.1553448422922002,0.014172799898397495,true
-0.0581018907758325,0.003313803484036093,true
-0.17163494944873425,0.016015306188993092,true
-0.17062895821650698,0.016530070102775046,true
-0.0514028345095926,-0.0003240779086637058,true
-0.050870186614203894,-0.0011002837056613146,true
-0.05435423406310269,-0.001271382914728364,true
-0.04728371515580304,-0.002248454026752056,true
-0.1268752788722961,0.0010923892561836568,true
-0.25742529287116644,0.015650413151014536,true
-0.28274127469662075,0.01748257524646464,true
-0.28624999057255424,0.019257026363178623,true
-0.11164936043307949,0.006341122145099784,true
-0.13077364493972632,0.007241344817312714,true
-0.008747544604873037,-0.006241637868263206,true
-0.03450225113393346,-0.0009427181262528089,true
-0.121175774767321,0.0068160418827794556,true
-0.11159045230750425,0.005833979013762272,true
-0.006962144220461597,-0.005919489566314121,true
-0.17139492581851445,0.007011976585455312,true
-0.1815030753653326,0.008085547517494213,true
-0.3429439545603393,0.02562754763109741,true
-0.1815547443244902,0.007630735560463148,true
-0.06518892451521552,-0.0015039924047895725,true
-0.0617425524231508,-0.002045141521717253,true
-0.05815893055064375,-0.0026562811106608936,true
-0.09036759663758193,0.0013801571691738346,true
-0.0715636988294226,-0.0013777350525845111,true
-0.0729556770951742,-0.001661620086935156,true
-0.08391728748289784,0.002611729828502357,true
-0.16135827653234447,0.01126531924560377,true
-0.17120868041910814,0.012282717697005216,true
-0.16847044700010066,0.011984978469320617,true
-0.1635418953728458,0.009211037709936573,true
-0.1764302185259407,0.011219004028620805,true
-0.16167152468319868,0.009912201057585626,true
-0.05722562869330483,-0.0024748677120072643,true
-0.049892064419893245,-0.0009708393621419287,true
-0.04140429205632007,-0.002323331288786243,true
-0.04935418668406266,-0.0013849421909144094,true
-0.10128414928542828,0.005009444996192727,true
-0.11101420513796723,0.006340457548923165,true
-0.11775127843765792,0.007463617193519734,true
-0.10777194260984929,0.005988158115231831,true
-0.07183150482887013,0.0017561060008052104,true
-0.044173617603452286,-0.0012529998987835939,true
-0.04502116818586677,-0.0009004217227884664,true
-0.051363976307138515,0.00016902896228426778,true
-0.08499735081490506,0.003545172357393031,true
-0.1533469490079193,0.010050002885453643,true
-0.05742188611751259,-0.0007967893085460281,true
-0.05130023686925028,-0.0014342926858081223,true
-0.06553583058481394,0.002171239497345809,true
-0.055974938870169966,0.0006738527573182385,true
-0.057423248587690365,0.0010944585259590883,true
-0.06960368289397018,0.003148264095968231,true
-0.0035408014359801787,-0.004590490326150762,true
-0.10968327560192542,0.008256535131424228,true
0.005557231274647884,-0.004661677237170259,true
-0.10426846100157997,0.00774481516371589,true
-0.11333075246631726,0.009754255399456,true
-0.10672989605357931,0.00877256467025439,true
-0.10684487102595971,0.009241579973145245,true
-0.10634173691649479,0.005771456905673669,true
-0.19697168038676305,0.015992383847911837,true
-0.1924667822917063,0.015878319618369496,true
-0.1855239748067255,0.015093686190898431,true
-0.23717536117467836,0.017942971196732826,true
-0.23167061801404437,0.01744816496221689,true
-0.2312169218787762,0.017297517354186345,true
-0.16288025681099694,0.0035839756567120212,true
-0.31263718353159,0.020469877922877786,true
-0.3075854128893747,0.020682705692935427,true
-0.07257011568865625,-0.00033077716830594295,true
-0.06912505351312087,-0.0013543478153330846,true
-0.07837172320417854,-0.00016098318892265873,true
-0.059528515590430556,0.0025576116755973433,true
-0.06409686836044416,0.0037277070311855093,true
-0.06631395247393178,0.00448789638844474,true
-0.0818074489222498,0.005695644617956075,true
-0.1743092492286698,0.01562576168139826,true
-0.17031013546021959,0.015828138524441815,true
-0.16562747700568398,0.015107657566616597,true
-0.07625143471024112,0.00812449170536396,true
-0.06039139664398055,0.006865206254698761,true
-0.0470073374980125,0.005609946486948639,true
-0.0816834055770522,0.005309333480626427,true
-0.16700171018572804,0.014667664353589058,true
-0.16942883032259415,0.015332804791415022,true
-0.17273245825667466,0.015191000299335775,true
-0.1455047790485929,0.004986819999774211,true
-0.1645777633328196,0.006411327111909948,true
-0.16241518316130343,0.005925026364660538,true
-0.15243379303755705,0.005176442671535733,true
-0.07913754241885476,0.005815901428288361,true
-0.07283781295221414,0.004812679124090488,true
-0.057967789635709255,0.0032406000579317112,true
-0.08764184682753962,0.006461577152088185,true
-0.10302574935415632,0.00641550597455523,true
-0.09933581909354527,0.006566388128834019,true
-0.10270250694381855,0.0067746583094556445,true
0.025480603318574324,-0.00737828713767566,true
-0.05298919571410757,0.0032326181634632356,true
-0.08115666650858377,0.006237379778466778,true
-0.13432481312286904,0.006622199193268563,true
-0.13545932752305562,0.006637550422160951,true
-0.1340011655298543,0.00618622091967308,true
-0.09072202683803354,0.0030089576378637684,true
-0.10094237152052193,0.006585594830727098,true
-0.09410458983454223,0.006356000596910064,true
-0.09508881626687332,0.00632232869624913,true
-0.19670952385486667,0.016011620989011655,true
-0.18521621092548093,0.013475679393310458,true
-0.1764705485821061,0.012425117048749407,true
-0.1905440076595865,0.0142937235427128,true
-0.09699105658587848,0.009834289830730425,true
-0.06234578116192238,0.007453024957625259,true
-0.09307936621687837,0.01005647547487383,true
-0.09378725498833476,0.010398223988224084,true
-0.0193548666629621,-0.005583166405218817,true
-0.014420926286161873,-0.006554312345896068,true
-0.1370464604308993,0.006890707376619648,true
-0.016058957718796507,-0.00638497227207252,true
-0.18061218298885962,0.01701887768143147,true
-0.17872292375354137,0.01668166322513795,true
-0.17417319137582166,0.01595430548624685,true
-0.1662888451408437,0.014914240455315891,true
-0.19043938038168964,0.016742908192271866,true
-0.19367085934409173,0.017288292327920923,true
-0.18151704201674018,0.015712891215343958,true
-0.3365441939928654,0.024559945545325507,true
-0.3503649886442033,0.026370750118996353,true
-0.34087867668754124,0.02502460280920614,true
-0.18919841314227953,0.019211069390633412,true
-0.2028368689483592,0.020264915731012315,true
-0.20114905817928785,0.02029952801238634,true
-0.18124023977698273,0.016878083886880252,true
-0.18487617817342028,0.017358180440228382,true
-0.1873237381284068,0.0174206765360395,true
-0.18354521018350536,0.01709885532643171,true
-0.17914210313721873,0.014005584542859217,true
-0.20791014080552012,0.017462071018919514,true
-0.20199122442319206,0.016684763579323428,true
-0.1973441711679452,0.016336279722825087,true
-0.18317658408378817,0.01539273625649068,true
-0.09837172528625737,0.005817825134669566,true
-0.09867192940779485,0.006097583850852628,true
-0.22727311688807794,0.0152647867749586,true
-0.23088748647018287,0.014664990165740466,true
-0.23087475989930656,0.014080794666022092,true
-0.23993209539556332,0.014916235737220535,true
-0.1655518493781188,0.012522422452526175,true
-0.1930711026937773,0.0152833474157206,true
-0.1915645115538368,0.015157232676336466,true
-0.10419122228276928,0.01145321199614642,true
-0.10258967140433978,0.0094057708533921,true
-0.11851478806467594,0.010679167508987342,true
-0.11263281955393817,0.01066347614827265,true
-0.18343290880876195,0.013419924492198365,true
-0.16445856017682534,0.01125572978513055,true
-0.15897157182784843,0.009534965532057335,true
-0.2894262911207206,0.02393751986466132,true
-0.31723193499791386,0.027438811547551775,true
-0.182407651530203,0.01207969816081611,true
-0.1784095471211346,0.011966953860289384,true
-0.2695405197957143,0.019390797417378938,true
-0.26062724631491613,0.01828737891404436,true
-0.09736833092150449,0.0011697212085501896,true
-0.10424079629314681,0.002671130073719871,true
-0.02848630155198123,-0.0055617600060065,true
-0.0185552666867507,-0.006412820283840576,true
-0.02122238736412102,-0.006204855715995911,true
-0.20128812090176484,0.009931375002970436,true
-0.20629182207619653,0.010892766296871095,true
-0.18970711261273623,0.008837510095029963,true
-0.1244286654579983,0.010284250542561352,true
-0.14917691238996872,0.012250466511939728,true
-0.16346580622302104,0.01365589620145069,true
-0.15756157930793907,0.013612725026638725,true
-0.07524496564632177,-0.00035576684304682027,true
-0.04827322232713249,-0.002969182775564544,true
-0.04519190981898011,-0.002981178677106927,true
-0.046475717446585296,-0.0032063266616294966,true
-0.1784667109742692,0.011794744217585945,true
-0.17793437513334837,0.010846789534662754,true
-0.1843856584307127,0.011917869174444456,true
-0.1752853143619938,0.01357637907105326,true
-0.2052178545844004,0.016873406344900213,true
-0.20707786214907542,0.016907214768213177,true
-0.20791781036507423,0.017240982748131323,true
-0.18914803418910164,0.014421616153073136,true
-0.1911209018448295,0.01478973786120559,true
-0.19396220439977116,0.014843037493340719,true
-0.21433147670631272,0.017696931693807358,true
-0.2376758484228637,0.0034583380929600477,true
-0.08517008052167624,0.00048128627672494595,true
-0.08104980582789595,-0.0002413827560791143,true
-0.08873646620845121,0.0008312656949630154,true
-0.13615608097252113,0.007217780708160565,true
-0.14848236526627967,0.008425070667605755,true
-0.16010414808014262,0.009945750439865217,true
-0.16510509880424207,0.010546344528718096,true
-0.09918483306232595,0.00900743263345305,true
-0.12111119251857361,0.010987790161629624,true
-0.11461838843827266,0.010514254990662997,true
-0.10390028925749717,0.010394993173995781,true
-0.06965241807351119,0.0037317372971868296,true
-0.07889624721129695,0.00520668281541091,true
-0.08861601992618173,0.006543804573079556,true
0.0006195986098386785,-0.006653508889219617,true
0.010169257130956622,-0.006565447930346163,true
0.0015650010275698456,-0.005773778382440212,true
-0.008414221010981882,-0.004818769025646166,true
-0.008172485544110097,-0.007928163873009195,true
-0.036052537915531035,-0.0047938612453844315,true
-0.023331157961324456,-0.006443157641725247,true
-0.030190223894172585,-0.006041486603181476,true
-0.04421534420037154,-0.005122116660441128,true
-0.01716099892477929,-0.007461136048569919,true
-0.01107787573551905,-0.008078081638967463,true
0.005041705765274684,-0.01008000676193424,true
-0.135307094716555,0.012231388245981675,true
-0.12431133411101486,0.011359444587414322,true
-0.10942129178141408,0.009967616017043018,true
-0.12835529580448046,0.012094631013904622,true
-0.10746512477381776,0.006177931794201286,true
-0.11434799006913349,0.007088904991234948,true
-0.11528516337000916,0.007528661987473234,true
-0.04323616522603396,-0.0019127585675630526,true
-0.06672650435633742,0.0019832125779358917,true
-0.07544229210329972,0.0024798753001496893,true
-0.08340305173367257,0.003136741327458406,true
0.23176583592422972,-0.0011149519366387,true
-0.18751010099211468,0.015081521419607835,true
-0.1824165939290001,0.015043480213009996,true
-0.12378432377387225,0.007919125648237754,true
-0.20954053722365582,0.016938557509794755,true
-0.1142417044645086,0.00640805298985532,true
-0.12060747511362528,0.009022144088738637,true
-0.10620646867174766,0.008793324323848994,true
-0.10162970594971286,0.008535934880080073,true
-0.10282627753455817,0.00832281553137705,true
-0.09369168896820361,0.003261716727436359,true
-0.1315142851687333,0.00871129283318589,true
-0.11181774870356394,0.0070500508753326,true
-0.11233170695911582,0.007131923840254198,true
-0.3068997978009398,0.019712124334685985,true
-0.3138011338385413,0.020837132204234304,true
-0.34158583293516404,0.02324106578321697,true
-0.13772250897716565,0.008072279104505697,true
-0.07061569162141379,0.0060775246055046195,true
-0.057586660848795976,0.00469431682602113,true
-0.07507360729893833,0.006017258646016738,true
-0.1943765118932489,0.017650258142912004,true
-0.19157944368870838,0.017539434988994948,true
-0.20079306264656918,0.018724348547359673,true
-0.19024988649837835,0.017555514593719707,true
-0.20742267055521876,0.01928747102201729,true
-0.19581230098502717,0.01862033736765628,true
-0.20163712144272733,0.019578025309864064,true
-0.09841660417458506,0.00784522230829307,true
-0.1929227327429564,0.017534135996341293,true
-0.2016449977728806,0.01927301377972708,true
-0.2062791362588774,0.01946482646567166,true
-0.09378582087132073,0.006594170230913188,true
-0.18867335280120878,0.01826595303633359,true
-0.08150437138128,0.005644618469325041,true
-0.09096739402993498,0.007232446824593383,true
-0.1518858656727178,0.01244045471272534,true
-0.1333412146435074,0.011399974755643291,true
-0.1283946518428268,0.010437519697383824,true
-0.12687185949985907,0.010346156128842349,true
-0.18918642055678306,0.016277816719975857,true
-0.1796046069936038,0.014456977864617346,true
-0.174604190850488,0.014391410817887376,true
-0.09485231072012285,0.004061241329613968,true
-0.09396710683304949,0.004120725345217971,true
-0.07850499688816351,0.0030966986716762235,true
-0.06177243621945508,0.0009725377920570405,true
-0.09889474099223651,0.0068220986913007375,true
-0.10828111454886287,0.007965123442507799,true
-0.1024573173970505,0.007255383869201312,true
-0.14760377795635324,0.013286648878002516,true
-0.11886196331197937,0.010508030735075724,true
-0.11291419460850458,0.00964850197954159,true
-0.10371409864732885,0.008003139492100991,true
-0.04099368052787524,-0.001333731573933572,true
-0.08920236075524651,0.0036588063077998972,true
-0.09877387915651681,0.004636407489492178,true
-0.09155064662341053,0.003424033483847802,true
-0.07944886243630618,0.0038072210949826463,true
-0.0679532619171995,0.0021483275796145146,true
-0.07636594694632827,0.0031770223010859355,true
-0.17756369429022098,0.014479712442718035,true
-0.18226485370162987,0.01518760724950699,true
-0.10480703729891641,0.006685859169962297,true
-0.16552900727535833,0.015649464198483773,true
-0.16265843624102916,0.015365482787600748,true
-0.16332703647929261,0.015442173285393254,true
-0.16139088224126907,0.014957449951892687,true
-0.09737020324428175,0.007487353496257454,true
-0.09565601030868334,0.0080312069536876,true
-0.09320697720250617,0.006856065041388734,true
-0.06898112832086795,-0.0006876960664063403,true
-0.19288266796399467,0.018807823964368156,true
-0.09007215227138289,0.00821724233631796,true
-0.19622036112116928,0.020102649284610738,true
-0.06813044228304532,0.005935302918660304,true
-0.05731714046552486,0.0049127311894453796,true
-0.2752741396503152,0.017349998566236313,true
-0.24635652806701858,0.014813749917610045,true
-0.2574248949476318,0.01627971849932064,true
-0.14477457478473477,0.0035110655227604814,true
-0.13405233127383898,0.00571424823882373,true
-0.14249499860341136,0.006368547876834038,true
-0.26438901885786015,0.019508773866719384,true
-0.09899959834668681,0.003931726544055103,true
-0.09227492375575136,0.002817328880301534,true
0.011502785945811028,-0.006715546251954169,true
0.00951361300859211,-0.006988846829913714,true
-0.06598015877183463,0.0017160671248955262,true
-0.07875743881305503,0.0025317612010788,true
-0.25550905865997786,0.020735497824589014,true
-0.25450180808449485,0.02041010918216017,true
-0.14513699286881493,0.007860792049426246,true
-0.1090128360155538,0.006942960727778905,true
-0.12885313204516352,0.008914228480274566,true
-0.12532383735803648,0.0076074574192374345,true
-0.0775951535689624,0.008059839922724604,true
-0.08707753845212848,0.009135782566517633,true
-0.08611744843909765,0.008856927173177195,true
-0.028875040426164907,0.002688552494397256,true
-0.08006721892251717,0.007311303552284709,true
-0.06615049982356822,0.006100135901136672,true
-0.0935236075082759,0.008440741475870886,true
