0.057532817819949233,-0.019696173703682457,true
0.04242186467563225,-0.018627691372295946,true
0.053590422678646554,-0.017146201284768042,true
0.04185172312173058,-0.015692875769700826,true
0.027208560399790915,-0.013862383364749958,true
0.010877563788106004,-0.013769558428056411,true
0.005930803392444339,-0.013778951572577636,true
0.021054841132086555,-0.014327148322371863,true
0.04178976491807629,-0.01612570860461804,true
0.010223909757003824,-0.011379214105072366,true
-0.033355605983797165,-0.004184865983549169,true
-0.030176363586186694,-0.004520899744334589,true
0.017007358884084223,-0.014053658985867606,true
0.07148703323268624,-0.01916202178174184,true
0.029739766677568946,-0.014209052961604546,true
0.0032917886084566916,-0.00922323756785337,true
0.04643883966482698,-0.016821887486680343,true
0.04155684121821235,-0.01535661653004683,true
0.019109294350214245,-0.01206458380421524,true
0.007230127095462224,-0.0123566508320328,true
-0.018276957801303784,-0.008454509811507693,true
-0.013908010335383914,-0.010169665199743827,true
0.018613225788179033,-0.011813403514153054,true
0.035377497149629455,-0.015754595103629643,true
0.030897535329224013,-0.014535708116346246,true
-0.3156520738738371,0.03020697648684939,true
-0.33336020956397405,0.03162490071022303,true
-0.38967698989753285,0.03656759678333368,true
-0.326543855327027,0.029082153303967184,true
-0.17806767808921964,0.016493854929403584,true
-0.19374895652728397,0.017806186900319015,true
-0.2021505917259544,0.018648716972790358,true
-0.37122028261736784,0.032560133551783,true
-0.38820958361357516,0.03390487305518036,true
-0.22274064463775112,0.020199103904903176,true
-0.2612227212785869,0.022391355913139177,true
-0.26310981692501045,0.02292955004515429,true
-0.3317407971214852,0.032799793425799084,true
-0.31409662670400207,0.029512752612500526,true
-0.1371194498414342,0.011561036014316628,true
-0.145789615889641,0.013264856659243068,true
-0.15046886085346145,0.013421692024397247,true
-0.25229090484082206,0.020426047986448814,true
-0.24381389985855706,0.019316240350656655,true
-0.42603665383819167,0.038429779392951224,true
-0.34237694605858837,0.02909257600089235,true
-0.38331322992982264,0.033038081758309634,true
-0.40656894611203676,0.037909088733317525,true
-0.42398862683610417,0.038452860703348746,true
-0.4168613386074367,0.037819167436659584,true
-0.1294123746943181,0.00601781420315925,true
-0.1342806994592154,0.006278510037519447,true
-0.1331696532197808,0.010557087030249268,true
-0.06033734945074398,0.0022442357981266314,true
-0.057280098379251077,0.002079383810957708,true
-0.07397532740153501,0.005288394102387434,true
-0.06543921008310938,0.003583773994475986,true
-0.01754116914006143,-0.002993030649482059,true
-0.18316086486313554,0.015930161757408967,true
-0.16929996153728621,0.014649103276732134,true
-0.1309967046223599,0.011436510172079223,true
-0.15611640259925386,0.014071833826250296,true
-0.2250505713484554,0.015872107691007914,true
-0.12743665644317337,0.005935960534300788,true
-0.11526298726400686,0.004323894947296486,true
-0.040701887654532753,0.0005909455400504859,true
-0.03920217138858617,0.000397036779292953,true
-0.1483964851542532,0.01138546887907646,true
-0.1768809265669612,0.014956479199979111,true
-0.16397275881325724,0.014100312031279844,true
-0.10147422454777799,0.007654012953846601,true
-0.13616852896778042,0.01197636889922446,true
-0.14096501453270527,0.011961811363341235,true
-0.19016051482384966,0.01568556006367164,true
-0.07781494845353754,0.003180603533537829,true
-0.09414984801723159,0.004502871434122702,true
0.04979886458546612,-0.016294102183986137,true
0.05249342576096372,-0.01742240596102032,true
-0.06852764794069377,0.000798874053745402,true
0.008018409993746811,-0.012269076354584907,true
0.03159927075278368,-0.015313808368684595,true
0.013790639351646261,-0.00968281215299116,true
0.007629844807053976,-0.01017332094934259,true
0.005618378259553136,-0.010115061430555766,true
0.036298297275304536,-0.015594236693120433,true
0.05302364489092426,-0.017485319345301703,true
0.047790487204080634,-0.017322679511474703,true
0.006198310526385864,-0.012047253720079365,true
0.012160776813195495,-0.014779866940859199,true
0.030216663140478772,-0.01673972334600915,true
0.03805084732778807,-0.014410606611276022,true
0.02071345648979861,-0.011466509145091425,true
0.038964201049192626,-0.014341213545326553,true
0.00999774598914871,-0.009566702144952033,true
0.017986652349762267,-0.01089450995252847,true
-0.010964560762728004,-0.006661494077569663,true
0.01609998079062791,-0.016413002526750597,true
0.019917975541489996,-0.016750472187119197,true
0.03649248904933389,-0.015188403505970172,true
0.017262195043111106,-0.014403644465459803,true
0.018074723610766785,-0.014977024974753478,true
0.017256489772067063,-0.010797811299774668,true
0.010096822104585845,-0.009275022323971538,true
-0.00787164470934254,-0.006913409740367887,true
-0.1830961770348296,0.016002211568825614,true
-0.16459002554299462,0.014647737654513632,true
-0.023841644539866147,-0.006142313105213015,true
0.0025725976107380255,-0.01039092397982122,true
-0.0053382212172694565,-0.009685879615266652,true
0.04373362940927872,-0.0023183124158789314,true
0.07899599629506615,-0.006385787146421934,true
0.059710745711447966,-0.004613011715380033,true
-0.116330052808719,0.0058826756995851714,true
-0.08943088039918545,0.003944627713629689,true
0.00904540430477474,-0.009854403441712956,true
0.043589337192244226,-0.012983922718170782,true
0.037829680350164985,-0.012327606935171403,true
-0.06863824202023505,0.00608904888648365,true
-0.08374887916753504,0.005647498821496566,true
-0.08054074497511077,0.004892182732400385,true
0.01847587638170367,-0.0028478160191118818,true
-0.1581095710469551,0.013576845585122455,true
-0.20758396315994165,0.018020649245816617,true
-0.009828623085790578,-0.007658190876140836,true
0.012998129885685827,-0.01243210195924277,true
0.005933994968001954,-0.011510551180153705,true
0.007222632701710974,-0.011392367042435958,true
-0.07528803649273974,0.004584323032588017,true
-0.027511122210988948,-0.008572464455636947,true
0.04300598217185825,-0.01779358535042508,true
0.03529365737618928,-0.01705886839280199,true
-0.1281221492172815,-0.016778901555977943,true
0.045492891076629016,-0.017276666028303522,true
0.03648212615548441,-0.01581640300004855,true
0.017332561452616302,-0.01217443707501592,true
0.026550653856834305,-0.01375439227863745,true
0.07053794528066204,-0.016678119640886446,true
0.05839636821974281,-0.016688243862352348,true
0.05103334305319995,-0.015411259583898385,true
0.06793451816141904,-0.016373092538189526,true
0.07056294511637096,-0.018266835846879187,true
0.0712599749326972,-0.01806324749065577,true
0.047977453652314095,-0.01566709037496239,true
0.03734615874977276,-0.014570558311408771,true
0.030395223861274356,-0.01387335007595994,true
-0.029888173029984255,-0.005168241979422422,true
-0.01677644217046459,-0.008037586774525873,true
0.07756174123859028,-0.0189078694662351,true
0.03737535578307938,-0.013206902956424127,true
0.03945770222533218,-0.01679566483974468,true
-0.004205081732938654,-0.01093546145214258,true
0.015965869361442397,-0.013736155038721526,true
0.20332772093861995,-0.027370656092606166,true
0.02352701700321358,-0.013304036813583803,true
0.0237552124600775,-0.013509912513148148,true
-0.0012205754364205124,-0.005998919060136054,true
0.0558150180392607,-0.015486986077445475,true
-0.001475341836528976,0.036663098083691587,true
-0.24927461628685954,0.022769981679510776,true
-0.2668107871181642,0.024187866319698215,true
0.039621394284159006,-0.010669686002333034,true
0.014300084948580594,-0.00800422128347622,true
0.030024288809161415,-0.01111596722610353,true
0.0190112569782519,-0.015099588285578058,true
-0.011215422390019603,-0.010182048649380382,true
-0.000554779172373121,-0.01186275479331203,true
-0.3465562338852648,0.02925859042943363,true
-0.33305499904408087,0.028210693166433876,true
-0.30727684764466756,0.025658442117346636,true
-0.16704107335152285,0.014561947968437544,true
-0.16953577813082132,0.014772789356798183,true
-0.20200020200629842,0.016472723839968784,true
-0.2168867503502412,0.01701856236333299,true
-0.21985358210054118,0.01750071314660212,true
-0.1588644399240664,0.013639133911393292,true
-0.15983003204473145,0.013182123858744593,true
-0.16750427823164504,0.014249272926615153,true
-0.29785604429183365,0.025303897130595554,true
-0.30524316555887676,0.02572156775702783,true
-0.20335131933819106,0.01555078903203888,true
-0.2044935353002133,0.015442956043730333,true
-0.18973249417787963,0.018104296723748553,true
-0.18796128801312784,0.01608301258540601,true
-0.19354167141755707,0.01619197163986108,true
0.048676756821453004,-0.011186507508649718,true
0.028661094723627212,-0.010037752589206056,true
-0.004813389243170096,-0.006140187904167288,true
0.016040972728958547,-0.012131662459203219,true
0.01741663206340438,-0.0132629130016928,true
0.04398242634041161,-0.012403156802272164,true
-0.010484284219628437,-0.006789235685774525,true
-0.0038245575884072736,-0.008115783293881879,true
-0.009523337135782795,-0.009115226101202217,true
-0.018677959083758466,-0.008404397805436142,true
-0.008025936634068032,-0.00992463387865164,true
0.03646151328145342,-0.016866865953973298,true
0.03145779134099147,-0.0167557553195683,true
0.04669678185195747,-0.014440659678293,true
0.006882928134403388,-0.009632327431639914,true
0.042415841863698844,-0.012647799149997141,true
0.01599539496742719,-0.011526545862917181,true
0.03499351540453621,-0.013342480835092624,true
-0.01775533639885385,-0.0059717219092974005,true
-0.008023537503259126,-0.00815970752783901,true
0.004244389818488958,-0.013020539991444091,true
0.0019702335602498344,-0.012528444082777868,true
0.009265941329841931,-0.013734176562822109,true
-0.015716737232243982,-0.007822371637056652,true
-0.02440935182276771,-0.006691360185617057,true
-0.06321840731827577,0.0001579013315970712,true
-0.05645895270518342,-0.000595153828985201,true
-0.06255884449705362,0.00011477169881510263,true
-0.06636454218952959,0.0005668489561170831,true
-0.06415869830461685,0.00018711262550466512,true
-0.05395167350834151,-0.0011985960365863135,true
-0.04527033024020266,-0.0021082688108502445,true
-0.14977833292977372,0.009995148837860318,true
-0.12467416537088527,0.005586388938997711,true
-0.13655432981577142,0.006896417709648522,true
-0.03325360216566775,-0.0026258888919575285,true
-0.060864296761431014,0.0008777257943042294,true
-0.03494738549956433,-4.523131834863192e-05,true
0.005381073954927373,-0.0053227824089917,true
0.00020057819926122544,-0.00449325026891198,true
-0.10591560065358196,0.0037939635239497282,true
-0.1261158291741291,0.006292337381571478,true
-0.09524386795868522,0.005578039136630963,true
-0.0029050181734042724,-0.005499558631787499,true
-0.06329278509833469,0.0027839236259784572,true
-0.0471534541638855,-0.0008718499728955775,true
-0.07139101076543386,0.0021448572432792024,true
-0.07253282827821206,-0.0002026321686887378,true
-0.056822174583421425,-0.0023960236527411916,true
-0.18868451361557215,0.014833645176792254,true
-0.1790467020402986,0.014069800958734002,true
-0.16362713580482802,0.012462632039595106,true
-0.16405672250134573,0.012055640717746202,true
-0.15365814155300406,0.010833279487751257,true
-0.17585342372979573,0.013987122738035124,true
-0.16439730282866793,0.012450129505861385,true
-0.13986276309053303,0.011019901607490418,true
-0.13573794535443884,0.011136690595376808,true
-0.21007697767756617,0.0183573228128584,true
-0.23966778862768978,0.022228363502515086,true
-0.2425975736879633,0.022622731402492324,true
-0.11841438885660927,0.010296867587316266,true
-0.12335402916155336,0.010322715486555833,true
-0.18104945568785213,0.014560790034335996,true
-0.16981715029481181,0.01330141590114689,true
-0.08872954210314166,0.005034548050333237,true
-0.33796218177618986,0.02644929514471256,true
-0.3128924233744954,0.02469106239736432,true
-0.1716717386553388,0.014949799813580883,true
-0.20467963937915756,0.018492683214600097,true
-0.28379850817949026,0.02359686265701577,true
-0.1266619389475081,0.0074879086632238245,true
-0.11375793718618477,0.005692746315441061,true
-0.029598423823741005,-0.004989967357828473,true
-0.1831644740359457,0.014200765497342949,true
-0.1786663822464507,0.013979282222444267,true
-0.006173573930007947,-0.005719569503679356,true
-0.097615737142415,0.005663913643597862,true
-0.1004963627332397,0.00649783947438054,true
-0.029226346185385554,-0.005026728072219877,true
-0.1170601357531702,0.006708734327629917,true
-0.12732692314924632,0.007972966774380613,true
0.008502485260198145,-0.007469137003474763,true
-0.08571313384349821,0.0042223045975099405,true
-0.09090991779620805,0.005699442345086847,true
-0.03644812271225617,-0.005169034668896899,true
-0.10420848758310786,0.005319890453552134,true
-0.1286975850514287,0.008727738555753067,true
0.026331757029814273,-0.00927349893217641,true
-0.05356436343088877,0.0018766663711451137,true
-0.0623950852783246,0.0025735699579026994,true
-0.022072163065186223,-0.004826411988365198,true
-0.06950419113147777,0.0022481007468783953,true
-0.0656666900337215,0.0018264510798861044,true
-0.0247065440445301,-0.005262286226805607,true
-0.08694642333629532,0.003288332781012232,true
-0.09294615154731878,0.004251731478813747,true
-0.05363730513096909,-0.002183720704041797,true
-0.13218696549598463,0.007582862805973617,true
-0.11241921714138403,0.00549802686188447,true
-0.047388379824309323,-0.0032079272271505754,true
-0.18899537128910193,0.01475107647339477,true
-0.16523929414577299,0.012181221777422924,true
-0.07782695238999637,0.003819070466099528,true
-0.08075192018590416,0.004146681121655366,true
-0.2447489350249923,0.022875657646123204,true
-0.08192482134794454,0.003620590816433372,true
-0.2985001300717698,0.026871790951769198,true
-0.05929241830889098,-0.0030368802385499216,true
-0.034219191596718046,-0.00654932645336781,true
-0.05689488283290722,-0.005023458537464026,true
-0.06314129713286953,-0.004151887572154983,true
-0.03284631979601571,-0.0013226508902834666,true
-0.17266986164547637,0.011970560106819433,true
-0.05048597545207656,-0.0017470675355880094,true
-0.16076408585910562,0.01036386795126909,true
-0.17222351505255362,0.011984342631874784,true
0.21717085251174784,-0.03109810863376944,true
-0.11938687096625844,0.006800627177772994,true
-0.10114890241983066,0.0041925123224167415,true
-0.09002290714514882,0.0036989658743073472,true
-0.12589616688034522,0.007759772091309153,true
-0.06053196774689584,0.0007084908441869764,true
-0.1798985206115511,0.012675816756679115,true
-0.13893902789752577,0.009996884065917505,true
-0.15712775286832104,0.011167854935929228,true
-0.1648037545487253,0.011930336030653493,true
-0.16218165614772428,0.01171725850377714,true
-0.029451457904186462,-0.0053163664910722,true
-0.022228923755822638,-0.0051938532390884695,true
-0.1271033475467448,0.01055526792112943,true
0.0003791095007075196,-0.0065767402592268875,true
-0.03272670903617059,-0.001224118424051207,true
-0.1537814708256744,0.012990526358857085,true
-0.14595342372508668,0.010957373151824656,true
-0.1517945540965162,0.01174948997778208,true
-0.10885256664050502,0.008292205244235351,true
-0.026605774440339847,-0.002898737037496657,true
-0.02446733861395045,-0.002834868253903694,true
-0.04858641249492457,0.000186170474611419,true
-0.046724261169570847,0.00024717225518083863,true
-0.16450399003924798,0.012387968129232346,true
0.0025988958581937283,-0.00792515230965421,true
-0.16976328199355206,0.013336983714302947,true
-0.16087800368652583,0.013444251845970367,true
-0.15434875070695608,0.012124760357807879,true
-0.1381154248405959,0.012174778968234129,true
-0.011005448937692952,-0.003540053324249559,true
-0.021182965376424612,-0.0025709368808687627,true
-0.13070046880107333,0.010165430141441556,true
0.007964397069830098,-0.007661349016986452,true
-0.15692598105526256,0.010718644399343308,true
-0.02064330952479243,-0.0069988800925063765,true
-0.19555701625868838,0.005414255107607763,true
-0.17180719862271643,0.01362926117696428,true
-0.1722554679646776,0.013350218903942085,true
-0.05103516945660913,-0.00043777909720066344,true
-0.0332389337518284,-0.0025998065416612814,true
-0.0315807339354377,-0.004428318332610426,true
-0.027069764258126794,-0.003655460794376064,true
-0.011038174246382537,-0.005061227137768409,true
-0.14305604458182009,0.009803318253062271,true
-0.1445770475206165,0.010252281450683243,true
-0.06232621255132398,0.0016064829504316147,true
-0.18668867078940354,0.015547608047697697,true
-0.1781582863918103,0.014530946317784676,true
-0.05240945751269044,0.0003282664268018376,true
-0.17223205248474616,0.014466238005832271,true
-1.923336617548621e-05,-0.005095087957206784,true
-0.13331157190836262,0.010061461313935732,true
-0.12107789250323098,0.00918109381311924,true
0.022084919666498948,-0.00961752871477789,true
0.0007225879407805058,-0.0060145453442715935,true
-0.15192302841749428,0.012687278029494764,true
-0.045300139523164695,-0.0032971113167546973,true
-0.06120102852281073,-0.0015471000860625972,true
-0.06836335400455384,-0.0022567870174319826,true
-0.07831697528001547,-0.0005132601696826444,true
-0.08204192025591328,-0.0008785831322372373,true
-0.0489224467607805,-0.0013291171040018812,true
-0.056546876837793913,-0.0010163848645857176,true
-0.05960492239843429,-2.914234606490873e-05,true
0.004428521817963937,-0.010276469637421987,true
-0.1320109196346958,0.010889038508257481,true
-0.18037104129414983,0.014210356484011172,true
-0.07113463027874434,0.0008748471393494606,true
-0.0433865095527155,-0.0024122813241859997,true
-0.06029656162361241,-0.000808398149718087,true
-0.03673593195259972,-0.0031202988287268862,true
-0.1755357059451459,0.01322287960140156,true
-0.04166070295540181,-0.0010575162703623242,true
0.013861276256305843,-0.009230470325753748,true
-0.06306217866559205,0.0010524973774726776,true
-0.002078642463589353,-0.006572820226071002,true
-0.0033503769454791277,-0.006042073439869899,true
-0.017034955376695304,-0.004875229945812715,true
-0.133500492567578,0.008560095513579807,true
-0.12583392600135712,0.007472199180125733,true
-0.04120972172592474,-0.0018813718241335875,true
-0.1673611901425638,0.013939639858528668,true
0.005065287822510367,-0.007674913864165828,true
-0.07563265776397987,0.002440663229880513,true
-0.060041277653917424,0.000562644240525545,true
-0.10341551920535041,0.003512366871751188,true
-0.26669723642440346,0.02173323957635606,true
-0.2873198654612883,0.02377699123413679,true
-0.2778973750677951,0.021692363540794762,true
-0.1253062205011901,0.004768536537478746,true
-0.3040076794861757,0.024258907747819913,true
-0.2789713949151307,0.02132541578404154,true
-0.30501066815859,0.02536541667404743,true
-0.24976005927825695,0.018957337272748592,true
-0.2741340236690173,0.020410403779928116,true
-0.21577220337236458,0.016297776961912924,true
-0.2032226548126046,0.016357713612062813,true
-0.15916101647586478,0.01292072736183858,true
-0.16605001213748904,0.012676056984912587,true
-0.18207393311093645,0.014375134405961332,true
-0.038684145710044415,0.00043348902124945576,true
-0.19147946924821324,0.016375072256422263,true
-0.18842090784730647,0.01462242928642829,true
-0.19004827894140686,0.015316881903084417,true
-0.16921071346606953,0.012454693344291556,true
-0.20635902209406487,0.014594559360377263,true
-0.22236494642593474,0.016626846067215678,true
-0.29476434989806943,0.022974340034918855,true
-0.23786783121288313,0.021101070624240298,true
-0.215630752267851,0.01799393143424624,true
-0.3493897537747781,0.03185610620595691,true
-0.12949704790236438,0.007636057513951661,true
-0.3153103289740067,0.02813572988887536,true
-0.13407516605971836,0.010927023536942693,true
-0.136257516755395,0.011225242579175343,true
-0.13161170138964018,0.010802467613705374,true
-0.13282740009859584,0.008600087929178907,true
-0.1328655906763314,0.009187779859043788,true
-0.12911532534438686,0.008839544552851242,true
-0.1824157249685524,0.014523835995563616,true
-0.1798246824741443,0.015020649245761242,true
-0.36149295394057757,0.03016547268993014,true
-0.1605860504330585,0.007470071841004067,true
-0.1581932823779848,0.007290207594057629,true
-0.374110290199102,0.029475306200172885,true
-0.3500964848585639,0.027548140603477295,true
-0.17622375529016177,0.012918548819560394,true
-0.15324886170208352,0.010504465423806925,true
-0.15579176763015545,0.011290726904066573,true
-0.17214098326203142,0.008006454892901554,true
-0.171833314846923,0.008520967689076703,true
-0.3338500266563351,0.02721010348699046,true
-0.32051520595027716,0.02495211247727322,true
-0.13715430461025946,0.006584289251727049,true
-0.37666839269148666,0.04056327969536813,true
-0.15416383288716662,0.008570101500275928,true
-0.19091599517188818,0.015233519482523522,true
-0.17097581188424027,0.012721937945328943,true
-0.2198012726902484,0.019928979208978154,true
-0.20658398272388734,0.017198941761330272,true
-0.22287402753937824,0.019505948746070312,true
-0.2759151469407597,0.022944239475170575,true
-0.29306271565539843,0.02479818642451964,true
-0.13827161991009929,0.009743618679777188,true
-0.14212083670543874,0.009584018306862285,true
-0.1361828560571744,0.009558241885315594,true
-0.1658028813288237,0.012909393558399818,true
-0.1700657818373359,0.013735602812541547,true
-0.1861333202878308,0.014872434499366594,true
-0.19560787590807616,0.01596184772408979,true
-0.19483797963986071,0.016027853781846263,true
-0.19226437237595473,0.015408906185577331,true
-0.20215495666729988,0.016331200054683914,true
-0.162268180659617,0.011933469322153417,true
-0.1543229389143379,0.012443377869678529,true
-0.14628035147232565,0.011483663662102045,true
-0.18017762408256233,0.014585035836461424,true
-0.1660935783155445,0.011291080082257293,true
-0.02775985440900708,-0.009275259939643121,true
-0.3160395501241893,0.025786156809290334,true
-0.2960664222565583,0.023686981333393697,true
0.03552385449183815,-0.014663021389263314,true
0.0547304911352029,-0.016503151875193328,true
-0.33582726885330905,0.03339694875807145,true
-0.3074230384126002,0.030100199722123966,true
-0.3390256334543962,0.034968033095769846,true
-0.303921770604612,0.029572695753186357,true
-0.3069711875774892,0.029077164979125353,true
-0.02214387362035919,-0.003731976576851509,true
-0.04438919349600412,0.0017859580993094537,true
0.03873559066053511,-0.015178989001348009,true
0.03016872888098243,-0.014000889534628524,true
-0.045571599573977384,-0.0029937135005994042,true
-0.048811609974825476,-0.001187375019616993,true
0.007473419085806565,-0.009882824010926633,true
-0.0036025416946292577,-0.007145609085924015,true
0.02665361793397314,-0.012849773261263714,true
0.030227106622170208,-0.013238596096119798,true
-0.04426799208500398,-0.002006309570945497,true
0.01631195481271308,-0.012106455608136668,true
0.022902929179298814,-0.011944438645833971,true
0.01002336255959868,-0.010287168576487898,true
-0.18315245404805358,0.01677570356111943,true
0.015544551727316502,-0.010748537020615928,true
0.004358324040785844,-0.009518965956468756,true
-0.10156528580208657,0.006789069555806659,true
0.006040985617091765,-0.0076675416900407745,true
0.04225162827793949,-0.012105776743800173,true
0.01936532074292785,-0.009055874840740885,true
0.016464848446383185,-0.008893829293667638,true
-0.04649924265826599,-0.003484113630232183,true
-0.05195946743784319,-0.0033347120491122872,true
-0.07255773073613203,-0.001416130431145135,true
-0.0689940614967155,-0.0012706488762905255,true
-0.21331392753427014,0.01781283395584729,true
-0.07933392435058129,0.0033403478239211193,true
-0.07877171278146955,0.0029526563536046435,true
-0.031056803971818425,-0.00650048115829821,true
-0.042325889843408016,-0.004520022382505595,true
-0.04626386762128043,-0.0036046541271260724,true
-0.05082211195480213,-0.003000890344522833,true
-0.1437720391364653,0.008934057546500923,true
-0.014622852474039938,-0.00585725759922362,true
-0.07294198617462078,0.0025552230843294277,true
-0.08154993495226259,0.003246700531710389,true
-0.06789081535391395,0.0018563297017246405,true
-0.07321670409844694,0.0024250262349048146,true
-0.03892646639241182,-0.006039349727109733,true
-0.04880880838242729,-0.0047734123961439,true
-0.06199127314405428,-0.0036394369701757134,true
0.035311647006529445,0.1568417094581705,false
0.035311457340151176,0.15687763627315587,false
0.035310843192822405,0.1569921065450324,false
0.035316834716879186,0.15701719603422368,false
0.035310236451010724,0.1571028372231881,false
0.03938610969693468,0.15696563225592752,false
0.039471279225920974,0.15718829649125154,false
0.03947667268592836,0.15718828527255885,false
0.03927849388273186,0.15797273041509358,false
0.034449340455820376,0.15933613642570219,false
0.8267708742780766,0.03908019485026093,false
0.8268994630304602,0.03960879298673106,false
1.0315717015839414,0.039781840187700035,false
1.047100469464052,0.03535388934617356,false
1.2320747431787624,0.006709262027210949,false
1.285228376253233,-0.0028389470791100324,false
1.2852299662304076,-0.0028389470791100324,false
0.023825510009688466,0.16141278838650966,false
0.02383693860079572,0.16142009110467065,false
0.016912809214371216,0.16266334409711877,false
0.02278328350333314,0.16266334409711874,false
0.02160831062205837,0.1639838707861706,false
0.011782196366178943,0.16584608046589244,false
0.011802702901573148,0.16584608046589244,false
0.02094984616286355,0.16512289081566722,false
0.0025383736479026586,0.16286193655376113,false
0.0025838385848448997,0.16294392692477652,false
0.0025636718209652853,0.16311074648534424,false
0.001926969051743832,0.16316347777611565,false
0.0027218736657587117,0.1641470449775551,false
0.0027086987669276974,0.16423488981022405,false
0.0026974089742336504,0.16431016552678135,false
-0.00027461679384543913,0.1658460804658924,false
0.0020756227042277864,0.1658460804658924,false
0.002098853864350936,0.1658460804658924,false
1.1749895219434627,-0.01705886796116829,false
1.1753239850267767,-0.01705886796116829,false
1.1759294515086336,-0.01705886796116829,false
1.1892445113125727,-0.018752628922978243,false
1.189251201167626,-0.018752628922978243,false
1.1912014134374485,-0.01705886796116829,false
1.1987125437471704,-0.01705886796116829,false
1.19927139845242,-0.01705886796116829,false
1.2020319787698515,-0.01705886796116829,false
1.2028208059382914,-0.01843117421284196,false
-0.10616802693077332,0.17877823383280042,false
-0.10617658485128711,0.17878679175331424,false
-0.10624080355134036,0.1788510104533675,false
-0.10633245940730374,0.17894266630933076,false
-0.10872816614668379,0.18125291308445274,false
-0.10886163934219029,0.1814718462442174,false
1.2280139327308763,-0.02737065590918064,false
1.2289396065018303,-0.02737065590918064,false
1.2427016156382324,-0.02737065590918064,false
1.2575054330263113,-0.02830083802929917,false
1.2827982403195737,-0.02830083802929917,false
1.290547551711573,-0.027376270851914908,false
1.324317795748857,-0.0346663107668464,false
1.3244423367414373,-0.03466631076684645,false
1.3269420724893812,-0.02830083802929914,false
1.3292292236483843,-0.028300838029299197,false
-0.12113169036420146,0.1797855665496185,false
-0.12117412728785903,0.17982800347327615,false
-0.12267072386183087,0.18103677641060348,false
-0.12350515941264262,0.18215903559805974,false
-0.12389801674948364,0.1825518929349007,false
-0.12390268508303581,0.18255116124021803,false
-0.1240619798220216,0.18271585600743873,false
-0.22420743415872835,0.264510907897875,false
