0.0031967632186231665,-0.007101097638054554,true
0.01153554812190638,-0.008563246969469446,true
0.00969316940495668,-0.008351779897548178,true
0.021349836524002352,-0.007175991002128651,true
0.012579537139524088,-0.007255029582317968,true
0.01016419030342175,-0.007158221289050026,true
-0.017925850704188395,-0.004630713543374104,true
-0.014159285213234396,-0.005638701044922201,true
-0.002556051149565697,-0.01035907215497786,true
-0.011355248090930248,-0.01087424747381538,true
-0.023752894277190295,-0.009622441435625628,true
-0.027459249961137244,-0.009507357624034124,true
0.0027404319994490667,-0.0058727874610191855,true
0.013301993018672187,-0.007225479200288265,true
0.02196496032178885,-0.012060283181309833,true
0.05372053771422913,-0.014479788309786079,true
0.01629429986625963,-0.011688624414812221,true
0.005667388454642985,-0.011010758615168953,true
0.02440333357524005,-0.013806201533674817,true
-0.021898461474826103,-0.00837198788398838,true
-0.027537129688112394,-0.008028666550909336,true
-0.011986659539457545,-0.011173441733454914,true
-0.005524031494655635,-0.01084706066034516,true
0.03131202540165323,-0.016277966094878277,true
0.012057815693756302,-0.008729227719037724,true
0.011573912572440115,-0.009024908975896195,true
0.007802132944611184,-0.008736143446916367,true
-0.005761515189111055,-0.004941243700817138,true
-0.002917094673723586,-0.005792007123452958,true
-0.006539976810143511,-0.0052378997211702805,true
0.10699551937842888,-0.0031541078576466375,true
-0.06021473918739595,0.0001443613319050685,true
-0.05441616153886464,-0.00087441783880704,true
-0.07662811512326384,0.0018920692020481245,true
-0.04086868454017667,-0.0014565408539387037,true
-0.026899273802197365,-0.004091742791993452,true
-0.035629630646670796,-0.004000136150537764,true
-0.055573505460001504,0.00023308685420520003,true
-0.04480320552667494,-0.0014910005366584045,true
-0.05447568367317179,-0.00034970482175017414,true
-0.035641714214923015,-0.0011382371040233319,true
-0.042476442039396156,-0.0017343155304560265,true
-0.05014897546461272,-0.0008368116570117989,true
-0.16367949552366245,0.014161699717316817,true
0.03539013885256326,-0.011131466896496273,true
-0.07076221087367118,0.002542423945874339,true
-0.046162375848706305,0.00037332366553294305,true
-0.02112418599761612,-0.004766788454917903,true
-0.02062119002203422,-0.005744328940049448,true
-0.059550621983433305,0.001075389687812206,true
0.004960763789533362,-0.011367392625999034,true
-0.0036897557823051264,-0.009804442857717977,true
-0.009601342189784035,-0.011616606493468656,true
-0.02330873564081304,-0.009888690804034816,true
0.01206692767198514,-0.014590497440815198,true
-0.1378999202141553,0.011878731802590359,true
-0.03973466178986085,-0.0005673612539190964,true
-0.04340394687345661,-0.00020796989929447451,true
-0.1276452981736147,0.009996849201511449,true
-0.0333405364437005,-0.0023733781968836853,true
-0.047033544109748804,-0.0006188680488231069,true
0.1559069319734735,0.0051839472605423875,true
-0.20575858722492768,0.016208350876722927,true
-0.18811155157154213,0.01392755792769862,true
-0.018677141023176747,-0.005465310473136559,true
-0.10902683696075632,0.007542725860101379,true
-0.26805251531661534,0.025082007317513977,true
-0.09519592402423838,0.0054863480820725175,true
-0.24265797864808802,0.02227310724837553,true
-0.24779847249596154,0.022587038863966846,true
-0.2354558882933131,0.021337244659621335,true
-0.23776856465007035,0.020963909280092674,true
-0.35686774749666583,0.028551517719900416,true
-0.3712135531880838,0.029832445035441385,true
-0.35693814986780903,0.028603518114110243,true
-0.1271727259220845,0.008015214193317438,true
-0.282547129462809,0.02591273708751743,true
-0.2823045088880862,0.025314593507166555,true
-0.18540855154900904,0.015825359906763564,true
-0.2145391817303799,0.018751384913571784,true
-0.20986855759346645,0.018854257109962108,true
-0.04726733422382068,-0.0038505655611386636,true
-0.05345294676057977,-0.004167802314316876,true
-0.3379468325369772,0.02597633639013877,true
-0.4075065173841551,0.03477982049145298,true
-0.3475440940298208,0.02809329735368815,true
-0.27124305460860365,0.023999242817247607,true
-0.13530518797632163,0.008279111386641419,true
-0.27141191821590704,0.02443113759583926,true
-0.026740089596454908,-0.002657761043418805,true
-0.1592378393680962,0.011032199477322757,true
-0.14394985870034738,0.009219250575329824,true
0.11935571624837982,-0.010163213784037908,true
0.09608364876559672,-0.008254895531422751,true
0.16243643326798685,-0.01411757913456746,true
0.11452318257885241,-0.010189208526505844,true
0.011607398292116322,-0.00742144454011083,true
0.1724773039845815,-0.014637245030638735,true
0.17410750099620587,-0.014913715421245075,true
0.028707060926834282,-0.01113681065580513,true
0.02871694687855486,-0.011809534728306467,true
0.028982065154794956,-0.01221062246248003,true
0.013228209908956456,-0.010739471162212674,true
0.006279431290344029,-0.010993930512167904,true
0.017193965807343004,-0.01247151078912731,true
0.1386450461259583,-0.01095732330180789,true
0.13639227564864465,-0.01104834792966436,true
0.01676324210274327,-0.007675017591368752,true
0.12210112127973605,-0.008870115471595788,true
0.132298941943491,-0.010000905925327402,true
0.014265330798464149,-0.009857188311122228,true
0.009436548263211941,-0.008955723579982075,true
0.009739502590392357,-0.009248593315568862,true
0.005502493577295375,-0.006027306753627337,true
0.002322278638280828,-0.006670113756081078,true
-0.006275379489039112,-0.005219939325628947,true
0.1422269662027218,-0.012177284222256723,true
0.00295477413400147,-0.008619239410361648,true
-0.01850450492634237,-0.004821545320600723,true
0.04492917842918587,-0.013953055581470641,true
0.023457877218826084,-0.011452749333037818,true
0.025818068131901573,-0.012592098184932607,true
-0.17987951880223796,0.014801865022082611,true
-0.05651875814163154,0.00031901505904174954,true
-0.17489088285991783,0.013337011911546043,true
-0.17661521010307057,0.01491560550048443,true
-0.17155773698854593,0.012743214947235182,true
-0.1594386888372672,0.011246129922447334,true
-0.1990126691141837,0.018203040128539044,true
-0.19657555815894268,0.01808942758768345,true
-0.0783148078011382,0.004781447503887065,true
-0.07477608357787036,-0.0018723108916200437,true
-0.05991490447494574,-0.004184962597862746,true
-0.0978443293617084,0.0032624054942801406,true
-0.06814127552294325,-0.0020502504937537913,true
-0.0751761373956853,-0.0006540175760683387,true
-0.060606735637265374,0.0009198978384728218,true
-0.06257529462095468,-5.548904955035572e-05,true
-0.17837248772985181,0.01310619614238745,true
-0.08478555118062003,0.0013064943417842312,true
-0.08499280988377633,0.0014701364645153259,true
-0.08647756237330695,0.0018306832758984426,true
-0.13179065790094846,0.008760503164288003,true
-0.13658061320496895,0.008888116672778196,true
-0.1544446423027308,0.013363455314492484,true
-0.1720171006894642,0.013063883347247979,true
-0.1668242055936151,0.01237351646722415,true
-0.1668691567464382,0.012147694703799033,true
-0.07996633819497512,-0.0047815986985244585,true
-0.08192492786222005,-0.0052225114695945984,true
-0.08863594321231383,-0.0049883257720215735,true
0.006467956614360837,-0.010647333933405584,true
-0.03630722061382685,-0.004642925743519863,true
-0.0357016290978025,-0.004194135791879813,true
-0.0457247126263447,-0.0037746568205027503,true
-0.05176631531281828,-0.0024116896209355615,true
-0.06655938581748033,8.104508279294098e-05,true
0.0013582870356383392,-0.009274959118199741,true
-0.040329746140962186,-0.005723335888136061,true
-0.06691322386671184,-0.001604259163448113,true
-0.007918891144082174,-0.00610404831612435,true
-0.05766470914301913,-0.0004693522177946913,true
-0.04935564199650333,-0.00187176241598834,true
-0.033375187549160246,-0.004314444465042491,true
-0.05549309555264781,-0.001233986452269381,true
-0.06989492005902775,0.0004220925885852489,true
-0.031693740535148396,-0.00490541710505614,true
-0.04511745662395017,-0.002789013663144671,true
-0.041642606467541254,-0.0029081143099711493,true
0.01443771830833851,-0.009412175248543014,true
-0.023448406121143406,-0.004877878350001738,true
-0.03621033173044241,-0.003359294552640682,true
-0.050625010287084216,-0.0038932929656401577,true
-0.08655537416328896,0.0008288982063814204,true
-0.08958155120456235,0.001767049496082751,true
-0.049412352427226525,-0.001360773563678988,true
-0.06507238389875702,0.00010380769418197322,true
-0.05870464845387191,-0.0007274022527225671,true
-0.02987079273066795,-0.005176927414903915,true
-0.04300761947820608,-0.004086539528008096,true
-0.050437723015329894,-0.0029745297108077773,true
-0.03041272890245328,-0.007560771373503916,true
0.03429652297963093,-0.01763896907657128,true
-0.29533717695880857,0.02412586254880633,true
-0.19064432359625294,0.0162100315389542,true
-0.19149914522823586,0.01635035630786251,true
-0.2552163427066594,0.022335107509406454,true
-0.22695681198146567,0.02069359904249317,true
-0.2152881340273476,0.018923054699117953,true
-0.1743445517560167,0.012998280645693527,true
-0.1696762979950861,0.012376096958685814,true
-0.16871409582816688,0.0124498356581169,true
-0.16041234807630067,0.011494975302348304,true
-0.1884525391774755,0.01614939748398815,true
-0.19431811336140492,0.016847126638186383,true
-0.1911246796777485,0.016102928294488603,true
-0.3028109643458533,0.026030342641393894,true
-0.3011009218593669,0.025974147945397236,true
-0.2989741883610262,0.02520612913165883,true
-0.19306319742417655,0.017096589869106518,true
-0.2007456152476178,0.017428638952582287,true
-0.20256343626384543,0.017244151553758955,true
-0.20927208385762386,0.01820988542250837,true
-0.2188638148993165,0.0177817455891134,true
-0.20219557212085137,0.01605995017798452,true
-0.1881961203008976,0.01590016072068985,true
-0.19591740468444763,0.01688717270879929,true
-0.19039726438939297,0.01608920162326448,true
-0.17509615215693997,0.014398876180434422,true
-0.1725473772897944,0.014113530736534166,true
0.04641369844573595,-0.014496432049833058,true
-0.3720987330108614,0.031846453233903976,true
-0.33578722151054663,0.027445945174900607,true
-0.3288797168457268,0.026268089824047672,true
-0.2047838401163009,0.018743391747371954,true
-0.2092538146701477,0.01888687743975155,true
-0.18334291468926955,0.015755928837889413,true
-0.1116770335177566,0.007335617564821512,true
-0.1458711936623357,0.010349200221699564,true
-0.15349164862638986,0.010500392978429016,true
-0.20876111165346667,0.019763379128827974,true
-0.2165567234674226,0.018659843798074838,true
-0.10039611595288167,0.005509754053622265,true
-0.18803663586432784,0.015496666995242075,true
-0.21799294942597747,0.016010096913863306,true
-0.2138553359061186,0.01599007312274031,true
-0.20493771656717064,0.014765621477245874,true
-0.20176303485900027,0.017039483015016982,true
-0.1931723778359523,0.016403472722001766,true
-0.1928235226911429,0.01633817049786576,true
-0.11438686608375614,0.006691888660694173,true
-0.10804834324367962,0.006500471649948256,true
-0.10842413083381397,0.006345358978700366,true
-0.18906855651657073,0.015237083260226256,true
-0.18131275156223592,0.01401260643608182,true
-0.1946515457726382,0.018664707824155913,true
-0.17754866786107004,0.015403594511292931,true
-0.18349214884457898,0.015453529219462733,true
-0.167149059839658,0.013494402955535001,true
-0.1925575150609078,0.016585027298647553,true
-0.1972972447950222,0.016730939027736327,true
0.025718815193764177,-0.00973599847964518,true
-0.020711658426042168,-0.003335594513293891,true
-0.01467392197891304,-0.0044427158551960805,true
-0.18066244061735182,0.01500718562309769,true
-0.053533262674131055,-0.0004478500928996182,true
-0.04600339884303861,-0.0013014865180685092,true
-0.16362656613508486,0.0125153560027403,true
-0.042771243584315166,-0.002229511470710821,true
-0.041194406633461855,-0.0022741953630558837,true
-0.13920581157731116,0.010407063880665451,true
-0.043928728024329455,-0.0005226678767887571,true
-0.04042932974373015,-0.0010759369556965631,true
-0.10465483728835301,0.007430734986084167,true
-0.07017775081845579,0.0021181433984137493,true
-0.06918138893380066,0.0025177967647596056,true
-0.06290876338237761,0.0013301047690555262,true
0.041473001705595314,-0.012341180884359745,true
0.02874998639689641,-0.009976046424495108,true
0.04943867357743503,-0.012808912239055961,true
-0.16086577627894538,0.013162451979977369,true
-0.04703735282308341,-0.0006131523409427103,true
-0.05590522089945171,0.00024462934045968443,true
-0.03581338291407532,-0.002414459491221363,true
0.052497573189370206,-0.012907881967530538,true
0.036597795130914657,-0.011127372029343885,true
0.03893125571584222,-0.01114066986008043,true
-0.0601438495699298,-0.0013737311961909415,true
-0.08287404951294142,0.0021261762464706985,true
-0.07457803756942738,0.001238930034723501,true
-0.09891858399068165,0.0064366097514505505,true
0.03434784104591948,-0.0105346932272177,true
-0.02626835126742222,-0.0021274789457494114,true
-0.0024685511252230397,-0.005077840444422749,true
0.04887402237468552,-0.014700435345040203,true
-0.02001940417355086,-0.005442248481660042,true
-0.00796358635340999,-0.00627458315734479,true
0.21095185467574895,-0.025956304187073773,true
0.16219846954546746,-0.02139593484340764,true
0.15895096698131517,-0.020966199126215182,true
0.16982240176390206,-0.022092404570896756,true
-0.015433796571718394,-0.0036568711256317055,true
-0.01912923202883099,-0.003982713446684036,true
-0.02782745131320641,-0.0012938127765507873,true
0.190908303434848,-0.0218702251806083,true
0.19707998537815352,-0.02283119693877589,true
0.22340246981102618,-0.02554853307827397,true
-0.011420840872473637,-0.00695123377240546,true
-0.03746033468074672,-0.0034080143643461375,true
-0.033600590269253994,-0.003919513540984604,true
-0.03206050956704476,-0.0009591105237416186,true
-0.01631087693180988,-0.0038119500327635364,true
-0.021989062831037742,-0.0029334184682992676,true
0.21292277934107884,-0.02738835446889902,true
0.24329724762632376,-0.03127888370132628,true
0.20982838578029206,-0.02726517816152295,true
0.19700073543380725,-0.025964200541131563,true
-0.03181124737073748,-0.002839073102547912,true
-0.03500598107490904,-0.0034651992399047787,true
-0.04798087030474618,-0.0011140203214645567,true
0.037947290453891336,-0.004254460102711077,true
0.16469045033095875,-0.022610902358649224,true
0.15778639631496927,-0.021589560829460577,true
0.009033431709104534,-0.009676172891226562,true
0.02583454610499092,-0.011481484557078384,true
0.021198256496511192,-0.01102837850844196,true
-0.16682532301356157,0.013829950840374833,true
-0.017392384919991732,-0.005731915303557628,true
-0.02043947066762386,-0.005582055122358709,true
-0.046791163169014216,-0.0048051879580055246,true
-0.015343513958029575,-0.00928714726611679,true
-0.020306331346807927,-0.008298962383608999,true
-0.005966944698246324,-0.010722814299539002,true
-0.011646151936304916,-0.010203153962022371,true
-0.010293450405237103,-0.005673210476082768,true
-0.01640655982139383,-0.0053271746499511385,true
-0.021554006728635056,-0.009242098592737308,true
-0.025156353302523082,-0.010058231003622964,true
-0.02371903833957212,-0.010976565441411512,true
-0.01898120421004834,-0.008625105292645957,true
-0.019184860715608654,-0.00871903887522743,true
-0.015319194107742407,-0.009225512675020142,true
-0.02009132158448612,-0.005208756105873541,true
-0.01370015139554126,-0.006334820891706311,true
-0.2381361975886508,0.021717284397026165,true
-0.05830155696146422,-0.0019372130283579203,true
-0.03702346615308283,-0.004685940338229916,true
-0.15747466555048972,0.010457624403131527,true
0.004002357704738002,-0.009577260212034672,true
0.005647203390296118,-0.009850282436664415,true
-0.03222748293532074,-0.01090013541402271,true
-0.04073216912941047,-0.010007986923162793,true
-0.05543481179763243,0.0013020938390044257,true
-0.048776521898137526,-0.00026564834400663595,true
-0.0011625200893258247,-0.007294013198148125,true
0.02510249800641451,-0.010688661617100415,true
0.0006857040103029899,-0.008719597581159061,true
-0.07451531353816787,0.0021776378813478936,true
-0.004449719958128373,-0.007283150360831603,true
-0.008816481665368858,-0.0077213074147026994,true
0.007476838699456589,-0.009883545661382803,true
-0.04298746343978932,-0.002250119147662627,true
-0.05184599348806018,-0.0013082399555519042,true
-0.041631938002130386,-0.0023643267382909283,true
-0.007926820066054052,-0.004745711547877535,true
0.004481887347602909,-0.00606396214541019,true
0.024089817596308905,-0.01033246434225088,true
0.027666763467277367,-0.011776601784286661,true
0.023562952333526344,-0.010904809290743361,true
-0.045792554099533644,-0.0011313135697306465,true
-0.028089490958297936,-0.005039128052238967,true
0.009118330750491732,-0.01083849907941195,true
-0.16205968285913652,0.01041338646533807,true
-0.03839706913766805,-0.0025700321914964575,true
-0.0392659454450458,-0.0024336582291338005,true
-0.16131199992969492,0.011822621121088367,true
-0.03813540611891164,-0.004149048624989743,true
-0.034244705776377615,-0.004853738072259806,true
-0.03295000253164049,-0.004555890123880413,true
0.10240453701133201,-0.02594656406847562,true
0.055379099427130374,-0.017443990257610342,true
0.0316751328316669,-0.014946308699891442,true
-0.07214651011881079,-0.008786991199381755,true
0.01946459127735145,-0.010253696643500898,true
0.016353671838650108,-0.010115335776712392,true
0.034105662509955614,-0.014825360514399921,true
0.02657861016683971,-0.014761303328468478,true
0.02795348013528942,-0.014604135842262889,true
-0.03738519917914673,-0.00537481424149136,true
-0.016825576995813663,-0.008183428613953964,true
-0.017816741979274964,-0.004493686806151781,true
0.07995459207709055,-0.008596096862618446,true
0.06274976999605775,-0.007122345505772593,true
-0.0018148332855412175,-0.010155552823838426,true
-0.016470202706643455,-0.008894075833927928,true
-0.006473548066701529,-0.010283301882271667,true
0.02075660113974953,-0.009444811742244985,true
0.021252307138724724,-0.009645629156989771,true
0.020934666568090732,-0.010427712379568133,true
0.01674019591455078,-0.009535600836101776,true
0.07010958897400488,-0.00743723215950734,true
0.04645003036817963,-0.013835760866571678,true
0.03428987594084343,-0.012722452159437375,true
0.026558881741936213,-0.012022043062396431,true
0.041552778218632236,-0.012149894016359047,true
0.034347297953658096,-0.011581390122829993,true
0.03779320839591138,-0.011892767934928467,true
0.0011189205444943617,-0.009898573442253089,true
0.0028891773682497845,-0.009963732728057784,true
-0.20107394041802396,0.018067901055513785,true
-0.2202390470265092,0.019369249933557375,true
-0.229761139238012,0.02036049039313234,true
-0.3771326960395549,0.03113957698460701,true
-0.046302555919565114,-0.01003518818645649,true
-0.024771831785642906,-0.01208392097178379,true
-0.18852343680111083,0.012891498460510076,true
-0.18411155222936482,0.01577390595063305,true
-0.16941719962693036,0.013630396007703771,true
-0.16374516782212867,0.013794049197436459,true
-0.15036229203717566,0.011353671852932568,true
-0.15220154851296708,0.011742581307066596,true
-0.2223516611693479,0.019039186876507158,true
-0.029506160815156557,-0.005333156340808359,true
-0.03313543701215915,-0.004752836634930785,true
-0.21323389782931257,0.01833749338596058,true
-0.22682850837228696,0.019623400839432564,true
-0.2269053541442857,0.019455782616306372,true
-0.12525487991937423,0.009890576456386302,true
0.02111373787261195,-0.009986258112902602,true
-0.15517346571074453,0.011803390904577937,true
-0.13983632222092657,0.010597740875139539,true
-0.17055196058888544,0.013436500256709005,true
-0.17149258226672315,0.013553381508033008,true
-0.36802698167318404,0.030585711457957493,true
-0.3743217301785743,0.03065437630452339,true
-0.36394320915956724,0.03033905063799877,true
-0.4107587441452203,0.03416586442919836,true
-0.3869251871156263,0.032058599392680326,true
-0.025816852288457315,-0.012334640076607423,true
-0.028225491199494135,-0.0034550835945808267,true
-0.03902994914203717,-0.0025111200242756426,true
-0.04456710676108422,-0.0022958087308037334,true
-0.0027386671084881353,-0.011812764164132517,true
-0.003881586193400177,-0.011193576747611067,true
-0.2531241835492548,0.022377377541381138,true
-0.06051630452131951,-0.002152146516843062,true
-0.06771565038466743,-0.0013826699258161212,true
-0.01934815484119312,-0.004850130367764605,true
-0.028136225405853255,-0.005043382143923886,true
-0.027461715570430534,-0.005695835895848794,true
0.012891222427663163,-0.009645979601169224,true
0.010416039942041877,-0.008752207632225423,true
0.0032902537009374955,-0.007791770385627533,true
-0.06019381490283049,-0.002212966303576841,true
-0.07282149266946292,-0.0013234328772510906,true
0.08562379174039814,-0.01937206008599268,true
-0.0022516782410846314,-0.009126949864917883,true
-0.0035658212450719873,-0.009281391908485537,true
-0.005472743101383237,-0.007784512269648353,true
-0.022012380448608204,-0.005625485721405449,true
-0.023799005604607792,-0.005826271224199708,true
0.006180394111616527,-0.005414750231596821,true
0.027794528308075606,-0.008304030991033134,true
0.018559763117936168,-0.0072388097279796615,true
-0.03991151831888673,-0.004727463990078229,true
-0.02704210035227328,-0.0059419988939713175,true
-0.03743128883049884,-0.005012410510441989,true
0.03338557759857819,-0.01707019696278933,true
-0.005915759650230501,-0.010995812811878225,true
0.022785904218316277,-0.009962101662777084,true
0.10182995850697418,-0.02206394047027435,true
0.10473492634316273,-0.02253626450904639,true
0.0047286185009927095,-0.009216927374787132,true
-0.016359255718956023,-0.0060377142012151275,true
0.0025591186528696186,-0.00818890625971172,true
0.05636441931253433,-0.015735738355563716,true
0.052014661687812214,-0.016662742009332654,true
0.05027925830690505,-0.015822600896824524,true
-0.001886065066887932,-0.0101685304439455,true
-0.00961199920966116,-0.009545708074508469,true
-0.016047076014129358,-0.008777453200204843,true
0.025429907781449712,-0.015148722018945182,true
0.03681910254261089,-0.015653877113379955,true
0.05421249382257254,-0.017156155517194266,true
0.06221532018235221,-0.020194602903275544,true
0.07357769078374055,-0.02174189072187918,true
0.03585720435216244,-0.015237696887311164,true
0.06726573528542701,-0.02078273847225931,true
0.06910261202745371,-0.021353132831109678,true
0.002174306528394565,-0.008001280788771853,true
-0.006247175289518014,-0.008530195807208707,true
-0.015719161119686742,-0.0073435937906683735,true
0.001842083732246369,-0.00674603169662269,true
-0.011491988806021314,-0.005677307909964763,true
-0.01354685082055107,-0.00545449254301536,true
0.03735520692464811,-0.01619765931676756,true
0.057355465217068025,-0.017578343247864225,true
0.06072384146604404,-0.018149418566449388,true
-0.0325706518789447,-0.0009848257993356757,true
0.03637438126149395,-0.01378820458277838,true
0.044408108829309345,-0.01508641096012453,true
0.011102605216800954,-0.012573727230851955,true
0.07476495557041474,-0.019890933350389495,true
0.07781156729265104,-0.019908351655446632,true
0.09082015821168943,-0.02258242777733141,true
0.029502235253228815,-0.006186172701063725,true
0.013198540517828317,-0.005479259584400209,true
0.041274832638071524,-0.01519231994043893,true
0.07630749634232048,-0.017556622923155824,true
0.06941113782820207,-0.01708229881995993,true
0.07307316450269585,-0.018088768460847643,true
-0.0756889382745769,0.0015245971178688977,true
-0.0037782653791060827,-0.009503297138213518,true
-0.0032065428882113167,-0.010326990557642662,true
0.003653160313993209,-0.010695970170296942,true
0.057615897923842585,-0.017434753796464475,true
0.061873880696221795,-0.01769131396283871,true
0.07896156424912582,-0.020413523964306735,true
-0.0025174414165400893,-0.008497700386295326,true
0.02672148877111502,-0.013336975984983596,true
0.035111579094325496,-0.015201549450950397,true
0.05281104650654356,-0.012471914584079091,true
0.08071293799379364,-0.018455745314640143,true
0.07215387880229063,-0.017998813750498277,true
0.08563316818124811,-0.01942800483609311,true
0.06008875846487505,-0.017834429238759913,true
0.0682693720703742,-0.019528037299589074,true
0.08662776217561208,-0.021892385137958742,true
0.008761872480352206,-0.009875423671856592,true
-0.0038532040249732447,-0.009327231217712784,true
0.003540663400978694,-0.010287061649773777,true
0.00992714322520194,-0.007393292536894663,true
0.0011356958397041872,-0.00865846911948931,true
0.01015852763429348,-0.010007846901707446,true
-0.014438281275846343,-0.005135289803827742,true
-0.004858054895547248,-0.007346963771155707,true
-0.009185619577924742,-0.006772016825419558,true
0.0033222753581159115,-0.008226417045132578,true
0.10050583736908947,-0.011302222181274746,true
0.10960732047043398,-0.011245999412115931,true
0.07836056341777264,-0.008987838813032029,true
0.0653627428185557,-0.007395333931845577,true
0.04047649539537135,-0.006043623506354512,true
0.06145315621671532,-0.016763973981965413,true
0.04309149765285869,-0.015139004459356231,true
0.03605085389069629,-0.014057955053816629,true
0.022920759405132607,-0.00925300272574825,true
0.006949867207478366,-0.0008622295008859082,true
0.03525204418936112,-0.0030800176147512404,true
0.02808799724913391,-0.0027661672142949845,true
0.14854495859674333,-0.013209543510507099,true
0.14377884441083655,-0.012807211027257764,true
0.019652371110222777,-0.003535263227250368,true
0.09048137720560279,-0.009478214517207428,true
0.10103157764738291,-0.010545162691112026,true
0.1044399240576479,-0.010377015577144239,true
0.08803622812469358,-0.008782065850146514,true
0.12026923721756266,-0.011163455429669539,true
0.006224525300253081,-0.008722450133234555,true
-0.11854523272406903,0.004723357948130669,true
-0.10690154910832705,0.002978425067513807,true
-0.11447188998658864,0.003649871894398693,true
-0.05793523787059718,0.0007664887690679023,true
-0.05306883037512522,0.0008874998735285689,true
-0.038122234831706514,-0.0014820743684225146,true
-0.15672968691510625,0.0072637477046359755,true
-0.1286544753675849,0.0034131332139561155,true
-0.08183615813476364,0.002875107180527886,true
-0.08355157447575534,0.002541058820625941,true
-0.06856922226013262,0.0012512963731530768,true
-0.08067140741800594,0.0027926280744727527,true
-0.14263810690642376,0.006042313699057056,true
-0.08252114893028728,-0.002320307990983067,true
-0.03503916592063083,-0.006236215100770465,true
0.0020016766256386598,-0.00629106130519011,true
-0.01894153133682719,-0.003079765136390855,true
-0.05327250807641759,-0.0015821168352642134,true
-0.04264394127210169,-0.002902888556675226,true
-0.07035803744982783,0.0027452586006205537,true
-0.02103401332003152,-0.003722723467936756,true
-0.013539871209174992,-0.00478834063285255,true
0.0024615253074420362,-0.007832825674632532,true
0.014381468544785836,-0.00876918978202293,true
0.008588464930828543,-0.012229811586228878,true
0.010185616932731234,-0.0123284775793841,true
0.06500009348373204,-0.01688624810780734,true
0.025315042467929816,-0.012037491158167407,true
0.04112903713867655,-0.01330444877946843,true
0.029301380665018195,-0.01290357488344021,true
0.021785712631026577,-0.012202451214079174,true
0.03317331475981655,-0.014102493338889188,true
0.024350440563410514,-0.01018503942789084,true
0.019428386739368086,-0.009545199467183713,true
0.09377516080529191,-0.008411935103450313,true
0.04659096217285219,-0.015200889548587004,true
0.05575520455135785,-0.015566520868151162,true
0.03332749753414044,-0.013604953461469477,true
0.07874838946515972,-0.01117866403307552,true
0.04659832152651133,-0.015143087984964193,true
0.02404352896091022,-0.012764143173396886,true
0.03316382576650523,-0.004755353795586614,true
0.12771738394985133,-0.013213409141105997,true
0.12351503278582121,-0.013103107690293214,true
0.014087079853744466,-0.010349284324637886,true
0.0301378878510985,-0.01350347507915417,true
0.038642316430520296,-0.014777338349035662,true
0.005216653223591772,-0.010282349749105024,true
0.05219236636847846,-0.012584662820929154,true
0.04268421615552942,-0.011881226423650804,true
0.031396710950589046,-0.010870304607899756,true
0.06397382014147768,-0.01689535269632078,true
0.021267496218033255,-0.011740491394256342,true
0.013617105303388222,-0.004090638367904159,true
0.03995383242602235,0.1513400759408665,false
0.03997495468286538,0.1513400759408665,false
0.03996287785879482,0.15136849428147595,false
0.03996393604179238,0.15136849428147606,false
0.040554623304994375,0.15136849428147597,false
0.040577023744224894,0.15136849428147597,false
0.04814650080226435,0.15061286306446126,false
0.050166876443069275,0.15037062557474754,false
0.029522219336930444,0.18340124082022813,false
0.030916625403782372,0.18956133070675957,false
0.8106443182049045,0.03445847091427588,false
0.8106560133042952,0.03446658137041263,false
0.8108689425308122,0.03473250152863068,false
0.8117653940811688,0.03471128548392591,false
0.8117684152899112,0.03470765846738037,false
0.8117717813016867,0.034703622087617236,false
0.8117717812764838,0.03473283879573441,false
0.8121166095660652,0.03456683820901815,false
0.8121130108293392,0.03472017988643457,false
0.8130218346881132,0.034569586878415964,false
0.8276342066391099,0.03416586294770241,false
0.827660503074982,0.03416586294770241,false
0.8276657372130709,0.03416586294770241,false
0.8564378008788521,0.03416586294770241,false
0.8564408828744347,0.034145314206085936,false
0.8928438314831296,0.030424512268077963,false
0.8928444127125654,0.030424512268077963,false
0.892844964880529,0.030424512268077963,false
0.8928454894400948,0.030424512268077963,false
0.8928459868475194,0.030424512268077963,false
-0.3075051998945776,0.21502322165694865,false
-0.30750548601118977,0.2150235077735608,false
-0.33543542483257627,0.24295344659494733,false
-0.8692120365320054,0.3709773037268673,false
-0.9879857796388047,0.3900737224249986,false
-0.9893934503246844,0.390073726470175,false
-0.8015982673817823,0.7091162891441534,false
-0.8040120734232643,0.7115300951856354,false
-0.8294739643734532,0.7369919861358243,false
0.8529955351164542,0.03033905103802681,false
0.8530838750096398,0.03033905103802681,false
0.8536359345405253,0.030337053863990993,false
0.8536575280992484,0.03033905103802681,false
0.8536705698675324,0.03033905103802681,false
0.8536746318826783,0.03033905103802681,false
0.8538457594190234,0.03033905103802681,false
0.8557040079019547,0.030339051038026796,false
0.8389876816262052,0.029827825845801875,false
0.8546977097521642,0.0285668965741996,false
1.0469332850362385,0.02764604598610898,false
1.0469586918004576,0.027706367690931988,false
1.0469748584093563,0.02774477254661789,false
1.0643675864698963,0.02860351838171482,false
1.089616533267637,0.024059039530530624,false
1.0901377091828304,0.02860351838171482,false
1.0901389681144227,0.02860351838171482,false
1.0901652213363011,0.02860351838171482,false
1.0502897168529433,-0.0008368116687051952,false
1.050291204310156,-0.0008368116687051952,false
1.0503025862464008,-0.0008368116687051952,false
1.0503061280892658,-0.0008368116687051952,false
1.050308514500458,-0.0008368116687052091,false
1.051597259544361,-0.0008368116687051952,false
1.0516345409309864,-0.0008368116687051952,false
1.0533387997397254,-0.0014028514196584158,false
1.0539357719849185,-0.0014028514196584019,false
1.0548130500155202,-0.0014028514196584019,false
1.123497994739104,-0.014133796894752804,false
1.1236074773360327,-0.014133796894752665,false
1.1238735244160751,-0.014133796894632455,false
1.124139761133574,-0.014133796894752915,false
1.1271328573004267,-0.014133796894752915,false
1.3310557081090206,-0.0204992696323002,false
1.3310764027548878,-0.0204992696323002,false
1.1775354963792186,-0.02554853260517076,false
1.1776139067878808,-0.02554853260517076,false
1.1776688037348282,-0.02554853260517076,false
1.1785113243444938,-0.02554853260517076,false
1.1788034020437042,-0.02554853260517076,false
1.1858774791096551,-0.02554853260517076,false
1.185919833717373,-0.02554853260517076,false
1.187721437461231,-0.02554853260517076,false
1.187723725595653,-0.02554853260517076,false
1.1877519058448447,-0.02554853260517076,false
0.137392280459404,0.13728829707400386,false
0.13792578374048814,0.13863754880638138,false
0.13792666436345202,0.1386375488063814,false
0.13878750844322352,0.1386375488063814,false
0.1388150858990056,0.1386375488063814,false
0.13739228045940388,0.14453521197838226,false
0.1377774006721364,0.15136849428147586,false
0.1377413030175525,0.16409943975657054,false
0.14043099119661906,0.1640994397565707,false
0.137392280459404,0.17195400755042567,false
