0.34208354742096997,0.036543464156121086,true
0.2531732085423384,-0.23690746924069517,true
0.2529080250935469,-0.2340482046284973,true
0.2529080250935469,-0.2340482046284973,true
0.2529080250935469,-0.2340482046284973,true
0.252908025093547,-0.2340482046284973,true
0.2229014352040206,-0.008179733661681343,true
0.2234626057820232,-0.008187281099826027,true
0.14645637185143542,-0.11840475363817804,true
0.14544431240128589,-0.12288141636338823,true
0.14544431240128633,-0.12288141636338823,true
0.20142153055237863,-0.016250180212527443,true
0.17092588693665597,-0.12162006938990944,true
0.16866684467362497,-0.12156260585573309,true
0.19478924901055408,-0.06808448409822576,true
0.18065874011086536,-0.020506048707038094,true
0.1367131450848491,-0.21403975984242551,true
0.14750793249177097,-0.18007727166798704,true
0.14793141514824984,-0.18066418370392912,true
0.14793141514824984,-0.18066418370392912,true
0.14152377397584076,-0.17668882956889265,true
0.13896600396203157,-0.1835565884986221,true
0.17643172771500681,-0.03906946828749769,true
0.1853947153763685,-0.125546565411359,true
0.19955845148133372,-0.12317748846647136,true
0.16695905239152026,-0.10967134278428547,true
0.1719368365483196,-0.11654597976405912,true
0.15718642622994494,-0.20952119877722852,true
0.15697621376084397,-0.20929765900757902,true
0.16882815630005954,-0.1785512288489639,true
0.18725204140709995,-0.06842440938737981,true
0.18866405040787812,-0.06704473694947355,true
0.2105441764073288,-0.08964859893706434,true
0.23128945858048533,-0.14139986237671964,true
0.2280108144955549,-0.13650555549350374,true
0.2280108144955549,-0.13650555549350374,true
0.22801081449555502,-0.13650555549350374,true
0.23537348300980673,-0.1582863835075199,true
0.2318032005505477,-0.16607846891668432,true
0.2032546264859788,-0.15703043228086333,true
0.16189774105278132,-0.059124170598352954,true
0.1883581251832569,-0.061872060206497714,true
0.1754992193910206,-0.14623015260394912,true
0.18233904072967413,-0.1505845326751123,true
0.1823390407296747,-0.1505845326751123,true
0.12231351682868898,-0.06772483399208884,true
0.12162648150649909,-0.06692927217182021,true
0.27045154163566476,-0.023213791456783817,true
0.2664727480146005,-0.024984064307774112,true
0.1113043720456674,-0.15131560599502425,true
0.10852621981826545,-0.1595821071236978,true
0.19857595512596005,-0.03054732343252997,true
0.11677438089576594,-0.20274860670861106,true
0.11656731674400203,-0.1948682095676313,true
0.20265304872718617,-0.21014984956082206,true
0.20433171341148318,-0.24923044702109198,true
0.13289768407073915,-0.07670688701864581,true
0.13081148216453492,-0.0711034040718923,true
0.13081148216453337,-0.0711034040718923,true
0.20359872171607757,-0.1543144088059316,true
0.20373973915305876,-0.1551832359105001,true
0.20373973915305987,-0.1551832359105001,true
0.16151944467750445,-0.16424902787503104,true
0.15998834321227923,-0.1695613439947019,true
0.15998834321227923,-0.1695613439947019,true
0.159988343212279,-0.1695613439947019,true
0.2073111088010394,-0.2551767553954969,true
0.20731563875404233,-0.2539674516588102,true
0.20731563875404233,-0.2539674516588102,true
0.20731563875404233,-0.2539674516588102,true
0.18148725101676827,-0.1188468456089149,true
0.18141110250678902,-0.11930801512744527,true
0.18141110250678902,-0.11930801512744527,true
0.1814111025067878,-0.11930801512744527,true
0.12390781113830329,-0.1441748615175138,true
0.1247195787164294,-0.14671600123938422,true
0.14762961218086118,-0.06917505597766738,true
0.1507612366410806,-0.07989028541442256,true
0.12826986143317962,-0.21831090262230735,true
0.1639802142282361,-0.22168391007652688,true
0.21511346303423587,-0.1868390794443171,true
0.21437168323000613,-0.18755520317426133,true
0.21437168323000613,-0.18755520317426133,true
0.17921068631609566,-0.02906892258396554,true
0.17908982716997762,-0.023761494045166254,true
0.22902580939730305,-0.022571323399452448,true
0.22866309606035848,-0.021687654738334894,true
0.2286630960603576,-0.021687654738334894,true
0.23737596236666342,-0.13914026688507009,true
0.21623127423723837,-0.025670973544029474,true
0.22524420463045736,-0.12597006555369306,true
0.22325206719835897,-0.12321570884159017,true
0.22325206719835763,-0.12321570884159017,true
0.19688466035326485,-0.06896389830580163,true
0.14386695109804812,-0.019926501397995233,true
0.20256132565935794,-0.0677367131756823,true
0.19938705169161325,-0.07033014852276254,true
0.22074292623003489,-0.06926756161919045,true
0.19430412732561614,-0.06658690232506204,true
0.14656591974695687,-0.0023280065106432435,true
0.16138849221666995,-0.05747330743542123,true
0.18654617511233035,-0.05659086066952157,true
0.18635306321581546,-0.06255227137079644,true
0.19479454003771443,-0.05313609350195336,true
0.19019160949190755,-0.04556682515612054,true
0.19019160949190755,-0.04556682515612054,true
0.20516111098726886,-0.002935571555999994,true
0.20532346450289388,-0.002657381777672052,true
0.20532346450289388,-0.002657381777672052,true
0.1916035505433907,-0.25817813534012246,true
0.19163376532992024,-0.2583417426394503,true
0.19163376532992024,-0.2583417426394503,true
0.19163376532992024,-0.2583417426394503,true
0.1599652156654829,-0.004270140464857297,true
0.17336096618809643,-0.12705637506346412,true
0.18140317295231784,-0.12239280847038336,true
0.09787059043088027,-0.15975704082424946,true
0.14379124496617385,-0.27861962133224316,true
0.14388614748158524,-0.2691088955956251,true
0.14388614748158776,-0.2691088955956251,true
0.10737332199254357,-0.008697059388712125,true
0.11106697772183516,0.0014151889723985622,true
0.14726811979451276,-0.30820252412135907,true
0.14819422338643173,-0.3105862628775389,true
0.14819422338643173,-0.3105862628775389,true
0.14819422338643395,-0.3105862628775389,true
0.1212301764313253,-0.05458113961990185,true
0.11992382858434043,-0.05661336743409939,true
0.11992382858434043,-0.05661336743409939,true
0.13669747446217856,0.03335389084045581,true
0.1315956601921586,0.032569970552369876,true
0.157973667127276,-0.1946046169954092,true
0.19042611454167419,-0.05302472078378506,true
0.19291953657307678,-0.05846428536947079,true
0.15105479810872133,-0.09365688675220318,true
0.15108777616658264,-0.09223234319265194,true
0.15108777616658264,-0.09223234319265194,true
0.13604901168980651,-0.08720265367205449,true
0.13628006194272094,-0.08795049452359982,true
0.13628006194272094,-0.08795049452359982,true
0.14583706234135682,-0.24976315760190793,true
0.14567624900975282,-0.2518759261923582,true
0.14567624900975282,-0.2518759261923582,true
0.14567624900975282,-0.2518759261923582,true
0.1528533253494745,-0.20911249184186764,true
0.1528376064125543,-0.20946611874873944,true
0.15283760641255476,-0.20946611874873944,true
0.20799879882969954,-0.005693812306478696,true
0.2097592291656965,-0.006489683325842099,true
0.14154468272366466,-0.2221775319534094,true
0.14568938587346397,-0.22658836507375546,true
0.19068069790043862,0.05064223295871906,true
0.17369659040608326,0.052826087538644595,true
0.16228350971379601,0.05443350559894733,true
0.2851109315300025,0.08385457698678911,true
0.22429370774269675,-0.03694426413202345,true
0.2474053694152889,-0.09611110534095824,true
0.24742108835220927,-0.0969591304245001,true
0.2662556363487303,-0.0009429096760755762,true
0.26590832485199545,-0.0011324077429777368,true
0.30077777399063677,-0.062011712748051284,true
0.2967503286743219,-0.0638296395125395,true
0.28455551399231505,-0.19092078721658945,true
0.24144490255356404,0.009131512087344529,true
0.2881621719741876,0.006989678781985642,true
0.24402326120377135,-0.163457693118096,true
0.24122773660660338,-0.1638369686486727,true
0.2412277366066036,-0.1638369686486727,true
0.2206448985481319,-0.2150428998800522,true
0.22217785729408812,-0.23402432869696677,true
0.2837775398635919,-0.05308398004198134,true
0.2685232855224666,-0.05161345894956648,true
0.16381693257332416,-0.1805370948793894,true
0.30374720348358725,-0.06475376482629835,true
0.2987885810279901,-0.0705776676120764,true
0.07696543468475889,-0.37360739107751906,true
0.07432155026436421,-0.3745009690108305,true
0.2901028038406429,-0.08636380876922667,true
0.31350979579926086,-0.1313246354045874,true
0.20411795391083332,-0.20372143718922198,true
0.24759952320099446,-0.07191310222768843,true
0.25074054731369566,-0.07500882591629088,true
0.22664536489487241,-0.12232879694128096,true
0.22414888514519263,-0.10763064916753828,true
0.23367165302550463,-0.033688274438362864,true
0.21658983444487603,-0.07296786945579603,true
0.32023955320632014,0.016172992770690175,true
0.32118477319991146,0.021963539307135793,true
0.32118477319991257,0.021963539307135793,true
0.21631608938491015,-0.02190050225971296,true
0.21713727926528126,-0.017751437838059214,true
0.2018582460812293,0.008382963721770498,true
0.19047379469191655,-0.25919766094801977,true
0.19005146717345386,-0.2600069653641994,true
0.22607043718611863,0.03442266840221331,true
0.1801180050305095,-0.16538404044030264,true
0.18004437064444645,-0.17708874795852259,true
0.21868774627959353,-0.21331618562607124,true
0.21895048355376212,-0.2133034674849923,true
0.2746795961788842,0.0063253070759956564,true
0.19733993505751624,0.020087870543021413,true
0.19732888197218998,0.020313816850203725,true
0.20117952322279856,0.02121712524177477,true
0.323592896216268,0.0014767970490638938,true
0.1663335392407126,-0.08644457649705961,true
0.16492304777419037,-0.07293461006401136,true
0.29140785192763274,-0.06368514638660505,true
0.28837966894423633,-0.06762943905113294,true
0.1991665027073589,-0.1976663821776028,true
0.20000422691618933,-0.1938180078220184,true
0.19628486370360387,-0.3477986280274208,true
0.1960585019520475,-0.34774322551010206,true
0.1960585019520475,-0.34774322551010206,true
0.1960585019520475,-0.34774322551010206,true
0.3161905906132407,-0.13198564689872816,true
0.31351587986266083,-0.12291744094608381,true
0.31351587986266105,-0.12291744094608381,true
0.148318776839132,-0.19460396304992988,true
0.2580989750256901,0.052600728943160924,true
0.1627552874913583,0.03142878658991233,true
0.23855340560582977,-0.0779744958140336,true
0.17968390306142668,-0.20141254305917844,true
0.17941169818548064,-0.20142717134285792,true
0.17941169818548064,-0.20142717134285792,true
0.17941169818548064,-0.20142717134285792,true
0.1928081735005742,0.0493264520905532,true
0.2822352894177804,-0.03728709869165048,true
0.21884136041311125,0.013108658268264683,true
0.2169510110249887,0.014108541085533055,true
0.20084100326207932,-0.13934669770378694,true
0.20476647933629652,-0.14322003103870973,true
0.22541201194432875,-0.1742213641859971,true
0.22522669156698044,-0.17411709610451087,true
0.19587889274267015,-0.006738764569946376,true
0.2241552217831979,0.06087422616701499,true
0.1817419513097177,-0.17749061655331477,true
0.18013336499837737,-0.17929658886123523,true
0.16342805346158842,-0.1289725055553399,true
0.17074784597066764,-0.1362867703296624,true
0.21011522134450797,-0.06573600076217279,true
0.20147270520833854,-0.05976561956185922,true
0.20147270520833788,-0.05976561956185922,true
0.16554811676648978,0.02105692274790183,true
0.20325152715352895,-0.07432144634503945,true
0.20193625529912765,-0.073457387612053,true
0.22772364696172598,-0.03569437317628488,true
0.20969746907857778,-0.15664588600475415,true
0.2123037322392829,-0.1622390610732518,true
0.1495140310159095,-0.08665247760791406,true
0.1472647508015998,-0.08310826622027978,true
0.12000406301929574,-0.07559132552276471,true
0.2224903086514676,0.02992383414377353,true
0.17635631597950105,-0.23891456028948643,true
0.17584805525257366,-0.23407923406492093,true
0.193489458927653,0.03565552109350345,true
0.19343976534321086,0.02403827780355594,true
0.18204947031452434,0.042568274079457735,true
0.1899753025861003,0.04377625161279819,true
0.14621129072620648,0.039614342390195345,true
0.1587943223805644,-0.1920619232071481,true
0.1495292095036723,-0.2893427160991273,true
0.23251219547703,0.03390916460622928,true
0.23482817924930782,0.033144958554402804,true
0.253550610909005,0.03600049787630222,true
0.20586728371097865,-0.03168507641683438,true
0.22130608833744347,0.02717495733369968,true
0.2208372835011683,0.027078695832387423,true
0.17916225946857708,-1.177913080074866e-05,true
0.1842137006612027,-0.1414773722601972,true
0.1786537722439969,-0.3075627011669717,true
0.17605072534992341,-0.3229663444174371,true
0.17605072534992297,-0.3229663444174371,true
0.18898220098926644,-0.077726848186358,true
0.17183646477176745,0.04353947216142795,true
0.21386564053012946,0.0459822046147742,true
0.1891452792973719,-0.034619085253580595,true
0.15801268808907928,-0.20047679299825494,true
0.34898628823823397,0.011368884347736197,true
0.35427446477479424,0.003321810268222647,true
0.2718526040799085,0.06535227467900451,true
0.2875796949154801,-0.17850706110113923,true
0.2512198459393451,0.06750972440129455,true
0.2622939955479572,0.0223193602789038,true
0.2604199539906448,-0.035073371030033273,true
0.31335693948335114,-0.1635482175123102,true
0.27609137170381015,-0.21730641031974618,true
0.28669196002549413,-0.20914108807557885,true
0.24132180802888403,0.04822035004979308,true
0.2091184068829277,0.04165288372004694,true
0.19007267247741014,-0.17009023265873724,true
0.19176320563857346,-0.1717249496463471,true
0.19176320563857102,-0.1717249496463471,true
0.30583263169829394,-0.044906337428443965,true
0.3030254651219084,-0.041493360567443904,true
0.30302546512190887,-0.041493360567443904,true
0.184623569360421,-0.2215436814907723,true
0.28513382684294747,0.03535556359255976,true
0.3016066838413898,0.07068371338809198,true
0.20439230691496718,-0.38484549956356817,true
0.2684686280399995,-0.1684888793710404,true
0.1876300312191682,-0.4836552484515839,true
0.19194567214552927,-0.5084210677627259,true
0.19194567214552904,-0.5084210677627259,true
0.2481138278156955,0.04300292892420954,true
0.25314298163954807,0.018834437560684147,true
0.28380718480650935,-0.06641471819912725,true
0.25895069848601365,0.06153431100810236,true
0.2606914688259795,-0.0612612559083634,true
0.25581524621550605,-0.06315756278073126,true
0.34012306224410105,-0.041374076772087154,true
0.3473790503651335,-0.048024316001289424,true
0.2510470176846216,0.03487136526072687,true
0.21102850686614016,-0.09058814184700781,true
0.19127710151118893,-0.06450381786048931,true
0.18919037866038935,-0.08522662431419414,true
0.24175518321437495,0.023854196961516916,true
0.171276317114065,-0.21879695173770708,true
0.23525143908900897,0.04394340604125935,true
0.21801274823589006,-0.02591247767627758,true
0.22613481807155247,-0.046483903233414114,true
0.22691297339839617,-0.04631921559989971,true
0.18660925673885026,-0.22935192291111273,true
0.1905625467245068,-0.2306777183380775,true
0.20140929269237157,-0.0004113754671863923,true
0.17102476882381076,-0.30890347719610256,true
0.19431361960811364,-0.10314389974296612,true
0.1935341052953695,-0.09288030773819012,true
0.1935341052953695,-0.09288030773819012,true
0.26068177985591656,-0.12562686860979122,true
0.26049645947856676,-0.12449816525400204,true
0.2604964594785672,-0.12449816525400204,true
0.19040558385295683,-0.2363006715145759,true
0.18932070540828563,-0.23448344696730894,true
0.19725546168727734,-0.21322124641806406,true
0.19674140262050444,-0.21444879848927778,true
0.24471519040508086,0.03901133030235249,true
0.2485703163091641,0.037485481198424875,true
0.2497577528898205,0.06756615727722126,true
0.25993026065272945,0.0050058075743861785,true
0.3696893458311056,0.0071344086486049285,true
0.3607229380552267,-0.010694026057129324,true
0.3607229380552269,-0.010694026057129324,true
0.21063173341197738,-0.1012533000153355,true
0.2103511481229762,-0.10108055830419582,true
0.24696073340816296,0.09525311082183796,true
0.2282643089067124,0.07608772160008304,true
0.15401552531830295,-0.2521071338794405,true
0.1552782044183396,-0.2618396310369695,true
0.15527820441834225,-0.2618396310369695,true
0.2729115710031201,0.04317081810429446,true
0.2691626724969535,0.042334117903259916,true
0.2088154992829946,0.09423986913159244,true
0.2432136974107416,0.05400977374508731,true
0.3291804275285408,-0.053906864510032015,true
0.10526167962662206,0.11739469410374515,true
0.25446102712265545,0.015783973946121854,true
0.30622511718384315,-0.11157388149306424,true
0.2849294457208307,-0.11110807119414456,true
0.2118155965577753,-0.1021476900438989,true
0.2149080595742853,-0.08043382226035245,true
0.21490805957428663,-0.08043382226035245,true
0.11759787414185255,-0.20647475032612927,true
0.11704433653465955,-0.2062172545354093,true
0.2009557590257316,0.08124283791973941,true
0.1769770416986137,-0.04983829616114743,true
0.1768309054147385,-0.050183332548590975,true
0.2333533487092641,-0.22870988866791375,true
0.13846209023109943,-0.4434703057865823,true
0.13876084063164265,-0.44324038086936124,true
0.13876084063164487,-0.44324038086936124,true
0.2810151133309988,0.11015755773976199,true
0.21550483558289102,0.06449715138867251,true
0.2510347065698315,0.017364838137177152,true
0.15659734559636052,-0.13647018512192277,true
0.20331422997097903,-0.08463482697906999,true
0.36473074746708783,0.015778346458048542,true
0.29944443059544656,-0.03725652535858659,true
0.22376277757268043,-0.28726481040421037,true
0.22310779166798683,-0.2860579020291856,true
0.3227277095375529,0.030349268117518147,true
0.3244368608055585,0.021909876266092976,true
0.32302559924702556,-0.11119420965614824,true
0.27020852161030684,-0.23268563439550904,true
0.2661919028816691,0.008953107991785725,true
0.2078035039959422,-0.22576326643529443,true
0.2120607311783305,-0.22771558304729966,true
0.32587213111500873,0.027020378509134968,true
0.29141454530339245,0.026143415370554646,true
0.2960975201187611,-0.007948861917882244,true
0.26177841497044496,0.035355074802012165,true
0.28230295253376875,0.057882233062357624,true
0.3199238498268604,0.07260171929892989,true
0.3093684251366152,-0.07469251891079454,true
0.2992868427909574,-0.09261644066177666,true
0.26290828510892006,-0.006157742746699446,true
0.19488553687703067,-0.21031589240633308,true
0.20721178814541974,-0.21854836673342048,true
0.30712107941281475,-0.023397641189921492,true
0.349342642275209,-0.0952994692405349,true
0.3491952829040237,-0.09492835582100212,true
0.21030551954876836,-0.2153677213271743,true
0.2981851129211133,-0.040852473982203596,true
0.24266401573788735,0.025622827998768694,true
0.23779268547665644,0.09199039458430947,true
0.3576527957595535,-0.08848273933731376,true
0.30685027882229743,-0.03776928962074577,true
0.2575730876601894,-0.06093825579487144,true
0.32286397978436426,0.06522427319682778,true
0.28319649502408095,0.08411647199786842,true
0.3082914102345141,0.08084886704510152,true
0.19357062223249977,-0.21943349207812846,true
0.28681195857817215,-0.08364040221149027,true
0.29343230369383466,0.10635700260227621,true
0.2955519593029666,0.014659756766018273,true
0.16441122415358508,0.04044055377071798,true
0.1822583782940575,-0.17431420649463236,true
0.18169571283156316,-0.17585859264308512,true
0.16702330830389742,0.08965896998470724,true
0.17028924587065286,0.17038601075237692,true
0.1591063320904411,-0.21927463079864085,true
0.19678824785048074,0.1273865643603176,true
0.21609699132734841,0.06961762343471944,true
0.21544463279539705,-0.1055173185008198,true
0.22726957751871268,0.11234075509674679,true
0.16241129590631267,-0.025166087516473423,true
0.19787172271371736,-0.1718643612348305,true
0.23718324376703045,0.05181030117638241,true
0.3112980766451439,-0.1313179216467606,true
0.24371770097375986,0.06895450436241757,true
0.15325766517282602,-0.19224935091369022,true
0.15395015908838056,-0.19681405342452396,true
0.22729644014001654,0.03531915628082882,true
0.15994233562112659,-0.2086882076346146,true
0.2787333769953327,0.07177276097900998,true
0.3094795723116469,0.10982174359924923,true
0.12763749672532798,-0.14327833867900241,true
0.23160415364862225,0.01077375494606625,true
0.22065589143396258,0.09420672737724911,true
0.18307150556207552,0.13296035610802304,true
0.229912170902498,0.12328413807518612,true
0.25438093854547306,-0.16129597342841495,true
