0.04279024735873535,0.11621933273688878,true
-0.039409645639006355,-0.14278831489666377,true
-0.03972529276425049,-0.13971170567258273,true
0.07181433574145629,0.07216853491679753,true
0.0741362537521673,0.07394011906997289,true
0.07620458499377586,0.0838580488385352,true
0.10965969220584251,0.09825285367385472,true
0.1022605122703874,0.10055073193923558,true
0.10007988349383712,0.062226822894969835,true
0.11832861796801925,0.11251171521560277,true
0.119274517454561,0.11269626609698857,true
-0.039751611791197516,0.18283926538840856,true
0.09015625134890914,0.0706926196040305,true
0.12044936076586993,0.12081157259360875,true
0.03468090669101073,0.10167343012706365,true
0.011552869238312988,0.01951961807624425,true
-0.05909725173527561,-0.06927655794008647,true
0.09569158212130904,0.060386156958499804,true
0.09454545871203779,0.08815800241843785,true
0.09385006562655607,0.08725394896880712,true
-0.02160471066052191,0.13573995820895757,true
0.07167028323596313,0.1690970271052512,true
0.04024469309151618,0.04001070847835897,true
-0.0029677969902702633,0.03900757720795034,true
-0.0629969222038933,0.10496981730785726,true
-0.06216422624289477,0.10493931463089345,true
-0.06216422624289477,0.10493931463089345,true
0.0955825083762443,0.10846460154381155,true
0.10064531975090837,0.11040918817844747,true
0.011014673045281836,0.1262968807491338,true
0.03783888035119004,0.10061572780933736,true
0.03903705292046583,0.10523428311672567,true
0.057936696341640476,0.0919360547336614,true
-0.04329978055655444,0.15373207917538045,true
0.062451338103416715,0.08635455658760427,true
-0.0842182571381297,-0.05183224091205241,true
0.06193786793053485,0.2149134456190145,true
0.062506784728173,0.21345188012447713,true
0.007722122004632417,0.118026170042423,true
0.07718537264168598,0.10332285156574605,true
0.07805861168206074,0.00012632748213170508,true
0.07543151073754167,0.02041985383358358,true
0.07543151073754545,0.02041985383358358,true
0.10477659159005401,0.1323890416893041,true
0.10328003101647257,0.1399680851968801,true
0.06721426658928706,0.1125385492118871,true
0.015203701785209925,0.21511738291111349,true
0.013073128989343999,0.2539203940900838,true
-0.06292571134268525,0.21692045321789144,true
-0.03775615997015762,0.059429469612506614,true
-0.042253723809116364,0.05093498816814779,true
-0.04184086389242935,0.049607682135967,true
-0.06551675846248921,0.04749636247319611,true
-0.006900616189539993,0.1596720059172574,true
-0.011585810681877404,0.1607710857645932,true
-0.0879167871680839,0.16397730901402863,true
-0.08818840315013957,0.15935431316060455,true
-0.08818840315013957,0.15935431316060455,true
-0.08818840315014173,0.15935431316060455,true
0.04010978648990343,0.14311142161054047,true
0.03965688178867313,0.13858489587468537,true
-0.1266460280624011,0.11314274265927704,true
-0.00462481310039814,0.08611000969571503,true
0.0010576505455369145,0.08533488109273346,true
0.0010576505455373586,0.08533488109273346,true
0.019461218813359632,0.18527494266194733,true
0.01894435117572757,0.186014487291998,true
-0.08468185712963398,0.167223884607977,true
0.011956853369175832,-0.0058425824387606795,true
0.009273807505070605,0.004853888298696596,true
0.017889461019932676,0.2566229839579526,true
0.018095800379216112,0.25975687697095307,true
-0.121366050740779,-0.02516294375496475,true
-0.12337759902149495,-0.030166150186830443,true
-0.12337759902149495,-0.030166150186830443,true
-0.12337759902149495,-0.030166150186830443,true
-0.12337759902149628,-0.030166150186830443,true
0.017704956034124017,-0.01206991181212036,true
0.002726168135106677,0.04002231254739197,true
-0.023031189939081556,0.14727662398976715,true
-0.023406405946312672,0.14693070843381317,true
-0.09399716188579853,0.20818687870664032,true
0.0847929711136243,0.15446440770787628,true
-0.054698370000422554,0.24371220066708954,true
-0.049930186769068796,0.016208275105184633,true
-0.02304989864498433,0.047759665991491396,true
-0.02196275522381122,0.04596267535848053,true
-0.04560737358046066,0.060065696029688365,true
-0.07583969102812702,0.1577894184875741,true
-0.04614729867888341,-0.027032313854669088,true
0.017676069870464745,0.18657902815821314,true
-0.04675490127516514,0.06262571552279139,true
-0.052138523921496926,0.06489097514631892,true
-0.02179123626662055,0.16813401320459986,true
-0.021279125079638916,0.1694347653675332,true
0.010024254456036136,0.059764543561960703,true
0.0022407986073423036,0.06582892873766566,true
0.0022407986073405273,0.06582892873766566,true
0.012391471996776982,0.14179054835322047,true
0.01413949026154751,0.20542333462717677,true
0.007767295971388255,0.2159051094341531,true
-0.0755018471331674,0.07580671647074366,true
-0.022345158919819016,0.23433558085444117,true
-0.03244890199614349,0.22834272125246668,true
-0.0324489019961426,0.22834272125246668,true
-0.06957639680815453,0.14552528598787928,true
-0.014036002025134511,0.09281734564783717,true
-0.01601160512877199,0.09645121732237483,true
-0.10026963697386543,0.1941739116001382,true
0.004303331509105751,0.2359427902984872,true
0.0007818366436886104,0.23887298443796778,true
-0.03653541789961583,0.06768272259714747,true
-0.033673937186725206,0.07535699942591334,true
-0.033673937186725206,0.07535699942591334,true
-0.023578936919696508,0.06606491842749262,true
-0.02339148746443527,0.06763462164881373,true
-0.023391487464436825,0.06763462164881373,true
-0.018238756522664365,-0.016197858364556783,true
0.023376789226999928,0.21310243943216944,true
-0.09211717115355071,0.04803335109236384,true
0.04140644728651574,-0.07029824165562504,true
0.064376026983171,-0.00236327407816761,true
0.06306193291655114,-0.0029794370935332104,true
0.06306193291655114,-0.0029794370935332104,true
0.06306193291655086,-0.0029794370935332104,true
-0.11684000909814335,-0.1597848257229697,true
-0.11711153448113869,-0.15519152229586952,true
0.05775078951826616,0.10563533546467907,true
0.013494326467423878,0.13340412618657238,true
0.022027851934342826,0.12524964453717358,true
0.031128935212998393,-0.0004713034437071606,true
0.03006901680937135,0.006105055828296013,true
0.08015512167921388,0.060450752992831536,true
0.07990307509413086,0.06011148335477001,true
-0.06941971362123013,0.18905090333958752,true
-0.019657998685927394,0.02147672118683941,true
-0.018211765890211562,0.012473782320224114,true
0.07351026951780845,0.17755397202511913,true
0.025001539583116072,0.12734784724255688,true
0.025651587839036483,0.12723939659138805,true
0.025651587839036427,0.12723939659138805,true
0.07509072482100054,0.13685335757275707,true
0.07509172141066164,0.13762115480443127,true
0.0672074741076526,0.13217573406239636,true
0.06558869540205324,0.1291900181963075,true
-0.08624928176888944,0.23813565613766796,true
-0.03631862223634398,-0.22541642768243664,true
0.11606179415693782,0.16817172410031445,true
0.12641074358931065,0.16776823045750744,true
0.0720993250559859,0.1567987108423341,true
0.08347041308394043,0.17069660665532238,true
-0.04710661589599026,0.15990156108536357,true
0.07234969437622854,-0.008452711757043652,true
-0.0008073252389468044,0.15976667577423687,true
0.06948064864182102,0.08656627113022441,true
-0.05320873438811673,0.21783590490021343,true
-0.09536565482116116,0.01794840568699474,true
-0.09537987887358836,0.016691433135648914,true
0.09445627272629367,0.16142502600350017,true
0.0355388432791196,-0.09342509334884053,true
0.04279908955597618,-0.0912152958472765,true
0.012561200266120232,0.036479370538374134,true
0.01662764847779037,0.03215584332146282,true
0.005202382211921236,-0.10700726708374386,true
0.004052634840247649,-0.10651922797761326,true
0.004052634840247649,-0.10651922797761326,true
0.004052634840246094,-0.10651922797761326,true
0.01967789233231329,-0.03042311793170338,true
-0.06137800633407009,0.14176672870316143,true
-0.04195306956267727,0.1435840445200407,true
-0.04197454153990983,0.1493729370275938,true
-0.07100601374602555,0.1150353270212614,true
-0.07264241396880398,0.11527031833328838,true
0.03794596970581761,0.13429925018944378,true
0.036838622694251436,0.13414374167122478,true
0.036838622694251325,0.13414374167122478,true
0.060559404497382424,0.07243734771408672,true
0.05918492615723239,0.05243018442787761,true
-0.05668035447097195,0.10486614877380962,true
-0.05594727217650784,0.10707119280495281,true
-0.08834299450358611,0.08278931919094168,true
-0.019489520840256028,0.05940065029617392,true
-0.02056248550852996,0.05169025305267416,true
-0.02056248550852996,0.05169025305267416,true
-0.02056248550853068,0.05169025305267416,true
-0.03862413292369225,-0.016477910246886385,true
-0.10671834116419929,-0.045017225112952364,true
-0.10891620641192573,-0.05159766730312265,true
-0.10891620641192662,-0.05159766730312265,true
-0.0009068382306979816,0.04930693152900778,true
-0.0009923637433932875,0.057927119169197905,true
-0.000992363743390401,0.057927119169197905,true
0.014174824901015001,0.0059162998532875655,true
0.004290195651442244,-0.16480763387326158,true
0.008006931491285993,-0.1356356902087108,true
0.022984586902054377,-0.09786700960639871,true
-0.0023295605703272104,-0.00192832705024637,true
0.0048575269655289355,-0.009736773934401644,true
-0.04684753780802863,-0.2420916607642547,true
-0.051344965748399064,0.003037142190895903,true
-0.09729798679789524,-0.34390304740909494,true
-0.054688931755628396,0.08321525398250662,true
-0.04937026863535818,0.13782055917736136,true
-0.05197114115199026,0.026094915900193083,true
-0.051973134331311545,0.026118787560425627,true
-0.023659976772870378,-0.0530386542940513,true
-0.005164450459088643,-0.05860876795295633,true
-0.09740172272166389,0.2293816382026299,true
-0.10046681675688884,0.1052833713122372,true
-0.07525454792754316,-0.14844136764326055,true
-0.07469233546034955,-0.1489988200835224,true
-0.07469233546034955,-0.1489988200835224,true
-0.08402779850737713,0.42089962135038417,true
-0.08052138838545964,0.4403452790804867,true
0.017215881016091117,0.23931138883314174,true
-0.031503718230887656,0.19697227249822657,true
-0.029455499980612768,0.19637405048093837,true
-0.012794242236777317,0.13749473462781947,true
-0.010709376666708958,0.1459368682929043,true
-0.010709376666709625,0.1459368682929043,true
-0.051550300452872955,0.24194150338850062,true
-0.05646131310240843,0.24472346077642482,true
-0.11735475334899045,0.17009171019277614,true
-0.11830903324858763,0.17621698151311915,true
-0.06074234518782713,0.07713954816541713,true
-0.06449269327895261,0.07126199374876063,true
-0.03377979311720945,0.2237661398478512,true
-0.03554620299117185,0.2188303388186459,true
-0.035546202991174294,0.2188303388186459,true
0.011237158443762219,0.015003211004352979,true
-0.09036162409560544,-0.18383453865566213,true
-0.09053770336882755,-0.1873101134321924,true
0.07050837722046688,-0.0706821911505695,true
0.08392949547989681,-0.07521369387426335,true
0.08392949547989681,-0.07521369387426335,true
0.08392949547989681,-0.07521369387426335,true
-0.10990433964507267,0.13572772513113063,true
-0.10994660410658956,0.13594343434057277,true
-0.10903685364501119,0.2008598066397671,true
-0.10825643334166712,0.202176205021954,true
-0.08949943814055607,0.09853618512830775,true
-0.1027937177159033,-0.03348065246858556,true
-0.05731751951949261,0.16834860215864222,true
-0.1334131875969615,-0.15023176451244313,true
-0.13636146220938825,-0.13904066463031728,true
0.01192943876824673,0.10784389517383408,true
-0.020778452695986674,0.10134660146312546,true
-0.01685188943304744,0.10185338995532822,true
-0.03515226537146253,0.2785911454923613,true
-0.01513336116232556,0.15237002513484788,true
-0.018520769418856546,0.1529689028032286,true
-0.033111159147402466,-0.09997437455578018,true
0.0352281648500951,-0.04969872095508743,true
0.028235548196654484,-0.055275406026078944,true
-0.017449163736483496,0.15111761233882737,true
0.15555771416268682,-0.006089519046975855,true
-0.07182708197989132,0.1753223433263762,true
-0.06945191437162859,0.175482679820822,true
-0.02152793342031939,-0.19330356576366592,true
-0.01710583859838946,-0.19144005634708572,true
-0.017105838598391238,-0.19144005634708572,true
0.06562161272607164,-0.060242499493791346,true
0.07039713448129017,-0.06329282679481674,true
0.07039713448129017,-0.06329282679481674,true
0.014754951654296092,-0.1931381926767366,true
0.01357421940408246,-0.19450970300359893,true
0.013574219404080462,-0.19450970300359893,true
-0.053517193140168465,-0.1558667600981729,true
-0.05233999425329802,-0.044647003792955164,true
0.03250996655068669,0.2049856676824553,true
0.03370157068810757,0.16460620305614304,true
0.10192035263619717,0.2099561586149199,true
-0.06175538832106319,0.01645915649013352,true
-0.04913349893374641,0.3303115508067014,true
-0.008253255155517655,0.2233931860434415,true
-0.051959827211334304,-0.06468543498641233,true
-0.04969326522631844,-0.06559357135421018,true
-0.04969326522631844,-0.06559357135421018,true
-0.02394374397082527,0.18664385290020724,true
0.05843503687099813,0.006056590985000332,true
0.057661637994809056,-0.011389524627983372,true
0.04028374168591256,0.03427348942631503,true
-0.07128404047770744,0.19437543959492465,true
-0.036377377775147005,-0.03432433395510892,true
-0.03680464294238556,-0.030132249881088535,true
-0.03045645740313995,0.17120338888043185,true
-0.03601896789355743,0.16754378290051242,true
-0.03601896789355876,0.16754378290051242,true
-0.028096533086731032,0.023108377169311245,true
-0.015804686811403665,0.13704617233151217,true
-0.024349491861299907,0.17178667993420382,true
-0.029582357671695522,0.16909162611836215,true
0.004263548585933655,-0.012379498173057835,true
-0.05989082362933557,-0.06455814926749448,true
-0.04605494287295801,0.13081262917393466,true
-0.019471185472445314,0.1646560570704343,true
-0.0234939196376368,0.16291068405979892,true
0.02893394443707023,-0.10524105368977765,true
0.028829076025052414,-0.10254713981276731,true
0.028829076025052414,-0.10254713981276731,true
-0.0033047099289367776,-0.13637440322534955,true
-0.08529377891392213,-0.006086249338554506,true
-0.08299509956211548,-0.000396360145973329,true
-0.000986325281569611,-0.013561297642158632,true
-0.07303948594899082,0.17839508832795703,true
-0.09842738105626012,-0.0471239280571214,true
0.0075134973350070855,0.017800565374923583,true
0.010422814351608647,0.01620280326707446,true
0.010422814351608647,0.01620280326707446,true
0.010422814351608647,0.01620280326707446,true
-0.1523060531792141,-0.027978260504173402,true
-0.05554453565449509,0.25841652931077563,true
-0.04504002763600077,0.25749122680528247,true
0.0012036351981669358,0.23010831655366504,true
-0.11470357014508152,-0.07783438681261456,true
-0.045463306444594294,-0.2330551310126654,true
-0.02616407586903277,-0.14771987913744367,true
-0.02517813159794513,-0.14759114055530942,true
-0.027574929731795886,0.18673869551522815,true
-0.04787038757176282,0.06182393015725696,true
-0.02953266712966557,0.03718399896655766,true
-0.12685567232909795,0.2094268192294666,true
-0.10201209637466024,-0.06521989510025294,true
-0.07672766539397655,0.18146145238910405,true
-0.09999214503112254,-0.07023188576664241,true
-0.021800218551784933,0.14496269717250554,true
-0.009575687378079109,0.17238542332683293,true
-0.005147658317715326,0.01079894497428624,true
-0.0038543114358471076,-0.007060811972277481,true
-0.13098418089690622,0.027827470445973557,true
-0.13565229746642526,0.11469235911403386,true
-0.13620535942855297,0.10798099532161443,true
-0.06454897734466014,-0.2670500065442494,true
-0.0650301036531013,-0.2751782397982052,true
-0.0650301036531033,-0.2751782397982052,true
-0.01483541580977854,0.06278899207149236,true
-0.12996910902801195,0.014628945732457321,true
0.03671227839645702,0.0101995904687473,true
0.04118633177933079,0.001129641080243271,true
-0.06949749800506252,0.12391757860217778,true
-0.06807382437530156,0.12027197971378056,true
0.022256609470218902,0.19961336150203435,true
-0.07381721588912601,0.18950456275974004,true
-0.008172942131191449,0.005986674571377915,true
-0.005928169220119683,-6.930088656265099e-06,true
-0.0059281692201199054,-6.930088656265099e-06,true
-0.15783321234527203,-0.2953440706488064,true
-0.06039061638656233,0.14639556303058354,true
-0.062453828781276685,0.15232461586032597,true
-0.062453828781276685,0.15232461586032597,true
-0.06646427820505955,-0.3306912072080126,true
-0.022757117255354297,0.1519772186798105,true
0.053061521546220417,0.18316806106987094,true
0.11496496011433766,-0.24826210738000776,true
0.04701865483937226,-0.05633329600868131,true
0.024343793885089268,-0.07042374462661649,true
-0.06390492270769943,0.12564427404823397,true
-0.07186339329066135,0.13257769494476412,true
-0.00838502596201756,0.16431442647399996,true
0.10701425840077763,-0.15086945892152692,true
-0.01908482025446529,-0.14806493372497465,true
-0.019388734801431842,-0.15117023140964414,true
-0.041003224356794724,0.18882957845153903,true
-0.04722253273310698,0.08843860774459933,true
-0.03339725206675167,0.12649513035240267,true
0.02234671880422001,-0.10376795382079984,true
-0.006841263278146929,-0.06366009265956785,true
0.08679917842939308,0.20965845709035102,true
-0.06711018770143565,0.11630461936185066,true
0.0018527296264451987,-0.06722514505198296,true
0.0011076429565233248,-0.06667560512831505,true
0.0011076429565233248,-0.06667560512831505,true
-0.09913315027162609,0.2550601494807929,true
-0.09923369257852623,0.25450689916798774,true
-0.05096135824129183,0.1814469528693885,true
-0.048923060588093814,-0.049952598164585194,true
-0.09715829461023587,0.10504169588277046,true
-0.08050874679491143,-0.1841206642489701,true
-0.03611036031648892,-0.014490323017147144,true
-0.02776423900530118,-0.005015330265071949,true
-0.026836549929831206,-0.001642541835811695,true
-0.08223930209085721,-0.2441031261037856,true
-0.08206272452280101,-0.2412818128865033,true
-0.05632817476198253,0.010361297180148998,true
-0.05650506942674893,0.010832591106388012,true
-0.017503170661182968,0.0032253695029944573,true
-0.015001096419544786,-0.19635833973696526,true
-0.013733751467915153,-0.19397822941353615,true
-0.036257810286732285,-0.22847262198736962,true
-0.036266054801197614,-0.22848943049719628,true
-0.03626605480119806,-0.22848943049719628,true
-0.08543753950998563,0.1715679598350257,true
-0.1042277619163714,-0.031998084733989796,true
0.014260637346429322,0.2360813567839113,true
-0.18889035981543634,-0.12599936626334518,true
-0.17385390561468994,0.20694812633614212,true
-0.09883376162894121,-0.02817887566466659,true
-0.07598345559485574,-0.03215076527972549,true
-0.10645450156577205,0.1660124907694307,true
-0.08621512454398027,0.00925608970741898,true
-0.06544778149969926,0.010002667685553135,true
-0.06707041066535158,0.023423785944983067,true
0.014642693582695987,0.1244141111574617,true
-0.1495170049036317,0.03730171420197159,true
-0.006024356302099729,0.06213595964531571,true
-0.005116236623602638,0.07231452562431961,true
-0.18533844631560398,0.14659589030365616,true
-0.18946102064498044,-0.049168785432771145,true
-0.1784409360254581,0.19470884897331864,true
-0.15076206248648694,-0.09092531106849044,true
-0.12452994268782755,-0.0961158325471434,true
-0.10585342210181331,0.16655608512978226,true
0.001984814943502139,0.062017207606960056,true
-0.1566098815782564,-0.13221650792725015,true
-0.084083567319681,0.18506819532744956,true
0.00290924245280956,0.12135524080627036,true
-0.07613929813938383,-0.07039120270378518,true
-0.04445843761997398,0.20654359982841086,true
-0.16328533357219938,0.21577397511832785,true
-0.10808303183155102,0.05166033433311057,true
-0.07288289612369779,-0.08755373431808877,true
0.06541185790462253,-0.09941377712852884,true
0.06311770850581883,-0.10279581917889047,true
0.06311770850581883,-0.10279581917889047,true
0.0631177085058186,-0.10279581917889047,true
-0.06570935314731774,0.10615793393485617,true
-0.045794773755838236,0.10059401915900779,true
-0.04668835228519681,0.09168500231139731,true
-0.018959830461313096,-0.16613803280956674,true
-0.05082696264820319,0.24284402058951926,true
-0.23913652008609815,-0.36628680153257775,true
