0.10948143003580271,-0.17837730414707442,true
0.2112569713413456,-0.15887983507950088,true
0.03670152900812305,0.1568783336178563,true
0.13444618223307034,-0.1725562400325038,true
0.049204380494329104,0.1955429130093358,true
0.17257964370844148,-0.16236743695575973,true
0.06700288293955112,0.1578239017025731,true
0.15508931396600878,-0.08307357497055312,true
0.05650489805338167,0.09168786935966233,true
0.0345736288845273,0.1415897422329686,true
0.10027448175546824,-0.14417501158554336,true
0.13178066728708512,-0.17781126863796493,true
0.2217011856853702,-0.23384607202846786,true
0.026771532279226844,0.18250767522018174,true
0.03744390104440446,0.1140192629292105,true
-0.08006835724683893,0.02639909400487883,true
0.09205705974725503,0.03460352434659941,true
0.06075825546411161,0.2266012908413504,true
0.06765130375054959,-0.06914831386064546,true
0.06460368726876992,-0.05757052884553926,true
0.017923608762300414,0.19325660481000884,true
0.07196082924035783,-0.1782442300126459,true
0.0855809030356771,-0.1886729566857721,true
0.002870212537325494,-0.24788850234006898,true
0.046489628297365776,0.053397137065181566,true
0.04665841434625316,-0.3203868834779169,true
0.09266081188348571,-0.033088517050495314,true
0.010643697863532694,0.23759289628777025,true
0.16818287003607907,-0.2706540321656752,true
0.17290720332236426,-0.27482078799095633,true
-0.0025951803865882674,0.21142693406853197,true
0.01845342743964331,0.06414194947990892,true
-0.030038904065177136,-0.08745440297809126,true
0.01399106133551889,0.23504414207252977,true
0.0026031218823923345,0.19241644984993456,true
0.15299484360785753,-0.3227493941509414,true
0.006948751097633035,-0.1604911332675505,true
-0.0009222687426063336,-0.15723801606383803,true
0.06413587439627806,0.19487490302834032,true
-0.053486416453406724,-0.01611367815223219,true
0.08261218345690331,-0.1663256612014974,true
0.12858065164614302,-0.1689191189003194,true
-0.0534042307085933,0.21510213349340312,true
-0.017547659511083977,-0.16062690581800587,true
0.05922598398256726,0.22626065943715923,true
-0.05260607563924366,-0.29040802534343846,true
-0.0493742259688335,-0.29136228080513127,true
0.1415097264103943,-0.0784710970115865,true
0.05636115110445447,-0.1848713484001363,true
-0.01427087270688587,-0.088546010513326,true
-0.014419319266792095,-0.25743375982763417,true
-0.022256364459508828,0.09533658359525554,true
0.017563281422143785,0.2385116193103587,true
0.062329112665140234,0.23634603994077286,true
-0.004946736915622536,-0.17162462694460312,true
0.026580603496515576,-0.19245056433493057,true
0.11297058977314339,-0.16444086654001633,true
0.0981221286220209,-0.17881030959898392,true
0.03489578522869509,-0.11648276073748032,true
0.039173261301005825,-0.1291040293675081,true
0.08978923477360104,-0.2157380841475145,true
0.1814178172511695,-0.16916901988798538,true
0.10941530145832261,-0.16395915670210282,true
-0.01318991174530583,-0.20998182337295157,true
-0.05655771126579594,0.06366855461586374,true
0.010687425233608966,0.10795799453247445,true
0.013961629964596515,0.12679750282753366,true
0.004219399787667747,-0.2939287666560326,true
0.04715336570907061,0.007279252600559172,true
0.09452167997527812,-0.1737764869214211,true
0.07661717662978462,-0.16584939699184043,true
0.004545239307168259,-0.12214874665748221,true
0.026452024080044514,-0.18758659999381644,true
0.03368282566237872,-0.017094397950283113,true
0.039933390714413854,0.0943259652375068,true
0.04371458778548663,-0.3424375150681649,true
0.028323121167901068,0.14317489225853341,true
-0.0644625698549683,-0.05859511535178763,true
-0.013382366798632854,-0.0008699540377770099,true
-0.029640198715845528,-0.009031928610239826,true
-0.02991761303774339,-0.23866087896767696,true
-0.02786081052652818,-0.20106730563584407,true
-0.028428889282860578,-0.2071673939937695,true
-0.06190986252657351,0.2074323524719135,true
-0.012393852242150349,0.23912730114516179,true
0.00838381909497778,0.18661894695815007,true
0.020919829837165057,-0.3915171348491653,true
-0.10348042584292072,0.06904616253432194,true
-0.009425192841210185,-0.18348758621159633,true
-0.01904352880350594,-0.2469336907381161,true
0.042152625552495535,-0.11123175127450069,true
0.06282841824658733,-0.14001256926003536,true
0.06299466752179485,-0.14375755889359554,true
0.007794517508825769,-0.272816739510928,true
-0.09795219519974305,-0.12783466219524708,true
-0.01993285992981485,0.2717771387137953,true
-0.0267278347337393,-0.16650658785919514,true
-0.09374803641678496,-0.31353248595814076,true
-0.0922949633920332,-0.3152629652581629,true
-0.05121426919342525,0.01622404218097362,true
-0.040104967149512005,-0.25222054063896504,true
0.006553865877375088,-0.26726595252374974,true
0.09746920725463229,-0.18048986732582417,true
-0.02545808890701933,-0.1726605886183199,true
0.03160409828780489,-0.2704684206805643,true
0.030102962461695276,-0.26695208191494313,true
-0.07909336665512524,0.18460397482295665,true
-0.13911990979553662,-0.2651726597509798,true
-0.1349563620412489,-0.2658030980787691,true
0.04663579603789622,-0.221973388787311,true
0.0876196481270428,-0.2577542062403291,true
0.14407808318563656,-0.3293391461969941,true
0.13209758058019788,-0.32736271578088694,true
0.048059568552455176,-0.3576858412028878,true
0.030784026531656336,0.03179667931779928,true
0.08224553838201429,-0.2850280995966523,true
0.10057762399145098,-0.32351839500680857,true
-0.0032714353518868075,-0.11733318823591166,true
0.054649472383937775,-0.3614654760362237,true
0.056226349024257605,-0.35899393218770914,true
0.08657318368383357,-0.2568961973787873,true
0.037475559858760776,0.14588059526666708,true
0.019424104837855567,-0.3240841324926942,true
-0.013145349010376513,-0.011442352339667838,true
0.06811172486886521,-0.42658621843163447,true
-0.07868348596945267,-0.379741717383308,true
0.020257754341216284,-0.33951377521459536,true
-0.004357013687042995,-0.3575447763055988,true
-0.019918715938477542,0.16525543828304334,true
0.04261438609704514,0.1813176979571156,true
0.06714557649240037,-0.2425208280533977,true
-0.04265068691468213,0.18266960930285192,true
0.09194282371306245,0.13120385956225133,true
-0.007322851831676318,-0.3335978989655044,true
0.03204126197600346,-0.3911070083433654,true
-0.012302040273906543,-0.22689881969037318,true
0.033012800996540234,-0.38481836069169306,true
0.033748148267505815,-0.38493929851594233,true
0.03374814826750759,-0.38493929851594233,true
0.00745158988737997,0.11818554949221349,true
-0.009904154951333743,0.23399403643069006,true
-0.007595509702921102,-0.35774880695882105,true
-0.013099545818160557,-0.03786338410444823,true
-0.08152607141096563,-0.2849151744610843,true
-0.07008356867391922,0.1428391233914319,true
-0.039789530616594175,-0.1928031250006732,true
-0.004323350768876445,-0.3645788646406707,true
-0.06498911557753145,-0.22267488679953185,true
-0.04044546781141706,-0.0715240939623889,true
-0.13338821230490067,-0.13181565246649352,true
-0.05890980539877363,-0.30311149648495284,true
-0.10491154609281876,0.04358642258576784,true
-0.025784592014144445,-0.27962845108576384,true
0.04921813383746512,-0.2636063602845464,true
0.10078906670260795,0.061594569953223655,true
0.14986485615421063,-0.24760273667977195,true
0.040660282522920005,-0.41598907682106834,true
0.003826781660798643,0.07466455725028176,true
0.04831680908847198,-0.34200913283036094,true
-0.04417072042774789,-0.44102582904503684,true
0.08212393894839808,-0.4902566346432362,true
-0.00723461613010995,-0.39996030005619865,true
-0.03413517509544938,-0.2268815643233344,true
0.059633538378824305,-0.015019626085190474,true
-0.10875016008461542,-0.2886578596276328,true
-0.011354675637134614,-0.4033639661115691,true
-0.052561438427816326,-0.34176538950624913,true
-0.11626363635470992,-0.3818226373024203,true
-0.029579271082188836,-0.4602776458687998,true
0.01846307754108581,-0.0073682582206942016,true
0.015383207793923943,-0.31617136953546776,true
-0.09657902002742616,-0.3696716940231539,true
-0.090152670149113,-0.36880836544706597,true
0.017241485114787757,-0.25263859985544457,true
-0.020804706815983117,-0.38478652296736016,true
0.03326737165043118,-0.3971613338418223,true
0.059118590350840786,-0.37597370801641716,true
0.016887242789957936,-0.3269282197780825,true
-0.08009175777843212,0.09374732615277992,true
-0.04804645802737481,-0.2972179812902722,true
-0.02593102361918628,-0.35298639662211273,true
0.006832450368393958,-0.3511638504976544,true
0.024064572789658158,-0.09489706284945343,true
-0.01213985349894569,-0.1185126615280423,true
-0.011300543806563763,-0.3732269046420369,true
0.0035118136191268218,-0.36726351208632324,true
0.043052051999556945,0.17591348164136078,true
-0.01607597945585697,-0.6071975717992015,false
-0.08510318678116784,-0.5606044163161781,false
-0.04841639553154557,-0.4700964956623599,false
0.0678952666655677,-0.5159753828388736,false
-0.06719194089020118,-0.4475366964084193,false
0.004540000809778726,-0.7488716251296088,false
-0.05544439222575455,-0.4823105757648263,false
-0.08946252729655312,-0.5050116817990455,false
-0.0885674085831742,-0.5023014357837055,false
-0.0885674085831742,-0.5023014357837055,false
-0.10337879358781522,-0.41023619441434567,false
-0.10337684594784588,-0.41024101868210655,false
-0.10336584070748836,-0.41024497998836007,false
-0.10334834296638082,-0.4102605362630236,false
-0.10334849642531567,-0.41026053626302356,false
-0.10327289587436247,-0.4103117943114976,false
-0.10207489401561975,-0.4112599261009756,false
-0.10206572344605222,-0.4112660617765445,false
-0.10220243298730858,-0.4115262323645591,false
-0.1021439482952793,-0.4115847170565884,false
-0.0994435880119853,-0.41288818288492624,false
-0.09944355844256461,-0.41288821245434704,false
-0.09944353004482252,-0.41288824085208914,false
-0.09943955490729264,-0.412892215989619,false
-0.09943936288290611,-0.4128924080140055,false
-0.0994182710269921,-0.4128992343729099,false
-0.09943012685733685,-0.4128980184912622,false
-0.09905120399496464,-0.4132176939092612,false
-0.09259516811741543,-0.4197366027794962,false
-0.0974107661018444,-0.41385813476943245,false
-0.09741065442407362,-0.4138582464472032,false
-0.09741043697656024,-0.4138584638947166,false
-0.09741018325397025,-0.4138587176173066,false
-0.0973895915625303,-0.4138793093087465,false
-0.09738125638782391,-0.41388764448345305,false
-0.09732762545469856,-0.4139412754165783,false
-0.09727906471219744,-0.41398983615907936,false
-0.09713997002026034,-0.41409655379943855,false
-0.09710871678425131,-0.41410757730687325,false
-0.09531320175786265,-0.4149030810866808,false
-0.09529167048532691,-0.4149246123592165,false
-0.09378327233257827,-0.41632598950812777,false
-0.09377678949553972,-0.41632840784713326,false
-0.09304663817881731,-0.4166952930573868,false
-0.0923076302828322,-0.4178282399404181,false
-0.09114901698488509,-0.41627885300375844,false
-0.08740323869458685,-0.4191193007523097,false
-0.08774171371675482,-0.4191687570808316,false
-0.08891622134032211,-0.419456306236538,false
-0.08911022896060852,-0.4196316733907709,false
-0.05447004761293485,-0.43864175317941384,false
-0.05203206824845138,-0.4397740280602844,false
-0.045870597161482576,-0.44258914943357625,false
-0.14947685680590125,-0.3883273908424319,false
-0.3343999999999999,-0.3341563209339192,false
-0.03878953137993832,-0.44967023453116406,false
-0.03878953137993832,-0.5064290243547104,false
-0.049106770442774096,-0.4383529954683281,false
-0.04280238056299773,-0.44378928169726334,false
-0.042799186275889245,-0.44382329482324406,false
-0.04355165926153953,-0.44390810664956276,false
-0.04330922843316594,-0.444068747686913,false
-0.026314020156860407,-0.460277646780014,false
-0.034800923529206516,-0.460277646780014,false
-0.016821115502938053,-0.4697705514339363,false
-0.04763518258971811,-0.4379564843471563,false
-0.04713993927139692,-0.4381897095686441,false
-0.04713539432916258,-0.43819279635088104,false
-0.04713858578910792,-0.43819813888500736,false
-0.047143444821615775,-0.4381982068383806,false
-0.047142889976550736,-0.43834621236839366,false
-0.04660922259398483,-0.4389824443428896,false
-0.0465863298135008,-0.43900533712337364,false
-0.04413001049752621,-0.4405863369275098,false
-0.04498936632239306,-0.4405106578764504,false
-0.02842931911127121,-0.460277646780014,false
-0.04349888217449188,-0.4412174438238144,false
-0.043497986224377096,-0.44121833977392916,false
-0.04391220195266806,-0.4398041240456383,false
-0.04385442255635122,-0.4398619034419551,false
-0.042488872090765406,-0.4412274539075408,false
-0.0424410301238773,-0.44127529587442893,false
-0.0424339600245526,-0.44128236597375364,false
-0.030032913558292386,-0.4467724846926755,false
-0.030018868862800384,-0.4467820048301906,false
-0.03313517400622393,-0.460277646780014,false
-0.03313517400622368,-0.4610816656716932,false
-0.027888245704824073,-0.44791261326963266,false
-0.02761894072415405,-0.46265487547933215,false
-0.02185865877909025,-0.4679982698078695,false
-0.02174163630970296,-0.46906445356837934,false
-0.02421952668860481,-0.45057304928110486,false
-0.02421569983475025,-0.4505755667880179,false
-0.024172023351982465,-0.45062881869475524,false
-0.02225070663025268,-0.45188438369193573,false
-0.022950372780855176,-0.45185046926588257,false
-0.022946055674023316,-0.4518547863727144,false
-0.021358316535214264,-0.4517767843063079,false
-0.021358040559290484,-0.4517770602822317,false
-0.02135781878975035,-0.4517772820517718,false
-0.021357317415851382,-0.4517777834256708,false
-0.021354636333918264,-0.45178046450760395,false
-0.02108627537284305,-0.45204882546867914,false
-0.02053049580334468,-0.45235632407702425,false
-0.020675726599627058,-0.4523499907067833,false
-0.020567715733799192,-0.4524210144482138,false
-0.020612235825293868,-0.45250757047432344,false
-0.018864613446788303,-0.45302221712152535,false
-0.018864465976205808,-0.45302236459210776,false
-0.018862494937035776,-0.45302433563127786,false
-0.018823971041237897,-0.4530628595270757,false
-0.01880180164909029,-0.4530850289192233,false
-0.01807655379366779,-0.45281025984692674,false
-0.015365025001557592,-0.45410545100932304,false
-0.014142575922470771,-0.45468646613340447,false
-0.014142575922470771,-0.454716530093521,false
-0.01405376025349437,-0.4547768222303321,false
-0.01474734222832004,-0.4550982564885128,false
-0.01473745564734328,-0.4551016316447177,false
-0.014686067175139803,-0.4551246630502957,false
-0.014358356766844202,-0.45548863749728624,false
-0.01300085087451909,-0.45616088094188034,false
-0.007649741088127687,-0.46010592865438005,false
-0.00887509431026761,-0.45762197201935073,false
-0.008815440477022776,-0.45764920002807463,false
-0.008592782257978868,-0.45816289305787805,false
-0.008588076839978163,-0.45816759847587885,false
-0.008586858567274057,-0.4581688167485828,false
-0.00857803063574046,-0.45817764468011646,false
-0.00857361900127121,-0.4581820563145857,false
-0.008287528255804553,-0.4584669048469342,false
-0.008287585009174835,-0.4584669048469342,false
-0.00828767435782686,-0.4584669048469342,false
-0.1323882063627243,-0.39558637347765335,false
-0.1323882063627243,-0.39560089521800623,false
-0.1323882063627243,-0.39561709354249597,false
-0.1323882063627243,-0.3956209347080378,false
-0.1323882063627243,-0.3956230819020951,false
-0.1323882063627243,-0.3956231319914589,false
-0.1323882063627243,-0.39562319013039743,false
-0.1323882063627243,-0.39562831048620695,false
-0.1323882063627243,-0.3956533191088501,false
-0.1323882063627243,-0.39565777464951085,false
-0.031808615270493945,-0.45351955240643177,false
-0.03213517570495608,-0.4816016246629532,false
-0.03213517570495608,-0.4830281587200382,false
-0.03213517570495608,-0.5097507423084927,false
-0.007355852794695861,-0.4581087859153261,false
-0.006807355952157965,-0.45838296778379173,false
-0.005331184900406245,-0.4601330222624105,false
-0.005315310006440789,-0.46013360836867767,false
-0.0053297787291078855,-0.46013485998091413,false
-0.005328454081379809,-0.4601361846286422,false
-0.18359655060398083,-0.3701533659247831,false
-0.19111896198539852,-0.36641106578141625,false
-0.19110687410643584,-0.36641925020225535,false
-0.00346436978145849,-0.46072595142558803,false
-0.0023430963041205025,-0.461847224902926,false
-0.001791098859549839,-0.4621055370542093,false
-0.0012574047716163994,-0.4629329164354301,false
-0.1585801567670092,-0.38254816886150694,false
-0.15864814639044067,-0.38261615848493835,false
-0.15582172261722738,-0.3840249714959379,false
-0.15418366880532752,-0.3873273899555206,false
-0.1623342839402185,-0.3863022960347162,false
-0.1623501730232089,-0.3863181851177066,false
0.0005289074019384221,-0.46214056183488655,false
0.01399959336327826,-0.46886243403359545,false
0.015222918720220004,-0.4694735118056981,false
0.03077863471638048,-0.4778587273849138,false
0.03106546490998097,-0.4781455575785143,false
0.031160212888427075,-0.47824030555696045,false
0.031165046103928527,-0.4782451387724619,false
0.03179053847590697,-0.4783466565678686,false
0.03157249720468931,-0.4784696915928132,false
0.0316708591162403,-0.47847119797515203,false
0.031785384837520046,-0.4785465391737008,false
0.031816053292093124,-0.47856673170015884,false
0.03241416302524452,-0.47949425569377785,false
0.03377483507784344,-0.47933092638643726,false
0.03378476383393671,-0.47934085514253044,false
0.033808028134294524,-0.47936411944288837,false
0.033808873809815884,-0.4793649651184097,false
0.03381142366754849,-0.4793675149761423,false
0.033898921321265,-0.47945501262985885,false
0.03390322349426435,-0.47945648551676534,false
0.03390186065527513,-0.479457951963869,false
0.0339023922444391,-0.4794584835530329,false
0.03390435050319694,-0.47946044181179076,false
0.03583208014701969,-0.48038535310958985,false
0.03583219835704468,-0.4803854713196149,false
0.03583322131104173,-0.4803864942736119,false
0.03583341442160989,-0.48038668738418,false
0.035834902986965,-0.4803881759495352,false
0.0358349380412616,-0.48038821100383183,false
0.035838570428536734,-0.4803918433911069,false
0.03585057892958064,-0.48040385189215085,false
0.036092671280258115,-0.48060403538139507,false
0.03609271370235348,-0.48060403538139507,false
0.03664505185806911,-0.4801563462229983,false
0.03665578649710591,-0.4801670808620351,false
0.03665809256484164,-0.48016938692977085,false
0.03670386815430534,-0.4802151625192345,false
0.036707475087178726,-0.4802187694521079,false
0.03723279298898671,-0.4804724099776864,false
0.03723279298898671,-0.4804917664712672,false
0.03878887331561811,-0.482134220865705,false
0.038844804620025354,-0.48213507770770647,false
0.038771677360667056,-0.48228297172559625,false
0.04040478132123751,-0.4826444105898837,false
0.0404049283756636,-0.4826445576443098,false
0.04040498347184229,-0.48264461274048853,false
0.040405025648413945,-0.48264465491706016,false
0.04041868778923497,-0.4826583170578812,false
0.04045204523188377,-0.48269167450052997,false
0.04047779917286021,-0.4827174284415064,false
0.04069587338043463,-0.4829355026490809,false
0.040695989380907446,-0.4829356186495537,false
0.04241871326858945,-0.4836583256095166,false
0.04242142590723587,-0.483661038248163,false
0.0424231479506566,-0.4836627602915837,false
0.20593493954124112,-0.5676056775834064,false
0.20862671575677608,-0.5676465624007228,false
0.29444333285652796,-0.6092445204268145,false
0.045024663224685055,-0.48526425863789313,false
0.045024790298701683,-0.4852643857119098,false
0.04502495121308793,-0.48526454662629603,false
0.0450288560603152,-0.4852658863125375,false
0.045460074321732866,-0.485342543137717,false
0.04543016757739422,-0.4854140819226222,false
0.046180859414991,-0.4855893103597042,false
0.046147545064885394,-0.48613188472671204,false
0.04909523514013226,-0.4864291823256722,false
0.04862550530669676,-0.48813992354263946,false
0.052072486552561366,-0.4884064280122172,false
0.052073829572916515,-0.4884077710325723,false
0.05208343357220598,-0.4884173750318618,false
0.052333967250306486,-0.48866467376278766,false
0.05547273563317271,-0.490626862011042,false
0.061384620413745594,-0.4977185618734014,false
0.0707483137637225,-0.5001480217925945,false
0.06809395981963524,-0.49649362899001487,false
0.06809764561985772,-0.49649731479023734,false
0.06810352741555344,-0.496503196585933,false
0.06811137683019614,-0.4965110460005757,false
0.06812031084994136,-0.49651998002032094,false
0.06828935963312863,-0.4966748615673994,false
0.07109600607502184,-0.49940613814751056,false
0.07060507962588977,-0.49747823965606647,false
0.07027642862748654,-0.4975865546936944,false
0.07045350768051775,-0.4977636337467256,false
0.07205129564815904,-0.49790670366021555,false
0.07207642789627483,-0.49792370933550906,false
0.07276627621713572,-0.4981712182858244,false
0.0727707610971661,-0.49817426182266483,false
0.07277539192147452,-0.4981774043125053,false
0.07279608255938912,-0.4981914440017424,false
0.07276597922990155,-0.4982311506123262,false
0.07276597922990154,-0.49823119176031566,false
0.07348866642607857,-0.49936184371604136,false
0.07489539902730297,-0.5004030170085823,false
0.07615652595602064,-0.5005518954857447,false
0.07637562773413845,-0.5007709972638625,false
0.07638291711571582,-0.50077828664544,false
0.07639958601442047,-0.5007792179611252,false
0.07666216246335984,-0.501057531993084,false
0.07666572291035492,-0.5010598649706564,false
0.07667162857872688,-0.5010637349008844,false
0.07675667748258161,-0.5010774990813374,false
0.07676734660838844,-0.5011474091601695,false
0.07771134205187497,-0.5021067115815991,false
0.07698511732199946,-0.5003059045133904,false
0.07866131245517836,-0.5019820996465694,false
0.08244298946650418,-0.5057637761299946,false
0.08026021692548022,-0.5025809871891521,false
0.0809708751901054,-0.5022916583283805,false
0.08135327919901783,-0.5024485708078332,false
0.08130354788462482,-0.5026243310228999,false
0.08130961529184941,-0.5026303984301246,false
0.08131495982828732,-0.5026340016422731,false
0.08153868788817266,-0.5028448031490722,false
0.08153868787493881,-0.5028594710132139,false
0.08281090821683113,-0.5041316913551064,false
0.0838594167519562,-0.5051801998902313,false
0.08326999687913311,-0.5033652787185039,false
0.0835135487454866,-0.5036088305848574,false
0.08361606336515737,-0.5036630774139529,false
0.08362691447428239,-0.5036704045644466,false
0.08375977970918536,-0.5037787406984684,false
0.08377793756514651,-0.5037909890893773,false
0.08397095222340417,-0.503992145037598,false
0.08395100983552306,-0.5040292235311228,false
0.0839470983590847,-0.5040423801984555,false
0.08414256552380409,-0.5041076518965919,false
0.08546092162349408,-0.5044260099909563,false
-0.02957927063107489,-0.4576219618320465,false
