0.9248272346099121,-0.13153995393809068,0.9104198813438416,-0.13449726998806,true
0.924826074089703,-0.13153967639939085,0.9335315227508545,-0.13682712614536285,true
0.9248271060020982,-0.13153977565280653,0.7360016703605652,-0.1257600337266922,true
0.9248262325350284,-0.13153969761768108,0.7663090825080872,-0.1286502331495285,true
0.9248271147457422,-0.13153977555130508,0.6690798997879028,-0.11247403919696808,true
0.9248264888262924,-0.1315397919653456,0.6757389307022095,-0.11314082890748978,true
0.9248258201097472,-0.1315397259471107,0.6846639513969421,-0.11377713829278946,true
0.9248271079488554,-0.1315397757253308,0.8431512713432312,-0.12761738896369934,true
0.9248260449525022,-0.13153968070242034,0.865099310874939,-0.13007257878780365,true
0.9248271653620326,-0.13153977528905114,0.701657772064209,-0.12299580127000809,true
0.9248269550801841,-0.13153960546880783,0.6482816934585571,-0.11806546151638031,true
0.9248255909533957,-0.13153970284970257,0.8331419229507446,-0.12977074086666107,true
0.9248262829431334,-0.13153971985967736,0.9166289567947388,-0.1344241052865982,true
0.9248271076095812,-0.13153977559662358,0.7746812105178833,-0.1258837729692459,true
0.9248264054701232,-0.13153977765813937,0.7684167623519897,-0.12540404498577118,true
0.9248271061356399,-0.13153977561311317,0.8088269233703613,-0.12748780846595764,true
0.9248265625608074,-0.13153977245897344,0.8125201463699341,-0.12846264243125916,true
0.9248255824269136,-0.13153970166484538,0.9022371172904968,-0.13500310480594635,true
0.9248266711108636,-0.1315396946967505,0.8522324562072754,-0.13098101317882538,true
0.9248256686961508,-0.1315397151417279,0.8738899230957031,-0.13285678625106812,true
0.9248279068572913,-0.13153994333209557,0.8007835745811462,-0.13178622722625732,true
0.9248265414137165,-0.1315397814682409,0.7956201434135437,-0.13107044994831085,true
0.8984463402991845,-0.15445566496039168,0.7114742994308472,-0.1357707977294922,true
0.8984463383334735,-0.154455664926929,0.7349051833152771,-0.1409749537706375,true
0.8984463527767286,-0.15445568917800573,-0.20080704987049103,-0.023695139214396477,true
0.898446344007092,-0.154455664890042,0.793035089969635,-0.15109242498874664,true
0.8984456140102752,-0.15445568084291672,0.8132748007774353,-0.15217027068138123,true
0.8984463402572636,-0.1544556649950757,0.6520684361457825,-0.1351822018623352,true
0.8984455898378151,-0.15445567832953602,0.6574438214302063,-0.135903000831604,true
0.8984463395399326,-0.1544556648534643,0.6579269170761108,-0.13371272385120392,true
0.8984459835253095,-0.15445549178778045,0.6692189574241638,-0.1342439353466034,true
0.8984463415604197,-0.1544556648745281,0.6722182631492615,-0.14168806374073029,true
0.8984448140431718,-0.15445561599409735,0.6693307757377625,-0.14088435471057892,true
0.8984470541030073,-0.15445589694648185,0.6590110063552856,-0.14370833337306976,true
0.89844567557122,-0.1544556769221796,0.6588427424430847,-0.14258147776126862,true
0.8984448883475332,-0.15445561276084244,0.6377424001693726,-0.14061230421066284,true
0.898446567882311,-0.1544558817802486,0.762190580368042,-0.14973442256450653,true
0.8984448037031549,-0.1544556159778035,0.737273633480072,-0.1470234990119934,true
0.8984457127473628,-0.15445566650822873,0.6881633400917053,-0.13425177335739136,true
0.8984449205482488,-0.15445560870664227,0.7176098823547363,-0.13776227831840515,true
0.8984474557160823,-0.15445578514814653,0.8910108804702759,-0.1604733020067215,true
0.8984453035471288,-0.1544555764673672,0.8612198829650879,-0.15743844211101532,true
1.0119857156229466,-0.1548610890042655,0.7702768445014954,-0.14410078525543213,true
1.011984537420605,-0.15486098870245735,0.761224627494812,-0.14365969598293304,true
1.0119857547859346,-0.1548610886993958,0.8145009279251099,-0.13562485575675964,true
1.0119850866397289,-0.1548610905013325,0.829423189163208,-0.13816802203655243,true
1.0119903340761036,-0.15486043508218109,0.8346008658409119,-0.1445028930902481,true
1.0119847826716188,-0.15486103814651953,0.839420735836029,-0.1454874724149704,true
1.011985715833852,-0.1548610889311773,0.9706748723983765,-0.156076118350029,true
1.01198538484619,-0.15486090272976424,1.0049784183502197,-0.1601085513830185,true
1.01198417522422,-0.1548610399165058,1.00477135181427,-0.1595313400030136,true
1.0119857136123265,-0.15486108895359238,0.7803482413291931,-0.1337568759918213,true
1.0119847471571697,-0.1548610236934981,0.7985369563102722,-0.13583581149578094,true
1.0119843579133183,-0.1548610210712865,0.7758790850639343,-0.13340316712856293,true
1.0119857633638456,-0.15486115701850325,0.9086874723434448,-0.15226635336875916,true
1.0119841021881948,-0.15486103477304225,0.9614282250404358,-0.15591374039649963,true
1.0119853848888498,-0.15486090273156017,0.8756425380706787,-0.14955778419971466,true
1.0119857142436335,-0.15486108888377137,0.9717270731925964,-0.15517522394657135,true
1.0119855191468645,-0.15486089653564583,1.0042316913604736,-0.15735745429992676,true
1.0119857132721861,-0.1548610889020532,0.8323690295219421,-0.13894498348236084,true
1.0119856814416264,-0.1548610514377559,0.8285344243049622,-0.13841290771961212,true
1.0119844131362337,-0.15486100905097835,0.8295699954032898,-0.13795338571071625,true
1.0119859100797013,-0.15486128721680603,0.9491942524909973,-0.15717589855194092,true
1.0119845374136671,-0.15486098866597367,0.969811737537384,-0.1568075567483902,true
1.1773253535524963,-0.15465674707760163,0.30533549189567566,-0.06315191090106964,true
1.1773233450083602,-0.1546564883197645,0.28708556294441223,-0.05460672453045845,true
1.1773243929755515,-0.15465657945504913,0.9009466171264648,-0.13388238847255707,true
1.177323582581066,-0.1546565776683889,0.9467309713363647,-0.13668614625930786,true
1.1773244128570006,-0.15465657932418017,0.9702145457267761,-0.13766588270664215,true
1.1773241715393103,-0.15465637878025362,0.9852258563041687,-0.1389521211385727,true
1.1773229409633226,-0.15465652718423237,0.9851875901222229,-0.14348934590816498,true
1.1773238166163504,-0.1546565581488103,1.00868558883667,-0.14512604475021362,true
1.1773234036552502,-0.1546565053533724,1.0221014022827148,-0.1465391367673874,true
1.1773243925956038,-0.15465657937635463,1.1104810237884521,-0.15141695737838745,true
1.177323439094317,-0.15465651876923725,1.1283785104751587,-0.15129157900810242,true
1.1773226911470618,-0.15465651325464636,1.1179752349853516,-0.15091636776924133,true
1.1773243604445056,-0.1546565418834864,1.0435539484024048,-0.15281344950199127,true
1.1773227319931467,-0.1546565188782021,1.0275059938430786,-0.15208221971988678,true
1.1773230827253172,-0.1546565019215804,0.9772627353668213,-0.14599744975566864,true
1.1773301993585132,-0.15465581977516454,0.07905684411525726,-0.025802187621593475,true
1.1773230937691685,-0.15465649950302146,0.10380734503269196,-0.02997669018805027,true
1.1773273382761031,-0.15465620726874268,0.9992153644561768,-0.1466076523065567,true
1.1773238421263665,-0.15465654336564363,0.9920029044151306,-0.14652812480926514,true
1.1773296206015162,-0.15465585935252066,1.1247731447219849,-0.1529231071472168,true
1.1773230828032173,-0.15465650207928122,1.1114397048950195,-0.15101464092731476,true
1.0514318125434423,-0.13570561568524447,0.798809826374054,-0.11715933680534363,true
1.051430746716402,-0.1357057584620857,0.9696428775787354,-0.13623154163360596,true
1.051432935123091,-0.1357059748313843,1.042701005935669,-0.14113005995750427,true
1.0514311678183588,-0.13570571606695403,1.0434284210205078,-0.14117449522018433,true
1.0514321050743658,-0.1357058073200608,0.8393413424491882,-0.12011823803186417,true
1.0514312925517193,-0.13570576687287564,0.8383979201316833,-0.12019209563732147,true
1.0514321092494525,-0.1357058072588083,0.8373712301254272,-0.1247032955288887,true
1.0514323711480178,-0.1357060543422498,0.9029058218002319,-0.1286136955022812,true
1.0514307559361604,-0.1357057584175292,0.9039911031723022,-0.12842412292957306,true
1.051432105327902,-0.13570580732302223,0.802334189414978,-0.11483816057443619,true
1.0514316049756556,-0.13570577118083854,0.8138908743858337,-0.11634077876806259,true
1.0514321052966156,-0.1357058073133237,0.990188479423523,-0.13769066333770752,true
1.0514317304009257,-0.13570566803267953,1.0717042684555054,-0.14088089764118195,true
1.0514321062489314,-0.13570580724919007,0.778417706489563,-0.1137869730591774,true
1.0514321815200403,-0.13570580684325817,0.9360898733139038,-0.12630896270275116,true
1.0514336426763007,-0.13570572111899884,0.9075164198875427,-0.12129350006580353,true
1.0514308691282102,-0.13570574573959177,0.9100996255874634,-0.12172083556652069,true
1.0514321072624448,-0.13570580732605053,1.0034325122833252,-0.1334989368915558,true
1.0514310358337253,-0.13570570923046738,1.0180485248565674,-0.13376756012439728,true
1.0514322686313675,-0.13570600558445267,0.9468477964401245,-0.13292859494686127,true
1.0514310559810598,-0.13570570703258497,0.9266955256462097,-0.13061122596263885,true
1.0514304267764518,-0.1357057250597137,1.0531562566757202,-0.13930852711200714,true
1.0542228766619326,-0.13932500662845043,0.9850688576698303,-0.13836638629436493,true
1.0542179837313863,-0.13932532073435244,0.9823832511901855,-0.1383592188358307,true
1.0542210592907233,-0.13932519655770192,0.9641280770301819,-0.13577884435653687,true
1.054217303711368,-0.13932528264135083,1.015185832977295,-0.14011502265930176,true
1.0542187602077757,-0.13932533579072415,0.8051271438598633,-0.12607885897159576,true
1.0542175349436003,-0.1393252656228031,0.7853581309318542,-0.12497363984584808,true
1.054218632288316,-0.13932518678499298,1.1381324529647827,-0.15215982496738434,true
1.0542175051740326,-0.1393252721197266,1.1369954347610474,-0.15095154941082,true
1.0542187623457184,-0.13932533570790845,-0.01500590331852436,-0.008123323321342468,true
1.054218059841087,-0.1393253468747608,-0.02158493362367153,-0.007466618437319994,true
1.054218760340328,-0.13932533570717748,1.027185082435608,-0.14165276288986206,true
1.0542182273354688,-0.1393253144636149,1.0132112503051758,-0.14052292704582214,true
1.0542187606918068,-0.13932533575194303,0.888084352016449,-0.13025036454200745,true
1.0542178336415768,-0.13932525400782578,0.9047083854675293,-0.1312742382287979,true
1.0542171659430986,-0.13932526302907383,0.9913402795791626,-0.13293825089931488,true
1.0542184027834112,-0.13932517854233964,1.0147806406021118,-0.13617129623889923,true
1.0542187989827625,-0.1393253355107305,0.7855403423309326,-0.11775942891836166,true
1.0542197528459285,-0.1393254560020001,0.8214824199676514,-0.12089671194553375,true
1.0542178122736403,-0.13932524733926993,0.8222405314445496,-0.120780810713768,true
1.0542171477616116,-0.13932526063135894,1.0064043998718262,-0.13657991588115692,true
1.0542244836564791,-0.13932469504493633,0.995614230632782,-0.1386619508266449,true
1.0542176050902103,-0.1393252488668125,0.9739083051681519,-0.1369851678609848,true
1.0358927438023848,-0.14307926112072702,0.8374648094177246,-0.13360695540905,true
1.0358914695839723,-0.14307896256692218,0.784803032875061,-0.12982335686683655,true
1.0358925681775568,-0.1430790628603458,0.8364493250846863,-0.12712007761001587,true
1.0358924029748402,-0.14307888404256497,0.8286479711532593,-0.12686122953891754,true
1.0358912528890596,-0.14307900505666127,0.8291218876838684,-0.126829132437706,true
1.0358925699039103,-0.14307906286175173,1.036731243133545,-0.14879773557186127,true
1.0358914379115853,-0.14307896620604071,1.0165308713912964,-0.14597578346729279,true
1.0358925692639962,-0.14307906286322158,0.834834635257721,-0.12957589328289032,true
1.0358915015080357,-0.143078961255034,0.8350918292999268,-0.1301531046628952,true
1.0358925682271924,-0.14307906278441823,0.8781912326812744,-0.1380302608013153,true
1.0358919777614812,-0.14307906439942233,0.8474920392036438,-0.13552235066890717,true
1.0358912428100808,-0.14307900659766248,0.8235087394714355,-0.13336344063282013,true
1.0358926889158862,-0.14307921997190004,0.7731693387031555,-0.127737358212471,true
1.0358914484297888,-0.1430789647155429,0.8269717693328857,-0.1317472904920578,true
1.0358929446298795,-0.14307932704103982,0.9217903017997742,-0.1343342512845993,true
1.0358915228855035,-0.1430789618697719,0.0014761385973542929,-0.017258312553167343,true
1.0358908523454222,-0.14307898211639306,0.8463559746742249,-0.1327424794435501,true
1.0358920833631455,-0.14307900086474498,0.8923649787902832,-0.13661149144172668,true
1.0358910003774728,-0.1430789996013676,0.8720322251319885,-0.13496538996696472,true
1.0358921312373157,-0.14307896225714958,1.0075123310089111,-0.14447113871574402,true
1.035891038162371,-0.1430790050010409,1.0244468450546265,-0.14540888369083405,true
1.035892568250212,-0.14307906283099311,0.8391972184181213,-0.13036292791366577,true
1.0358912429109783,-0.14307900667080645,0.8384175896644592,-0.1311187446117401,true
1.1353409963129915,-0.13280013403093394,0.9945986866950989,-0.12651433050632477,true
1.1353377195508143,-0.13280044102618682,1.0247477293014526,-0.12861020863056183,true
1.1353385688256235,-0.13280050633441456,0.857732892036438,-0.11362587660551071,true
1.1353381652901198,-0.13280039594270882,0.9012054800987244,-0.11632370203733444,true
1.135338577904386,-0.1328005063071761,1.0768489837646484,-0.13113048672676086,true
1.135337947436194,-0.13280052258783623,1.0957090854644775,-0.1316903978586197,true
1.1353372727307574,-0.13280045657387765,1.0755267143249512,-0.12991395592689514,true
1.1353386525695712,-0.1328006416686417,0.9108868837356567,-0.11198671162128448,true
1.1353385694452323,-0.13280050643557811,0.05262628570199013,-0.00379299558699131,true
1.135337679072156,-0.13280042468842235,0.07112224400043488,-0.005294474773108959,true
1.1353385690201703,-0.1328005063899709,1.038134217262268,-0.1298147290945053,true
1.1353377400915383,-0.1328004506848936,1.0214794874191284,-0.128245010972023,true
1.1353385363916384,-0.13280048868010694,1.1526634693145752,-0.13723137974739075,true
1.1353371290606389,-0.13280044720704262,0.905094563961029,-0.11604724079370499,true
1.1353382565998207,-0.13280032629266997,0.926256537437439,-0.11615116149187088,true
1.135337218229215,-0.13280045694055995,0.933904230594635,-0.11711094528436661,true
1.135340326879153,-0.1328003314452591,0.8181702494621277,-0.11303214728832245,true
1.1353373656461259,-0.13280044288108903,0.8088533282279968,-0.11233306676149368,true
1.1353382336425402,-0.13280034104770366,0.9064147472381592,-0.11883946508169174,true
0.6499291450242004,-0.14718592648664214,0.5037539005279541,-0.13594192266464233,true
0.6499279849602146,-0.1471858298315592,0.5217243432998657,-0.13778379559516907,true
0.6499323836588317,-0.14718545292057694,0.44921404123306274,-0.14364586770534515,true
0.6499282283260046,-0.1471858659640082,0.41511285305023193,-0.14085112512111664,true
0.6499275158416511,-0.14718586044360304,0.39215147495269775,-0.13298708200454712,true
0.6499291201607686,-0.14718590887623156,0.36596375703811646,-0.131183460354805,true
0.6499275642939335,-0.14718586741271056,0.42197975516319275,-0.1287868469953537,true
0.6499281163068763,-0.14718583060394022,0.45738139748573303,-0.13297487795352936,true
0.6499292061773474,-0.14718592608981312,0.47807255387306213,-0.13805453479290009,true
0.649928172039292,-0.1471858446069385,0.4894866943359375,-0.1401432454586029,true
0.6499291425977253,-0.14718592647568549,0.6007751822471619,-0.14716365933418274,true
0.6499276132988447,-0.1471858734503239,0.6197562217712402,-0.1535046100616455,true
0.6499295893200073,-0.14718619228472649,0.6433926820755005,-0.15621474385261536,true
0.6499284691917997,-0.1471859427603097,0.6315670013427734,-0.155271977186203,true
0.6499340634231576,-0.1471852062734827,0.40598082542419434,-0.1375584751367569,true
0.6499278886249712,-0.14718584901378856,0.40569350123405457,-0.13769270479679108,true
0.6499291430406382,-0.1471859264738139,0.6262036561965942,-0.15266959369182587,true
0.6499281721763013,-0.14718584471699964,0.6065012216567993,-0.15103872120380402,true
0.6499291432331555,-0.14718592634343214,0.4004347026348114,-0.13683375716209412,true
0.649927784467488,-0.1471858701583617,0.39449331164360046,-0.1361071765422821,true
0.7686429023115118,-0.13895620000319375,0.5236082673072815,-0.11736762523651123,true
0.7686430103997264,-0.1389563226265238,0.7090386152267456,-0.13495929539203644,true
0.768642329578117,-0.13895633758218714,0.6715309619903564,-0.1279134750366211,true
0.7686487712385307,-0.1389555958841096,0.6308361291885376,-0.13290350139141083,true
0.768641844028493,-0.13895623806225496,0.5980208516120911,-0.13098770380020142,true
0.7686430393442729,-0.13895639069351398,0.47867873311042786,-0.1173759177327156,true
0.768641874289662,-0.1389562313104959,0.4890913963317871,-0.11875711381435394,true
0.7686430079150124,-0.13895632259237714,0.5751971006393433,-0.13287021219730377,true
0.7686419355914507,-0.13895622224906076,0.6354949474334717,-0.1351730227470398,true
0.7686429390268692,-0.13895624818932228,0.6224780082702637,-0.12616445124149323,true
0.7686418040020838,-0.13895624775034277,0.6101557016372681,-0.1252010613679886,true
0.7686430225540681,-0.13895636856195182,0.5452663898468018,-0.11733543872833252,true
0.7686415349457046,-0.13895626731980149,0.5228208899497986,-0.1169104278087616,true
0.7686419769631856,-0.13895622110944372,0.4828287661075592,-0.11648393422365189,true
0.768643055216983,-0.1389563223473242,0.667313814163208,-0.13524594902992249,true
0.7686428426391804,-0.13895614373384796,0.7666096687316895,-0.13983318209648132,true
0.7686420712659354,-0.13895623736124765,0.7468478083610535,-0.138957217335701,true
0.7686414070355743,-0.1389562486420998,0.51777184009552,-0.1261686384677887,true
0.7686485299929597,-0.13895555822403233,0.5145038366317749,-0.12445873767137527,true
0.7686425669105512,-0.1389562320291202,0.49226370453834534,-0.12292961031198502,true
0.7686418339474508,-0.13895624043942056,0.5228055715560913,-0.12565888464450836,true
0.6163218581878706,-0.11961092809650307,0.5282731652259827,-0.11600001901388168,true
0.6163215216566864,-0.11961077962970218,0.5295026898384094,-0.11519146710634232,true
0.6163208795579308,-0.1196108330315842,0.5428661704063416,-0.11591928452253342,true
0.6163219030024781,-0.11961092785772343,0.3582938015460968,-0.10048460215330124,true
0.6163228205835978,-0.11961099041520482,0.36577752232551575,-0.10110455751419067,true
0.616321351384014,-0.11961092502562846,0.36078813672065735,-0.10046109557151794,true
0.6163204580329689,-0.1196108542413078,0.3719484508037567,-0.10195315629243851,true
0.6163218553296533,-0.1196109740788793,0.3937467038631439,-0.10633064061403275,true
0.6163214908204764,-0.11961080790510192,0.3921487033367157,-0.1062944084405899,true
0.6163208532008848,-0.11961083895749931,0.3723815381526947,-0.10402785986661911,true
0.6163218586414885,-0.11961092816475659,0.4602793753147125,-0.11056151986122131,true
0.6163213223555977,-0.11961093734514142,0.4683425724506378,-0.11143633723258972,true
0.6163207078223032,-0.11961087479885137,0.46326306462287903,-0.1110793948173523,true
0.6163218578950044,-0.1196109280987414,0.3917340934276581,-0.10617488622665405,true
0.6163214202101911,-0.11961087508910918,0.3871607780456543,-0.10569656640291214,true
0.6163207925069786,-0.11961085551629377,0.38900306820869446,-0.10593986511230469,true
0.6163218664371204,-0.11961092810316308,0.461804062128067,-0.10652424395084381,true
0.6163212840716529,-0.11961094449093279,0.48302873969078064,-0.10940156131982803,true
0.6163206746421233,-0.1196108784759046,0.4885094165802002,-0.11010393500328064,true
0.6163218586203133,-0.11961092805972978,0.6756664514541626,-0.12939542531967163,true
0.6163216679778896,-0.1196107309226693,0.7239338755607605,-0.13355916738510132,true
0.6163210051278714,-0.11961083439279292,0.665289044380188,-0.1288599967956543,true
0.6163218578470756,-0.11961092810218263,0.46326348185539246,-0.10666849464178085,true
0.6163217819695751,-0.11961085355368892,0.4711429178714752,-0.10781225562095642,true
0.6163208011216295,-0.11961085311275299,0.47106245160102844,-0.10837343335151672,true
0.6163218578101384,-0.1196109280828778,0.606065571308136,-0.12526452541351318,true
0.6163214704939605,-0.11961082756262852,0.630075991153717,-0.1271839439868927,true
0.6163208357839572,-0.11961084344653229,0.5874907374382019,-0.12413032352924347,true
0.6163218593752261,-0.11961092816837622,0.5529454350471497,-0.116877481341362,true
0.61632124604204,-0.11961094148818273,0.5670474171638489,-0.11755412071943283,true
0.6163206416366157,-0.11961087931162988,0.5699147582054138,-0.11752917617559433,true
0.7576694046748572,-0.11308533893956549,0.7250055074691772,-0.11523298174142838,true
0.7576660066896022,-0.11308585309578835,0.718687891960144,-0.11527883261442184,true
0.757665453908254,-0.11308584413464065,0.7237667441368103,-0.11543507874011993,true
0.7576669483668306,-0.11308615591681324,0.5510770082473755,-0.10605622828006744,true
0.7576661569017845,-0.1130859237271657,0.5498993992805481,-0.10574816167354584,true
0.7576667559376218,-0.11308590862492555,0.7096019983291626,-0.11310473084449768,true
0.7576665474844984,-0.1130857115830564,0.7748472094535828,-0.11711864918470383,true
0.7576659199189775,-0.1130858150568825,0.7581945657730103,-0.1149456799030304,true
0.7576667341457075,-0.11308590880469817,0.7681494951248169,-0.11985812336206436,true
0.7576663128520913,-0.11308585582698354,0.7813147902488708,-0.1188228577375412,true
0.7576667616876102,-0.11308590859512352,0.776807963848114,-0.1165061667561531,true
0.7576662292919731,-0.11308591450802623,0.7400746941566467,-0.11457449942827225,true
0.7576659285986247,-0.11308581759336989,0.7502464652061462,-0.11505773663520813,true
0.7576667350960726,-0.1130859086728689,0.49630141258239746,-0.10023229569196701,true
0.7576661929468979,-0.1130859241551806,0.5211664438247681,-0.10219696164131165,true
0.7576656147827616,-0.113085858285387,0.5258387923240662,-0.1025921106338501,true
0.7576667341327694,-0.11308590880547202,0.5372222661972046,-0.09383580833673477,true
0.7576660067065326,-0.11308585309836401,0.5428977608680725,-0.09425486624240875,true
0.7576654539386187,-0.11308584413845557,0.5443640351295471,-0.10331283509731293,true
0.7576670709296736,-0.11308617460230454,0.5267525315284729,-0.10179923474788666,true
0.7576658856901777,-0.11308580861145098,0.5477432608604431,-0.10356917977333069,true
0.7576675103431084,-0.1130860291294111,0.743354082107544,-0.11555589735507965,true
0.7576656543441911,-0.1130858526412041,0.7361609935760498,-0.11407528072595596,true
0.7576712171529872,-0.11308526799662802,0.5215876698493958,-0.10201624035835266,true
0.6868129345812968,-0.11694423704589105,0.639763355255127,-0.11471924185752869,true
0.6868131537910943,-0.11694448413001939,0.6115938425064087,-0.11376670747995377,true
0.6868123386028937,-0.11694425195050302,0.6470117568969727,-0.11601277440786362,true
0.6868117461606422,-0.11694418820601654,0.7263129949569702,-0.1274556964635849,true
0.6868128026524568,-0.11694408820122017,0.569860577583313,-0.10845720022916794,true
0.6868118523535689,-0.1169441735138189,0.5533139109611511,-0.10712158679962158,true
0.6868130362273107,-0.11694441529902906,0.6812232732772827,-0.12131839245557785,true
0.6868123017181866,-0.11694424256960072,0.6614781618118286,-0.11937360465526581,true
0.6868117142209913,-0.11694418718724191,0.605985701084137,-0.11375249177217484,true
0.6868120849001207,-0.11694414122781238,0.6270483136177063,-0.11897896975278854,true
0.6868124610913233,-0.11694421579353849,0.5089713335037231,-0.11284514516592026,true
0.6868115815567513,-0.11694416681434912,0.6834438443183899,-0.12644170224666595,true
0.6868119883883255,-0.11694413902316039,0.6114616990089417,-0.11920817941427231,true
0.6868129315904299,-0.11694423703669815,0.4767063856124878,-0.10177496075630188,true
0.6868117866198092,-0.11694418581748448,0.47777411341667175,-0.10196271538734436,true
0.6868166061565424,-0.11694351699155246,0.5135481953620911,-0.10723418742418289,true
0.6868125194063531,-0.11694416580099974,0.509804368019104,-0.10751160979270935,true
0.6868129323967629,-0.1169442370336076,0.6997023820877075,-0.12414995580911636,true
0.6868123017335616,-0.11694424256272953,0.7400637269020081,-0.12850327789783478,true
0.6868129346182898,-0.11694423702609676,0.438195139169693,-0.10644816607236862,true
0.6868131538214493,-0.11694448410112351,0.5431772470474243,-0.11393578350543976,true
0.686812338647623,-0.11694425192040288,0.5237509608268738,-0.11264963448047638,true
0.6868114834661088,-0.11694415538433704,0.476331889629364,-0.10149775445461273,true
0.6586435945986763,-0.1050612888095362,0.3973590135574341,-0.09292378276586533,true
0.658644233539069,-0.10506131369053705,0.4775911271572113,-0.09246563166379929,true
0.6586439658030555,-0.10506112749363579,0.4562482237815857,-0.09019606560468674,true
0.658644314954492,-0.10506131313231606,0.7010586261749268,-0.11473436653614044,true
0.6586435131905883,-0.1050612397112966,0.48689520359039307,-0.08755645155906677,true
0.6586441215120367,-0.10506119117716237,0.6005942821502686,-0.10408049821853638,true
0.6586430172445572,-0.10506124624150202,0.5278939008712769,-0.09306921064853668,true
0.6586436768995472,-0.10506132695842442,0.526661217212677,-0.09409283846616745,true
0.6586442844598632,-0.10506131333563694,0.6692666411399841,-0.11022379994392395,true
0.6586432323011614,-0.1050612540596008,0.6689643859863281,-0.10847693681716919,true
0.658642989520922,-0.10506124089663176,0.5925441384315491,-0.10595772415399551,true
0.6586438478900105,-0.10506124230743054,0.5976653099060059,-0.10567555576562881,true
0.65864281625337,-0.10506123453264529,0.49264389276504517,-0.09225813299417496,true
0.658643812955081,-0.1050612776114876,0.5241585969924927,-0.09604565799236298,true
0.658644258119551,-0.10506131345645513,0.580238401889801,-0.10578306764364243,true
0.6586437526623188,-0.10506131930101412,0.5429922938346863,-0.10028664767742157,true
0.6586429690898321,-0.10506123743473163,0.5060098767280579,-0.09905623644590378,true
0.6586439107625986,-0.10506117447683123,0.47990038990974426,-0.09466888010501862,true
0.6586433465045133,-0.10506122056894478,0.4484592080116272,-0.09075798094272614,true
0.7590063009170587,-0.1082860714324327,0.49385055899620056,-0.0942155197262764,true
0.7590054075773401,-0.10828597476217412,0.5049344897270203,-0.09508028626441956,true
0.7590071499476183,-0.10828613381705697,0.6845726370811462,-0.1089930459856987,true
0.7590052664654701,-0.10828601376279899,0.7296246290206909,-0.1101541742682457,true
0.7590062991207238,-0.10828607156077666,0.5258439779281616,-0.08876403421163559,true
0.7590062494671994,-0.10828605396660071,0.519025444984436,-0.0866377204656601,true
0.759005351915007,-0.10828598933946575,0.5242879390716553,-0.08727151155471802,true
0.759006300087465,-0.10828607156430352,0.6710473299026489,-0.10575912147760391,true
0.7590054888751032,-0.10828597250063625,0.6900566816329956,-0.10690534859895706,true
0.7590062993311513,-0.10828607149698082,0.7249819040298462,-0.10560779273509979,true
0.7590061803564501,-0.10828593517568658,0.7199104428291321,-0.10544808954000473,true
0.7590055715745349,-0.10828600171843862,0.7279682755470276,-0.10613410174846649,true
0.759005045355493,-0.10828600261189272,0.6358076930046082,-0.09836331009864807,true
0.7590063689946738,-0.10828622863031746,0.6392444968223572,-0.09766658395528793,true
0.7590056978320108,-0.10828607354306133,0.649857759475708,-0.10004787892103195,true
0.759005153953929,-0.10828602102673326,0.6612139940261841,-0.10206213593482971,true
0.7590070356996594,-0.10828619188432595,0.5089759230613708,-0.09008945524692535,true
0.7590055301170057,-0.10828598323172896,0.5023301243782043,-0.0895584300160408,true
0.7590063840074286,-0.10828607096583501,0.6774641871452332,-0.103002168238163,true
0.7590061710941269,-0.10828592260870007,0.6459411978721619,-0.09864160418510437,true
0.7590055632708383,-0.10828599742440662,0.6621708273887634,-0.10010677576065063,true
0.759005038273807,-0.10828600124408265,0.6806825995445251,-0.10261788964271545,true
0.7590064411839503,-0.10828628824775534,0.6582093834877014,-0.09973390400409698,true
0.7590057234080034,-0.10828608267549832,0.6664450764656067,-0.10044094920158386,true
0.7590051761292974,-0.10828602244814535,0.541946530342102,-0.08955729752779007,true
0.7590070357121013,-0.10828619188603189,0.5584482550621033,-0.09051340073347092,true
0.7590058187505734,-0.10828607320236373,0.5341378450393677,-0.0880051851272583,true
0.7590052589030658,-0.1082860153993787,0.5361777544021606,-0.0884370282292366,true
1.1404568324943978,-0.10813991193486648,1.045075535774231,-0.1043020710349083,true
1.1404565337745152,-0.10813974660110842,0.9220443367958069,-0.09775986522436142,true
1.1404559492688138,-0.10813981385711993,0.9371010661125183,-0.09863583743572235,true
1.1404568449916843,-0.10813991182547343,0.9384387135505676,-0.09174271672964096,true
1.1404572554913113,-0.10814016252815896,0.9557058215141296,-0.09278066456317902,true
1.1404560305047615,-0.10813981425665764,0.9566915035247803,-0.09241814911365509,true
1.1404555160902448,-0.10813983305796503,0.8767674565315247,-0.09287004172801971,true
1.1404567608447058,-0.10813985551468397,0.9468718767166138,-0.09859352558851242,true
1.1404561467824113,-0.1081398663407181,0.9594203233718872,-0.10029113292694092,true
1.140455615293851,-0.1081398501138355,1.0918842554092407,-0.1077982485294342,true
1.1404610806289217,-0.10813927110448739,1.1024104356765747,-0.10784747451543808,true
1.1404561803187083,-0.10813988686946423,1.1183357238769531,-0.10950332880020142,true
1.1404556441036904,-0.10813985537428282,0.9294640421867371,-0.08699721843004227,true
1.1404568324917568,-0.10813991188609587,0.9689053893089294,-0.09078072756528854,true
1.1404566287403866,-0.10813970905125929,0.9627141952514648,-0.09006993472576141,true
1.140456030500777,-0.10813981427002149,0.9699342250823975,-0.09064847230911255,true
1.140456865755656,-0.1081399116827671,1.0150364637374878,-0.1053607314825058,true
1.1404575670021735,-0.10814003216633,1.0456445217132568,-0.10884305834770203,true
1.1404563517079684,-0.10813991347168561,1.0525978803634644,-0.10973987728357315,true
1.1404555441058457,-0.10813983678261546,1.0305851697921753,-0.10758251696825027,true
1.1404568338553562,-0.10813991193725743,0.9467471837997437,-0.09838533401489258,true
1.1404565622489837,-0.10813972577221397,0.8501620292663574,-0.09342310577630997,true
1.1404557101722794,-0.10813986296897359,0.9283009171485901,-0.09852954000234604,true
1.1404568326792874,-0.10813991195330876,0.17018893361091614,-0.005981139838695526,true
1.1404563082363304,-0.10813992743693471,0.19346883893013,-0.007852783426642418,true
1.1404568318824488,-0.10813991192048658,1.1274490356445312,-0.10909982025623322,true
1.1404565055866154,-0.1081397726225323,1.064918875694275,-0.10328636318445206,true
1.1404562056769163,-0.10813990153607435,1.0534528493881226,-0.10272546857595444,true
1.1404556660183496,-0.10813985889931861,1.0669184923171997,-0.1005277931690216,true
1.1404568335903882,-0.10813991185554782,1.094675898551941,-0.10494507104158401,true
1.1404565149792845,-0.1081397634307039,1.106276035308838,-0.10650499165058136,true
1.1404559332520265,-0.10813981681751787,1.1030316352844238,-0.10693757981061935,true
0.673429434146116,-0.1084990623199943,0.48388656973838806,-0.09552234411239624,true
0.6734297479687692,-0.10849932811711571,0.5011740922927856,-0.09796463698148727,true
0.6734288924623758,-0.10849907859664788,0.4985179603099823,-0.09741810709238052,true
0.6734283384748895,-0.10849901258527843,0.49416500329971313,-0.09726826101541519,true
0.6734280925973559,-0.10849898213338409,0.5502308011054993,-0.1077490821480751,true
0.6734293259712645,-0.10849895469263598,0.5492048263549805,-0.10738693922758102,true
0.6734287140225054,-0.10849900176058871,0.567753791809082,-0.1084061861038208,true
0.6734281844340391,-0.10849899624442277,0.5788862705230713,-0.1116831973195076,true
0.6734294267228331,-0.10849913054689837,0.5574216246604919,-0.10902277380228043,true
0.6734290899143489,-0.10849893256847631,0.5536423921585083,-0.10812828689813614,true
0.6734285090459653,-0.10849897119901296,0.4893566370010376,-0.10400354117155075,true
0.6734294600619318,-0.10849906216105915,0.6730372309684753,-0.11272966116666794,true
0.6734301642163332,-0.10849918265129625,0.5445595383644104,-0.10325434803962708,true
0.6734286556897805,-0.10849897398983926,0.5555718541145325,-0.10416242480278015,true
0.6734283839644052,-0.10849900616526588,0.5496749877929688,-0.10379218310117722,true
0.6734294259346374,-0.10849906235344069,0.5306552052497864,-0.09952982515096664,true
0.6734293552445495,-0.1084990058866103,0.5273341536521912,-0.099454365670681,true
0.6734287392097943,-0.10849901671228715,0.519879162311554,-0.09829875826835632,true
0.6734282060296748,-0.1084990004851182,0.49686190485954285,-0.0970103070139885,true
0.6734294274285209,-0.10849906242098174,0.5078094601631165,-0.09551723301410675,true
0.6734291560336365,-0.1084988761902405,0.5079096555709839,-0.09504004567861557,true
0.6734285654388023,-0.10849896140796354,0.4923964738845825,-0.09335825592279434,true
0.6734294600675593,-0.10849906215766958,0.6109169125556946,-0.1038704589009285,true
0.6734301642249905,-0.10849918264577944,0.5664386749267578,-0.10063521564006805,true
0.6734289448549164,-0.10849906396223821,0.5851647257804871,-0.1031540036201477,true
0.6734283839806303,-0.10849900616068427,0.5694079995155334,-0.10022936761379242,true
0.6734294689272,-0.10849906208255843,0.7077382206916809,-0.11539922654628754,true
0.673430278881961,-0.10849912454812044,0.6619382500648499,-0.11045161634683609,true
0.6734289537108641,-0.1084990591490352,0.6220836043357849,-0.10591454058885574,true
0.6734283916455174,-0.10849900448182385,0.6246930360794067,-0.10574642568826675,true
0.6734281417654562,-0.10849898834853886,0.7125203609466553,-0.11361058801412582,true
0.673429665239035,-0.10849932003855113,0.6764739751815796,-0.11064532399177551,true
0.6734288752547858,-0.10849907834647333,0.663170337677002,-0.11010240018367767,true
0.6734295325271289,-0.10849906168433192,0.6959080100059509,-0.11455748230218887,true
0.6734310038461387,-0.10849879100684115,0.6826427578926086,-0.11154534667730331,true
0.6734293072135666,-0.10849892603225657,0.6824855208396912,-0.1118992418050766,true
0.6734286973239878,-0.10849899257571892,0.6814780831336975,-0.1115674301981926,true
1.0651444252865028,-0.13043359384073652,0.9251940846443176,-0.12677991390228271,true
1.0651444185389254,-0.13043361806547307,0.9611318111419678,-0.12980034947395325,true
1.0651436690961997,-0.13043356888716112,0.9396802186965942,-0.12838731706142426,true
1.0651430255965924,-0.13043353739288296,0.9948720932006836,-0.12721766531467438,true
1.0651449442194212,-0.13043384443310393,0.9585227966308594,-0.12488547712564468,true
1.0651438332146435,-0.1304336078187002,0.9526965022087097,-0.12457937747240067,true
1.065143167452043,-0.13043354255978512,1.0199605226516724,-0.12852591276168823,true
1.0651444254630467,-0.13043359384746275,-0.9875328540802002,0.09987195581197739,true
1.065143950003341,-0.13043354950417968,0.8975839018821716,-0.11642608791589737,true
1.0651432685160518,-0.1304335236620271,-1.423810601234436,0.12708322703838348,true
1.0651444264809236,-0.13043359379663086,0.9702942967414856,-0.1298736184835434,true
1.0651441048474046,-0.13043342073973585,0.9362134337425232,-0.12767145037651062,true
1.065143401347295,-0.13043349444195498,0.9501473307609558,-0.12910382449626923,true
1.0651444399555143,-0.1304335937383006,0.8222120404243469,-0.11584353446960449,true
1.065144944323299,-0.13043384452362497,0.9050588607788086,-0.12243101745843887,true
1.0651434892623692,-0.13043349625834172,0.8973468542098999,-0.1213720291852951,true
1.0651428720449212,-0.1304335150542764,0.9536645412445068,-0.1273932158946991,true
1.0651443425998879,-0.13043350215167082,0.9427783489227295,-0.12678439915180206,true
1.06514396073499,-0.13043354077744365,0.9608426690101624,-0.12856805324554443,true
1.0651429736618852,-0.13043352908554426,0.9648418426513672,-0.12805907428264618,true
1.065148260678631,-0.13043326456917867,1.0399047136306763,-0.12981142103672028,true
1.065144048677391,-0.13043346391493588,1.0318231582641602,-0.12987923622131348,true
1.065143353334673,-0.13043350252219468,1.0471731424331665,-0.13063524663448334,true
1.0651444263977867,-0.1304335937783448,0.9740263819694519,-0.13010461628437042,true
1.0651441959184051,-0.1304333899683962,0.9444323778152466,-0.12905198335647583,true
1.0651434793318317,-0.13043349469217966,0.9340202212333679,-0.12855182588100433,true
1.0651444252988538,-0.13043359384651212,0.8985199928283691,-0.12140490114688873,true
1.0651443662159077,-0.1304335374101284,0.9466750025749207,-0.12596821784973145,true
1.0651436287201033,-0.13043354823556902,0.9223094582557678,-0.12407785654067993,true
1.0651429909724448,-0.1304335320123669,0.8132036328315735,-0.11147162318229675,true
1.0651445795213927,-0.13043379204343916,0.8512867093086243,-0.11508794128894806,true
1.0651437505162842,-0.1304336023654246,0.8623664975166321,-0.11607828736305237,true
1.0651434110404339,-0.1304334934592749,0.8478869795799255,-0.11457428336143494,true
0.8436043620649847,-0.11854879608332812,0.7594262361526489,-0.11498229205608368,true
0.8436042646682885,-0.1185486884186605,0.7540838122367859,-0.1095394715666771,true
0.8436035974176613,-0.11854873548617999,0.7321847081184387,-0.1080487072467804,true
0.843603020285131,-0.11854872996715367,0.6678950786590576,-0.10377286374568939,true
0.8436042544408803,-0.11854867342886379,-0.21764686703681946,0.009353709407150745,true
0.8436035883336981,-0.11854873072560339,-0.20264557003974915,0.00683416984975338,true
0.8436030124949887,-0.1185487285024781,0.6610668301582336,-0.10295898467302322,true
0.8436043636002111,-0.11854879606725474,0.6551887392997742,-0.10313761234283447,true
0.8436040688829565,-0.1185486160469273,0.6524092555046082,-0.10286322236061096,true
0.843603426549995,-0.11854869576100258,0.6555067896842957,-0.10323864221572876,true
0.8436044736272713,-0.11854879540988723,0.7163730263710022,-0.11288192868232727,true
0.843606142177092,-0.11854852474017259,0.7288457155227661,-0.11483899503946304,true
0.8436042441688801,-0.11854865976364018,0.7323511242866516,-0.11503279954195023,true
0.8436035791810974,-0.11854872630737573,0.7154614925384521,-0.11348479986190796,true
0.8436030047004693,-0.11854872719998541,0.7816870212554932,-0.1156231015920639,true
0.8436063152055493,-0.1185486569552226,0.7425363659858704,-0.11101888865232468,true
0.84360401748243,-0.11854865677532733,0.7403191924095154,-0.10831747204065323,true
0.8436033827008648,-0.11854870285400299,0.7688127160072327,-0.11179005354642868,true
0.8436043628534565,-0.11854879614406262,0.7070614695549011,-0.11554316431283951,true
0.8436041624437993,-0.11854859556298161,0.7094675898551941,-0.11527294665575027,true
0.8436035068693526,-0.11854870035892318,0.7299249768257141,-0.11664274334907532,true
0.843604450975023,-0.11854879554508783,0.7245192527770996,-0.1142401173710823,true
0.8436042340188954,-0.11854864720324054,0.7058796882629395,-0.11302012205123901,true
0.8436035701059894,-0.11854872202235893,0.705357015132904,-0.11320243775844574,true
0.8436029969606187,-0.1185487258405859,0.7279309630393982,-0.11672993004322052,true
0.8436043316998688,-0.11854879904394504,0.7696877717971802,-0.11620461940765381,true
0.8436036524259816,-0.1185487659705229,0.7771807909011841,-0.11727820336818695,true
0.8436033479964785,-0.11854871144840982,0.7809509038925171,-0.11680189520120621,true
0.8436043658834901,-0.11854879607723894,0.8392235636711121,-0.1220812126994133,true
0.8436045887748735,-0.1185490431614486,0.8147934675216675,-0.11839462071657181,true
0.8436037638496392,-0.11854881098159503,0.83144611120224,-0.11700452119112015,true
0.8436031637067228,-0.11854874723858268,0.8188996315002441,-0.1165589764714241,true
0.8436043619343009,-0.11854879608660385,0.642518937587738,-0.1109762042760849,true
0.8436042965541944,-0.11854873962119877,0.6254832148551941,-0.10960976034402847,true
0.8436036248791143,-0.11854875044583137,0.636873185634613,-0.1097513884305954,true
0.8436030438260208,-0.11854873421598544,0.9906095266342163,-0.1319369375705719,true
0.9636189197271428,-0.1269700645240091,0.9312453866004944,-0.12848185002803802,true
0.9636138348440616,-0.1269704497006845,0.9286131262779236,-0.12864691019058228,true
0.9636131591654791,-0.1269704807616698,0.878421425819397,-0.12481795251369476,true
0.9636128576672933,-0.12697051465254863,0.9539099335670471,-0.1306343972682953,true
0.9636151069276135,-0.1269706903716427,1.0090285539627075,-0.13434988260269165,true
0.9636136768385684,-0.12697057168444856,0.9509395956993103,-0.12937292456626892,true
0.9636130229564764,-0.12697051389102218,0.9547274708747864,-0.13001249730587006,true
0.9636142158521296,-0.12697056997419784,0.7800154685974121,-0.11324438452720642,true
0.9636142060386554,-0.1269705941999692,0.7828404903411865,-0.1139359250664711,true
0.9636131499559148,-0.12697048305277497,0.7831249833106995,-0.11387457698583603,true
0.9636142452657248,-0.1269705698051026,0.8604332208633423,-0.12386723607778549,true
0.9636149855305227,-0.1269707376587596,0.9402925372123718,-0.12889885902404785,true
0.9636136665923972,-0.1269705757944079,0.9137169718742371,-0.12716539204120636,true
0.9636130141109768,-0.12697051537345708,0.9252205491065979,-0.12791383266448975,true
0.9636147953899461,-0.12697080185080767,0.9221183657646179,-0.12988808751106262,true
0.9636133104700177,-0.1269704740590398,0.8823874592781067,-0.12720641493797302,true
0.963612707835815,-0.12697049187552586,0.7720615267753601,-0.11329459398984909,true
0.9636142061231121,-0.12697059426534396,0.790099024772644,-0.11504185199737549,true
0.9636134760680712,-0.12697054508952782,0.7934313416481018,-0.11557964235544205,true
0.9636128493256693,-0.12697051359924053,0.7641712427139282,-0.11412107199430466,true
0.9636143641325203,-0.12697076821052722,0.7600321173667908,-0.11377572268247604,true
0.9636135553000438,-0.12697057849967638,0.7558107376098633,-0.11319510638713837,true
0.9636129176606937,-0.1269705205385308,0.7781192660331726,-0.11405628174543381,true
0.96361479539501,-0.12697080198454214,0.933872401714325,-0.1293044537305832,true
0.9636136461128255,-0.12697058195656452,0.9197158217430115,-0.12903976440429688,true
0.9636133104751519,-0.12697047421828733,0.9289392828941345,-0.1293255239725113,true
0.9636127078430826,-0.12697049202342947,0.9548231363296509,-0.1305740773677826,true
0.9636191649600966,-0.1269698055552085,0.9625275731086731,-0.13007725775241852,true
0.9636138026079258,-0.1269704793634959,0.9420667886734009,-0.128128781914711,true
0.9636131315365022,-0.1269704877723447,0.9489477276802063,-0.12757213413715363,true
0.9636128323616091,-0.12697051092760864,0.8062644600868225,-0.11848890781402588,true
0.9636143641061318,-0.12697076818905373,0.8555422425270081,-0.1236371248960495,true
0.9636139114769429,-0.12697038989384923,0.8674334287643433,-0.12460283190011978,true
0.9636132246671488,-0.12697046960602376,0.8642667531967163,-0.1237630695104599,true
0.9636126351028119,-0.1269704876372487,-0.6802878975868225,-0.08742114156484604,true
0.9991371015032116,-0.12191299363464897,0.9978005496591216,-0.2896016130023217,false
0.9963326372214999,-0.12054106400192481,0.9978005496591216,-0.2896016130023217,false
0.9960014204379227,-0.12054106400192491,0.9978005496591216,-0.2896016130023217,false
0.9958404331964255,-0.12054106400192491,0.9978005496591215,-0.2896016130023217,false
0.9955326447432059,-0.12054106400192491,0.9978005496591216,-0.2896016130023217,false
0.9891446801267386,-0.14319895635887117,0.9378954426576972,-0.3092806014572591,false
0.9868592311164478,-0.14858691828296655,0.9179653029863232,-0.3240686697734918,false
0.9841534348553805,-0.15707963267948966,0.954415648230139,-0.35082304304467393,false
0.9844259651663342,-0.15499335329632502,0.9543628114236877,-0.3487284714704332,false
0.9844259932119843,-0.15499336013781845,0.9378954426576971,-0.34614195561523925,false
0.9871928067162419,-0.15644179071845943,0.44422710638752316,-0.24628907399621586,false
0.9872655486741314,-0.1559817046769569,0.44422710638752316,-0.2457344498390143,false
0.9892376963504182,-0.1410672104084367,0.44422710638752294,-0.23006760585211852,false
0.9859095294648329,-0.13605344309345013,0.2486417060135977,-0.2238008682573604,false
0.9941288591052196,-0.10785312391703833,0.27254191528054816,-0.15870105391703876,false
0.9944100633006795,-0.10471975511965914,0.27254191528054816,-0.15556768511965957,false
0.993520508311683,-0.1136557379308926,0.26952543019954156,-0.16450366793089305,false
0.9935225552376757,-0.11363603504332659,0.26952543019954167,-0.16448396504332696,false
0.9934611261590588,-0.11417103352053319,0.2690453473263834,-0.16501896352053363,false
1.011996277740796,-0.10471975511965975,0.27760008897577243,-0.15556768511966018,false
0.9828533350569303,-0.15707963267948966,-0.004945234512405786,-0.20792756267949009,false
0.9828269476733563,-0.15707963267948966,-0.006229892626719747,-0.20792756267949009,false
0.9815459273588908,-0.10471975511965909,-0.33234073504114503,-0.15556768511965952,false
0.9938118901542939,-0.10678214667470796,0.1315499801847471,-0.13812893348578725,false
0.9873779885179736,-0.15707963267948966,0.0730441895006392,-0.18529305069319707,false
0.9873863912576611,-0.15701686829458503,0.0730441895006392,-0.18523028630829244,false
0.9873778994718173,-0.15707963267948966,0.03404814028049956,-0.17902631309843903,false
0.9876725672636762,-0.15485365587772482,0.03404814028049956,-0.17680033629667397,false
0.986671885098796,-0.15007822848020969,0.014551310017568212,-0.18142501529129612,false
0.9829436541486736,-0.15707963267948966,-0.20537230293795564,-0.17502718267949002,false
0.9828269476733563,-0.15707963267948966,-0.21102471732394804,-0.17502718267949002,false
0.9941176330779643,-0.10758507674122908,0.053545639137110315,-0.12353306674122944,false
0.9925567046693053,-0.12166261238550288,0.04433649995747448,-0.13761060238550324,false
0.9918506094089011,-0.12665333670131274,0.03571607337162784,-0.1426013267013131,false
0.9918579536234658,-0.12658482270999596,0.03571607337162784,-0.14253281270999632,false
0.9920191194384731,-0.12507266728828623,0.035716073371628125,-0.14102065728828658,false
0.992105377472245,-0.12425555778682945,0.03571607337162749,-0.1402035477868298,false
0.9890929811730438,-0.14691502283741786,0.016219185906466205,-0.16286301283741822,false
0.9880801077815655,-0.15172028708034563,-0.003277383060106609,-0.16766827708034598,false
0.9882768131153581,-0.15018332391528286,-0.0032773830601065773,-0.1661313139152832,false
0.9884788955045438,-0.14858691828296655,-0.0032773830601065777,-0.1645349082829669,false
1.0008702268090184,-0.10471975511965975,0.05354563913710985,-0.11966552267258118,false
0.9868679087396869,-0.15337666312693135,-0.0634369821555844,-0.16740022990453668,false
0.9523191270373106,-0.12351996790393382,-1.9570642727938985,-0.1360665419307458,false
0.9518929801060169,-0.1329200742960711,-1.9785107471911534,-0.13919991072812482,false
0.9524501962015597,-0.12665333670131296,-1.9785107471911532,-0.13293317313336672,false
0.9876665155068717,-0.15657460473194734,-0.004945234512405786,-0.17053359870191598,false
0.9876666678000406,-0.15655617720467932,-0.004945234512405786,-0.17053359870191598,false
0.9825403451266161,-0.15707963267948966,-0.2585486039003879,-0.1696262067063015,false
0.9897929442747229,-0.1548536558777247,-0.25854860390038786,-0.16740022990453668,false
0.981546302113287,-0.10471975511965909,-0.5719469575134674,-0.11726632914647103,false
0.9608963399050644,-0.15707963267948966,-1.3309720851658742,-0.16962620670630169,false
0.9815460826433786,-0.10471975511965909,-1.3309720851658742,0.0018016851539348622,false
0.9767564211449113,-0.15172028708034585,-1.453812140027027,-0.026398634022477163,false
1.2,-0.1485869182829665,-1.453812140027027,-0.02326526522509781,false
0.9859988773741503,-0.1423201806882083,-0.21949790188997978,-0.14860001712026205,false
0.9945025727068261,-0.10471975511965975,1.1331614857804,-0.29123539819323363,false
1.0021534938001855,-0.10471975511965975,1.1421733630908035,-0.29259635441027776,false
0.986749239467759,-0.10747433275147891,1.2930572821034356,-0.46118834501429007,false
1.0586858348261525,-0.10471975511965975,1.3672976904083747,-0.4611883407018818,false
1.2,-0.10471975511965975,1.668218057115375,-0.5068280985938818,false
0.9944749413979792,-0.10471975511965914,0.032044499789677015,-0.11645862218760206,false
0.9944749441372543,-0.10471975511965975,0.012650681767473193,-0.11334180130524393,false
0.9945426472195197,-0.10471975511965914,-0.006742890460195012,-0.11022498042288487,false
0.9922389951251459,-0.10471975511965975,-1.3641692181840532,0.0876328720346028,false
0.9857128342226807,-0.15707963267948966,-1.4419561398906982,0.041221218958296224,false
0.9914514219031192,-0.10471975511965914,-1.441956139890705,0.09358109651812674,false
0.9914517313245892,-0.10471975511965981,-1.9796019231173563,0.17388212704570027,false
1.1167224536715605,-0.10471975511965914,-2.0,0.17685623928746308,false
1.2,-0.15014741155465539,1.7870006060367007,-0.5262482433958602,false
1.2,-0.10471975511965975,1.8061397245589021,-0.5290874719230482,false
1.1994176856921355,-0.10471975511965975,1.8061397245589021,-0.5290874719230482,false
0.9939222878077808,-0.11008925419030034,0.014551310017568212,-0.11950245941973307,false
0.9892504397285515,-0.1423201806882084,-0.0634369821555844,-0.148600017120262,false
1.0374152414639204,-0.1353769000000001,-0.04251617485594776,-0.14704348368013181,false
0.9904825016070632,-0.12210478413590797,-0.09615833067642737,-0.13094643890405255,false
1.2,-0.10471975511965975,1.1329777846564195,-0.29006575511965976,false
1.1987527323449623,-0.10471975513256818,1.1248861235217786,-0.28881848747753075,false
1.1932691202879042,-0.10471975515533971,1.0895159588112246,-0.2833348754432442,false
1.2,-0.1371531000310341,1.108088935075624,-0.3224991000310341,false
1.2,-0.13805147189078923,1.1073086351956334,-0.32339747189078927,false
1.2,-0.1548536558777222,0.821521771620324,-0.3401996558777222,false
1.1995358578826625,-0.15485365587772476,0.8185825710732189,-0.33973551376038735,false
1.2,-0.15707963267948966,-1.6788124631244206,-0.34242563267948967,false
1.2,-0.15707963267948966,-1.6848708926549374,-0.342425632679491,false
1.2000000000000002,-0.15707963267948966,-1.699746061375162,-0.34242563267948983,false
1.030843,-0.13114216108313004,-0.017029503754215265,-0.14046728361363325,false
1.2,-0.10471975511965975,1.0053991655158634,-0.27015375511965983,false
1.1964629668217068,-0.14963822776226854,0.6406898157500545,-0.31153519458397544,false
1.1784581957160574,-0.15485365587772476,0.5603697675017804,-0.2987458515937822,false
1.1769935117866592,-0.12978670549869192,0.3943034717591385,-0.27221421728535117,false
1.1764708562445287,-0.12978670549869192,0.39103826679696113,-0.2716915617432208,false
1.2,-0.10471975511965975,0.3814326421129959,-0.27015375511965983,false
1.2,-0.10471975511965909,0.3659095179234706,-0.267668031420668,false
1.1943802608481175,-0.10471975511965975,-0.9679723949989327,-0.26453466262328956,false
1.1912475387062498,-0.10471975511965975,-0.9879499053201719,-0.2614012938259098,false
1.1796667635629743,-0.15245825967990975,-1.34036592839659,-0.29755902324288397,false
0.9915395534631248,-0.1282438413752885,-0.17611426038505362,-0.11122178009598094,false
1.2,-0.12646697367376847,0.9535953043224195,-0.28624897367376856,false
1.1998408143929828,-0.1260697545342614,0.9529059861094171,-0.2856925689272444,false
1.2,-0.13715367573401777,0.94469069836476,-0.29693567573401786,false
1.2,-0.13746991813859255,0.944411983398323,-0.29725191813859264,false
1.1997953870662936,-0.13804099876243964,0.9426088014848247,-0.29761838582873346,false
1.2,-0.13655061553837014,0.9408512420506945,-0.2963326155383702,false
1.1989333321650324,-0.12467130572264395,0.9378954426576971,-0.2833348754075635,false
1.1997817198585359,-0.1237711555490275,0.9378954426576971,-0.2833348754075635,false
1.1998053273495433,-0.12374754805802017,0.9378954426576971,-0.2833348754075635,false
1.1971015767459003,-0.13271803625642137,0.8781598605087072,-0.28960161300232173,false
1.027416723499588,-0.1092114234995879,0.019505287446004743,-0.11991652341982245,false
1.0705127366922733,-0.1523074366922733,-1.9798642862578975,-0.16395386669227385,false
1.2,-0.10471975511965975,0.9590677889196432,-0.26289275511965987,false
1.1986770639217663,-0.10471975511965914,0.9179653029863231,-0.2614012938259099,false
1.1987549359727285,-0.10471975511965914,0.9179653029863231,-0.2614012938259099,false
1.185975063516734,-0.15485365587772476,0.5619743717990549,-0.29900171939445896,false
1.1734415883272176,-0.10471975511965975,0.1705661233534868,-0.2363343434468776,false
1.154641375542943,-0.10471975511965975,0.05354563913710985,-0.21753413066260296,false
1.1985085387062506,-0.14545354948558747,-1.8292533772182487,-0.30213508819183815,false
1.2,-0.14545354948558753,-1.8403629408005358,-0.30362654948558765,false
1.2,-0.1485869182829665,-1.8615848348593855,-0.3067599182829666,false
1.2,-0.15707963267948966,-1.8677359329071417,-0.3152526326794898,false
0.9850015009539713,-0.10471975511966053,-0.4311630560736318,-0.11364519392913125,false
0.9852134251242088,-0.10471975511965914,-0.43137498024386883,-0.11361129359461586,false
1.126818,-0.11869093265434749,1.3380893202990434,-0.3887172529533909,false
0.9945101695463455,-0.10471975511965947,0.3086928547176193,-0.16066820000000037,false
0.9949658871129763,-0.10581730501590213,0.30100163033265737,-0.16066820000000037,false
0.9949636347588063,-0.10597005026700054,0.29994864984593594,-0.16066820000000037,false
0.9941623905563978,-0.10471975511965975,0.2926474904326761,-0.16066820000000065,false
1.0082402305070297,-0.10471975511965975,0.29131263018795184,-0.15778751394319757,false
1.1713818189876204,-0.10471975511965975,0.2913126301879461,-0.15778751394319732,false
0.9951494791439858,-0.10471975511965961,-0.08259108782809699,-0.09782306000000052,false
0.9951947932829518,-0.10471975511965975,-0.08261522981364944,-0.09782306000000052,false
0.9956365889943386,-0.10471975511965975,-0.08259108782809776,-0.09782306000000052,false
0.9937642083548479,-0.10471975511965975,-0.11733429808476455,-0.09782306000000052,false
0.9933752522599493,-0.10471975511965975,-0.1811180557817101,-0.09051448049160371,false
0.9906527018806333,-0.10471975511965914,-0.2636477785671199,-0.09782306000000052,false
0.9898752991198236,-0.10471975511965975,-0.3002653625410596,-0.0978230600000008,false
0.9898752329458771,-0.10471975511965914,-0.3275384177477103,-0.09345092047615089,false
0.9902532159205039,-0.10484828494827957,-0.32753841774771036,-0.09064301032022393,false
0.9782136536071725,-0.10471975511965975,-0.9184998459280027,-0.08757804050705628,false
1.053609741003212,-0.13055825899678797,1.0262771343499038,-0.3034599587873939,false
1.0531529812718938,-0.13101501872810603,1.026514399944841,-0.30403683295081324,false
1.0324477129196545,-0.15172028708034568,1.0057218226065134,-0.3253091870267635,false
1.0324477129196543,-0.15172028708034563,1.0046738542977318,-0.3251450691158476,false
1.0387144505144124,-0.14545354948558745,1.0111532640073422,-0.3198930446346468,false
1.0388211670485687,-0.1453468329514312,1.011257403760765,-0.31980263698944544,false
1.0389508040901565,-0.14521719590984342,1.0113839105823388,-0.3196928116493177,false
1.0794482448803406,-0.10471975511965914,1.0446238540350286,-0.32512932117265164,false
1.0833343364001635,-0.10471975511965914,1.1181648953798644,-0.3366021449630083,false
1.0034152989917722,-0.10471975511965975,1.1935680751054814,-0.3005639761137091,false
1.0085055180571807,-0.10471975511965975,1.1995549595023678,-0.301460641445187,false
1.003411840818815,-0.10645454793660178,1.1958698620183725,-0.30286922119955745,false
1.101501246277644,-0.14964709017725103,1.48600386873396,-0.4850122078403572,false
0.9435787478667643,-0.10471975511965975,1.6719825192856586,-0.8388149714188942,false
0.9945021303406865,-0.10471975511965975,0.032679228941978784,-0.11635610511966027,false
0.9944370978049253,-0.10533510584169198,0.03221334356676928,-0.1169714558416925,false
0.993922657295307,-0.11008471459656521,0.028384433101559785,-0.12172106459656573,false
0.9941054161489778,-0.11088383089669138,0.02774563819291051,-0.1225201808966919,false
0.9701845,-0.15707963267948924,-0.8676496991432732,-0.16871598267948976,false
0.9699173097218302,-0.15707963267948966,-0.8808743890647851,-0.16871598267949017,false
1.0489929999999998,-0.10471975511965975,0.03485679466070257,-0.11635610511966027,false
1.0776217284273237,-0.10471975511965975,0.035905235050217206,-0.11635610511966027,false
1.0489929999999998,-0.1152644676661092,-1.9640425344535777,-0.12690081766610972,false
0.9944402781874988,-0.10530474757385361,0.032190469839287195,-0.11693605757330588,false
0.9969691878516006,-0.10812846471853303,0.029389765776521245,-0.11965104264345365,false
0.9944371788190529,-0.10533457453698994,0.03216299685952004,-0.11696336453664549,false
1.0489929999999998,-0.12628320904100832,0.016153410322213624,-0.13791199579929023,false
1.0489929999999998,-0.12628320904810458,0.0016026433698264064,-0.13557348990866142,false
1.0489929999999998,-0.12409858781697228,0.0016026433698261972,-0.13456466747068746,false
1.0489929999999998,-0.13047144428222557,-0.009474272011598783,-0.14210022895650887,false
1.048993,-0.15463814588223257,-0.16287159165924187,-0.16392842674278968,false
1.0489929999999998,-0.15463814588223262,-0.18115635179161388,-0.1580556748883693,false
1.048993,-0.15170176995502238,-0.18115635179161388,-0.1580556748883693,false
1.0489929999999998,-0.12821076253734076,-0.769660023611921,-0.13456466747068752,false
0.9945021255099645,-0.10471975511965975,1.2016566062829597,-0.30187748077299503,false
0.9950563639647083,-0.10471975511965975,1.2023112456755625,-0.30197788171085416,false
0.9938649085126814,-0.10471975511965975,1.2065966392093246,-0.3074547306966432,false
1.0831634261027827,-0.10471975511965914,1.326641165523347,-0.32597985284601877,false
1.0038451432065438,-0.10637070058898512,1.239559909463611,-0.3119177081073679,false
0.9937995382797101,-0.11034071176533376,1.231050728904237,-0.31349089238986055,false
0.9938108338952963,-0.10616386139452841,1.2343886363567986,-0.3126406538560306,false
0.9936821861704329,-0.10753001215512278,1.2366088264214106,-0.3143890324061003,false
1.0007359112543937,-0.10471975511965914,1.246138667697515,-0.3130715615627805,false
0.9935249452070193,-0.11315002834676889,1.2348781820910761,-0.31696062523082424,false
0.9934324198770883,-0.11065818677059797,1.237716249430841,-0.31739937632435056,false
0.9934318311778094,-0.11021366074918712,1.2380919992903012,-0.3173311888616789,false
0.9939302613372731,-0.10471975511965975,1.2386815749074978,-0.3119284286898843,false
1.0009723364679592,-0.10471975511965911,1.2470123296341524,-0.31321632193153015,false
0.993419219699356,-0.11034073855414323,1.2383740686788502,-0.3175067475336373,false
1.001118224060051,-0.10471975511965975,1.247480881009595,-0.3132935720692037,false
0.9934193063403287,-0.11033985425749065,1.2385222059239303,-0.3175311938410922,false
0.9934191795208689,-0.11033984045278072,1.2385960611361282,-0.31754381206803994,false
0.9939291335651118,-0.10471975511965975,1.2391992650202708,-0.31201697657481864,false
0.9962006296172307,-0.10471975511965975,1.247444704206349,-0.31329164655659897,false
1.1142933615954798,-0.10472210758740977,1.3755227131909598,-0.32794786918288965,false
1.114958874342508,-0.10471975511965975,1.376309683087364,-0.32806697386451567,false
1.119460096076395,-0.10471975511965975,1.3815975114652763,-0.3288535805085411,false
1.1258307515534058,-0.10471975511965975,1.3890695743291603,-0.3299549878954141,false
1.1215793897677193,-0.11033983354931509,1.3900947695354386,-0.3408516233170344,false
1.1999999999999984,-0.15530046098656186,1.6157627966052721,-0.4425588213350308,false
0.9827195636272555,-0.1385102,-0.3988897416272551,-0.14467932200000042,false
0.9827255271683601,-0.1385102,-0.3989510561683596,-0.14462397100000055,false
0.9827285312720954,-0.1385102,-0.3989817392720948,-0.14459629200000054,false
0.9827299303829717,-0.1385102,-0.39899697338297124,-0.14458245700000047,false
0.9828464173618425,-0.1385102,-0.3991134603618419,-0.14458245700000047,false
0.982730502437985,-0.1385102,-0.39900446743798457,-0.1445755350000004,false
0.9827311595919193,-0.1385102,-0.3990085815919189,-0.14457207800000035,false
0.9827312658866265,-0.1385102,-0.3990104158866261,-0.14457035000000037,false
0.9827313111085243,-0.1385102,-0.39901132610852375,-0.14456948500000052,false
0.9827313674386258,-0.1385102,-0.3990118144386252,-0.14456905300000053,false
0.9828469656207653,-0.1385102,-0.3991274126207648,-0.14456905300000053,false
0.9827313213111185,-0.1385102,-0.39901198431111806,-0.14456883700000042,false
0.9827812188218032,-0.1385102,-0.39906188182180274,-0.14456883700000048,false
0.9827314199260623,-0.1385102,-0.39901219492606177,-0.14456872500000048,false
0.9827314787122031,-0.1385102,-0.3990123057122027,-0.1445686730000004,false
0.9827315089946361,-0.1385102,-0.39901236599463574,-0.14456864300000036,false
0.9827314276906266,-0.1385102,-0.3990122996906261,-0.14456862800000045,false
0.982731407076596,-0.1385102,-0.39901228607659545,-0.14456862100000054,false
