0.6920125796623042,-0.036805547448061304,0.49159741401672363,-0.02687104232609272,true
0.6920123345508608,-0.036805532841885646,0.4521750211715698,-0.024312591180205345,true
0.6920122332478799,-0.03680546939953278,0.39771220088005066,-0.019751958549022675,true
0.6920120461085694,-0.03680547593140124,-1.5409345626831055,0.20385311543941498,true
0.6920125800521313,-0.036805547443939726,0.5054213404655457,-0.0186806321144104,true
0.6920123940876703,-0.03680537441281561,0.5171003937721252,-0.019798865541815758,true
0.6920121861012567,-0.036805448118751895,0.49364006519317627,-0.016983618959784508,true
0.692012624207731,-0.03680554704904227,0.43088552355766296,-0.02268408052623272,true
0.6920124483471594,-0.03680538742270389,0.38475432991981506,-0.017437297850847244,true
0.6920122333200721,-0.036805469503036065,0.40163591504096985,-0.018470892682671547,true
0.6920121352616015,-0.036805486037225506,0.4027259647846222,-0.018365072086453438,true
0.6920129410017696,-0.03680482726981166,0.6190440058708191,-0.03428944572806358,true
0.6920123568623764,-0.036805476093715817,0.6229248046875,-0.03489470109343529,true
0.692012253981038,-0.036805501815223844,0.6028141975402832,-0.03254919871687889,true
0.6920120639915626,-0.03680548558442886,0.4905450940132141,-0.014042495749890804,true
0.6920123940993845,-0.03680537440908293,-1.231468915939331,0.18368318676948547,true
0.6920120924441036,-0.03680549759419695,0.45732367038726807,-0.01039702445268631,true
0.6920125796131604,-0.0368055474951147,0.542717695236206,-0.02864551730453968,true
0.6920124641806136,-0.0368054558746413,0.5324117541313171,-0.026156391948461533,true
0.6920122481041099,-0.0368054917787458,0.6305850744247437,-0.033405572175979614,true
0.6920120589173401,-0.03680548281359148,0.5576450824737549,-0.02824431098997593,true
0.6920134421309995,-0.036804906678607974,0.4391634166240692,-0.015098978765308857,true
0.6920123700939333,-0.03680543703864161,0.4295136332511902,-0.014224705286324024,true
0.6920120742927237,-0.036805490960041105,0.4448537230491638,-0.015578586608171463,true
0.6920125799491378,-0.03680554744413348,0.45135974884033203,-0.02066131867468357,true
0.6920122982190923,-0.03680556236068881,0.6000741720199585,-0.030666999518871307,true
0.6920121029681309,-0.03680549861866196,0.62420654296875,-0.032007038593292236,true
0.692012709870412,-0.036805372560325955,0.5614391565322876,-0.030703261494636536,true
0.6920123377568352,-0.03680552630399183,0.5588260293006897,-0.030357573181390762,true
0.692012138029499,-0.03680548400869196,0.5639967918395996,-0.030607828870415688,true
0.6920125797116397,-0.036805547515084386,-0.352695494890213,0.08583524078130722,true
0.6920123701678923,-0.036805437160614025,0.5075463056564331,-0.019573204219341278,true
0.6920121660482156,-0.03680546062485747,0.5086450576782227,-0.018908755853772163,true
0.895753079735203,-0.03789936804837479,0.8415886759757996,-0.03780815750360489,true
0.8957529175200407,-0.037899164465758986,0.8728043437004089,-0.03982305899262428,true
0.8957526996553175,-0.03789926783446419,0.8917507529258728,-0.04125998541712761,true
0.8957530795555093,-0.03789936804195497,0.6332499384880066,-0.021351536735892296,true
0.8957529448334652,-0.0378991978911544,0.6559349298477173,-0.022818129509687424,true
0.8957526234713106,-0.037899308443782934,0.6636034250259399,-0.023920539766550064,true
0.8957530795231553,-0.03789936806596879,0.8513551354408264,-0.035716041922569275,true
0.8957528677130863,-0.0378992576713246,0.8663532733917236,-0.03591223061084747,true
0.895752760442707,-0.03789934307761228,0.8739523887634277,-0.03665582463145256,true
0.8957530797418392,-0.03789936812241825,0.8283753991127014,-0.03692391887307167,true
0.8957528092581872,-0.03789938217096776,0.8752833604812622,-0.04002586007118225,true
0.8957527057969035,-0.037899270528247146,0.8842589259147644,-0.040291864424943924,true
0.8957530794872887,-0.03789936811606598,0.9320465326309204,-0.04367496073246002,true
0.8957529718506178,-0.037899311680907447,0.8926604390144348,-0.03970532864332199,true
0.8957527483868214,-0.0378993225069316,0.8725872039794922,-0.038650672882795334,true
0.8957525531619059,-0.03789930628359264,0.8509764075279236,-0.03685980290174484,true
0.8957530580129881,-0.03789954634174455,0.8777450919151306,-0.04133717715740204,true
0.8957527817402458,-0.03789937364059773,0.8565878868103027,-0.039159368723630905,true
0.8957525824319731,-0.03789931827295707,0.8689321279525757,-0.04002775251865387,true
0.8957530816375955,-0.0378993680316324,0.617814302444458,-0.022815972566604614,true
0.8957529032063379,-0.03789917632885165,0.6659982800483704,-0.02572186291217804,true
0.8957526876300435,-0.037899266525735026,0.6469272375106812,-0.024479132145643234,true
0.8957525012890629,-0.037899286080821486,0.6441646218299866,-0.02299904264509678,true
0.8957529718500885,-0.037899311677281174,0.6326684951782227,-0.02066214755177498,true
0.8957527483890794,-0.03789932250332489,0.6459871530532837,-0.022215863689780235,true
0.8957525531690496,-0.03789930627922745,0.7944016456604004,-0.035470131784677505,true
0.8957531038962003,-0.037899601288299174,0.8800660967826843,-0.04053258150815964,true
0.8957527907803559,-0.03789938136100458,0.9091599583625793,-0.04313825070858002,true
0.8957525904502076,-0.0378993191947147,0.6147993206977844,-0.021895794197916985,true
0.8957531727426673,-0.03789963392823249,0.6487891674041748,-0.024036869406700134,true
0.8957528031627857,-0.03789938439657937,0.6499671936035156,-0.024390818551182747,true
0.8957526998148401,-0.03789926793311499,0.6434863805770874,-0.023672660812735558,true
0.724221695415639,-0.041199788460017,0.5863376259803772,-0.034000590443611145,true
0.7242214551120101,-0.04119973548031545,0.5874149203300476,-0.03373520448803902,true
0.7242212310752277,-0.041199715909433464,0.5617789030075073,-0.032106347382068634,true
0.7242217139711641,-0.04119978824785656,0.43663156032562256,0.05218857154250145,true
0.7242215494484623,-0.041199596081428466,0.5726965665817261,-0.023894697427749634,true
0.724221311395199,-0.04119969724718379,0.5999214053153992,-0.027316100895404816,true
0.7242217530382963,-0.0411997878663465,0.5759342312812805,-0.03337674215435982,true
0.724221567183457,-0.04119963951349535,0.5799109935760498,-0.03270813077688217,true
0.724221327821519,-0.04119971433310907,0.589987576007843,-0.03368696570396423,true
0.7242216956369149,-0.041199788412509486,0.5530169606208801,-0.025341855362057686,true
0.7242216329788284,-0.04119987893598555,0.5537670850753784,-0.025734655559062958,true
0.7242212593443293,-0.04119969517535731,0.5428752303123474,-0.02505899779498577,true
0.7242211565361167,-0.04119973535440912,0.5266358852386475,-0.023914333432912827,true
0.7242217812299087,-0.041200052649622454,0.535450279712677,-0.023846304044127464,true
0.7242212917657002,-0.04119968747667658,0.5115551352500916,-0.021468572318553925,true
0.7242217321226345,-0.041199788070517614,0.851173996925354,-0.0502314418554306,true
0.7242218859919511,-0.04119978167215649,0.8225788474082947,-0.05149364098906517,true
0.7242214339906192,-0.04119977981874734,0.8282980918884277,-0.05165849253535271,true
0.724221212629899,-0.04119972879000791,0.7944490909576416,-0.04871668294072151,true
0.724221695386515,-0.0411997884004315,0.7638294100761414,-0.046201709657907486,true
0.7242215986693703,-0.041199770777099985,0.7182085514068604,-0.043913986533880234,true
0.724221354125206,-0.04119975311539143,0.7123474478721619,-0.04271680489182472,true
0.7242212435122124,-0.04119970613903684,0.7201846241950989,-0.04374878481030464,true
0.7242217011932718,-0.04119978839266223,0.5964061617851257,-0.03889123722910881,true
0.7242217993042018,-0.041200054264385826,0.5751331448554993,-0.03730391710996628,true
0.7242212950191497,-0.04119968827125671,0.5846448540687561,-0.03822612762451172,true
0.7242211887296002,-0.041199738712514075,0.5906933546066284,-0.03855794295668602,true
0.7242216954361049,-0.04119978839187551,0.4858299791812897,-0.019535411149263382,true
0.7242214409296401,-0.04119976715001795,0.4883136749267578,-0.019399357959628105,true
0.7242213278093765,-0.04119971435383043,0.49091845750808716,-0.019881945103406906,true
0.7242211194807535,-0.041199718171284976,0.48911598324775696,-0.02022182196378708,true
0.7242223544074874,-0.04119964936651096,0.5994189977645874,-0.03403401002287865,true
0.7242214882535337,-0.04119964917727474,0.6007629036903381,-0.033333320170640945,true
0.7242212594305601,-0.04119969526884305,0.6034267544746399,-0.03427493944764137,true
1.0341313250412156,-0.04768918332266365,1.0934972763061523,-0.05723993852734566,true
1.0341314247308115,-0.04768944757062037,1.0448367595672607,-0.05230122432112694,true
1.0341310042745528,-0.04768919981426359,1.0565627813339233,-0.05261635407805443,true
1.0341307540118185,-0.04768913411188734,1.0924991369247437,-0.055098168551921844,true
1.0341317206120917,-0.04768881111920867,0.8492587804794312,-0.03659262880682945,true
1.0341310554378944,-0.047689147241825915,0.8326123356819153,-0.03446176275610924,true
1.0341309245641115,-0.04768911812615906,0.8319538235664368,-0.03482864052057266,true
1.034130684405746,-0.04768911590339665,0.9500622153282166,-0.04649851843714714,true
1.034131247938468,-0.04768922928370312,0.9862764477729797,-0.04683728143572807,true
1.0341309585523735,-0.04768916334676889,0.9579338431358337,-0.045606065541505814,true
1.034130713812088,-0.0476891280557904,0.9767546057701111,-0.04603936895728111,true
1.034131521771611,-0.04768938788569269,0.822293758392334,-0.030486276373267174,true
1.0341310235474095,-0.047689192488023495,0.8323466777801514,-0.03127449005842209,true
1.034130894277985,-0.04768908965894742,0.8286110162734985,-0.030567627400159836,true
1.0341313357550317,-0.047689183177094106,-0.03098119981586933,0.08505829423666,true
1.0341311672931832,-0.04768898611022885,0.9762049913406372,-0.04652056097984314,true
1.0341310236035228,-0.04768919243053648,0.9912235140800476,-0.0471155010163784,true
1.0341306585762486,-0.04768910615162882,0.9951201677322388,-0.04703149572014809,true
1.0341313210126999,-0.04768918337917201,0.8399004340171814,-0.02904997207224369,true
1.034131114640803,-0.047689018028201274,0.8444978594779968,-0.02973993681371212,true
1.0341307304819924,-0.04768913290762175,0.8371149301528931,-0.028618063777685165,true
1.0341313204768396,-0.047689183383731855,0.8694802522659302,-0.0313609354197979,true
1.0341310354150606,-0.04768918024756603,0.9025174975395203,-0.035271055996418,true
1.0341307814732157,-0.0476891255819817,0.9146577715873718,-0.034828223288059235,true
1.0341313203209026,-0.04768918337833817,-0.04715489596128464,0.08228681236505508,true
1.0341310718891865,-0.047689112069575934,0.934316098690033,-0.04096945375204086,true
1.0341306974964513,-0.0476891215475695,0.9531888365745544,-0.041843123733997345,true
1.034131320818536,-0.047689183385811094,0.8538202047348022,-0.03101133182644844,true
1.034131136730294,-0.04768898723812184,0.8606039881706238,-0.03134799376130104,true
1.034130747264434,-0.04768913454978394,0.8653008937835693,-0.032165128737688065,true
1.0341315705536391,-0.04768924554283432,0.8723024129867554,-0.03403981029987335,true
1.0341310353531081,-0.047689180156941686,0.8726220726966858,-0.03386738523840904,true
1.0341307814177276,-0.04768912549105556,0.8636938333511353,-0.03305286914110184,true
1.1645052759733214,-0.028177648549537485,1.0231534242630005,-0.022938506677746773,true
1.1645049899677897,-0.028178323090507246,1.0137087106704712,-0.021858137100934982,true
1.1645048415390533,-0.028178306861863536,1.0146206617355347,-0.02180149033665657,true
1.1645052721617957,-0.02817836871921456,1.0796505212783813,-0.020063962787389755,true
1.1645051017184305,-0.028178188698556487,1.074727177619934,-0.02023395337164402,true
1.1645049391871318,-0.02817826841104563,1.0938657522201538,-0.02169976197183132,true
1.1645052803796456,-0.028178368668307602,0.9905602335929871,-0.021374503150582314,true
1.1645053531207832,-0.028178619369858233,0.9737655520439148,-0.01851578615605831,true
1.1645050356734832,-0.028178382754699294,1.002113938331604,-0.021307099610567093,true
1.1645048822654704,-0.02817831749737347,0.9807812571525574,-0.019126566126942635,true
1.164505271889671,-0.028178368794792602,0.92500239610672,-0.006705806590616703,true
1.1645050722141916,-0.02817828791072542,0.9226669669151306,-0.006668593268841505,true
1.164504914492246,-0.02817828898147259,0.9200613498687744,-0.006287526339292526,true
1.1645052985046875,-0.02817836848280207,1.0922735929489136,-0.025667285546660423,true
1.164505136595818,-0.028178189916841616,1.066846489906311,-0.02453756146132946,true
1.1645049692595528,-0.028178283543553596,1.0659747123718262,-0.02448498271405697,true
1.1645052719155327,-0.028178368791961936,1.0982797145843506,-0.021977543830871582,true
1.164505064637739,-0.028178315815812947,1.0903760194778442,-0.020330650731921196,true
1.1645049079555911,-0.028178296244038194,-0.562006413936615,0.17543882131576538,true
1.1645052719706679,-0.028178368781983765,0.9170483946800232,-0.006937921047210693,true
1.1645050672174067,-0.028178306804739126,0.3645170032978058,0.050525832921266556,true
1.1645049101984093,-0.028178293837230684,0.8938754200935364,-0.0041463132947683334,true
1.1645052720947835,-0.02817836884015875,1.12270188331604,-0.03109421581029892,true
1.1645051238651818,-0.028178166048911154,1.1027764081954956,-0.02907775156199932,true
1.164505035784572,-0.028178382901889898,1.1071975231170654,-0.029631422832608223,true
1.1645048823833286,-0.028178317644012855,1.1344836950302124,-0.03141345456242561,true
1.1645052718957507,-0.028178368795395002,1.0009790658950806,-0.013325796462595463,true
1.1645050621100907,-0.0281783244516369,0.980139434337616,-0.010383334010839462,true
1.164504905752765,-0.0281782986110208,1.004011869430542,-0.012788037769496441,true
1.1645052722741902,-0.028178368785861406,0.8754762411117554,-0.008415699005126953,true
1.1645050907771965,-0.02817822038264741,0.8790942430496216,-0.008885689079761505,true
1.164504930177288,-0.028178273787775678,0.8722999095916748,-0.008102789521217346,true
1.1998044390533043,-0.049964859789390484,0.933912992477417,-0.032956261187791824,true
1.1998042680229155,-0.04996465934104131,0.9950599670410156,-0.03823992237448692,true
1.199803983258638,-0.04996476413831538,1.0068762302398682,-0.03871680423617363,true
1.1998044266336363,-0.04996485985772937,1.0139570236206055,-0.03959280997514725,true
1.1998043157209786,-0.04996476822158856,1.0306507349014282,-0.04141002148389816,true
1.1998041641517891,-0.04996480684732902,1.0659440755844116,-0.04502449929714203,true
1.1998038948954002,-0.04996478727718784,1.0486819744110107,-0.04297972470521927,true
1.199804427325813,-0.049964859924261536,1.1056632995605469,-0.045002829283475876,true
1.1998042267075322,-0.049964679932613776,1.1342320442199707,-0.04539092257618904,true
1.199803822961177,-0.04996481054607215,1.1168662309646606,-0.04377230629324913,true
1.1998044269645234,-0.04996485992231353,1.163536787033081,-0.05150078609585762,true
1.1998041224320175,-0.04996486910857783,1.1436147689819336,-0.05023082345724106,true
1.1998039872137714,-0.04996476628706161,1.1575534343719482,-0.051698632538318634,true
1.1998044266801031,-0.0499648599132078,1.0155011415481567,-0.040252767503261566,true
1.1998043422535667,-0.049964862903323734,1.0132570266723633,-0.03937103971838951,true
1.199804046465392,-0.04996482983343105,1.0563815832138062,-0.041756339371204376,true
1.1998044276664797,-0.04996485989642395,0.9935545921325684,-0.03085004910826683,true
1.199804222130027,-0.049964686909730445,0.9600769877433777,-0.029177449643611908,true
1.1998039442947939,-0.049964760608339855,0.971595048904419,-0.029305649921298027,true
1.1998044755074242,-0.049964859446648156,0.19806751608848572,0.05288160964846611,true
1.1998042942217237,-0.049964699819554516,1.0309054851531982,-0.035770609974861145,true
1.1998040069190101,-0.049964781899798416,1.0383386611938477,-0.03679557517170906,true
1.19980375769832,-0.04996478843265316,1.0836822986602783,-0.04515182226896286,true
1.1998043565047947,-0.0499649058318227,1.1429243087768555,-0.05017399042844772,true
1.199804054321714,-0.049964839895417536,1.1335757970809937,-0.04974747449159622,true
1.1998037985861643,-0.04996480459850407,1.0699412822723389,-0.04700764641165733,true
1.199804476258932,-0.04996509307429932,1.1062432527542114,-0.04933878779411316,true
1.1998039558351103,-0.04996475835744649,1.0994091033935547,-0.04848046973347664,true
1.1998044755040531,-0.0499648594410066,0.9523903131484985,-0.030017923563718796,true
1.1998042941515157,-0.04996469972075871,0.9821452498435974,-0.03309408947825432,true
1.199804142998492,-0.049964845249189406,0.975013017654419,-0.03276221081614494,true
1.1998038765005912,-0.04996479834910013,0.9871175289154053,-0.03352232277393341,true
1.1070767926348053,-0.027262701874851854,0.8023093342781067,0.0023718602024018764,true
1.1070766903171079,-0.027262704840683882,0.8482803702354431,-0.0017275597201660275,true
1.1070765220191625,-0.027262671766916286,0.846545398235321,-0.0016927941469475627,true
1.1070763771975407,-0.027262644108408847,0.850238561630249,-0.004047197289764881,true
1.107076792843035,-0.027262701853371235,0.9012665748596191,-0.01656186394393444,true
1.1070766291285734,-0.02726251017937597,0.9154884219169617,-0.017228737473487854,true
1.1070764705449037,-0.0272626003776471,0.9077821969985962,-0.01583121344447136,true
1.1070768445473094,-0.027262701341041137,0.8205673694610596,-0.003877602517604828,true
1.1070767606693124,-0.027262526878205455,0.8233407139778137,-0.004798591136932373,true
1.1070765780022025,-0.027262680630929927,0.8235315680503845,-0.004674587864428759,true
1.1070764272580518,-0.027262638337777517,0.8180503845214844,-0.003960222937166691,true
1.1070767926127099,-0.027262701834835184,0.8580764532089233,-0.012188280932605267,true
1.1070766714402005,-0.027262594158558584,0.8921347856521606,-0.013668500818312168,true
1.1070765087013574,-0.02726264123049484,0.8909123539924622,-0.013538663275539875,true
1.1070763655850355,-0.02726263571665734,0.8426753282546997,-0.005702300928533077,true
1.1070768243735083,-0.027262959604334305,0.8456630110740662,-0.005505320616066456,true
1.1070765507573586,-0.027262717895197987,0.8343080878257751,-0.004084214102476835,true
1.107076792638071,-0.027262701932271514,0.13759838044643402,0.08443831652402878,true
1.1070765804505713,-0.027262673515784167,0.1028294563293457,0.08869427442550659,true
1.1070764294276156,-0.02726263628213143,0.07268939912319183,0.09182149171829224,true
1.107076766763004,-0.027262900138506168,1.0910078287124634,-0.029301555827260017,true
1.1070764660937742,-0.02726260155025379,1.0705665349960327,-0.028230935335159302,true
1.107076825739094,-0.027262701551482967,0.9983705282211304,-0.017120273783802986,true
1.1070766599425934,-0.0272625318267783,1.0231809616088867,-0.018692882731556892,true
1.1070764975500966,-0.027262620179163016,1.0223246812820435,-0.018466351553797722,true
1.1070763560147154,-0.027262629202605432,1.0125876665115356,-0.02354491502046585,true
1.1070766826097087,-0.02726266440186754,1.0980143547058105,-0.028193986043334007,true
1.1070765175954767,-0.027262661391158936,1.050612449645996,-0.02536286786198616,true
1.1070764420761787,-0.02726262201867755,1.0826913118362427,-0.027882317081093788,true
1.1070767929594356,-0.02726270193711991,0.9244408011436462,-0.017197730019688606,true
1.107076541940696,-0.027262710517177255,0.9203447699546814,-0.01649298332631588,true
1.1070763949550055,-0.027262652565491183,0.9019490480422974,-0.015398376621305943,true
1.1776486492342966,-0.031847110326491644,0.9062650203704834,-0.005865650251507759,true
1.1776483333009693,-0.03184703629012193,0.9213142991065979,-0.007578036282211542,true
1.1776481693973744,-0.03184704010751338,0.9997528195381165,-0.020859256386756897,true
1.1776488052859222,-0.031846390125984614,1.0047950744628906,-0.018941665068268776,true
1.177648261917078,-0.031847032883668774,0.992388904094696,-0.0175839364528656,true
1.17764866662759,-0.03184711018912085,1.064326524734497,-0.03080720454454422,true
1.1776487571154242,-0.031847278041316485,1.1464661359786987,-0.03474041819572449,true
1.1776484082260976,-0.03184711617929138,1.1400320529937744,-0.0346531942486763,true
1.1776487030539722,-0.03184710978884229,1.1217081546783447,-0.027425052598118782,true
1.1776486952097858,-0.03184693529735328,1.083419680595398,-0.02313670888543129,true
1.177648421560113,-0.0318470890528163,1.0849379301071167,-0.022199232131242752,true
1.1776486494005873,-0.031847110336160785,0.9582481980323792,-0.020344313234090805,true
1.1776484558009135,-0.031846980458006546,0.9586440324783325,-0.018438978120684624,true
1.1776482768198855,-0.031847019073425874,0.9672257304191589,-0.018649844452738762,true
1.1776481962734695,-0.03184705621711314,1.0472770929336548,-0.024899227544665337,true
1.1776487575698416,-0.03184731497262397,0.25301027297973633,0.08641549944877625,true
1.1776484055259326,-0.03184711957016753,0.2634425759315491,0.08791773021221161,true
1.1776483178484036,-0.03184701675229142,0.30000266432762146,0.08547146618366241,true
1.1776486739051186,-0.03184663675217787,1.112669825553894,-0.0307206641882658,true
1.1776483411628877,-0.03184704981942255,1.1426098346710205,-0.032389018684625626,true
1.177648176186008,-0.031847044306657794,0.9255944490432739,-0.016672249883413315,true
1.1776485848297789,-0.03184722334874191,0.9468338489532471,-0.016366781666874886,true
1.1776483693966142,-0.031847104436683996,0.9491740465164185,-0.015997065231204033,true
1.177648200890579,-0.03184705832780166,0.9000796675682068,-0.005817893892526627,true
1.1776486610630073,-0.03184734353082595,0.8942037224769592,-0.00474511319771409,true
1.1776483846976002,-0.03184712361183418,0.894116222858429,-0.0041702124290168285,true
1.1776481387106823,-0.03184702836673878,0.20263013243675232,0.07586593180894852,true
1.1776486738760221,-0.03184663674742607,0.20634153485298157,0.07691534608602524,true
1.1776482546472569,-0.03184704019886079,0.23765647411346436,0.07436811923980713,true
1.1003890285115767,-0.0345904041604626,0.8390435576438904,-0.015040951780974865,true
1.1003888391858676,-0.03459024698892449,0.8259590864181519,-0.01365976594388485,true
1.1003886441977613,-0.034590307465452524,0.8268736004829407,-0.013426029123365879,true
1.1003890421142501,-0.034590404052350136,0.832025945186615,-0.013418064452707767,true
1.1003891524974367,-0.03459060880104789,0.8381381034851074,-0.012546963058412075,true
1.100388775145223,-0.03459041339834073,0.8320448994636536,-0.012151333503425121,true
1.1003890968375203,-0.034590403481623996,0.9648268818855286,-0.02749968133866787,true
1.1003889028550742,-0.03459026792925124,0.7575684189796448,-0.01198465283960104,true
1.100388699865792,-0.034590334469058875,0.8556756973266602,-0.019346933811903,true
1.1003885225768557,-0.03459033536492454,0.8536228537559509,-0.01942276768386364,true
1.100388958026165,-0.03459049473344362,0.8599452376365662,-0.018392639234662056,true
1.1003887332057,-0.03459039381970643,0.8551218509674072,-0.017581405118107796,true
1.1003885515975484,-0.03459035119018328,0.8366084694862366,-0.013875612989068031,true
1.1003891368404535,-0.03459065488908461,0.9570396542549133,-0.025151288136839867,true
1.1003886746940135,-0.03459030662374993,0.9602811932563782,-0.025474125519394875,true
1.100388583838507,-0.034590353000830756,0.9388368129730225,-0.023651493713259697,true
1.1003891611216539,-0.03458983433131895,0.873730480670929,-0.016558563336730003,true
1.100388708206233,-0.03459034850498688,0.8773713111877441,-0.01699198968708515,true
1.1003885297660223,-0.034590339544922695,0.9716907143592834,-0.030110768973827362,true
1.10038884584538,-0.03459023121458381,0.9425182938575745,-0.027085626497864723,true
1.100388649760269,-0.03459030490570042,0.9605424404144287,-0.028560427948832512,true
1.1003890559375862,-0.03459040389970518,0.04431173577904701,0.08625388145446777,true
1.1003888909986352,-0.03459022529423912,0.10335195064544678,0.08262001723051071,true
1.1003887837026838,-0.034590400995812835,0.08574782311916351,0.08461093157529831,true
1.1003885964901563,-0.03459034632952523,0.10388322919607162,0.08307503163814545,true
1.1003890279982882,-0.03459040414041241,0.07909969240427017,0.08691878616809845,true
1.100388804467379,-0.034590351123034054,0.07036521285772324,0.08872976154088974,true
1.1003886146995319,-0.03459033155654259,0.03709624335169792,0.09223393350839615,true
1.100389030102323,-0.03459040418257927,0.8602831363677979,-0.015254845842719078,true
1.100388855791433,-0.034590212574225655,-1.3091769218444824,0.20828977227210999,true
1.1003886580275515,-0.03459030275880011,0.8646038770675659,-0.016066057607531548,true
0.8771262340251271,-0.044963848292105146,0.6134374141693115,-0.02586732991039753,true
0.8771260604731719,-0.04496367846960375,0.5958656072616577,-0.02375425398349762,true
0.8771258009701204,-0.04496376683049529,0.5998462438583374,-0.02438461035490036,true
0.877125575982842,-0.044963775855484965,0.5920589566230774,-0.02331288531422615,true
0.8771261079492725,-0.04496385159087336,0.7669143676757812,-0.04029795899987221,true
0.8771258402895268,-0.04496381851713578,0.7335454225540161,-0.03781009092926979,true
0.877125609852337,-0.04496379085727512,0.9122397303581238,-0.05029946193099022,true
0.8771262540778003,-0.044964095700860976,0.6742441058158875,-0.03055894747376442,true
0.877125883272109,-0.04496386351912226,0.6686660647392273,-0.029799675568938255,true
0.8771255427870817,-0.044963766982413826,0.8369584679603577,-0.047085925936698914,true
0.8771268955447166,-0.04496312844838709,0.8389306664466858,-0.04597991704940796,true
0.8771259543383958,-0.04496377727735098,0.8226617574691772,-0.0441279299557209,true
0.8771257099376417,-0.04496377120898688,0.8139734864234924,-0.043776825070381165,true
0.8771261968363088,-0.04496384860208364,0.6129262447357178,-0.027050232514739037,true
0.8771260073965025,-0.04496366234076715,0.614020586013794,-0.02568853460252285,true
0.8771257548371707,-0.04496374757239444,0.5970990657806396,-0.024177685379981995,true
0.8771262000174056,-0.044963848580738805,-0.06973350793123245,0.05517837405204773,true
0.8771260200262303,-0.04496364885125994,-0.09853678941726685,0.05838904529809952,true
0.8771257654450297,-0.0449637470834619,-0.10936906188726425,0.05952126160264015,true
0.8771262435726944,-0.04496384819964476,0.643535852432251,-0.026312245056033134,true
0.8771264460125465,-0.04496376247486425,0.6350430250167847,-0.024802517145872116,true
0.8771258045517989,-0.04496377056307519,0.6416120529174805,-0.02493877150118351,true
0.8771256865257644,-0.04496378710526434,0.6429450511932373,-0.024986615404486656,true
0.8771261976296786,-0.04496384865577168,0.6867947578430176,-0.03256571665406227,true
0.8771260032733685,-0.0449636686872221,0.8083023428916931,-0.040445130318403244,true
0.8771257513974658,-0.04496374838612765,0.821179211139679,-0.04112672805786133,true
0.8771264079068979,-0.044963968910105005,0.8782294988632202,-0.04616264998912811,true
0.8771259161838506,-0.044963850229147,0.9543768763542175,-0.052743155509233475,true
0.8771256766758502,-0.044963792427441744,0.9583693146705627,-0.05297844856977463,true
0.8771265316751992,-0.04496347641864861,0.8008294105529785,-0.04330398142337799,true
0.8771259389450012,-0.044963812541916226,0.773116946220398,-0.04082922637462616,true
0.8771256966188605,-0.044963780801128915,0.8208010792732239,-0.04479372501373291,true
1.1069326832156094,-0.013973845370401963,1.110069751739502,-0.014798960648477077,true
1.1069325832067107,-0.013973913503397524,1.193076252937317,-0.019620312377810478,true
1.1069324804054725,-0.013973830306130358,1.0800395011901855,-0.011784265749156475,true
1.1069323997507052,-0.01397379129556951,1.153862476348877,-0.01803772710263729,true
1.1069326806753497,-0.013974102964489126,0.8900750875473022,0.0036338428035378456,true
1.1069324919154009,-0.013973861263552712,0.8724518418312073,0.005095111671835184,true
1.106932410457898,-0.013973796334058772,0.8926880359649658,0.0028091236017644405,true
1.106932682893956,-0.013973845331817327,1.0325915813446045,-0.00991687923669815,true
1.1069325583966407,-0.0139737376678297,1.0950133800506592,-0.012427517212927341,true
1.1069324694733729,-0.01397378473591729,1.0842698812484741,-0.012342148460447788,true
1.1069326833561026,-0.013973845375407279,0.8546877503395081,0.006113466806709766,true
1.1069325960537348,-0.013973958349710157,0.8859958648681641,0.0022827337961643934,true
1.10693248269857,-0.01397383943750562,0.8665826916694641,0.004620343912392855,true
1.1069324018597873,-0.013973793328684005,0.8173081278800964,0.003198259975761175,true
1.106932690633728,-0.013974109473485376,0.9618400931358337,-0.00695141963660717,true
1.106932493089272,-0.0139738617217217,0.9002938270568848,-0.0017252250108867884,true
1.1069324115644574,-0.013973796032609929,0.9776925444602966,-0.008170440793037415,true
1.1069326828982815,-0.013973845325870513,0.9434535503387451,0.0019838048610836267,true
1.106932556043106,-0.013973709006607686,0.9097692370414734,0.005643784999847412,true
1.106932467018421,-0.013973775550676837,0.9029113054275513,0.005739110987633467,true
1.1069323878333623,-0.013973776445220012,1.0774370431900024,-0.01665656641125679,true
1.1069325959783172,-0.01397395830993293,1.07027268409729,-0.015291817486286163,true
1.1069324826130646,-0.013973839360607322,1.0462254285812378,-0.01367749460041523,true
1.1069324017691788,-0.013973793241914011,1.0220810174942017,-0.009246991015970707,true
1.1069326980747576,-0.013974077370877172,1.041736125946045,-0.009646750055253506,true
1.106932497879671,-0.013973857340347577,1.026893138885498,-0.008157075382769108,true
1.1069323793582349,-0.013973767413057806,0.9797531962394714,-0.0076158014126122,true
1.106932148748236,-0.013973275400702756,1.169785499572754,-0.0197057593613863,true
1.1069325116902462,-0.013973792314610217,1.1397148370742798,-0.017032116651535034,true
1.1069324285938638,-0.013973772744724373,1.1083812713623047,-0.015388990752398968,true
1.1069326843948673,-0.01397384533394709,0.8862711191177368,0.0038635742384940386,true
1.1069326455011927,-0.01397406207888274,0.9155493378639221,0.0018443235894665122,true
1.1069324884201022,-0.013973856504219376,0.8980481028556824,0.0036677608732134104,true
0.6267792065511616,-0.015562231591660843,0.43234696984291077,0.00041253090603277087,true
0.6267790921186803,-0.015562214015997234,0.43623825907707214,0.0003660224610939622,true
0.6267789913946069,-0.015562196368541191,0.43136274814605713,0.0007931861910037696,true
0.6267789035372008,-0.015562172555040747,0.6084315180778503,-0.01706191524863243,true
0.6267787190319474,-0.015561471879184625,0.6174370646476746,-0.01665610820055008,true
0.6267789900363341,-0.015562191019391599,0.6149575710296631,-0.01661106012761593,true
0.626778902325047,-0.015562171018904492,0.46392008662223816,-0.000766605488024652,true
0.6267791602235837,-0.015562429769427698,0.4367519021034241,0.0029057711362838745,true
0.6267790042406466,-0.01556224008743768,0.4373508393764496,0.002347017638385296,true
0.6267789152286108,-0.015562182124569333,0.43834617733955383,0.002078281482681632,true
0.626779206542772,-0.01556223153914289,0.7267478108406067,-0.024574844166636467,true
0.6267790950969845,-0.015562234525695912,0.6652562618255615,-0.018803391605615616,true
0.6267789926359263,-0.015562201460471242,0.67430180311203,-0.01963428221642971,true
0.6267792066142408,-0.015562231378454736,0.5874314308166504,-0.013780007138848305,true
0.6267790733230557,-0.015562045091642721,0.598069965839386,-0.013585783541202545,true
0.6267790200610281,-0.015562232997191422,0.5818242430686951,-0.012462109327316284,true
0.6267789299191802,-0.015562175204301937,0.5870125889778137,-0.012620266526937485,true
0.6267792065450074,-0.01556223152584091,0.4052621126174927,-0.0016274014487862587,true
0.6267789938816497,-0.015562206530843583,0.4835914969444275,-0.005847095977514982,true
0.6267789057518869,-0.015562175039142664,0.5116595029830933,-0.01339582446962595,true
0.6267791380053761,-0.015562293873691853,0.5065630674362183,-0.010210694745182991,true
0.6267790746674826,-0.015562052804587648,0.5027809739112854,-0.00983404740691185,true
0.6267789311374584,-0.015562173831879106,0.5150928497314453,-0.01184689812362194,true
0.6267792067122054,-0.015562231592414433,0.5591115951538086,-0.008659382350742817,true
0.6267791084078702,-0.015562299756835075,0.5005913972854614,-0.0019610037561506033,true
0.6267789966108616,-0.015562216551738775,0.5029079914093018,-0.0016395632410421968,true
0.6267789082334821,-0.015562177546012768,0.4923362135887146,-0.0003792237548623234,true
0.6267792065640083,-0.015562231575906887,0.3739476799964905,-0.0018670735880732536,true
0.6267790656368157,-0.015562027801591454,0.3330645263195038,0.002047646325081587,true
0.6267789682831851,-0.01556213251441289,0.3380689322948456,0.001957255881279707,true
0.6267788835787323,-0.015562152044092652,0.3596426546573639,0.0030077085830271244,true
0.6267790837889615,-0.015562139884413637,0.3506063222885132,0.0052679977379739285,true
0.6267789859508099,-0.015562175784122625,0.33998048305511475,0.006551363039761782,true
0.6267789399007493,-0.015562158937978106,0.3353155851364136,0.007275039795786142,true
0.7076270142469451,-0.01577278512181384,0.542159378528595,-0.0014723967760801315,true
0.7076269291765114,-0.015772898092096477,0.520094096660614,0.0019011534750461578,true
0.7076268055584216,-0.01577277914403475,0.5223338007926941,0.0015174765139818192,true
0.7076267159173353,-0.015772733026198107,0.44034549593925476,-0.0009108613012358546,true
0.7076270352476863,-0.01577305098351038,0.4269780218601227,0.000707537226844579,true
0.7076267729994317,-0.015772684987823544,0.4284904897212982,0.000757250061724335,true
0.7076266875385484,-0.015772705001198355,0.6486273407936096,-0.01751396805047989,true
0.7076267936726848,-0.015772734462494137,0.6570603847503662,-0.017941679805517197,true
0.7076270143754734,-0.015772785119014546,0.7158438563346863,-0.02337789721786976,true
0.7076269373510699,-0.015772920372891602,0.6767816543579102,-0.019163085147738457,true
0.7076267171151339,-0.01577273388574516,0.6836665868759155,-0.019826987758278847,true
0.7076270139779272,-0.015772785179768954,0.6679839491844177,-0.020162999629974365,true
0.7076268728858512,-0.015772581406364502,0.6535898447036743,-0.017609700560569763,true
0.7076267743940151,-0.015772686117469365,0.6756669282913208,-0.019513051956892014,true
0.7076266887136924,-0.015772705648941048,0.7085140943527222,-0.022752346470952034,true
0.7076270140710821,-0.015772785169329524,0.5138658881187439,0.002267321338877082,true
0.7076268609242081,-0.01577260517746613,0.5153040289878845,0.0015663298545405269,true
0.7076267646671549,-0.015772684875488066,0.5275883078575134,-0.00011642705067060888,true
0.7076270140021659,-0.015772785054533674,0.7608928680419922,-0.023500043898820877,true
0.7076268643392635,-0.01577259337688807,0.7932090759277344,-0.0252765491604805,true
0.7076268134146639,-0.01577279837922673,0.798133134841919,-0.02550201676785946,true
0.7076267231759391,-0.015772736200933637,0.7930614352226257,-0.02565336786210537,true
0.7076270379439558,-0.015773017049888965,0.7165796160697937,-0.02219296246767044,true
0.7076268225943088,-0.015772797034529048,0.7002902030944824,-0.020976822823286057,true
0.7076270139405572,-0.0157727851720148,0.5315519571304321,-0.002188809448853135,true
0.7076267990307962,-0.015772755091722945,0.4579625427722931,0.00633411668241024,true
0.7076267100160599,-0.01577272743900044,0.7280640006065369,-0.021659689024090767,true
0.7076270044525339,-0.015773032200096397,0.7045963406562805,-0.01771235279738903,true
0.7076268146662482,-0.015772800017413394,0.7135785222053528,-0.019211897626519203,true
0.7076267243474127,-0.015772736274599068,0.7459651231765747,-0.021403996273875237,true
0.7944828580107445,-0.02058372727368343,0.8250764012336731,-0.02999095804989338,true
0.7944825441312999,-0.02058336658065039,0.8224740624427795,-0.02975628338754177,true
0.7944824361717135,-0.02058338611622455,0.7030665874481201,-0.014733854681253433,true
0.7944827272653466,-0.02058355633646743,0.7186911702156067,-0.015786485746502876,true
0.7944825234117481,-0.020583372614631664,0.703803300857544,-0.013798974454402924,true
0.7944828214427685,-0.02058346566520853,0.5357058048248291,-7.85468437243253e-05,true
0.794482604017157,-0.02058347982079597,0.5533387660980225,-0.000492533843498677,true
0.7944824890597608,-0.020583414555904643,0.5465682744979858,0.0005985890165902674,true
0.7944824855901536,-0.020582811973702077,0.6480768918991089,-0.014513577334582806,true
0.7944824570777488,-0.020583402523574927,0.5585436820983887,-0.0013950945576652884,true
0.7944827347691681,-0.020583578679686486,0.5807105898857117,-0.002003040164709091,true
0.7944825250140716,-0.02058337065660785,0.5773077011108398,-0.0011181203881278634,true
0.7944828580662862,-0.02058372739496291,0.81029212474823,-0.028837086632847786,true
0.794482602318417,-0.02058348126451031,0.8082155585289001,-0.029206281527876854,true
0.7944828527312123,-0.020583465295884108,0.709757924079895,-0.019019141793251038,true
0.7944826837448697,-0.020583305674594012,0.7860219478607178,-0.026264380663633347,true
0.7944825581752312,-0.02058338775483013,0.7981120944023132,-0.027390921488404274,true
0.7944828140650235,-0.020583465722646906,0.779683530330658,-0.026497498154640198,true
0.7944825870666922,-0.02058346774949718,0.8381012678146362,-0.03178870677947998,true
0.7944824735925726,-0.02058341523331194,0.8233514428138733,-0.03088521771132946,true
0.7944828135180881,-0.020583465775230982,0.571097731590271,0.00024264560488518327,true
0.7944826057474514,-0.020583477729581166,0.5636405348777771,0.0013197975931689143,true
0.7944824906369422,-0.02058341357141729,0.5736896395683289,-1.6356800188077614e-05,true
0.7944825536570871,-0.020582706113260053,0.7675961256027222,-0.025835974141955376,true
0.7944825718617807,-0.020583425246257298,0.718582808971405,-0.02127930149435997,true
0.794482513168175,-0.020583385868302148,0.7121223211288452,-0.021050268784165382,true
0.7163060786790496,-0.024440041710207264,0.6655896902084351,-0.026430806145071983,true
0.7163059125865928,-0.024439861665188783,0.6624298691749573,-0.025417333468794823,true
0.7163057701964775,-0.024439941377650536,0.6648749113082886,-0.0256482046097517,true
0.7163060879183476,-0.02444004161909025,0.585536003112793,-0.017730019986629486,true
0.7163061449585219,-0.02444027365363602,0.5745989084243774,-0.015813078731298447,true
0.7163057884472045,-0.02443994588046754,0.5759344100952148,-0.016245227307081223,true
0.716305662008683,-0.024439963690954147,0.47955724596977234,-0.011268746107816696,true
0.7163059659211586,-0.024440004330956215,0.4542043209075928,-0.007818380370736122,true
0.7163058168373808,-0.024440001321700062,0.46188315749168396,-0.008360032923519611,true
0.7163056864248265,-0.024439981331330865,0.4734317362308502,-0.009555931203067303,true
0.7163060778320472,-0.02444004166716861,0.5570096969604492,-0.017815787345170975,true
0.716305902842235,-0.024439893234833688,0.5547300577163696,-0.017956027761101723,true
0.7163057621988912,-0.024439946637875427,0.5474693179130554,-0.016912681981921196,true
0.7163056986939269,-0.02443998960652926,0.49560073018074036,-0.00505128875374794,true
0.7163061449457364,-0.024440273662501608,0.4829292297363281,-0.0029749616514891386,true
0.7163057884338859,-0.024439945889097432,0.4800208806991577,-0.002511558122932911,true
0.7163056619954306,-0.02443996370095975,0.6029872298240662,-0.020240597426891327,true
0.7163065443655017,-0.02443971250632422,0.6430389881134033,-0.02391776442527771,true
0.7163058980431858,-0.024439911839606414,0.6503189206123352,-0.024231329560279846,true
0.7163056951443253,-0.02443998759494337,0.6438094973564148,-0.02379678003489971,true
0.7163060776934076,-0.024440041684456168,0.4665430784225464,-0.004798144102096558,true
0.7163058445585788,-0.02444005659925792,0.46496838331222534,-0.0041587683372199535,true
0.7163057111826903,-0.02443999285817802,0.6671094298362732,-0.023085424676537514,true
0.7163060775636961,-0.0244400416889234,0.4588682949542999,-0.0005595001275651157,true
0.716305860681208,-0.024440047416773247,0.4576607346534729,-0.0005481654079630971,true
0.7163057257456488,-0.024439986992386472,0.4595993161201477,-0.0002943435392808169,true
0.716305665466588,-0.024439965568047305,0.5143436789512634,-0.002633937867358327,true
0.716306213404194,-0.024439314891702854,0.48500505089759827,0.0018146090442314744,true
0.7163058910210444,-0.024439941194543416,0.5364928245544434,-0.004359857644885778,true
0.7163058207551521,-0.024440011610991824,0.4879775941371918,0.0006733096670359373,true
0.716305689856978,-0.024439983947575645,0.4837949872016907,0.0005789956776425242,true
0.7163060776070238,-0.0244400416991881,0.6792942881584167,-0.023033050820231438,true
0.7163058525387531,-0.02444005717718504,0.6696256995201111,-0.0210554338991642,true
0.716305718401741,-0.024439991299867226,0.6634774804115295,-0.02112012729048729,true
0.981102806359519,-0.012788663952192874,0.7536541223526001,0.006307733710855246,true
0.9811027662897364,-0.012788831673333109,0.736928403377533,0.008607503958046436,true
0.981102612538033,-0.012788669807214064,0.7461909055709839,0.008500236086547375,true
0.9811025365454641,-0.012788609380836424,0.7720194458961487,0.005282549187541008,true
0.9811027916346315,-0.012788664128808285,0.8453618884086609,-0.0040580350905656815,true
0.9811026960800998,-0.012788754652869735,0.83906090259552,-0.0044615063816308975,true
0.9811025952306007,-0.012788653712666943,0.8208780884742737,-0.0025131492875516415,true
0.9811025562481542,-0.012788570894071814,0.8746439814567566,-0.0064003062434494495,true
0.9811028032895484,-0.012788664005520752,0.6856243014335632,0.005360542330890894,true
0.9811027874571191,-0.012788868679326076,0.7694721817970276,-0.0007934323512017727,true
0.9811026113869126,-0.012788673282142468,0.7961858510971069,-0.0027324515394866467,true
0.9811025354700786,-0.01278861073925031,0.7903239130973816,-0.0022058412432670593,true
0.9811027913435685,-0.012788664093121203,0.8527570962905884,-0.00932278297841549,true
0.9811026633688517,-0.012788515234709436,0.8271279335021973,-0.006193827837705612,true
0.9811025807633222,-0.01278859005536745,0.7995973229408264,-0.0035878592170774937,true
0.9811025418228677,-0.012788600552327866,0.6763724684715271,0.005421911831945181,true
0.9811027914997024,-0.012788664171237593,0.9204870462417603,-0.011686544865369797,true
0.9811026812835008,-0.012788688396417445,0.8844146132469177,-0.008454305119812489,true
0.9811025920608449,-0.012788639216529682,0.9004148244857788,-0.00985055323690176,true
0.9811025173668578,-0.012788607727336183,0.8617463111877441,-0.007585164159536362,true
0.9811027913906749,-0.01278866410608598,1.0137778520584106,-0.02131458930671215,true
0.9811026497844044,-0.012788461907468187,1.0007197856903076,-0.020124686881899834,true
0.9811026059355654,-0.012788680524786872,0.9925312399864197,-0.019122030586004257,true
0.9811025303308756,-0.012788614835514859,0.9979854226112366,-0.01945328898727894,true
0.981102791338191,-0.012788664124073467,0.785714864730835,-0.0027935635298490524,true
0.9811026707148685,-0.012788607659715652,0.7073363065719604,0.003561853663995862,true
0.9811025875416625,-0.012788618484929713,0.7344150543212891,0.0023166253231465816,true
0.9811025132955984,-0.012788602255690593,0.9516659379005432,-0.016280388459563255,true
0.9811027029183681,-0.012788777082589272,0.9780378937721252,-0.01788063533604145,true
0.9811025963298258,-0.012788658147804508,1.0001403093338013,-0.01983514614403248,true
0.9811028063305538,-0.012788663979759383,0.7856342196464539,0.0003270993765909225,true
0.9811026579220279,-0.012788471868788696,0.8621047139167786,-0.00668859900906682,true
0.9811025750148655,-0.012788573028857306,0.852384626865387,-0.005910290405154228,true
0.9811025024375596,-0.01278858808126182,0.9073846340179443,-0.010929150506854057,true
0.9811022189123698,-0.0127880942901315,0.9485597610473633,-0.013114724308252335,true
0.9811026232157729,-0.012788611198471758,0.896927535533905,-0.009438952431082726,true
0.9811025462348659,-0.01278859162797644,0.9481830596923828,-0.013020598329603672,true
0.8740271600438447,-0.020450070911009113,0.6411073803901672,-0.005006009247153997,true
0.8740270068460574,-0.020449874762971422,0.6398396492004395,-0.00470716180279851,true
0.8740268845001161,-0.02044996930047785,0.6440163254737854,-0.005181108135730028,true
0.8740271598321292,-0.020450070844003677,0.8090695142745972,-0.017260147258639336,true
0.8740270301055897,-0.02044991070841317,0.8138037323951721,-0.017887767404317856,true
0.8740269052734374,-0.020449992797459845,0.8332639932632446,-0.019020626321434975,true
0.8740267958624058,-0.020449999329947018,0.7870874404907227,-0.01715557835996151,true
0.8740269793696999,-0.020449306343427263,0.7337332367897034,-0.011868392117321491,true
0.8740269206854935,-0.02045003555959076,0.7490811944007874,-0.013585882261395454,true
0.8740268622926061,-0.020449988584100187,0.7692204117774963,-0.015419543720781803,true
0.8740271599527178,-0.020450070907208462,-0.1904020607471466,0.10816565155982971,true
0.8740269526411922,-0.0204500828569831,-0.22350604832172394,0.1093442440032959,true
0.874026787062204,-0.02044999293005789,0.3298182189464569,0.09030477702617645,true
0.8740269101313718,-0.020449698641470466,0.7111614346504211,-0.011289356276392937,true
0.8740269685936902,-0.02045003477044493,0.7115452289581299,-0.011519615538418293,true
0.874026852527421,-0.020450003031099562,0.7165316343307495,-0.011966423131525517,true
0.8740271630203339,-0.02045007087428952,0.7016654014587402,-0.01170316617935896,true
0.8740270090141897,-0.020449871284456266,0.7656316757202148,-0.016318880021572113,true
0.8740268305318798,-0.020450022001816916,0.7557536959648132,-0.015471425838768482,true
0.8740271600874872,-0.02045007090703949,0.5904300808906555,0.013769210316240788,true
0.8740270132448653,-0.02044986736952958,0.8754973411560059,-0.022714590653777122,true
0.8740268336465404,-0.020450021162202354,0.8956875801086426,-0.02438199892640114,true
0.874027159903412,-0.020450070815372277,0.6232137680053711,-0.004328988958150148,true
0.8740269560449925,-0.02045007654596856,0.6129605770111084,-0.0027748665306717157,true
0.8740268412920301,-0.020450016116199832,0.6198917031288147,-0.004004061222076416,true
0.874027161054967,-0.02045007089912649,0.7598588466644287,-0.013859373517334461,true
0.8740270005243935,-0.020449890967711493,0.7432449460029602,-0.01355907041579485,true
0.8740268793734788,-0.02044997065798221,0.767245352268219,-0.015497277490794659,true
0.874027161829739,-0.020450070811698855,0.6664834022521973,-0.005246066953986883,true
0.8740271479393058,-0.02045030402393298,0.6828420758247375,-0.0047609684988856316,true
0.8740268827407213,-0.020449969301543785,0.6813770532608032,-0.004530089907348156,true
1.1847528640242297,-0.016328937810132317,1.0830661058425903,-0.013339419849216938,true
1.1847526883935453,-0.01632887578776165,1.0668362379074097,-0.011291426606476307,true
1.1847525929487916,-0.01632886282656294,1.0946776866912842,-0.01369943842291832,true
1.1847528643185323,-0.01632893785464803,0.9825798869132996,-0.00124237104319036,true
1.1847526998984368,-0.016328808014878186,0.9626619815826416,0.0014746706001460552,true
1.1847526026858792,-0.016328846646351605,0.9702038168907166,0.0005010656313970685,true
1.184752873837173,-0.016328937723833453,-1.032947301864624,0.21101140975952148,true
1.184752890905,-0.01632916976350157,1.1227707862854004,-0.012240608222782612,true
1.1847526708721994,-0.01632894973941833,-1.5967109203338623,0.24705848097801208,true
1.1847525771913217,-0.01632888558501484,1.1367062330245972,-0.011426650919020176,true
1.184752864096725,-0.016328937816328187,1.0909656286239624,-0.00891558825969696,true
1.184752694781046,-0.016328837294962584,1.024085283279419,0.0004603945999406278,true
1.1847525984104266,-0.01632885318690075,1.0253108739852905,0.0006832090439274907,true
1.1847528643722702,-0.016328937790332076,1.0538243055343628,-0.00301899341866374,true
1.1847527729164153,-0.016329028302238372,1.0323320627212524,-0.001104413066059351,true
1.1847526519654952,-0.016328927370337924,1.0349785089492798,-0.0016429341631010175,true
1.1847525597265074,-0.016328884723956032,1.0441431999206543,-0.0024772381875663996,true
1.1847528640877314,-0.01632893786475461,0.3813384175300598,0.06541045755147934,true
1.1847526779956314,-0.01632892931505457,0.39169105887413025,0.06326548010110855,true
1.1847525413995403,-0.016328865131293925,0.9802185297012329,-0.002279105829074979,true
1.1847524550507331,-0.016328464229592422,0.9649547934532166,0.001450472278520465,true
1.1847525903884473,-0.016328867684287898,0.9347617626190186,0.0034347877372056246,true
1.184752864938232,-0.016328937815613825,0.9337546229362488,0.000317140860715881,true
1.1847527084857674,-0.01632876475784503,0.9285578727722168,0.0021156328730285168,true
1.1847526573212477,-0.016328943321118516,0.9330552816390991,0.0015132763655856252,true
1.1847528763458106,-0.016328937691065675,1.176224708557129,-0.02072627656161785,true
1.1847527274672172,-0.01632874066438243,1.168554663658142,-0.01895952969789505,true
1.1847526253767027,-0.01632884413308107,1.1793941259384155,-0.019783465191721916,true
1.1847525364622,-0.016328860694501596,1.1779283285140991,-0.019502677023410797,true
1.1847528640518012,-0.016328937812283877,1.162084698677063,-0.018289687111973763,true
1.1847527474789408,-0.016328900350269987,1.136001706123352,-0.015764269977808,true
1.1847526437213003,-0.016328897339914154,1.1631243228912354,-0.018406862393021584,true
1.1847525523262141,-0.01632887734370716,0.5651142597198486,-0.00043361823190934956,true
0.8228832154394329,-0.017649395384402796,0.5805156826972961,-0.0008007206488400698,true
0.8228830177239967,-0.017649407334221514,0.5730497241020203,0.0003542860795278102,true
0.8228829173955013,-0.017649343178341503,0.5787382125854492,-0.0003440351865720004,true
0.8228832153426185,-0.01764939530913143,0.5976738333702087,0.0016929806442931294,true
0.8228830283774147,-0.017649374066337455,0.601414144039154,0.0006565758376382291,true
0.8228828815572511,-0.01764932508811522,0.5693268179893494,0.005745868664234877,true
0.8228831257794657,-0.017649485907306837,-0.0413527712225914,0.06962872296571732,true
0.8228829460277536,-0.017649302194105872,0.5748299956321716,0.004390596877783537,true
0.8228832155104947,-0.0176493953910872,-0.10093603283166885,0.07695148885250092,true
0.8228830118497366,-0.01764941181902554,-0.0860590785741806,0.07496348023414612,true
0.822883220388759,-0.017649395292567188,0.5433967113494873,0.011059152893722057,true
0.8228830711801833,-0.017649191849763476,0.5808846950531006,0.00589036988094449,true
0.8228829134123664,-0.017649345638786618,0.5860869884490967,0.0054695215076208115,true
0.8228832154620367,-0.017649395376012268,0.5693365335464478,0.0010392219992354512,true
0.8228831095020432,-0.017649419596180164,0.6048405170440674,-0.0029332295525819063,true
0.8228829415543679,-0.01764930848274264,0.5816539525985718,-0.0003404626913834363,true
0.8228832252428487,-0.017649395257858462,0.7215560078620911,-0.0163141880184412,true
0.8228832488809393,-0.01764962736843129,0.7418150305747986,-0.01894845999777317,true
0.8228830177221274,-0.01764940733805448,0.7417457699775696,-0.018621165305376053,true
0.8228829173927985,-0.01764934318195689,0.7251190543174744,-0.01763487607240677,true
0.8228831261200165,-0.017649388575836075,0.5727198123931885,-0.0008491841144859791,true
0.8228830252595224,-0.017649386727159957,0.5982598066329956,-0.002707073464989662,true
0.8228829242561522,-0.017649335697051845,0.5666382908821106,-0.0006459330907091498,true
0.8228833312151246,-0.017648889939214412,-0.2433854043483734,0.11123307049274445,true
0.8228830468118293,-0.017649275128063344,-0.21372926235198975,0.11119931191205978,true
0.8228828959413896,-0.017649340069290722,-0.25256550312042236,0.11275740712881088,true
0.822883246012681,-0.01764939500185455,0.5286919474601746,-2.9993576390552334e-05,true
0.8228830844392516,-0.01764922522708412,0.560016393661499,-0.002939878962934017,true
0.8228829749500972,-0.017649313586958586,0.5804077386856079,-0.0043391571380198,true
0.8228828789781351,-0.01764932260744902,0.2584645450115204,0.07895234227180481,true
1.118713375182033,-0.00821348373227311,0.32459205389022827,0.07086296379566193,true
1.1187132878966772,-0.008213419094126189,0.30754485726356506,0.07270964980125427,true
1.1187134976826794,-0.008213501371594234,1.1431461572647095,-0.00945490412414074,true
1.118713325797514,-0.008213517385705832,1.1556864976882935,-0.010247650556266308,true
1.1187132730334752,-0.008213452448910948,1.1188647747039795,-0.006824737414717674,true
1.118713506262339,-0.008213501232712948,1.079331398010254,-0.0072849770076572895,true
1.1187133624299421,-0.00821330418813172,1.0943435430526733,-0.008929936215281487,true
1.1187132772763348,-0.00821344795468233,1.1181870698928833,-0.010654903016984463,true
1.118713494728646,-0.008213501341136216,0.8524001836776733,0.012148733250796795,true
1.1187133355663754,-0.008213472897040322,0.8573273420333862,0.011019389145076275,true
1.1187134956479503,-0.00821350140020509,0.8548797965049744,0.01503997202962637,true
1.1187133510707927,-0.00821332841642413,0.8834182024002075,0.011944429017603397,true
1.1187132953117584,-0.0082134021073795,0.8857002854347229,0.011314155533909798,true
1.1187134970971488,-0.008213501329052481,1.1149671077728271,-0.011774662882089615,true
1.1187134679787802,-0.00821374840870578,1.1648437976837158,-0.0148882195353508,true
1.1187133250484027,-0.008213516224870224,1.143684983253479,-0.01355700846761465,true
1.118713298625279,-0.008213399678851823,1.1388410329818726,-0.012623386457562447,true
1.1187134949320272,-0.008213501383721573,0.9777531623840332,-0.0012553238775581121,true
1.1187133843324164,-0.00821354737448441,0.9214156270027161,0.002676556818187237,true
1.1187133179034594,-0.008213481445217587,0.8879502415657043,0.004833913408219814,true
1.1187132653335141,-0.008213446152409584,0.8676139712333679,0.006540471687912941,true
1.1187134948904265,-0.008213501421827524,0.3431255519390106,0.06896206736564636,true
1.118713322295503,-0.00821350692994543,0.2914429008960724,0.0742635652422905,true
1.1187132953632002,-0.00821340211131108,0.2979101836681366,0.07365045696496964,true
1.1187132457891262,-0.008213419097513528,1.1571753025054932,-0.013141186907887459,true
1.1187133680414452,-0.00821337878025481,1.1473667621612549,-0.01277143508195877,true
1.1187133109600298,-0.008213436070845917,1.1293883323669434,-0.011450695805251598,true
1.1187132832000521,-0.008213433452747972,1.1379964351654053,-0.01193451602011919,true
1.1187134948713564,-0.008213501355213862,-1.4090092182159424,0.23810967803001404,true
1.1187133436978416,-0.008213390964431312,1.0499248504638672,-0.001839269301854074,true
1.118713289510773,-0.008213414417463698,1.0322630405426025,-0.001095862127840519,true
1.0000003082368099,-0.0008085431231616683,0.9750868871177022,-0.15624794346901352,false
1.0000023760743235,-0.0007527935980139053,0.9750885388695669,-0.15619478997850947,false
0.9997180917342238,-0.02374864869298883,0.9747618865184465,-0.17945498685921552,false
0.9997142463787784,-0.023922739656454414,0.9757652933759545,-0.17978898153245068,false
0.9996479681383307,-0.026550316012328393,0.975181739705962,-0.1823992646589302,false
0.9996480495173437,-0.02655031600896857,0.8781598605087071,-0.16714525650487183,false
0.9987431792783267,-0.05012368583731134,0.8781598605087072,-0.19174587291367215,false
0.9897034788364526,0.0,0.8781598605087072,-0.34286888255776676,false
0.9951347223072511,-0.052359877559829904,0.5619743717990549,-0.16962620670630124,false
0.9952268252418286,-0.05013390075806534,0.5619743717990549,-0.16740022990453673,false
0.9986454622093942,-0.050133900758065696,0.38695600036502387,-0.11436968075796553,false
0.9909510171779006,-0.05013390075806534,-0.0634369821555844,-0.09846611636219654,false
1.0000002245030544,0.0,0.7867084537958533,-0.12576460000000123,false
0.9992634252551703,-0.0011157666292318513,0.7393732194550411,-0.1246488333707681,false
0.9988247257512707,0.0,0.7336846641586654,-0.12576460000000123,false
1.000000759452597,0.0,0.47918278165714706,-0.07685302000000038,false
1.0141466585640415,0.0,0.47916054034075684,-0.07685302000000105,false
0.999218225944971,0.0,0.4442271063875224,-0.07685302000000038,false
0.9988242870344664,0.0,0.42663938596316053,-0.07685302000000038,false
0.9847797128244977,0.0,-0.19798322090905696,-0.07685302000000038,false
0.9720808137932252,0.0,-0.7691921056521228,-0.07685302000000038,false
1.0444325224356745,-0.00036328192547627203,-0.7691921056521229,-0.03616202234009103,false
0.9996864834062823,-0.006266737594757932,0.1315499801847471,-0.02953200281985613,false
0.9996945428768953,-0.0044653202021184835,0.1315499801847471,-0.027730585427216736,false
0.999702173168693,0.0,0.1315499801847471,-0.023265265225097864,false
0.999686452037438,-0.006266737594757932,0.11204597684451387,-0.026398634022476997,false
0.9997022750950021,0.0,0.11204597684451387,-0.020131896427718732,false
0.999717221941902,-0.023791969813835,0.095566647360388,-0.03946053981369968,false
0.99779123600443,-0.050133900757841875,0.031383424377767644,-0.0635705548824248,false
0.9977912416075132,-0.05013390075806523,0.014551310017568212,-0.06086569079364723,false
0.9977913085413922,-0.05013390075806523,-0.0634369821555844,-0.048332215604130924,false
0.9708246321276063,0.0,-1.2699272411032232,-0.007598421238204756,false
0.978827052769488,-0.005106651999999434,-1.2524338417306706,-0.011838028206301893,false
0.9898357094105512,-0.005106651999999434,-1.2524338417306706,-0.011838028206301893,false
0.9903256569057063,-0.005106651999999434,-1.2524338417306706,-0.011838028206301893,false
0.978827052769488,-0.005106651999999379,-1.3334760163519297,0.0006473496714440585,false
0.9898357094105512,-0.005106651999999379,-1.3334760163519297,0.0006473496714440585,false
0.9998318914399114,-0.01704255678491262,0.06391466777072408,-0.02763780678463168,false
0.9986775502161348,-0.04097035775737805,0.03812759243212438,-0.051565607757327436,false
0.9985208901049336,-0.049049499999999996,0.044505287315407344,-0.059576480000000515,false
0.9983717502312758,-0.049049499999999996,0.03770124014844213,-0.059576480000000515,false
0.998373234581565,-0.04901480914708134,0.0377012401484416,-0.05954178914708186,false
0.9993577816295047,-0.00665997799999999,0.037701240148442304,-0.01718695800000051,false
0.9995276733482422,-0.00665997799999999,0.03770124014844356,-0.01718695800000051,false
0.9992414803257393,-0.03274059394638074,0.044505287315407344,-0.043233433946153754,false
0.9995761270939361,-0.017396760849004808,0.044505287315407344,-0.026679472861847686,false
0.9995940046005176,-0.016142492891485446,0.044505287315407344,-0.025425204904328536,false
0.999599395411912,-0.015731080544787134,0.044505287315407344,-0.025013792557630143,false
0.9985533318869769,-0.052359877559829904,-0.4231155021003027,0.013438132440181855,false
0.9979924035782117,-0.052359877559829904,-0.46069106154981104,0.01532924273185271,false
0.9980125961918762,-0.05190348824975166,-0.46069106154981104,0.015785632041930956,false
0.9984093611108071,-0.04178494011572087,-0.46069106154981104,0.02590418017596155,false
0.9971461415134182,-0.030076619410480454,-0.5707221556425732,0.04346666123382231,false
0.999962630574716,-0.008692686627807386,0.06496085913796645,-0.019168466627514924,false
1.0003975772439815,-0.01131745480790825,0.0632842045257577,-0.021744636369847803,false
0.9999285643395472,-0.006679244494641069,-0.410477110605836,0.05882134449464107,false
0.9984240238521942,-0.006659978000011169,-0.47768819524976935,0.058802077999986935,false
0.9939435535534297,-0.006690005825657264,-0.6794713769585226,0.05883210582565727,false
0.9948307613869444,-0.007477843794674498,-0.6492901993401109,0.0596199437946745,false
0.9970378254077744,-0.007477843794674498,-0.6492901993401109,0.0596199437946745,false
0.9940168072375981,-0.0074516550000000015,-0.6856642679346885,0.05959375499999775,false
0.9940168072375984,-0.0074516550000000015,-1.9800012399277827,0.25792299384869066,false
0.9998716529285482,-0.011884231331750879,0.043430293265566855,-0.019354089867489654,false
0.9998808956649775,-0.010963005723721997,0.04343029326556684,-0.01843286425946078,false
0.9997298448050264,-0.007845573999999744,0.5427559569537201,-0.09660466984913091,false
0.9992958554049359,-0.007845573999999994,0.5313594116551994,-0.09789732599921301,false
0.9992960617197878,-0.007845573999999994,0.13491580812556195,-0.03438666626934349,false
0.9995622916560445,-0.007845573999999855,0.13491580812556175,-0.034386666269343336,false
0.9999670361581042,-0.00821374676119753,-0.6068458686552946,0.08898004323880197,false
0.9999654217257365,-0.008332591019399586,-0.6068866590895245,0.08886119898059996,false
1.009644926528916,-0.00820725175869452,-0.606886659089529,0.08898653824130498,false
0.994620363349483,-0.007845573999999994,-0.8487180571962178,0.08934821599999951,false
0.994620363349483,-0.007845573999999994,-0.8497588157883751,0.0895124832897419,false
0.9942131156580557,-0.007845573999999765,-0.8672397726421281,0.08934821599999972,false
0.9999629068669615,-0.00868175132997617,0.5432849891303506,-0.09581003455293463,false
0.9998942479795535,-0.009071571223532304,0.5432849891303506,-0.0966713287764677,false
0.9994498071041122,-0.018225152631434222,0.4133814915068521,-0.08751774736856589,false
0.9994494216123302,-0.018225152631434222,0.13484568916885323,-0.04284730526006776,false
0.9999664171766556,-0.008210276999999995,0.06490640788586269,-0.018677527000000478,false
0.999938028627046,-0.011190835102249897,0.06472425674694073,-0.021658085102250382,false
0.9999656815180028,-0.008335228832542103,-0.7094440525962139,0.1051588711674575,false
0.9999666245544081,-0.008210276999999995,-0.7094523299707685,0.10528382299999961,false
1.0110383168911974,-0.008332757078625274,-0.7094596335372771,0.10516134292137433,false
0.9979871547271061,-0.043256776149239506,-0.7655155914860595,0.07023732385076009,false
0.9979142652611844,-0.038666495135899676,-0.7760628899070459,0.07482760486409992,false
0.9938971854238074,-0.050348661518979515,-0.9427422602287607,0.06314543848102008,false
0.9937759511606082,-0.04909785888526981,-0.9507072371790136,0.06439624111472979,false
0.9941712974219205,-0.03741569295769953,-0.9507072371790137,0.07607840704230007,false
0.9932933200601497,-0.052359877559829904,-0.9671356801722544,0.061134222440169694,false
0.9932467307863638,-0.052359877559829904,-0.9693121307232881,0.061134222440169694,false
0.9999878880927036,0.0,-0.7713171481445593,0.12324623556422071,false
0.9966979007355683,-0.0058645549299813915,-0.9386341888321872,0.12031395809922973,false
0.9976588262686944,-0.049848716904843826,-1.0884757394274533,0.0763297961243673,false
0.9976035736373001,-0.04691643943985302,-1.220594027311527,0.09978801584429389,false
0.9861764483465877,-0.050277529223228715,-1.3729019409148207,0.0733975186593766,false
0.9999663429182969,-0.008211790999999989,0.08339308874002624,-0.021648691000000518,false
1.0090665157149965,-0.011209565195399913,0.08319014260614714,-0.02464646519540044,false
1.1833578818644575,-0.008211790999999989,0.2862772508644592,-0.05739086000000171,false
0.9999768714274438,-0.008211790999998395,-0.7281412785487497,0.10825279999999977,false
0.9997977149006925,-0.008211790999999989,-0.7358260477070893,0.10825279999999818,false
0.9997977066016217,-0.00821179099999958,-0.7782021128248666,0.11496408923042559,false
0.9957316671078706,-0.008211790999999989,-0.9260448203825067,0.10913358488359567,false
0.9945109538887232,-0.008211790999999989,-0.9817421352177577,0.10913358488361369,false
0.9941045044146066,-0.008211790999999989,-0.9947221874629515,0.10825279999999976,false
0.9943198312610341,-0.008211790999999989,-0.9947221874629515,0.10825279999999976,false
0.9943930781841118,-0.008211790999999989,-0.9947221874629515,0.10825279999999976,false
0.9999731324651927,-0.008212548,-0.7281701428895887,0.10825279999999987,false
0.9980823802723916,-0.014040215580686022,-0.8525448928842415,0.1089350112536055,false
0.9940662080582964,-0.008212548,-0.9964597917226409,0.1082527999999998,false
0.993051202699727,-0.02637776199566505,-1.1501962304705096,0.10825279999999982,false
1.0229847147761106,-0.025695550742059314,-1.15019623047051,0.1089350112536055,false
1.0003594035808812,-0.011330549721813798,0.07850740975753509,-0.024032838221721642,false
1.1243899010129639,-0.046668193265701215,0.6545900647327785,-0.5162183569855159,false
0.9965255380313365,-0.013119003582404698,-0.9258401825636776,0.1101395999999999,false
0.9965270183877689,-0.012969526617454721,-0.9258401825636776,0.11028907696494977,false
0.996528374112619,-0.012782175578110257,-0.9258401825636776,0.11047642800429423,false
1.032238254477713,-0.03598702351293778,0.5626656762889093,-0.5057644453241343,false
0.9931162293511372,-0.052359877559829904,-1.6842583470905308,0.16998680929722823,false
1.0344073528677302,-0.04741415440726922,0.5626656762889093,-0.5150224778284482,false
0.9993051085212933,-0.008212926000004894,-0.9687883565925394,0.1414653260000049,false
0.998898986298272,-0.008228324393608766,-0.9875531868292518,0.1414807243936087,false
0.9988989497171988,-0.00822832439360879,-1.075846525638786,0.15529110077124123,false
0.9301017,-0.008213115,0.6064517977619511,-0.6239132127619511,false
0.9301017,-0.008213115,0.5916480185881478,-0.621552400914145,false
1.0245054543408727,-0.05164610434024275,0.5511431299950955,-0.5246138799944655,false
1.067809885,-0.008213115,-0.7026371748480138,-0.4975525233244892,false
1.067809885,-0.008213115,-2.0,-1.5707963267948966,false
0.9999671480921066,-0.008213115,-1.1448738801096374,0.17371279999999856,false
0.9999649600912838,-0.00849309990474798,-1.1466509399653781,0.1737127999999999,false
0.9995943597803346,-0.009589127157542343,-1.1704254066653703,0.1737127999999999,false
0.9996013890724414,-0.008685277759675758,-1.1704254066653703,0.17461664939786642,false
0.9995678134953574,-0.01249765802595959,-1.1891735895750968,0.1737127999999999,false
0.9987928886192287,-0.008213115,-1.1990630845547365,0.1737127999999999,false
1.1939930545982789,-0.008213115,-1.1615654302969873,0.1737127999999999,false
1.179405282378089,-0.008213115,-1.1990630845547363,0.1737127999999999,false
1.0298401136882904,-0.008213115,-1.3499238290426765,0.1737127999999999,false
1.0282124926297223,-0.008213115,-1.4259166078685468,0.1737127999999999,false
1.030156152501311,-0.04982984749868885,0.5563358913888471,-0.5223396863862249,false
1.20000023724251,-0.033251008615015266,0.3778002372425101,-0.15040100861501535,false
0.9999357324098467,-0.011346307610348591,0.07394690387818019,-0.02330006761034896,false
0.999933430306107,-0.011330832317528405,0.07385060131449728,-0.023284592317528774,false
0.9999591356722021,-0.008213208999999666,0.07385060131449728,-0.020166969000000035,false
0.9301017,-0.008213208999999904,0.6064517840304697,-0.6239132930304698,false
0.9999663315658356,-0.008213208999999992,-1.1597736644503678,0.1760276999999999,false
1.0077566625773082,-0.008213208999999992,-1.1597706097766642,0.1760276999999999,false
0.9939175228692766,-0.008213208999999992,-1.4414192908085668,0.1760276999999999,false
0.9999194582894195,-0.012709565651991609,-1.1890759893249427,0.1760277000000008,false
0.9962523097457826,-0.01887721925871011,-1.3968963692413605,0.1760276999999999,false
0.996602349119559,-0.022291211612491486,-1.400203370569834,0.17602769999778944,false
0.99660215208192,-0.022291211612491497,-1.4540350344737725,0.184247082081025,false
0.993904991613293,-0.011120992868472061,-1.4603966777190531,0.1760276999999998,false
0.9939051067063691,-0.01112159960870096,-1.7044664301667558,0.2128667557370253,false
0.9939049931957832,-0.01112159960870096,-1.980052581404043,0.2535835662588479,false
0.9996165892206303,-0.02770817874692899,0.18530358082207088,-0.05790033874618916,false
0.9997451842859768,-0.021550805692055808,0.16956797241130753,-0.04921612540569623,false
1.0002264631329898,-0.018472119164619216,0.16381303002464323,-0.04521314918926245,false
0.9255839097530038,-0.04963943087181663,0.517725762163552,-0.6930147019544585,false
0.9255839093525627,-0.049639427548067494,-1.9151394841618896,-0.3114115771128741,false
0.9255839096453732,-0.049639431266845835,-2.0,-0.2990017193944614,false
1.029547539262171,-0.052359877559829876,-0.32297389849116875,-0.0019959382976589835,false
1.0295431224401699,-0.052359877559829904,-0.614007761211756,-0.002000355119660069,false
1.0295431538206954,-0.05235984617930445,-0.5575816325645879,0.03551380764139089,false
1.0347698944271435,-0.04713310557285627,-0.7002887442238095,0.06374112091173137,false
1.0760523090273189,-0.005850690972680873,-1.4509115212800936,0.18075494036539622,false
1.0670743508590173,-0.0006006857360627964,-1.491407699670412,0.23465496340492,false
1.0656350955538367,0.0,-1.500891434864542,0.23669490444616237,false
1.0683656157366674,-0.002744507906914384,-1.9401663449072017,0.23121987635641816,false
1.065283512701265,-0.0058266109423170676,-1.9600741022523342,0.2312198655545625,false
1.1304520947686445,0.0,-1.5490359059447443,0.1933469052313555,false
1.1198242831057132,0.0,-1.619455279612662,0.2039747168942867,false
1.11879887288401,0.0,-1.62626629140455,0.20500012711598992,false
1.1187645995076594,0.0,-1.6264942900436508,0.2050344004923406,false
1.0528968208743457,-0.052359877559829904,0.12041309843417558,-0.08021549456748053,false
1.0501100445578706,-0.052359877559829904,0.11762632211770052,-0.0992606459332338,false
1.0501100445578706,-0.05227351454396899,0.11753995910183955,-0.09916040822408595,false
1.1641224765898672,-0.0523598775598314,0.23163875414969856,-0.12548263170952967,false
1.1996573817437115,-0.0523598775598304,0.267173659303542,-0.20681180521954406,false
1.1770560009890711,-0.039426353160619376,0.23163875414969046,-0.11254910731030984,false
1.1774966295472746,-0.038985724602415894,0.23163875414969046,-0.11254910731030984,false
1.1417235438836402,-0.0011208069058600278,-1.2147926715720536,0.1916896492104997,false
1.135360483826327,0.0,-1.282088476161428,0.19917351617367304,false
1.1288639676212986,-0.0011208069058600122,-1.298070242504731,0.20454922547284118,false
1.1284072024472038,-0.001126670436805366,-1.300996734342769,0.2050001271159907,false
1.1276815890459684,-0.0016322917406191725,-1.3057405657045997,0.20522011921341232,false
1.127499065449571,-0.0007175011054145631,-1.306913554887092,0.2063174334450144,false
1.1144861513537931,-0.0011225907889232374,-1.3917020358047802,0.2189252578572835,false
1.1121906460227957,-0.0011234816147376086,-1.4067025748645787,0.22121987236246657,false
1.112054040057058,-0.008739916413475601,-1.684497376078108,0.21374004352946635,false
1.1464803251888684,-0.0010812223040752578,-1.2187329551421684,0.1923404525070561,false
1.1469693694111434,-0.049420189046102236,-1.2232645889107496,0.14351244154275422,false
1.1468429676020937,-0.049420316769987045,-1.2240803046054467,0.14363871562791908,false
1.146522069586808,0.0,-1.5297681483139733,0.1933799304131919,false
1.1218974848929526,-0.0006821524717977285,-1.3958514873869317,0.22000536263524959,false
1.1170797543175521,-0.0006825805592969708,-1.427406512770089,0.22482266512315083,false
1.0938485527445487,-0.04370251329653507,-1.6262416108442461,0.20503393395891606,false
1.0937297687861407,-0.04370251329653507,-1.6270318023067376,0.20515271791732426,false
1.0909350518581131,-0.04370251329653507,-1.6456232138593039,0.20794743484535172,false
1.1494624897200967,-0.0010839685827934524,-1.225448471081362,0.19337993041317317,false
1.1494650499424968,-0.0005630691504207758,-1.2254478597974254,0.19389888090708232,false
1.1494651082532379,-0.0007283752216088452,-1.2254478597974254,0.19373351652515314,false
1.1483097453768893,-0.0010817691725741334,-1.2329211805943254,0.19453548545053595,false
1.1505470695868272,-0.029135008864356604,-1.357819228770561,0.16424492154881612,false
1.1509994742558018,-0.02622150797792089,-1.3738722021651506,0.16670601776627705,false
1.0864499910499297,0.0,-1.9800176470488826,0.2574770089500702,false
1.2000000000000013,-0.03366540000000051,0.21808790000000244,-0.09153500000000295,false
1.175416794732631,-0.0336654,0.1823896155320377,-0.06695179473263128,false
1.1745914127188264,-0.0336654,0.173965387579051,-0.06612641271882658,false
1.2,-0.052359877559829904,0.1929095627460391,-0.09153500000000014,false
1.1753301973163877,0.0,-1.2106181251652515,0.1888532999999999,false
1.1753301973163894,0.0,-1.5149775313987224,0.18885329999999967,false
1.179050288639272,-0.03412781,0.1925498786392721,-0.06560828863927218,false
1.17918410043422,-0.03412781,0.19268369043422018,-0.06574210043422024,false
1.182852489062871,-0.03412781,0.19635207906287133,-0.06941048906287135,false
1.1830027274059396,-0.03412781,0.19635207906287133,-0.06941048906287142,false
1.1896680652628926,-0.03412781,0.20316765526289293,-0.07622606526289288,false
1.1929761168511344,-0.03412781,0.20647570685113448,-0.07953411685113451,false
1.1930027251108448,-0.03438083752186095,0.20624928758898398,-0.07956072511084494,false
1.1973052229146046,-0.03412781,0.20998315984173488,-0.08304156984173475,false
1.1760436759815607,-0.0009829098607196662,-1.193831689954379,0.1885833901392804,false
1.1760437000000004,-0.0008422438389063642,-1.1938333916594452,0.18872405616109406,false
1.1760437019581702,-0.0033227199048402947,-1.1938626490411894,0.18624358205332997,false
1.1755755831783334,-0.00138173788195256,-1.1968381374023416,0.188652678939714,false
1.1760428179642353,-0.04607720913092362,-1.2002916329725561,0.14348909086907635,false
1.1760433077594168,-0.048729058542076195,-1.2019997411431145,0.14083724145792376,false
1.1760437,-0.05160074130246339,-1.2022903104474538,0.13796555869753657,false
1.1746033443389374,-0.052359877559829904,-1.2115904222905762,0.1386467781012321,false
1.1760437,-0.052359877559829904,-1.520691933916095,0.13720642244017012,false
1.1425317,-0.0010742054715117163,-1.2702946676445792,0.20032109452848829,false
1.1425317,-0.007464715145960369,-1.2705122108201807,0.19393058485403963,false
1.1475248566581644,-0.005966113481015873,-1.2704211754630783,0.19542918651898414,false
1.141695499113604,-0.01044715121888574,-1.565259020070312,0.1943375526053701,false
1.2,0.0,-1.1498249746861344,0.18273500000000048,false
1.1997306927846536,0.0,-1.1515640240230887,0.18300418004648386,false
1.2000000000000004,0.0,-1.1818698414313626,0.18273499999999943,false
1.1988777599128921,0.0,-1.189103691054004,0.18385724008710772,false
1.1986189294197342,0.0,-1.1907739429634316,0.18411607058026558,false
1.1983696835977815,0.0,-1.1923823442957249,0.18436531640221832,false
1.2,-0.004885052491088504,-1.2194160724378535,0.1827349999999992,false
1.1348844038370216,-0.008726366737617952,-1.980049530040092,0.24785059616297822,false
1.141357627948522,-0.008726366737618396,-2.0,0.25075938507551787,false
1.0722164180670681,-0.010676970432081406,-1.4848229870115603,0.2235156295679186,false
1.0770528390430316,-0.0057681609569681935,-1.5145620623634937,0.22865715895791683,false
1.0772806330240385,-0.0057681609569681935,-1.5145620623634937,0.22865715895791683,false
1.0775551908950278,-0.0057681609569681935,-1.5145620623634939,0.22865715895791683,false
1.0831260982407294,-4.617417559416026e-13,-1.532049198240732,0.23419260000046466,false
1.1167857873365137,0.0,-1.5320491982407318,0.2341926,false
1.1210757717646285,-0.052337228235371305,-1.2864354512397373,0.15016897176462873,false
1.1406032365455125,-0.03280976345448727,-1.280853835606854,0.16969643654551272,false
1.1426353900224577,-0.030777609977542034,-1.280529527683727,0.17172859002245797,false
1.1225209375970862,-0.05089110342275638,-1.3011790059705672,0.15397485832402094,false
1.1225798615602445,-0.05083313843975544,-1.3011780469904104,0.1540328233070219,false
1.1238999908705145,-0.04951300912948532,-1.3011780469904102,0.15535295261729204,false
1.1268125208193076,-0.04660047918069211,-1.3047700995393066,0.1559057208193079,false
1.2,-0.004305612222854462,-1.3098040830712454,0.20316238777714551,false
1.2,-0.006588998976181904,-1.3098717346929274,0.2008790010238181,false
1.2,-0.007205080255780739,-1.3098852625992434,0.20026291974421925,false
1.2,-0.007277650158788021,-1.3099176642930337,0.20019034984121198,false
1.2,-0.009736876222536751,-1.3100411760957347,0.19773112377746324,false
1.2,-0.022941892878511567,-1.3113352386177979,0.18452610712148843,false
1.1997886175213426,-0.023295682844740595,-1.3391805091696936,0.18438369963391676,false
1.1940186679152371,-0.018767829873650586,-1.376792812941591,0.19468150221111227,false
1.2,-0.046591365689481634,-1.644401613783689,0.16087663431051835,false
1.1240777489297398,-0.023295682848246298,-1.9800271092366906,0.2600945682220123,false
1.0902553056531739,-0.049036694346826115,-1.7605515280282493,0.20489699999999988,false
1.0881052647282556,-0.049688049684266836,-1.771057369206799,0.20646014325734352,false
1.08869216239583,-0.049036694346826226,-1.771057369206799,0.20646014325734363,false
1.0971227110874575,-0.023763601214236152,-1.8849443549490656,0.22330887201240357,false
1.2,-0.004388853316957891,-1.3313199572385714,0.20639214668304198,false
1.2,-0.007394453472241477,-1.331442090407031,0.2033865465277584,false
1.2,-0.009648413372569069,-1.3315393184520274,0.2011325866274308,false
1.2,-0.015323681139759949,-1.3319749495622604,0.19545731886023993,false
1.2,-0.029019020331833345,-1.3337994766786896,0.18176197966816654,false
1.2,-0.04981878282455442,-1.3388371625017654,0.16096221717544545,false
1.2,-0.05017954705607286,-1.3389353368796792,0.16060145294392703,false
1.1708427276894218,-0.049794545498467395,-1.5300723370700824,0.19014372681211067,false
1.1711404125598437,-0.052359877559829904,-1.5300723370700826,0.1872807098803263,false
1.1536709260125444,0.0,-1.9800304477705126,0.25711007398745545,false
1.034185,0.0,0.5977920041423033,-0.43629700414230327,false
1.034185,-0.0031051758013607156,0.5393443308830426,-0.6964642219686539,false
1.034185,0.0,0.519883243885777,-0.6933590461672908,false
1.099756,-0.052359877559829904,0.6302344968859821,-0.521099374445812,false
1.100021558845675,-0.052359877559829904,0.6302344968859819,-0.521099374445812,false
1.099756,-0.003105175668635274,-1.1359893980581344,-0.42941910305187225,false
1.099756,0.0,-1.1359893980597848,-0.4294191030516167,false
1.167674,-0.0009586122001944347,-1.2052439830321229,0.19037538779980545,false
1.167674,-0.02038848956617954,-1.206538081480365,0.17094551043382036,false
1.1655754133320457,-0.023310499695261284,-1.2253673043942759,0.17012208697269304,false
1.167674,-0.020396687233354083,-1.2306395882090027,0.1709373127666458,false
1.2,0.0,-1.3420793322775977,0.212437,false
1.2,-0.01633289430909838,-1.3428679896668363,0.19610410569090161,false
1.2,-0.03282179959508261,-1.3453134199873242,0.17961520040491738,false
1.2,-0.04707364753183608,-1.3487794787072642,0.16536335246816392,false
1.2,-0.049460430169020596,-1.349490306481804,0.16297656983097938,false
1.2,-0.04949362889379161,-1.3519808105518676,0.16294337110620838,false
1.199033537717184,-0.009679511424256715,-1.3582733253767516,0.20372339772877746,false
1.1990340908469657,-0.011645559739715493,-1.35827332537675,0.20175734941331874,false
1.2000001344908438,-0.008734169804786585,-1.3709626033371947,0.2037026957043696,false
1.1421469253472232,-0.01250594700754858,-1.5366829406252984,0.2290501417449978,false
1.178946895997995,-0.0010070405068605803,-1.3420181976612409,0.21142465549113437,false
1.178947,0.0,-1.4659501941283746,0.21243179999999995,false
1.1790506278683834,0.0,-1.4666307811726895,0.21253542786838342,false
0.9994703218422283,-0.03255826716821444,-0.20877428091968175,0.00039685467401382596,false
0.9996323945192761,-0.027142574575335813,-0.2086391354965914,0.005974647000278884,false
1.0037905682628296,-0.027142574575331365,-0.323856807898244,0.024457465060088213,false
1.0180904847425845,-0.026865028570192826,-0.3238568078982442,0.02474426707234564,false
1.0304611224401699,-0.05235987755982985,-0.9855528293422844,0.10275244488033997,false
1.0307551605865366,-0.05206583941346329,-0.9855528293422848,0.10354336136486478,false
1.0304611224401699,-0.05235987755982985,-1.1229685845599846,0.10275244488033997,false
1.0383045243783848,-0.04451647562161487,-1.2240494926943803,0.11843924875676992,false
1.0859331224401698,-0.05235987755983018,-0.7733320451001167,0.0698718448803396,false
1.0885212749178161,-0.04977172508218371,-0.7887804256726041,0.07504814983563245,false
1.0859331224401698,-0.05235987755983018,-0.7986782439408255,0.0698718448803396,false
1.2,-0.05025052110654421,-1.473063250081825,0.1810384788934556,false
1.1997439687163494,-0.05024786118409149,-1.4747642643764052,0.18129717009955904,false
1.1997453832582088,-0.04945725401026621,-1.4799535708409388,0.1820863627315249,false
1.2,-0.0475641232617521,-1.5098820153250156,0.18372487673824778,false
1.2,-0.046548003774368296,-1.9656555773089055,0.18474099622563156,false
1.1978979262251186,-0.046548003774368296,-1.9800463689061893,0.18684307000051303,false
1.2,-0.046548003774368296,-2.0,0.1897523202364111,false
0.9998909838413041,-0.002873797880355961,-1.5550416589467786,0.24127228212141705,false
1.178947,-0.0006294455134181232,-1.3695187130183328,0.216023854486582,false
1.178947,-0.006813528420410943,-1.3696774551559094,0.20983977157958922,false
1.178947,-0.022761087468751384,-1.3770077217199985,0.19389221253124855,false
0.9999507752274294,0.0,-0.23659938474379005,0.03765707522742934,false
0.9994216600464264,-0.01832221875704023,-0.25072565532759594,0.018805741289386148,false
0.999468905582497,-0.0154268026201121,-0.25072565532759583,0.02174840296238489,false
1.1348148704666177,-0.005747595760806301,-1.555041658946778,0.23839848424096655,false
1.178947,-0.00400422391667968,-1.3741418103038816,0.21335217608332058,false
1.178947,-0.003589333484158544,-1.3741568952414243,0.21376706651584165,false
1.178947,-0.006832680623968649,-1.3742501882597347,0.21052371937603154,false
1.178947,-0.018081763305817334,-1.3751064214792212,0.19927463669418288,false
1.178947,-0.04022408908201855,-1.3791422022788107,0.17713231091798165,false
1.178947,-0.04841335088189684,-1.3814006587471943,0.16894304911810343,false
1.178947,-0.017070335462766064,-1.3817101410063897,0.20028606453723397,false
1.178947,-0.006838883217867358,-1.3765600425688023,0.21086901678213277,false
1.178947,-0.014473733541415157,-1.3770611900619103,0.20323416645858505,false
0.9995580373130202,-0.03825303095432952,-0.24739268645936008,0.0005914801006696585,false
0.9996398547709925,-0.02669251460921218,-0.24277424674949527,0.011883940161780328,false
0.9996501638783173,-0.026249813790884518,-0.24283848649852957,0.012336950087432762,false
0.9995548796725451,-0.025430738402806602,-0.24746495921058156,0.013079400119394513,false
0.9995323537203107,0.0,-0.2656438444245357,0.03932921391027944,false
1.162047154812087,0.0,-1.2676620911591265,0.20098375481208708,false
1.1620469999999998,0.0,-1.2676792556877132,0.20098359999999982,false
1.1626222498039478,-0.0005752498039480191,-1.2713729453559937,0.20098359999999993,false
1.1620469999999998,0.0,-1.2751955086342774,0.20098359999999982,false
1.1620469999999998,0.0,-1.2852056649641674,0.20098359999999982,false
1.1361940611343917,-0.00015993886560828783,-1.3131518879528459,0.20783499999999988,false
1.1323583811830402,-0.002886058407973402,-1.3637235867635342,0.20894456040898612,false
1.1334724347837921,0.0,-1.375286369841424,0.21071656521620674,false
1.136354,0.0,-1.382555853575416,0.20894456040898568,false
1.1620469999999998,0.0,-1.2683040700035901,0.20108079999999984,false
1.135112,0.0,-1.3677548734599816,0.20907699999999996,false
1.134306468628349,0.0,-1.3730078398290475,0.20988253137165078,false
1.1620473193818512,0.0,-1.2685372720353119,0.20112031938185126,false
1.1620469999999998,0.0,-1.2685595254874376,0.20111999999999985,false
1.1620469999999998,0.0,-1.286112051786151,0.20111999999999985,false
1.023416,0.0,-1.5377572866526088,0.24221799999999982,false
1.0235893269907395,0.0,-1.5377572866526088,0.24221799999999982,false
1.0290375096869144,-0.002810754843457164,-1.5377572866526126,0.23940724515654266,false
1.0717161869219465,-0.0030127705727669226,-1.5377572866526097,0.2392052294272329,false
1.07171680995411,-0.002810754843457469,-1.53775728665261,0.23940724515654235,false
1.1620469999999998,0.0,-1.2686722997491537,0.2011396999999997,false
1.121396,-0.02882373910047359,-1.4123648181334307,0.19396926089952599,false
1.121396,-0.0170482134929687,-1.4224141070198755,0.2057447865070311,false
1.1213638232273275,-0.002704082537467101,-1.4235234443966698,0.22012109423520523,false
1.1201483111115027,-0.04039365100347384,-1.4305836819773992,0.18364703788502332,false
1.1156743671451281,-0.013228578544762337,-1.447697055759632,0.21528605431010928,false
1.1191853700555099,-0.0113654756619791,-1.4476970557596318,0.2152860543101094,false
1.1620469999999996,0.0,-1.2687548169060265,0.2011493999999996,false
1.1620469999999998,0.0,-1.2863074167405324,0.2011493999999998,false
1.1620469999999998,0.0,-1.3608308306936754,0.2011493999999998,false
1.1594997599212808,-0.0009830583320353972,-1.2580947044206243,0.19852518174668363,false
1.15995035,-0.022789026718773475,-1.2577535242978704,0.1762686232812265,false
1.158259160708264,-0.0008213286645930304,-1.2661315721562516,0.199927510627143,false
1.1420477025348172,-0.008906172366922984,-1.3717805957271774,0.2080541250982597,false
1.139209883645873,-0.009878217205142632,-1.3903786331041488,0.20991989914898435,false
1.1049703894103795,-0.0004054320538131431,-1.6155038372064123,0.25363217853580744,false
1.1037169119567471,0.0,-1.6239097420045183,0.25529108804325273,false
1.1152673545759502,0.0,-1.9804617773098283,0.24508629351626732,false
1.1620469999999998,0.0,-1.26877272291412,0.20115429999999979,false
0.9994319986868584,-0.03369999,-0.24387234249147877,0.004841808686858365,false
0.9992399748503077,-0.03500295,-0.24968188016987877,0.003346824850307663,false
0.9992386071376307,-0.034990011992144465,-0.24975398839625496,0.0033583951454862065,false
0.999098367293647,-0.03370510139740737,-0.25777689065564285,0.004640617412969811,false
0.995193145021521,-0.03369999,-0.40964151193032294,0.0006029550215209817,false
0.9952047713416368,-0.03369999,-0.8095366498929019,0.06424008780385061,false
1.1617440773782426,-0.008612568438734423,-1.2741750521439785,0.1933383541830227,false
1.1622926,-0.04474774442165903,-1.2766472656363448,0.1566546556020783,false
1.1613764436499385,-0.05204016703230285,-1.294921960107825,0.15027838931775858,false
1.1509684102434778,-0.0028888066901240793,-1.3626343051247256,0.2098377830683017,false
1.1504257003341638,-0.005782240781372683,-1.3661753686083342,0.2074870588844634,false
1.16447,0.0,-1.289042774977725,0.20357979999999987,false
1.099756,-0.052359877559829904,-1.5717683298271137,0.17204732244017001,false
1.16447,0.0,-1.2845087321566218,0.2035809999999999,false
1.0741371224401697,-0.052359877559829904,-1.2806255609444557,0.1479077448803398,false
1.0751448241557928,-0.05135217584420704,-1.2838356715648205,0.14992314831158582,false
1.0741371224401697,-0.052359877559829904,-1.3626009595335407,0.1479077448803398,false
1.0741372185858158,-0.05235978141418403,-0.716732406064899,0.060889857696393414,false
1.0741371224401697,-0.05235987755983018,-0.7180851527100678,0.06088884488033952,false
1.0743526555786898,-0.05214434442131011,-0.71944428608589,0.06131991115737967,false
1.16447,0.0,-1.2845258416430705,0.20358159999999992,false
1.16447,0.0,-1.3821523695514395,0.20358159999999992,false
1.115918,0.0,-0.9724262959195511,0.15503,false
1.1152581961069488,0.0,-0.9766311159734729,0.15568980389305076,false
1.1154044436713888,0.0,-1.1201485849342543,0.15554355632861072,false
1.1152581961069488,0.0,-1.121087635245587,0.15568980389305123,false
1.115324793402656,0.0,-1.121087635245587,0.15568980389305156,false
1.1124340251548517,0.0,-1.3954924539307616,0.15851398007816886,false
1.115918,0.0,-1.4096459873806109,0.15503,false
1.0757347622273494,0.0,-1.2680979624299482,0.20105423777265052,false
1.063148102495246,0.0,-1.3866330364314725,0.2136408975047539,false
1.0617916059181791,0.0,-1.3954924209837372,0.21499739408182086,false
1.0766427344370517,-0.0028241709520959724,-1.3954924197102208,0.21217322293497842,false
1.0768704389394823,-0.0020430714605224054,-1.3954924197102208,0.21295432242655196,false
1.16447,0.0,-1.2845086379451145,0.20358199999999993,false
1.16447,0.0,-1.2857880387767266,0.20358199999999993,false
1.1646922887498963,-0.00022228874989636312,-1.2859422775981326,0.20358199999999996,false
1.16447,0.0,-1.3127146809643313,0.20358199999999993,false
1.16447,0.0,-1.323436154969416,0.20358199999999993,false
1.16447,0.0,-1.6365189118510666,0.20358199999999993,false
1.1950300862807208,0.0,-1.439641976500723,0.22726591371927896,false
1.1978321734856,-0.011020317004027934,-1.9434054295172738,0.2244638265143999,false
1.2,-0.01377475839480025,-1.9474204607249976,0.22229599999999938,false
1.2,-0.016502287696372724,-1.947424820602689,0.2222959999999997,false
1.2,-0.016530475511236986,-1.9474248206026936,0.22229599999999983,false
1.0758017914264062,-0.05191020857359358,-1.2848484119961359,0.15002208285281265,false
1.0753521224401699,-0.052359877559829904,-1.3072294401367637,0.14912274488034,false
1.0753521224401699,-0.052359877559829904,-1.3954616422099326,0.15983998350370637,false
1.0753521224401699,-0.052359877559829904,-1.3954616422099326,0.16136213483014483,false
1.0753521224401696,-0.05235987755983018,-0.7243900047453578,0.062104444880339504,false
1.16447,0.0,-1.284523319454623,0.20358219999999994,false
1.067251,0.0,-1.5308387406985744,0.24119500000000005,false
1.067187514070383,0.0,-1.5498198660578435,0.24125848592961696,false
1.0671690998016847,0.0,-1.5499416027488386,0.24127690019831527,false
1.0669818678466785,0.0,-1.5511793928030881,0.24146413215332152,false
1.0669254552961647,0.0,-1.5515523360539263,0.24152054470383533,false
1.0668718104506554,0.0,-1.5519069820128972,0.24157418954934462,false
1.0668208000140584,0.0,-1.5522442119001807,0.24162519998594156,false
1.0658426583787755,0.0,-1.5587107041597965,0.24260334162122443,false
1.0918973999999952,0.0,-1.3688352742515235,0.21654860000000298,false
1.0916313126651438,0.0,-1.3705884146212897,0.21681468733485598,false
1.0916313126651438,0.0,-1.3715419148226695,0.21681468733485587,false
1.0914246066830329,0.0,-1.3719326372615839,0.21702139331696702,false
1.091404145739478,0.0,-1.373019550512872,0.21704185426052192,false
1.0918973999704946,0.0,-1.3798212501895317,0.21654860002950538,false
1.089246528084309,0.0,-1.3971362723804208,0.2191994719156909,false
1.16447,0.0,-1.2844992690180304,0.20358229999999988,false
1.16447,0.0,-1.3234361628069484,0.20358229999999988,false
1.16447,0.0,-1.6365209518399244,0.20358229999999988,false
1.1981187338616859,-0.010954359229134791,-1.7024084371480004,0.2299352661383139,false
1.1981185402385448,-0.010954359227964727,-1.7029219172344021,0.23001209660282335,false
0.9999663286061633,-0.008237679817429955,-1.3747292027193017,0.20917189999999966,false
1.0153301045209848,-0.008213355000000144,-1.5354666918510136,0.23369035500000016,false
0.9981187006610837,-0.008213429000000825,-1.623249097597886,0.2336904289999997,false
0.9992438389648391,-0.01639373054450743,-1.6776753721180937,0.24234529697345653,false
0.9995822357232824,-0.019120497726010183,-1.6927189361584318,0.2445974977260095,false
0.9995822357233194,-0.019120497726010183,-1.769016768588386,0.25597913288096885,false
1.0249140636399676,-0.01912049772600999,-1.7690167685883884,0.2559791328809695,false
0.9995742633355734,-0.02917691,-1.5148990632902959,0.20917189999999986,false
0.9941802279586086,-0.04928220228120382,-1.882333479649827,0.2093749568588587,false
0.9944317217480559,-0.05189619436179374,-1.8823334796498266,0.2093749568588587,false
0.9896445657084224,-0.02917691033779037,-1.9986072856598116,0.20917190020724247,false
0.9996132780927237,-0.02016967475151172,-0.25144290332031327,0.01867064197565537,false
0.9995900871083668,-0.019979108013707503,-0.25176912801589213,0.018722979094659364,false
0.9996642729150658,-0.019979108013707503,-0.25223153868478754,0.0187971649013583,false
1.060057782693801,-0.008215440412805487,-1.431668310519691,0.21790265771900463,false
1.0614931002581787,-0.008223858001781258,-1.452492982425013,0.21662822468141107,false
1.1493756499999999,-0.013641650000000758,-1.1874727436910528,0.17484619999999915,false
1.0119165640326144,-0.03188356,-1.4906875281726715,0.20269905999999926,false
1.0067322284869407,-0.0318835600000128,-1.5427688021265957,0.20269905999999926,false
0.994820628569402,-0.03188356,-1.7157684143903653,0.2026990599999994,false
0.994820628569402,-0.03188356,-1.9805795277433336,0.24180428755944225,false
1.0080961993741595,-0.03188356,-2.0,0.24463573262202762,false
1.1493756499999999,-0.013641650000000758,-1.1874727436910528,0.17484619999999915,false
