-0.037158930142762225,0.1619870585093155,-0.09137223660945892,0.1633155643939972,true
-0.037155576075072555,0.1619871946614693,-0.019980616867542267,0.15787260234355927,true
-0.037157344824466323,0.16198713833932318,-0.029837626963853836,0.15794451534748077,true
-0.037156056915168545,0.16198720296658567,-0.04461662843823433,0.15897005796432495,true
-0.03715711110890796,0.16198712081226174,-0.3106524348258972,0.18145480751991272,true
-0.037156680099684175,0.16198710677118006,-0.2722005248069763,0.17833419144153595,true
-0.037157135490838045,0.16198712133530224,-0.23392683267593384,0.17956724762916565,true
-0.03715723462472503,0.16198726967196478,-0.15988430380821228,0.17311300337314606,true
-0.03715560653378329,0.161987191034633,-0.15851172804832458,0.17357127368450165,true
-0.03716610836736936,0.16198784768354793,-0.21019317209720612,0.17776179313659668,true
-0.03715646685364496,0.16198715091162563,-0.19891409575939178,0.1759689748287201,true
-0.037157109857837836,0.16198712080704783,-0.23000682890415192,0.17946098744869232,true
-0.03715705722189283,0.16198731700100263,-0.22253738343715668,0.17882435023784637,true
-0.03715582616259068,0.16198716964238793,-0.22103185951709747,0.17875324189662933,true
-0.03716330058311783,0.16198769078194533,-0.15368644893169403,0.17378097772598267,true
-0.037156405978529455,0.1619871765338238,-0.1673111915588379,0.17355675995349884,true
-0.03715711173026266,0.16198712081529473,-0.2523590326309204,0.18010036647319794,true
-0.037156205136550324,0.16198722244168284,-0.2537286877632141,0.17961743474006653,true
-0.03715710984251383,0.16198712074334642,-0.21717926859855652,0.17334389686584473,true
-0.03715682173659611,0.1619871650887903,-0.2024366557598114,0.17189081013202667,true
-0.037155637220473645,0.1619871868232603,-0.29006367921829224,0.1796010285615921,true
-0.03715731817256629,0.16198717718412178,-0.2866610288619995,0.17897076904773712,true
-0.03715603448686429,0.16198719812811732,-0.27033019065856934,0.17774377763271332,true
-0.5929737366097299,0.17250442376829656,-0.9827374815940857,0.20461708307266235,true
-0.5929727998934888,0.17250452396090318,-0.9746135473251343,0.204202339053154,true
-0.5929756579275007,0.17250436163229133,-0.7381279468536377,0.18342487514019012,true
-0.5929737343712561,0.17250442381578762,-0.8204399347305298,0.18854762613773346,true
-0.5929731075416909,0.17250442978677397,-0.6482877731323242,0.17007742822170258,true
-0.5929737375156973,0.17250442385455617,-0.9275321960449219,0.2010527402162552,true
-0.5929732550878882,0.17250440827318503,-0.9694060683250427,0.20378665626049042,true
-0.5929724050973019,0.1725044741572472,-0.7613667845726013,0.18354949355125427,true
-0.5929738000276981,0.1725046099829301,-0.7807461023330688,0.183584526181221,true
-0.5929724630768531,0.17250447993160953,-0.6558590531349182,0.16938476264476776,true
-0.5929737343823082,0.17250442378506264,-0.7337784171104431,0.18336564302444458,true
-0.5929736002424758,0.17250458912084432,-0.7314985394477844,0.18270668387413025,true
-0.5929727016165091,0.17250452186163273,-0.6412864923477173,0.17236068844795227,true
-0.5929737364511822,0.17250442376415104,-0.687477171421051,0.17656536400318146,true
-0.5929728122960245,0.17250452282497603,-0.7096458077430725,0.17891021072864532,true
-0.5929737353183653,0.17250442383563722,-0.815797746181488,0.18880853056907654,true
-0.5929733920446874,0.17250445227730538,-0.6740430593490601,0.17208436131477356,true
-0.5929737344464808,0.17250442382539477,-0.795647919178009,0.1877572387456894,true
-0.5929730679557733,0.17250444379796992,-0.7783311605453491,0.18421055376529694,true
-0.5929737367308128,0.1725044238580112,-0.7718214392662048,0.18825583159923553,true
-0.5929737132327884,0.17250462742516945,-0.7552469372749329,0.18503861129283905,true
-0.5929723936533515,0.17250447358942295,-0.774629533290863,0.18705356121063232,true
-0.10119773424823927,0.16461756871993571,-0.15876272320747375,0.1651308685541153,true
-0.10119739951170692,0.1646175899355703,-0.1445392519235611,0.16456876695156097,true
-0.10119620402122019,0.1646176389081529,-0.2878788411617279,0.1763039231300354,true
-0.10119755814528522,0.16461769865235482,-0.29885751008987427,0.17744867503643036,true
-0.101196707755661,0.1646176600354247,-0.2878454923629761,0.17643100023269653,true
-0.1011986081952977,0.16461733682097957,-0.3148736357688904,0.17885082960128784,true
-0.10119688340736883,0.1646176645952145,-0.3080451488494873,0.17822152376174927,true
-0.10119773337070034,0.16461756876996317,-0.39554330706596375,0.19054946303367615,true
-0.1011971034808594,0.16461758874570373,-0.4387466013431549,0.1964912861585617,true
-0.10119631956315644,0.16461762403465008,-0.4434150457382202,0.19686748087406158,true
-0.10119807816708928,0.16461739053051122,-0.24041321873664856,0.17619536817073822,true
-0.1011963838666802,0.16461761866846233,-0.24820899963378906,0.1774340569972992,true
-0.1012010049292912,0.1646177437204468,-0.41793498396873474,0.19227536022663116,true
-0.10119696761871558,0.16461764273044033,-0.42271628975868225,0.19324566423892975,true
-0.10119773363853517,0.16461756872755637,-0.15744274854660034,0.16932949423789978,true
-0.10119704108676002,0.16461761433154762,-0.19083648920059204,0.17270225286483765,true
-0.10119773355108572,0.164617568745938,-0.38263994455337524,0.19065554440021515,true
-0.10119720477654293,0.16461755752350637,-0.41740167140960693,0.19472941756248474,true
-0.10119774377396004,0.1646175689777533,-0.35865336656570435,0.18221354484558105,true
-0.10119780198639491,0.16461775504994955,-0.410838782787323,0.18809130787849426,true
-0.10119616307941987,0.16461764385674763,-0.30062609910964966,0.18088455498218536,true
-0.10119794374434006,0.16461762524882168,-0.3405075967311859,0.1865023821592331,true
-0.10119626666917336,0.16461763064908064,-0.3485781252384186,0.18759597837924957,true
-0.47199278150765633,0.16214965740218112,-0.7077766060829163,0.183828204870224,true
-0.4719919446275746,0.16214975321033934,-0.728450357913971,0.18612119555473328,true
-0.47199278101909176,0.16214965746965387,-0.6370915770530701,0.17256660759449005,true
-0.4719932752497723,0.16214939331867612,-0.644250750541687,0.1724490374326706,true
-0.47199189775159534,0.16214975850929447,-0.6534061431884766,0.17306110262870789,true
-0.4719927796815524,0.16214965734076361,-0.5307000875473022,0.16357378661632538,true
-0.47199267461778865,0.1621498302883271,-0.5572521090507507,0.16654960811138153,true
-0.4719914525422524,0.1621497071262306,-0.630521833896637,0.17431068420410156,true
-0.47199264837250804,0.1621498146071693,-0.6882465481758118,0.178739532828331,true
-0.47199180563919596,0.1621497541356748,-0.6664603352546692,0.17607849836349487,true
-0.47199278040605824,0.16214965739328374,-0.6355755925178528,0.17637155950069427,true
-0.4719920636578974,0.16214971798860253,-0.5950042009353638,0.17260734736919403,true
-0.47199277967102404,0.1621496573438763,-0.5114485621452332,0.16389994323253632,true
-0.4719922234528654,0.1621496552871841,-0.6516821980476379,0.18055272102355957,true
-0.471992784352092,0.16214965747650265,-0.5350884199142456,0.16492195427417755,true
-0.47199280815114025,0.16214985802391793,-0.6989614367485046,0.18290747702121735,true
-0.47199156042221174,0.16214970961459782,-0.537283718585968,0.16455738246440887,true
-0.47199278089739466,0.16214965741862047,-0.6466703414916992,0.17293038964271545,true
-0.4719920036825341,0.16214973920380915,-0.5299650430679321,0.1600913554430008,true
-0.47199277966464637,0.16214965733755002,-0.5944991707801819,0.1648758053779602,true
-0.4719926222202076,0.1621497966164913,-0.8337442278862,0.19066640734672546,true
-0.47199141023812174,0.1621497103588426,-0.6388214230537415,0.17227593064308167,true
-0.4719927810737774,0.1621498612158684,-0.6609469056129456,0.17460738122463226,true
-0.471991538667724,0.1621497077985234,-0.5529604554176331,0.16195371747016907,true
-0.02498179052432857,0.16205426604399287,-0.018703728914260864,0.1604207158088684,true
-0.024980511605972047,0.16205424698865145,-0.05448884516954422,0.16315796971321106,true
-0.02498161146343325,0.16205417434744043,-0.29755622148513794,0.1798401176929474,true
-0.024981103307529895,0.16205416102941886,-0.1673305183649063,0.17070412635803223,true
-0.024981610668663362,0.16205417434888758,-0.1540648192167282,0.1736447960138321,true
-0.024980762510547483,0.16205427193836627,-0.17332085967063904,0.17610985040664673,true
-0.024981609121096315,0.1620541744024505,-0.1761813759803772,0.16947253048419952,true
-0.024980954092816768,0.1620542096880417,-0.20912142097949982,0.1731077879667282,true
-0.024980188087858804,0.1620542335015562,-0.20822161436080933,0.17924657464027405,true
-0.02498150404533102,0.16205434747105185,-0.23522460460662842,0.1831027865409851,true
-0.024980282708309487,0.16205422428301408,-0.1455947905778885,0.17266952991485596,true
-0.024981610919324715,0.16205417434725936,-0.1982610523700714,0.17236459255218506,true
-0.02498073916520012,0.16205427454025415,-0.20468483865261078,0.17337539792060852,true
-0.02498160919974725,0.1620541744035877,-0.026492565870285034,0.15695729851722717,true
-0.024980941870041018,0.16205421487823174,-0.06742743402719498,0.16057582199573517,true
-0.024980177707611184,0.16205423487065168,-0.27865391969680786,0.18027926981449127,true
-0.024981530405264324,0.16205436069086931,-0.27355313301086426,0.17979812622070312,true
-0.024980304063408107,0.16205422345893097,-0.2662460505962372,0.1789436787366867,true
-0.024981610525516895,0.16205417442945538,-0.05860422924160957,0.16195909678936005,true
-0.024980786104539354,0.1620542680911274,-0.058767255395650864,0.16163946688175201,true
-0.02498160907631719,0.16205417435361855,-0.1765981912612915,0.17584994435310364,true
-0.024980954016685583,0.1620542096066769,-0.1697259396314621,0.17612546682357788,true
-0.25446964087361656,0.17861124408058537,-0.44038471579551697,0.1916784793138504,true
-0.2544695261864637,0.17861142404414726,-0.4550193250179291,0.19362138211727142,true
-0.2544685919546851,0.17861134434401926,-0.4435882866382599,0.19254794716835022,true
-0.2544696414288496,0.17861124411674018,-0.5844243764877319,0.20237809419631958,true
-0.25446931013816626,0.17861128849127478,-0.5485777258872986,0.1990099847316742,true
-0.2544684051715536,0.17861131432654545,-0.5656219720840454,0.20155374705791473,true
-0.254478961121828,0.17861188482526252,-0.43013015389442444,0.19557754695415497,true
-0.2544689323763897,0.1786112690139834,-0.4434390366077423,0.19759345054626465,true
-0.2544696441314581,0.17861124415972116,-0.44397011399269104,0.1929737776517868,true
-0.2544696290587616,0.17861144793981637,-0.42241886258125305,0.1908245086669922,true
-0.25446966690318457,0.17861124453606517,-0.46242716908454895,0.19255214929580688,true
-0.2544697502426996,0.1786114042716488,-0.4349682331085205,0.1895737200975418,true
-0.25446835626696646,0.1786113056369191,-0.4397103488445282,0.19063512980937958,true
-0.25446964068503225,0.17861124410550783,-0.4119357764720917,0.18574325740337372,true
-0.25446948276545833,0.17861140127898423,-0.5381026864051819,0.20002219080924988,true
-0.2544681416746779,0.17861129533946465,-0.40480831265449524,0.19121043384075165,true
-0.25446958462746494,0.17861144373096072,-0.418412983417511,0.1920333057641983,true
-0.25446864284957854,0.17861134551192884,-0.41468602418899536,0.1920561045408249,true
-0.2544696409531418,0.17861124411259494,-0.38281911611557007,0.1894516944885254,true
-0.25446938183779466,0.1786113347845551,-0.3876820206642151,0.18844014406204224,true
-0.25446846685280994,0.1786113263723266,-0.39419659972190857,0.18953914940357208,true
-0.2544696406416676,0.1786112441274871,-0.33074647188186646,0.18277670443058014,true
-0.2544694682706812,0.17861139258728861,-0.3114980459213257,0.18034544587135315,true
-0.25446854163312915,0.17861133919042557,-0.3300185799598694,0.1827114373445511,true
-0.2544696424418148,0.17861124405457218,-0.3832179009914398,0.18825890123844147,true
-0.254469182081302,0.17861123487189393,-0.5126166939735413,0.20334592461585999,true
-0.25446790323740864,0.1786113211283442,-0.48755916953086853,0.16844433546066284,true
-0.4026151140177456,0.16291936768267665,-0.4997299909591675,0.1679779440164566,true
-0.4026142832744113,0.1629193737524522,-0.5007732510566711,0.16850419342517853,true
-0.4026153677025145,0.16291929627173674,-0.5090936422348022,0.16810767352581024,true
-0.402614396854068,0.1629193943666576,-0.493946373462677,0.1664944589138031,true
-0.4026153658693983,0.16291929627929688,-0.5522273182868958,0.1714625209569931,true
-0.40261499680359913,0.1629192994147561,-0.5450806021690369,0.1711450219154358,true
-0.4026138223009649,0.16291937019722838,-0.6874455213546753,0.18278054893016815,true
-0.40261508786957306,0.16291934937125768,-0.734776496887207,0.187865749001503,true
-0.4026153672442891,0.16291929635796631,-0.6113125681877136,0.182552769780159,true
-0.4026149194287716,0.16291928073762935,-0.473735511302948,0.16728854179382324,true
-0.4026137619678926,0.1629193757635902,-0.4726812243461609,0.1676400750875473,true
-0.40261553249224513,0.16291940400700683,-0.48113110661506653,0.16771045327186584,true
-0.40261424967597065,0.16291936655403347,-0.47846657037734985,0.1674545258283615,true
-0.4026153646296926,0.16291929632746105,-0.4512440264225006,0.16616539657115936,true
-0.4026152585568161,0.16291946938656746,-0.46742820739746094,0.1670898050069809,true
-0.4026144084994483,0.16291939567836333,-0.6175936460494995,0.1829313337802887,true
-0.40261368319913304,0.16291937868494585,-0.5718895196914673,0.17907431721687317,true
-0.402615100990356,0.162919358363424,-0.4335612654685974,0.1636427789926529,true
-0.40261539826222165,0.1629192970092892,-0.5342925786972046,0.17450794577598572,true
-0.402615048567087,0.16291932469866446,-0.5436199903488159,0.17570815980434418,true
-0.40261386293601426,0.16291936513438582,-0.536994457244873,0.17245617508888245,true
-0.4026156262294285,0.1629192720595877,-0.5454466938972473,0.17324529588222504,true
-0.4026143283890513,0.16291938317353388,-0.5466631054878235,0.1735711246728897,true
-0.07955858566137333,0.17380410040958144,-0.16575060784816742,0.178544282913208,true
-0.07955807219786633,0.17380408398503863,-0.16248632967472076,0.17855167388916016,true
-0.07955861447776912,0.17380410100689583,-0.25717392563819885,0.18937934935092926,true
-0.07955870848097435,0.17380424933294097,-0.26920345425605774,0.19119620323181152,true
-0.0795577676222532,0.17380417451740607,-0.26995086669921875,0.1922842562198639,true
-0.07955858684388564,0.1738041004897021,-0.24195308983325958,0.18345563113689423,true
-0.07955796422990832,0.1738041022685139,-0.23319891095161438,0.18343256413936615,true
-0.07955860795246071,0.1738041008907383,-0.156273752450943,0.17948074638843536,true
-0.07955869345160176,0.1738042606115772,-0.1548181027173996,0.17868919670581818,true
-0.07955733726097658,0.1738041619794941,-0.16092664003372192,0.1795896589756012,true
-0.07956343570337088,0.17380447286584857,-0.12446050345897675,0.17313143610954285,true
-0.07955698321655985,0.17380416802054294,-0.1837066411972046,0.1819431483745575,true
-0.07955839102304701,0.17380423034359485,-0.3087981045246124,0.19615288078784943,true
-0.07955709443205751,0.1738041545889994,-0.3042774796485901,0.19518537819385529,true
-0.07955936508695577,0.1738038497341869,-0.20829178392887115,0.18487507104873657,true
-0.07955811320477742,0.17380408636062478,-0.3132808208465576,0.19584520161151886,true
-0.07955687499957102,0.17380417920507335,-0.1882242113351822,0.18100003898143768,true
-0.07955878348274369,0.17380417493020556,-0.20201939344406128,0.18238192796707153,true
-0.07955740861225663,0.17380417536964202,-0.18827639520168304,0.18128272891044617,true
-0.07955858559947288,0.17380410048690995,-0.4076992869377136,0.20053696632385254,true
-0.0795576410735288,0.1738042006985821,-0.3901681900024414,0.19833067059516907,true
-0.07955858881599806,0.17380410056137396,-0.25049319863319397,0.18759512901306152,true
-0.07955812684326358,0.17380408845748396,-0.23315148055553436,0.1867082417011261,true
-0.079556885618725,0.17380417838523407,-0.33895331621170044,0.18247577548027039,true
-0.27831312582088513,0.17933353670994337,-0.32047852873802185,0.18030259013175964,true
-0.2783113021735273,0.17933352544008901,-0.3356817066669464,0.1812097132205963,true
-0.2783140517407923,0.17933325755711024,-0.5987417697906494,0.20180292427539825,true
-0.27831199871765544,0.1793335557952457,-0.5909655094146729,0.20015187561511993,true
-0.2783129310845799,0.179333462309026,-0.49454307556152344,0.20122188329696655,true
-0.27831295614423635,0.17933365934615086,-0.5402407646179199,0.2062729150056839,true
-0.2783115724876223,0.1793335155615047,-0.529558002948761,0.20538070797920227,true
-0.27832104137477814,0.1793339675742032,-0.4044313430786133,0.19174039363861084,true
-0.2783122254795542,0.1793334821266162,-0.40401312708854675,0.19170619547367096,true
-0.2783113712471291,0.17933351741813444,-0.32061004638671875,0.17960618436336517,true
-0.2783127787867714,0.17933362759534588,-0.3136675953865051,0.177566796541214,true
-0.2783118446333569,0.17933356031894243,-0.3173028826713562,0.17790237069129944,true
-0.2783129242768809,0.17933346212650933,-0.36192163825035095,0.1827891618013382,true
-0.27831256223483053,0.17933349055495074,-0.3482722043991089,0.18158642947673798,true
-0.2783112567884934,0.17933353099471905,-0.3800276219844818,0.18412983417510986,true
-0.2783131103134816,0.1793335537108391,-0.3600562512874603,0.18286550045013428,true
-0.27831169455429616,0.17933353465424162,-0.3685680031776428,0.18348534405231476,true
-0.27831292337866975,0.17933346215546617,-0.3361489176750183,0.17641936242580414,true
-0.27831277881673705,0.1793336275627396,-0.4908871352672577,0.19357724487781525,true
-0.2783114295591045,0.17933351264666297,-0.5147629380226135,0.19569703936576843,true
-0.2783129247846152,0.1793334621655999,-0.47215330600738525,0.19309642910957336,true
-0.2783120379800818,0.17933354739051077,-0.4671821594238281,0.19197064638137817,true
-0.27831121189754954,0.17933353610973235,-0.31889134645462036,0.18189330399036407,true
-0.2783153370795774,0.17933346878561138,-0.37406134605407715,0.1872907131910324,true
-0.27831205102858625,0.17933354382745337,-0.5030557513237,0.2011575698852539,true
-0.5327092679859755,0.1739009940838192,-0.6989984512329102,0.1890179067850113,true
-0.532708080151434,0.173901066670268,-0.7073427438735962,0.18995966017246246,true
-0.5327092676079639,0.1739009940851025,-0.7400692105293274,0.19166426360607147,true
-0.5327090188819851,0.17390108475656715,-0.7498263716697693,0.1935056447982788,true
-0.5327077328557097,0.17390105319265078,-0.6237379312515259,0.17949847877025604,true
-0.5327095640688878,0.17390092596657747,-0.6465478539466858,0.1829395592212677,true
-0.5327081765734034,0.173901085350536,-0.6301523447036743,0.18037068843841553,true
-0.5327092716473849,0.1739009941243937,-0.6228860020637512,0.18065646290779114,true
-0.5327087970521851,0.17390098003147875,-0.6285429000854492,0.18083138763904572,true
-0.5327075582195208,0.173901072888362,-0.7403367757797241,0.19405420124530792,true
-0.532709613330262,0.1739008369480143,-0.7533577680587769,0.195071280002594,true
-0.532708661355471,0.17390099202856524,-0.7535431981086731,0.19431956112384796,true
-0.5327092672772382,0.1739009941126215,-0.6791030168533325,0.1853451281785965,true
-0.5327086344838916,0.17390100009446377,-0.6953914165496826,0.18719998002052307,true
-0.5327078002350419,0.17390104621745692,-0.7068930864334106,0.18827690184116364,true
-0.5327105867920104,0.17390082648747673,-0.691895604133606,0.1866966336965561,true
-0.532708387490687,0.17390108524481981,-0.6984698176383972,0.18777509033679962,true
-0.5327075904065635,0.17390107018845927,-0.6145029664039612,0.17950983345508575,true
-0.5327095110807218,0.17390101167737224,-0.6229512691497803,0.1807394027709961,true
-0.532708128187157,0.17390107631772103,-0.6174487471580505,0.18063122034072876,true
-0.5327092707687109,0.17390099409529824,-0.6513797640800476,0.17868340015411377,true
-0.5327086613126597,0.17390099203222928,-0.7968064546585083,0.19479012489318848,true
-0.5327092826875341,0.17390099430845446,-0.7137927412986755,0.19035224616527557,true
-0.5327112044984225,0.1739009317685946,-0.6988562941551208,0.189034566283226,true
-0.5327084128256678,0.17390107920097503,-0.7054647207260132,0.18946890532970428,true
-0.4752487545173102,0.19398099800039234,-0.5925133228302002,0.2028297334909439,true
-0.47524163714141876,0.19398058486427774,-0.5803861021995544,0.20065458118915558,true
-0.4752425195170111,0.19398052431177723,-0.559300422668457,0.2003474086523056,true
-0.4752423524277298,0.19398068964503354,-0.5746542811393738,0.201858252286911,true
-0.4752408931005149,0.19398057476072003,-0.6686385273933411,0.21056115627288818,true
-0.4752425939462046,0.19398070311791923,-0.6292202472686768,0.20486797392368317,true
-0.47524155124864087,0.19398060949720555,-0.6344642043113708,0.2049567848443985,true
-0.47525070611759745,0.1939811781720488,-0.6442731022834778,0.20821285247802734,true
-0.47524075531509574,0.19398058754370853,-0.655796468257904,0.21029193699359894,true
-0.475242511913162,0.19398072710132627,-0.5739068388938904,0.199661523103714,true
-0.47524102174928673,0.19398057551544268,-0.5852816104888916,0.20092050731182098,true
-0.4752462791645144,0.19398069929679168,-0.5478442311286926,0.20030006766319275,true
-0.4752415940177865,0.19398059830375758,-0.5348153114318848,0.19922637939453125,true
-0.4752406940669172,0.19398059448223243,-0.6374381184577942,0.20191606879234314,true
-0.4752422270429049,0.19398061503066763,-0.6203624606132507,0.20015661418437958,true
-0.47524123355522674,0.19398060662355324,-0.6203553676605225,0.2001209855079651,true
-0.4752425202553207,0.19398052432895999,-0.5866258144378662,0.20114733278751373,true
-0.4752418884068743,0.1939805109704504,-0.5944394469261169,0.20220740139484406,true
-0.47524255895721856,0.19398052488967465,-0.5527656078338623,0.19870822131633759,true
-0.4752426441349573,0.1939806732104448,-0.5667729377746582,0.200865238904953,true
-0.47524159412440786,0.1939805983941248,-0.5618694424629211,0.20074868202209473,true
-0.4752425194337787,0.19398052430546064,-0.6513891816139221,0.19860422611236572,true
-0.4752417836184167,0.1939805346987566,-0.6370250582695007,0.19822192192077637,true
-0.47524085519387504,0.1939805773220543,-0.6480043530464172,0.19900792837142944,true
-0.5961945016059951,0.18378339636034063,-0.8551169633865356,0.20557352900505066,true
-0.5961928741868306,0.1837837623678338,-0.745517909526825,0.19334468245506287,true
-0.5961938842527925,0.1837836622447402,-0.7182754278182983,0.19271570444107056,true
-0.5961948471430301,0.1837834302144205,-0.6700661778450012,0.1887388974428177,true
-0.5961929139167148,0.18378375800044708,-0.6954744458198547,0.19168926775455475,true
-0.5961938780376627,0.1837836621204218,-0.6369337439537048,0.18349780142307281,true
-0.5961937415389197,0.1837838351482098,-0.7593194842338562,0.1967589259147644,true
-0.5961923561728898,0.18378371195015178,-0.7596909403800964,0.19739332795143127,true
-0.5961944345304457,0.18378339788335432,-0.7505393624305725,0.19454757869243622,true
-0.5961928608669945,0.1837837630609874,-0.7403503656387329,0.19268426299095154,true
-0.5961938786832854,0.18378366213612982,-0.7681894898414612,0.19862930476665497,true
-0.5961935341074441,0.1837837065104598,-0.7558597326278687,0.19721370935440063,true
-0.5961926031815593,0.1837837323499448,-0.7528855204582214,0.19714264571666718,true
-0.5961938813537093,0.18378366215521322,-0.6857948899269104,0.18886257708072662,true
-0.5961932442618226,0.18378365662244844,-0.8078664541244507,0.20249442756175995,true
-0.5961923562196532,0.1837837119976131,-0.7692736983299255,0.19672079384326935,true
-0.5961938318222317,0.18378386438385766,-0.738972544670105,0.19317574799060822,true
-0.5961928609581958,0.18378376318348297,-0.7521179914474487,0.1941063553094864,true
-0.5961938943953485,0.18378366220561052,-0.8487106561660767,0.20738765597343445,true
-0.5961939536368929,0.18378384042251536,-0.8059275150299072,0.20201162993907928,true
-0.5961929655785296,0.18378374681640786,-0.8043624758720398,0.20159810781478882,true
-0.5961938777230451,0.18378366216109104,-0.7280579805374146,0.19270139932632446,true
-0.5961937261448583,0.1837838274577216,-0.7160282731056213,0.1929013729095459,true
-0.596192343053513,0.18378371255567968,-0.7139526009559631,0.19296382367610931,true
-0.5961938800452771,0.18378366215673772,-0.758478581905365,0.19758500158786774,true
-0.5961929002291051,0.18378375977462635,-0.7364338636398315,0.19489213824272156,true
-0.4523226652302794,0.19794024825901166,-0.7267873287200928,0.22140192985534668,true
-0.4523218058916429,0.19794029386763362,-0.7440752983093262,0.22425825893878937,true
-0.4523208738165705,0.19794031009328789,-0.6314703822135925,0.21131186187267303,true
-0.45232304527784023,0.19794009117158257,-0.5747683644294739,0.20202787220478058,true
-0.4523224915099272,0.1979404136152559,-0.5747800469398499,0.20221753418445587,true
-0.4523226905308287,0.1979402486369029,-0.5274559855461121,0.20149476826190948,true
-0.4523227550255763,0.19794041836613824,-0.5459526777267456,0.20281833410263062,true
-0.4523207738486351,0.19794032098941242,-0.5886206030845642,0.21045513451099396,true
-0.45232239544725694,0.1979403587056351,-0.5712252259254456,0.2096482813358307,true
-0.45232092473923047,0.19794030479519545,-0.5834584832191467,0.21023938059806824,true
-0.4523226681368754,0.19794024834513163,-0.6305171251296997,0.21176250278949738,true
-0.45232150241414393,0.19794034937439617,-0.6167585253715515,0.20949465036392212,true
-0.45232266481494876,0.1979402482715443,-0.662321925163269,0.21786697208881378,true
-0.4523224914826663,0.19794041359058587,-0.6957708597183228,0.22175629436969757,true
-0.4523214602723899,0.19794034632120108,-0.6880528926849365,0.22035010159015656,true
-0.4523327538769731,0.19794100811520193,-0.5783543586730957,0.20227104425430298,true
-0.45232182072662375,0.19794028889628507,-0.5579298734664917,0.20044632256031036,true
-0.45232047475191894,0.1979403280362437,-0.5612033009529114,0.20344898104667664,true
-0.4523222680879237,0.1979402843614593,-0.5535919666290283,0.2029847353696823,true
-0.4523212674416716,0.19794031609485957,-0.5498179197311401,0.20322933793067932,true
-0.45232266486793066,0.19794024831881857,-0.6519190669059753,0.21222473680973053,true
-0.452322411438934,0.19794036852488361,-0.6364219188690186,0.21117030084133148,true
-0.45232093760592074,0.19794030358484596,-0.6345264911651611,0.21143142879009247,true
-0.4523292376751546,0.19794057758361228,-0.5407058596611023,0.20318427681922913,true
-0.45232242737956624,0.1979403782568511,-0.521422266960144,0.20173415541648865,true
-0.4523214046219224,0.197940339630584,-0.6761640310287476,0.21808844804763794,true
-0.531232198100881,0.20031836289520627,-0.723169207572937,0.2120434045791626,true
-0.5312321801005482,0.2003185656820078,-0.716187596321106,0.21213287115097046,true
-0.5312311148830828,0.20031846046045834,-0.7285658121109009,0.21345163881778717,true
-0.53123219222741,0.20031836278324533,-0.6993979215621948,0.21600709855556488,true
-0.5312319341434043,0.20031848295419058,-0.704257071018219,0.21755404770374298,true
-0.5312309013395662,0.2003184518917328,-0.6954517960548401,0.21682916581630707,true
-0.5312321961828473,0.20031836289027172,-0.6633550524711609,0.20672661066055298,true
-0.5312319990296129,0.20031852003430378,-0.6739978194236755,0.20773224532604218,true
-0.5312304947006505,0.20031841409041015,-0.691920816898346,0.2093212604522705,true
-0.53123219507103,0.2003183628673083,-0.6097375750541687,0.20442748069763184,true
-0.5312321136018752,0.2003185625918332,-0.5916247367858887,0.20295943319797516,true
-0.5312305871187786,0.20031841182859586,-0.6004452705383301,0.20370519161224365,true
-0.5312321924070654,0.2003183627541251,-0.6134653687477112,0.20633439719676971,true
-0.5312318856228235,0.20031845337784154,-0.6149967908859253,0.20676417648792267,true
-0.5312308594242701,0.2003184449606167,-0.6157252192497253,0.20682339370250702,true
-0.5312321957217372,0.2003183628633402,-0.6155405044555664,0.20701652765274048,true
-0.5312315049430767,0.20031835427862066,-0.6167393922805786,0.20638258755207062,true
-0.531230534180696,0.2003184122327173,-0.713945209980011,0.21583987772464752,true
-0.5312329633051086,0.2003181012569646,-0.6730412840843201,0.2112380415201187,true
-0.5312311003923038,0.20031846195358755,-0.6694855690002441,0.21034283936023712,true
-0.5312301902815967,0.20031844241459262,-0.6648712754249573,0.20992276072502136,true
-0.5312324532564936,0.20031838044861033,-0.6602057218551636,0.21070939302444458,true
-0.5312313517100996,0.2003183981124597,-0.6568130254745483,0.20992511510849,true
-0.5312321925484633,0.20031836283639032,-0.7692238688468933,0.2210456132888794,true
-0.5312320479639705,0.20031854288454806,-0.6374373435974121,0.2065456211566925,true
-0.531231000110744,0.20031846316866098,-0.6409924626350403,0.20667459070682526,true
-0.5312321937657173,0.20031836284217366,-0.6502873301506042,0.20539681613445282,true
-0.5312322648324381,0.20031854169854818,-0.6678453683853149,0.2081151306629181,true
-0.5312307083097649,0.20031842066017622,-0.6668161153793335,0.2073453813791275,true
-0.3370902121681355,0.20222364775319013,-0.38301941752433777,0.20297273993492126,true
-0.33707897420674193,0.202223031938369,-0.3706440031528473,0.20200027525424957,true
-0.3370780128823205,0.20222306342627858,-0.5333002805709839,0.21948716044425964,true
-0.33708016416413566,0.20222287177644707,-0.5295093059539795,0.21940389275550842,true
-0.3370790514837008,0.20222300884846434,-0.5262319445610046,0.2191527783870697,true
-0.3370780785322086,0.20222305828328394,-0.49711379408836365,0.215244323015213,true
-0.33708085292423146,0.20222277498972444,-0.40482214093208313,0.2062595933675766,true
-0.33707871917540216,0.2022231027604016,-0.49887585639953613,0.21677489578723907,true
-0.33707979516881126,0.20222300702648513,-0.4380650520324707,0.2095935046672821,true
-0.3370797126988675,0.20222320661500587,-0.42582547664642334,0.2084779590368271,true
-0.33707817185211775,0.202223055895554,-0.42788735032081604,0.2084587961435318,true
-0.3370808528795045,0.20222277498927804,-0.5363591909408569,0.22019656002521515,true
-0.3370787191761818,0.20222310275563254,-0.52327561378479,0.21865388751029968,true
-0.3370798201790715,0.20222300737238375,-0.4618058502674103,0.21025992929935455,true
-0.3370793208127839,0.20222301563589434,-0.463044136762619,0.20904307067394257,true
-0.3370778588636183,0.2022230798287981,-0.512199878692627,0.21619321405887604,true
-0.33708021640212904,0.20222280876782206,-0.32562410831451416,0.1970890909433365,true
-0.33707909839208955,0.20222299846704164,-0.41666144132614136,0.20686756074428558,true
-0.33707979588803605,0.20222300707324428,-0.42291590571403503,0.2071353644132614,true
-0.33707972948884524,0.20222320928777385,-0.28652244806289673,0.19212883710861206,true
-0.3370781853568792,0.20222305634417856,-0.29766154289245605,0.1938176453113556,true
-0.3370836895795596,0.20222318207875037,-0.5300726294517517,0.22040538489818573,true
-0.33707882287372093,0.20222308108089734,-0.5249578356742859,0.21942393481731415,true
-0.3370797935494291,0.20222300699274776,-0.4014614522457123,0.20538121461868286,true
-0.3370796299979663,0.20222317997895775,-0.43750619888305664,0.20830228924751282,true
-0.33707857439256406,0.20222310628610482,-0.43325406312942505,0.20837430655956268,true
-0.4274807974358169,0.20339758500926783,-0.6075485348701477,0.21702781319618225,true
-0.427480238675756,0.20339757306965964,-0.6056592464447021,0.21660751104354858,true
-0.4274807954340394,0.20339758493674368,-0.5835223197937012,0.21707123517990112,true
-0.42748049843159086,0.20339768542102293,-0.5892453789710999,0.21844883263111115,true
-0.42747899071401113,0.20339764266874052,-0.5964357852935791,0.21824808418750763,true
-0.42748113720879066,0.203397494495889,-0.5706703662872314,0.213450089097023,true
-0.42747951115111193,0.20339767825252128,-0.5646478533744812,0.21234942972660065,true
-0.4274882964975678,0.20339815490477672,-0.5772159099578857,0.21171173453330994,true
-0.42747987880270466,0.20339764064837046,-0.7216014862060547,0.22796180844306946,true
-0.4274807953212039,0.20339758500081123,-0.4227618873119354,0.19699205458164215,true
-0.42747998618508515,0.20339760496651163,-0.5496184825897217,0.2097976952791214,true
-0.42747901702221125,0.20339764026781926,-0.734258234500885,0.22391502559185028,true
-0.4274811836039682,0.20339742787605808,-0.6931365132331848,0.22476129233837128,true
-0.42748006404788963,0.20339758297172467,-0.696174144744873,0.22505690157413483,true
-0.42748084990086344,0.20339758566370056,-0.5508312582969666,0.2102436125278473,true
-0.42748093705188017,0.20339772117260083,-0.6540672779083252,0.22003157436847687,true
-0.4274798333943893,0.203397654629904,-0.5492839217185974,0.2084852010011673,true
-0.4274807952570459,0.20339758494171642,-0.5361357927322388,0.20702797174453735,true
-0.4274811219910132,0.20339751680121074,-0.7155951857566833,0.22766385972499847,true
-0.4274800016218485,0.20339760000437873,-0.7059333324432373,0.22731879353523254,true
-0.4274807978428634,0.2033975849912409,-0.5313855409622192,0.2087947577238083,true
-0.42748073024489486,0.2033977870945537,-0.5302979946136475,0.20955534279346466,true
-0.4274791772279808,0.20339763420235882,-0.5205807685852051,0.2087801843881607,true
-0.4274807963957532,0.20339758493249888,-0.6815484762191772,0.22176404297351837,true
-0.42747981837977145,0.2033976589408375,-0.6506251096725464,0.21763736009597778,true
-0.06850630894682584,0.20044086642140926,-0.12584054470062256,0.20385634899139404,true
-0.06850667739413353,0.20044073117273145,-0.09969114512205124,0.20249409973621368,true
-0.06850507358942039,0.20044096305877132,-0.11538161337375641,0.20303912460803986,true
-0.06850630886348877,0.20044086652461895,-0.15461549162864685,0.20756907761096954,true
-0.06850664755608507,0.20044077600672344,-0.19675709307193756,0.21111680567264557,true
-0.06850504532807904,0.20044095978003845,-0.208656907081604,0.2123252898454666,true
-0.06850416073246954,0.2004409484348396,-0.1521490514278412,0.20575390756130219,true
-0.0685065025947203,0.20044095807104803,-0.10412784665822983,0.20219044387340546,true
-0.06850540769819857,0.2004409221634672,-0.10401755571365356,0.20236174762248993,true
-0.06850630890782225,0.20044086642159764,-0.33909377455711365,0.21978332102298737,true
-0.06850606685406392,0.20044099626624318,-0.2651066184043884,0.21070541441440582,true
-0.06850457131656502,0.2004409204946894,-0.2535174787044525,0.209218829870224,true
-0.06850631088474093,0.20044086640784256,-0.22159630060195923,0.21100862324237823,true
-0.06850526003209348,0.20044096004437625,-0.21776631474494934,0.20990121364593506,true
-0.06850630996203372,0.20044086648600062,-0.26543042063713074,0.20885033905506134,true
-0.06850536300297498,0.20044093626166384,-0.3645395338535309,0.22034592926502228,true
-0.06850630899951565,0.20044086646511097,-0.25702807307243347,0.20863914489746094,true
-0.06850551349807237,0.2004408864375998,-0.25794360041618347,0.20942185819149017,true
-0.06850631889484306,0.2004408665815177,-0.20136165618896484,0.20940257608890533,true
-0.06850633047498617,0.20044106360840225,-0.31248006224632263,0.2214796096086502,true
-0.06850478357038886,0.20044091984841106,-0.30288445949554443,0.2203979343175888,true
-0.06850630917791786,0.20044086641243947,-0.16238877177238464,0.20705945789813995,true
-0.06850546788623464,0.20044090166552533,-0.08676264435052872,0.19916097819805145,true
-0.0685045196988523,0.20044092547632172,-0.1470460593700409,0.20604345202445984,true
-0.06850663271087237,0.20044079837380338,-0.2274019718170166,0.21085292100906372,true
-0.06850503137683896,0.2004409577578819,-0.24992218613624573,0.21195769309997559,true
-0.45074346925580777,0.20190224768246856,-0.5404004454612732,0.20411375164985657,true
-0.45074354227756314,0.20190240735858295,-0.5169855952262878,0.20243357121944427,true
-0.45074196635733477,0.20190230871624404,-0.5100014805793762,0.2014169692993164,true
-0.4507434354826749,0.2019022472123416,-0.5464838147163391,0.20684023201465607,true
-0.4507431580110042,0.2019023575706045,-0.514754593372345,0.2044147253036499,true
-0.4507416581639814,0.2019023036596316,-0.6114585399627686,0.21390022337436676,true
-0.4507438386692319,0.20190206901176766,-0.6615431904792786,0.2171182781457901,true
-0.4507422186949949,0.20190234663761392,-0.6532692909240723,0.21685735881328583,true
-0.4507434369321514,0.20190224720470532,-0.6243431568145752,0.21774019300937653,true
-0.4507429477846153,0.201902250340671,-0.6345703601837158,0.21896934509277344,true
-0.45074193887351616,0.20190230500569034,-0.6433361172676086,0.2206110954284668,true
-0.45075369969182383,0.2019030068557707,-0.7143105268478394,0.2237972766160965,true
-0.45074257204178364,0.20190228764872184,-0.7202820777893066,0.22405026853084564,true
-0.4507434359752225,0.20190224723231798,-0.7291516065597534,0.2248738408088684,true
-0.45074330546831787,0.201902433434479,-0.7352654933929443,0.22547398507595062,true
-0.4507417767205081,0.2019022962401773,-0.7471210956573486,0.22628331184387207,true
-0.4507434367922664,0.2019022472043816,-0.5565780997276306,0.2085767686367035,true
-0.4507429638322522,0.20190225575276474,-0.5519237518310547,0.208001971244812,true
-0.4507415043786614,0.201902319933513,-0.6628169417381287,0.22240397334098816,true
-0.45074368087430233,0.20190228473630115,-0.6623954176902771,0.22062143683433533,true
-0.4507420773434676,0.20190232711911835,-0.6623554229736328,0.22075682878494263,true
-0.45074343600063616,0.20190224726195313,-0.6141566634178162,0.21449123322963715,true
-0.4507433055439458,0.2019024335474144,-0.6213056445121765,0.21496441960334778,true
-0.45074177679888694,0.20190229631516396,-0.6068793535232544,0.21300402283668518,true
-0.4507498861273082,0.20190272091670242,-0.7270233631134033,0.22215351462364197,true
-0.4507425116335235,0.2019023077756755,-0.7264569401741028,0.22239933907985687,true
-0.45074156791217096,0.20190231328785127,-0.413259893655777,0.21606802940368652,true
-0.2728670439710416,0.20358979807007488,-0.40630263090133667,0.2146948128938675,true
-0.27286529082558025,0.2035901632486769,-0.4098498225212097,0.21523484587669373,true
-0.2728664343872805,0.20359006239014446,-0.5753078460693359,0.2258794903755188,true
-0.2728658104134366,0.20359004596470967,-0.571661651134491,0.22499221563339233,true
-0.27286481208781627,0.2035901116576825,-0.5620324015617371,0.22469164431095123,true
-0.27287496423450236,0.20359071623094097,-0.3811098635196686,0.2128273993730545,true
-0.2728655295831248,0.20359011305308106,-0.37626132369041443,0.212136909365654,true
-0.2728664322557495,0.20359006228375734,-0.44391247630119324,0.2200385332107544,true
-0.272866299581065,0.2035902484878369,-0.444328248500824,0.2187519520521164,true
-0.2728664351114107,0.20359006234102184,-0.5283830165863037,0.22400224208831787,true
-0.2728663832850313,0.20359026579715953,-0.43704894185066223,0.21313735842704773,true
-0.27286482560961245,0.2035901120046774,-0.435960978269577,0.2136641889810562,true
-0.2728729282767523,0.20359053596720153,-0.3712882995605469,0.21081355214118958,true
-0.27286454749032024,0.20359012833996,-0.36636611819267273,0.21057656407356262,true
-0.27286678898782385,0.20358994933866958,-0.37095892429351807,0.2111557573080063,true
-0.2728646914203173,0.20359011440331043,-0.37459883093833923,0.21214911341667175,true
-0.272866942209396,0.20358981513333327,-0.37390822172164917,0.21010106801986694,true
-0.27286478497074496,0.20359011108478492,-0.36747172474861145,0.21005640923976898,true
-0.27287594081025046,0.20359078243807277,-0.3624518811702728,0.20370128750801086,true
-0.27286608526409595,0.20359013353489658,-0.3425326943397522,0.20146025717258453,true
-0.27286458629892557,0.2035901240404627,-0.35048142075538635,0.20251139998435974,true
-0.2728664353389276,0.20359006225468515,-0.3779807686805725,0.21134181320667267,true
-0.27286520371904943,0.2035901615701695,-0.29666611552238464,0.20224995911121368,true
-0.011759350558897708,0.18502148598060655,-0.20027151703834534,0.20333631336688995,true
-0.011758898547474694,0.18502148434741983,-0.1470104306936264,0.1960800290107727,true
-0.011757976119517732,0.18502154214797945,-0.1392192393541336,0.19615288078784943,true
-0.011767212652761122,0.18502213996125152,-0.1322038620710373,0.19479620456695557,true
-0.01175854101451601,0.18502153679027525,-0.13303065299987793,0.19422414898872375,true
-0.011757672204941061,0.18502154933018447,-0.1164587214589119,0.19212527573108673,true
-0.011759363174579207,0.1850216865189112,-0.0925750732421875,0.1901254802942276,true
-0.011757938685225316,0.18502153812776587,-0.09148348867893219,0.18988895416259766,true
-0.011762348811061807,0.18502157223863855,-0.1429874449968338,0.19483940303325653,true
-0.011758458584699816,0.18502156411612095,-0.13868999481201172,0.1939840316772461,true
-0.011757602159547381,0.1850215575858286,-0.1223614513874054,0.19250240921974182,true
-0.011762922654926067,0.18502159359808448,-0.12715160846710205,0.19276584684848785,true
-0.01175896049907163,0.18502152189071328,-0.04907397925853729,0.18554101884365082,true
-0.011759352033331366,0.18502148595029025,-0.20424498617649078,0.20323775708675385,true
-0.01175829821874888,0.1850215875769031,-0.20999987423419952,0.20396862924098969,true
-0.01175934983783175,0.18502148598219598,-0.025009796023368835,0.1831536889076233,true
-0.011758499927290222,0.1850215512390382,-0.05871410295367241,0.1865571290254593,true
-0.011759348967263189,0.18502148599216095,-0.12749573588371277,0.19281606376171112,true
-0.011759150865554263,0.18502162527434557,-0.0563436895608902,0.1858186274766922,true
-0.011759351797899997,0.18502148605391913,-0.24378550052642822,0.20550218224525452,true
-0.011759976582123549,0.18502122017061007,-0.16198894381523132,0.1958203911781311,true
-0.011757902092286415,0.185021535727119,-0.16223472356796265,0.1957280933856964,true
-0.011765339729262941,0.18502195968523352,-0.09518922120332718,0.19116541743278503,true
-0.011758513676425802,0.1850215465487141,-0.0932328924536705,0.1908126175403595,true
