0.6055230891767955,0.21039086439996335,0.41660669445991516,0.22222109138965607,true
0.6055231308302278,0.2103910681374018,0.4319450855255127,0.22146469354629517,true
0.6055247436131437,0.21039091470996776,0.4349457919597626,0.2213125377893448,true
0.6055203200924332,0.21039087102765186,0.46679142117500305,0.22158028185367584,true
0.605524139763951,0.21039094606112468,0.45684000849723816,0.22265802323818207,true
0.6055251112842444,0.2103909370347489,0.5138310790061951,0.21427631378173828,true
0.6055228794384323,0.21039093882307164,0.5476254224777222,0.21333089470863342,true
0.6055245435957852,0.21039093926453098,0.5404915809631348,0.213500514626503,true
0.6055230941911608,0.21039086431977685,0.629214882850647,0.20345115661621094,true
0.6055233205873297,0.21039101272290037,0.6191551685333252,0.20404589176177979,true
0.6055248965782742,0.21039091636522184,0.6303674578666687,0.20380684733390808,true
0.605523091765521,0.210390864379101,0.3413231670856476,0.23133814334869385,true
0.6055236907723393,0.21039085033813243,0.34430718421936035,0.23088113963603973,true
0.6055247295537862,0.21039091559982628,0.35675135254859924,0.22908948361873627,true
0.6055117615384152,0.21039159125324042,0.3991245627403259,0.22196000814437866,true
0.6055234055177661,0.21039096487954473,0.38797274231910706,0.22354239225387573,true
0.6055249645141116,0.21039092212475294,0.4026753604412079,0.223615363240242,true
0.6055230913494918,0.21039086430214535,0.4473547339439392,0.22048208117485046,true
0.6055237403619909,0.21039084787818607,0.4783157408237457,0.21772371232509613,true
0.6055247717431921,0.21039091357766102,0.4654044508934021,0.21957902610301971,true
0.6055197425796124,0.21039095045995423,0.6336061358451843,0.20569558441638947,true
0.6055241242678288,0.21039094232234734,0.6589073538780212,0.20441529154777527,true
0.6055250981006555,0.21039093578865645,0.34754717350006104,0.23068495094776154,true
0.6055227443589818,0.21039077382949142,0.34882164001464844,0.23074336349964142,true
0.605524426361987,0.2103909575928097,0.3615712523460388,0.22928206622600555,true
0.605523080091767,0.21039086451450312,0.6026841998100281,0.20679321885108948,true
0.6055230601091428,0.210391056720414,0.6256061792373657,0.20366592705249786,true
0.6055246869831761,0.21039091906619864,0.6534552574157715,0.20219114422798157,true
1.127661616009935,0.2244975299732123,-0.9664855599403381,0.24766840040683746,false
0.8641137301870926,0.21166548704108512,0.5816355544783361,-0.7000729254590159,false
0.8638209694600929,0.211497510911926,0.5619743717990558,-0.7000729254589857,false
0.8587305210931085,0.22530747559776845,-1.9785107482337618,-0.3021350935046249,false
