-0.6911861203284535,-0.19452555814445685,3.8545281887054443,-0.21878881752490997,true
-0.6911875074154219,-0.19452531040899185,3.8642578125,-0.22009706497192383,true
-0.6911884948598888,-0.19452524472018187,3.8611655235290527,-0.21949079632759094,true
-0.6911790466363011,-0.1945245344341342,4.037059783935547,-0.22790995240211487,true
-0.6911872222097329,-0.1945252131016443,4.035609245300293,-0.22793391346931458,true
-0.6911882473525225,-0.19452521417305818,4.040273189544678,-0.22805467247962952,true
-0.69118661842588,-0.19452529394154802,3.586716413497925,-0.18147189915180206,true
-0.6911868890199547,-0.19452509339533292,3.6539149284362793,-0.1857665479183197,true
-0.691187959526333,-0.19452519819651495,3.6451873779296875,-0.18335944414138794,true
-0.6911866273949543,-0.19452529396750964,3.6069869995117188,-0.1736735850572586,true
-0.6911869225278247,-0.19452509031830834,-0.6733583807945251,-0.19874128699302673,true
-0.6911879886587342,-0.1945251950174456,-0.6696304082870483,-0.19937598705291748,true
-0.6911889092878867,-0.1945252145447587,3.819565773010254,-0.21755696833133698,true
-0.6911827550382914,-0.19452492182084188,3.916560649871826,-0.2267369031906128,true
-0.6911873026961743,-0.19452525793246003,3.9257023334503174,-0.22735078632831573,true
-0.6911883169512312,-0.1945252261936847,3.9386658668518066,-0.22887951135635376,true
-0.6911887700504696,-0.19452522659102173,3.9202468395233154,-0.22714973986148834,true
-0.6911860443288077,-0.19452555990554862,4.0261054039001465,-0.23738721013069153,true
-0.6911874916180372,-0.19452531039284304,4.051354885101318,-0.23980095982551575,true
-0.691188480847431,-0.19452524437951996,4.060284614562988,-0.24063773453235626,true
-0.6911851964966895,-0.1945254142702939,3.9200079441070557,-0.2268495112657547,true
-0.6911873979366993,-0.19452529560096066,3.9454543590545654,-0.22859592735767365,true
-0.6911883994896701,-0.1945252378032879,3.9506893157958984,-0.22856996953487396,true
-0.6911888462685102,-0.19452521891425786,3.91412615776062,-0.22169376909732819,true
-0.69118666933752,-0.19452523754829026,3.6163747310638428,-0.18178421258926392,true
-0.6911877661775438,-0.19452524837017587,3.625922203063965,-0.18238361179828644,true
-0.6911882610305957,-0.1945252165925543,3.7580790519714355,-0.19827793538570404,true
-0.6911866418704433,-0.1945252940734681,3.9985523223876953,-0.22362618148326874,true
-0.6911865513806448,-0.19452536218606148,-0.6578394174575806,-0.20059490203857422,true
-0.6911876755086878,-0.19452527898824043,-0.6553658843040466,-0.20047254860401154,true
-0.6911865818210489,-0.1945252937729368,3.9558348655700684,-0.22091972827911377,true
-0.691186821739369,-0.19452511516382415,4.0368828773498535,-0.2271403968334198,true
-0.6911873821198744,-0.1945252908513261,4.039744853973389,-0.2274942249059677,true
-0.6911883856295279,-0.1945252361878342,-0.6678262948989868,-0.19985412061214447,true
-0.6911888333527297,-0.1945252200600886,3.5551483631134033,-0.23017092049121857,true
-0.7108220172263953,-0.20194038363167816,3.76064395904541,-0.214228555560112,true
-0.7108223472193212,-0.2019401814308518,3.8500685691833496,-0.21842043101787567,true
-0.7108234476669557,-0.20194028261264677,3.847036361694336,-0.21795383095741272,true
-0.710823941461793,-0.20194033434543238,3.8756179809570312,-0.22076475620269775,true
-0.7108156859435836,-0.2019397298377327,3.9374608993530273,-0.2227073758840561,true
-0.7108226561518638,-0.20194032162703188,3.8543076515197754,-0.20970280468463898,true
-0.7108237141145994,-0.20194030866545637,3.959932327270508,-0.2243453860282898,true
-0.7108220232528255,-0.20194038369152803,3.6877212524414062,-0.20213456451892853,true
-0.7108224168740883,-0.2019401974861141,3.6201772689819336,-0.19092148542404175,true
-0.7108235076435754,-0.20194028269738654,3.5937318801879883,-0.1875855028629303,true
-0.7108219955373871,-0.20194038353665655,3.6166107654571533,-0.20420093834400177,true
-0.7108209238449327,-0.20194058817657917,3.631575584411621,-0.20186029374599457,true
-0.7108228373967099,-0.2019403927901147,3.6354587078094482,-0.20180697739124298,true
-0.7108238711696462,-0.20194033025094804,3.6419034004211426,-0.20236730575561523,true
-0.7108220262591529,-0.20194038366553144,3.907688856124878,-0.23277229070663452,true
-0.7108225887214539,-0.2019402831340938,3.9044501781463623,-0.22813749313354492,true
-0.7108236556789183,-0.2019402990237424,3.9079909324645996,-0.22881367802619934,true
-0.7108220146260414,-0.20194038363011807,3.6788113117218018,-0.20072494447231293,true
-0.7108223296611428,-0.20194018006344375,3.6789934635162354,-0.19842465221881866,true
-0.710823432265153,-0.201940283425825,3.6171889305114746,-0.19020365178585052,true
-0.7108220019743139,-0.2019403835685895,3.9878740310668945,-0.2437073290348053,true
-0.7108222770852258,-0.20194018314150658,4.022567272186279,-0.24135525524616241,true
-0.7108233865771574,-0.2019402879261166,4.041440486907959,-0.24268485605716705,true
-0.7108220261706149,-0.20194038370625342,3.6557888984680176,-0.19932939112186432,true
-0.7108219502800215,-0.20194042967050357,3.6784846782684326,-0.19783861935138702,true
-0.7108231082737843,-0.20194036375178054,3.6746814250946045,-0.1968696415424347,true
-0.7108241055915436,-0.20194032846102317,3.638676166534424,-0.1916477531194687,true
-0.7108217082638517,-0.20194060039355743,3.8329474925994873,-0.22121191024780273,true
-0.7108239962780476,-0.20194033457678998,3.8076794147491455,-0.21870911121368408,true
-0.7108165042701189,-0.20193981374613212,3.954299211502075,-0.23473641276359558,true
-0.7108232174794409,-0.20194032790826266,3.911656141281128,-0.23004014790058136,true
-0.7108241995126522,-0.20194031894354036,3.907378673553467,-0.22920086979866028,true
-0.8301389064576575,-0.19344603727028417,3.70615291595459,-0.20294173061847687,true
-0.8301452220685839,-0.19344623662091448,3.443485975265503,-0.16875964403152466,true
-0.8301457542147078,-0.19344635138068933,3.7309062480926514,-0.2046661227941513,true
-0.8301467125850307,-0.19344631236263238,3.4438233375549316,-0.16846130788326263,true
-0.8301447240176276,-0.1934463664779839,3.67261004447937,-0.20513956248760223,true
-0.8301450728121982,-0.19344617029314762,3.690199136734009,-0.2069871872663498,true
-0.8301461231602569,-0.19344626483813443,3.6858115196228027,-0.2063923180103302,true
-0.8301447149643395,-0.1934463664737398,3.7800562381744385,-0.21820011734962463,true
-0.830145022413967,-0.19344616302230622,3.7931478023529053,-0.21676357090473175,true
-0.8301460796176086,-0.1934462663651375,3.787851095199585,-0.21543875336647034,true
-0.83014699173384,-0.19344628637252573,3.852931261062622,-0.23020778596401215,true
-0.830136457632835,-0.19344572581704986,3.682645559310913,-0.21330861747264862,true
-0.8301452546682875,-0.19344625618570332,3.6997427940368652,-0.21536481380462646,true
-0.8301462797169201,-0.1934462796450914,3.703547477722168,-0.21526053547859192,true
-0.8301447248109202,-0.19344636656317318,3.6825358867645264,-0.20485642552375793,true
-0.8301460358925985,-0.19344627076682774,3.6784262657165527,-0.20484431087970734,true
-0.830144576962701,-0.19344636582987176,3.8179538249969482,-0.2210303694009781,true
-0.8301459183251311,-0.19344629670083427,3.816514015197754,-0.2168487310409546,true
-0.8301468535888268,-0.19344629759030385,3.863251209259033,-0.22946923971176147,true
-0.8301447232855985,-0.19344636648361874,3.5751163959503174,-0.19482403993606567,true
-0.8301451560430172,-0.1934462011019045,3.5839240550994873,-0.1956815868616104,true
-0.8301461946335287,-0.1934462683682995,3.5926098823547363,-0.19703041017055511,true
-0.8301447195710387,-0.19344636647248908,3.6208107471466064,-0.20293714106082916,true
-0.8301442727289441,-0.19344662409130176,3.5616238117218018,-0.19344590604305267,true
-0.8301456019943937,-0.1934463824134333,3.568237543106079,-0.19445377588272095,true
-0.8301470160375904,-0.1934462852156615,3.733712673187256,-0.20981365442276,true
-0.8301402051790004,-0.19344589284152106,3.7322285175323486,-0.20585821568965912,true
-0.8301453674897732,-0.19344632211915308,3.726713180541992,-0.20513762533664703,true
-0.830146377073159,-0.19344629628222537,3.7463650703430176,-0.20734840631484985,true
-0.8301447234336161,-0.19344636648413352,3.684900999069214,-0.2132822573184967,true
-0.8301451394034913,-0.1934461934482658,3.6999552249908447,-0.2148512452840805,true
-0.8301461802124798,-0.19344626714565888,3.705209255218506,-0.2151091992855072,true
-0.8839904169048334,-0.18597379049099963,3.6336660385131836,-0.2044283151626587,true
-0.8839892773915837,-0.18597395818909226,3.689901828765869,-0.20720922946929932,true
-0.8839911966138653,-0.18597379633935532,3.6925246715545654,-0.20703600347042084,true
-0.8839916897387464,-0.1859736994386846,3.715961456298828,-0.20891456305980682,true
-0.8839925765230477,-0.1859737144928239,3.637340784072876,-0.20605672895908356,true
-0.8839873815687128,-0.18597365151364748,3.6948022842407227,-0.207111656665802,true
-0.8839909194576683,-0.1859736513344984,3.7022950649261475,-0.20798584818840027,true
-0.8839919114500743,-0.1859736974122245,3.720505714416504,-0.2093018740415573,true
-0.8839904522295491,-0.1859737906289191,3.6500134468078613,-0.19746249914169312,true
-0.8839902387007049,-0.1859739688303727,3.6717443466186523,-0.19866076111793518,true
-0.8839913740730186,-0.18597379610781317,3.6897525787353516,-0.1995958387851715,true
-0.8839923049882136,-0.1859737407339683,3.6973516941070557,-0.19975952804088593,true
-0.8839903080978276,-0.18597378997448905,3.5277199745178223,-0.19265906512737274,true
-0.8839905667122858,-0.18597365432268545,3.5454633235931396,-0.19140306115150452,true
-0.8839916046911118,-0.18597372086064626,3.556206703186035,-0.1921522468328476,true
-0.8839925035923342,-0.1859737217519772,3.5965633392333984,-0.19001057744026184,true
-0.8839902386775536,-0.1859739689026335,3.629152774810791,-0.1977999061346054,true
-0.883990855728958,-0.18597361770217535,3.6196773052215576,-0.19664132595062256,true
-0.8839918565209577,-0.18597369138708875,3.6349496841430664,-0.19798745214939117,true
-0.8839904169168173,-0.18597379049754792,3.6538281440734863,-0.19791708886623383,true
-0.8839911964988687,-0.18597379635155903,3.685999631881714,-0.19863145053386688,true
-0.8839921508857433,-0.1859737359291253,3.68220853805542,-0.1979587823152542,true
-0.8839904537206621,-0.18597379065196556,3.74798583984375,-0.211497962474823,true
-0.8839910134173051,-0.18597370972097352,3.746868371963501,-0.21001432836055756,true
-0.8839919922962935,-0.1859737107913206,3.7476677894592285,-0.20990794897079468,true
-0.8839904536724374,-0.18597379062789157,3.7260735034942627,-0.2046796679496765,true
-0.8839903929208976,-0.18597383656825162,3.7666244506835938,-0.2068692296743393,true
-0.8839914611178122,-0.18597377063285425,3.7762651443481445,-0.20727850496768951,true
-0.8839923799925167,-0.18597373534292477,3.602081298828125,-0.19514356553554535,true
-0.8839897986892926,-0.1859740522097198,3.650200605392456,-0.19537676870822906,true
-0.8839907270949419,-0.18597358682332735,3.646552801132202,-0.19464674592018127,true
-0.8839922025548312,-0.1859737402202709,3.660874128341675,-0.19575510919094086,true
-0.8839904356232238,-0.18597379055264174,3.583080768585205,-0.19685861468315125,true
-0.8839896996216992,-0.18597404121576852,3.6838953495025635,-0.20496182143688202,true
-0.8839912412355742,-0.18597380461599353,3.6715829372406006,-0.20472359657287598,true
-0.8839926118513395,-0.18597371175154404,3.695612668991089,-0.20603249967098236,true
-0.8108979856669422,-0.20846548897138306,3.766573667526245,-0.23024627566337585,true
-0.8108989190183492,-0.20846550493659047,3.7948431968688965,-0.2331850826740265,true
-0.810899970157035,-0.20846544000968778,3.3857524394989014,-0.18473511934280396,true
-0.8108971391939979,-0.2084657395575361,3.620584011077881,-0.21242444217205048,true
-0.8108988527426435,-0.20846550294988694,3.6447949409484863,-0.2148161083459854,true
-0.8108994009483259,-0.2084653912947217,3.6061642169952393,-0.2100771963596344,true
-0.8108979871430826,-0.2084654889486324,3.562063455581665,-0.20546796917915344,true
-0.8108981525615968,-0.208465318793744,3.6252925395965576,-0.21199308335781097,true
-0.8108993065543879,-0.2084654071532708,3.6501193046569824,-0.21500353515148163,true
-0.8109003039329528,-0.20846541617347608,3.410494804382324,-0.1881336122751236,true
-0.8108978311752492,-0.2084656019389677,3.5882315635681152,-0.20925678312778473,true
-0.8108984752615134,-0.20846534053215163,3.602207660675049,-0.2103518545627594,true
-0.8109000833913884,-0.20846543687643587,3.577913522720337,-0.2074565589427948,true
-0.8108979869056996,-0.20846548896866798,3.7795464992523193,-0.24043823778629303,true
-0.8108981883893813,-0.20846530270951358,3.8594908714294434,-0.2474914938211441,true
-0.8108993380481586,-0.20846540059815302,3.8653299808502197,-0.2469770610332489,true
-0.810897988004666,-0.20846548902988443,3.624082088470459,-0.21412985026836395,true
-0.8108979883146634,-0.20846545158727772,3.644303321838379,-0.21430207788944244,true
-0.810898597831119,-0.20846540813684006,3.664163112640381,-0.21619954705238342,true
-0.8108996918681024,-0.2084654092070454,3.663926601409912,-0.2161528766155243,true
-0.8108979868398912,-0.20846548902611578,3.7457234859466553,-0.22915728390216827,true
-0.810898785611369,-0.20846549064344067,3.777848482131958,-0.23131857812404633,true
-0.8108998543013077,-0.20846543284393954,3.771362066268921,-0.23031459748744965,true
-0.8108979870320747,-0.20846548902647602,3.6035268306732178,-0.2097923308610916,true
-0.8108981523620671,-0.20846531892580916,3.58100962638855,-0.20800529420375824,true
-0.8108993061992233,-0.20846540726732615,3.601367950439453,-0.20934489369392395,true
-0.8109003033297612,-0.20846541629110724,3.7320852279663086,-0.2335471659898758,true
-0.8108979274828989,-0.20846551323628235,3.834881067276001,-0.23580513894557953,true
-0.8108991145236532,-0.20846546406122518,3.8359873294830322,-0.2360129952430725,true
-0.8109001387899977,-0.20846543256379077,3.835768222808838,-0.23569278419017792,true
-0.8108979864216246,-0.208465489034408,3.714982032775879,-0.22249111533164978,true
-0.810898835823576,-0.20846550096853614,3.7045981884002686,-0.2226315140724182,true
-0.8108998977281776,-0.2084654368143328,3.7397091388702393,-0.2256239801645279,true
-0.7169518849992842,-0.16521478582925625,-0.7078317403793335,-0.1714235097169876,true
-0.7169525186019232,-0.16521477725543035,-0.7053102850914001,-0.17102079093456268,true
-0.71695336938505,-0.16521472622690395,-0.716465413570404,-0.16943547129631042,true
-0.716951885647506,-0.16521478588536745,-0.7338155508041382,-0.17011728882789612,true
-0.7169523406330257,-0.1652146657155602,-0.7382378578186035,-0.16962268948554993,true
-0.7169527930821346,-0.16521476593629889,-0.7392127513885498,-0.16996930539608002,true
-0.7169518725609969,-0.16521478578763948,-0.7283256649971008,-0.16622450947761536,true
-0.7169521416610752,-0.16521458200986236,-0.7209514379501343,-0.1674923300743103,true
-0.7169530452133707,-0.16521468673118322,-0.6645483374595642,-0.1668928563594818,true
-0.7169518313305616,-0.16521478556999938,-0.698980987071991,-0.17159317433834076,true
-0.7169520559688276,-0.16521460694177398,-0.7060045599937439,-0.17076586186885834,true
-0.7169533809154652,-0.16521472798099895,-0.696770966053009,-0.1724393218755722,true
-0.7169518856123057,-0.16521478584241503,-0.7547718286514282,-0.1692754477262497,true
-0.716951824801741,-0.16521485396173008,-0.8117073774337769,-0.16515891253948212,true
-0.7169527803222047,-0.1652147707379841,-0.8122289776802063,-0.16498520970344543,true
-0.7169535955155499,-0.16521473171355341,-0.7454297542572021,-0.16820326447486877,true
-0.716951502526495,-0.16521504345494767,-0.7323047518730164,-0.16942165791988373,true
-0.7169526508920268,-0.16521480176084588,-0.7284285426139832,-0.1703086942434311,true
-0.7169538533333727,-0.16521470456960638,-0.7501415610313416,-0.1681838482618332,true
-0.7169451056330379,-0.1652140214381864,-0.7457100749015808,-0.1697915494441986,true
-0.7169523823152286,-0.1652146952471879,-0.7469134330749512,-0.17016710340976715,true
-0.7169536393259677,-0.16521472680905802,-0.7057567834854126,-0.17150050401687622,true
-0.7169448378849707,-0.16521405896348068,-0.7230010628700256,-0.16745619475841522,true
-0.7169523684943696,-0.1652146852503332,-0.7155659198760986,-0.1685449182987213,true
-0.7169536284500988,-0.16521472800734477,-0.7296501994132996,-0.16624490916728973,true
-0.7169518843298248,-0.16521478582242763,-0.7349668145179749,-0.16884180903434753,true
-0.7169521273178406,-0.16521458298682792,-0.7295113801956177,-0.16960880160331726,true
-0.7169534383079066,-0.16521473459744856,-0.732883632183075,-0.16893106698989868,true
-0.7169518856071321,-0.16521478583431792,-0.7654126882553101,-0.16713203489780426,true
-0.7169519415998371,-0.16521471128458926,-0.8414716124534607,-0.1609298586845398,true
-0.7169528695757066,-0.1652147350911485,-0.8040410280227661,-0.16449196636676788,true
-0.7169536720775527,-0.16521472255026395,3.4413084983825684,-0.19262097775936127,true
-0.9617796033222052,-0.15740846325304825,-0.933673083782196,-0.16086329519748688,true
-0.961777694306844,-0.15740867249722176,-0.949745237827301,-0.15857745707035065,true
-0.9617781976622403,-0.15740838014689607,-0.9659221172332764,-0.15692934393882751,true
-0.9617790399965876,-0.15740844061952952,-0.9465689063072205,-0.15943209826946259,true
-0.9617778102836999,-0.15740853727831286,-0.9697317481040955,-0.1579737663269043,true
-0.9617780204149352,-0.1574083401854593,-0.9561145901679993,-0.1607135683298111,true
-0.9617788875482374,-0.15740844363926526,-0.95357346534729,-0.1608252376317978,true
-0.9617796335898929,-0.15740846019576699,-0.9901357889175415,-0.14109855890274048,true
-0.9617711444612487,-0.15740781049521593,-0.8976355791091919,-0.1641659289598465,true
-0.9617782778862947,-0.157408436783888,-0.9010222554206848,-0.16335779428482056,true
-0.9617791087859155,-0.1574084526750665,-0.9102418422698975,-0.16247153282165527,true
-0.9617794374204607,-0.15740848412226646,-1.0238741636276245,-0.15243609249591827,true
-0.9617766696633127,-0.15740865750411,-0.9481400847434998,-0.16063427925109863,true
-0.9617784465402004,-0.15740853882188724,-0.9616712331771851,-0.1587074249982834,true
-0.9617795520247522,-0.1574084696772964,-0.9827876687049866,-0.1579589545726776,true
-0.9617752118215057,-0.15740839808275117,-0.9982417821884155,-0.155780628323555,true
-0.9617786583112184,-0.15740852679520778,-1.0274724960327148,-0.15212883055210114,true
-0.9617777781950989,-0.15740853707740773,-0.92548668384552,-0.16414634883403778,true
-0.9617768312944579,-0.15740870487260372,-0.9482220411300659,-0.16115666925907135,true
-0.9617784591516679,-0.15740854301178822,-0.9701070785522461,-0.1587892770767212,true
-0.9617792652280135,-0.15740848258417345,-0.9613913893699646,-0.1591896116733551,true
-0.9617783173818525,-0.157408465958256,-0.974297285079956,-0.16064780950546265,true
-0.9617795105474347,-0.15740847543697117,-0.9837134480476379,-0.15911969542503357,true
-0.7269880849746715,-0.16917472146910265,-0.7070300579071045,-0.17451463639736176,true
-0.7269888802540321,-0.16917473638124467,-0.705475926399231,-0.17513065040111542,true
-0.726989730594857,-0.16917467262684224,-0.6989157795906067,-0.17599545419216156,true
-0.7269880862463822,-0.16917472139322595,-0.7371366620063782,-0.16954810917377472,true
-0.7269882582569559,-0.1691745425371772,-0.6970137357711792,-0.17575475573539734,true
-0.7269891939591044,-0.16917463616209608,-0.6924652457237244,-0.17651531100273132,true
-0.7269899999175431,-0.16917464744309674,-0.7618196606636047,-0.17404133081436157,true
-0.7269847977895864,-0.16917434909130896,-0.7689149379730225,-0.17315007746219635,true
-0.7269886763138022,-0.16917468520522014,-0.7537577748298645,-0.1753724366426468,true
-0.7269895542827398,-0.1691746534652134,-0.7615667581558228,-0.17424224317073822,true
-0.7269880844376483,-0.16917472141319034,-0.6778287887573242,-0.17613311111927032,true
-0.7269884338430017,-0.16917453512957464,-0.6841411590576172,-0.17734389007091522,true
-0.7269893459508098,-0.16917462036074762,-0.6929320096969604,-0.17605628073215485,true
-0.7269901290272843,-0.1691746392468129,-0.7253956198692322,-0.17108741402626038,true
-0.7269879271788922,-0.16917487855220803,-0.695987343788147,-0.17579981684684753,true
-0.7269889465887143,-0.16917472347124257,-0.6999682784080505,-0.1760827749967575,true
-0.7269897877798512,-0.16917467094087016,-0.7189719080924988,-0.17328089475631714,true
-0.7269847976641043,-0.16917434897647085,-0.6939490437507629,-0.17587731778621674,true
-0.7269886761802884,-0.16917468509239028,-0.6912072896957397,-0.1764727532863617,true
-0.726989554137606,-0.1691746533588041,-0.6792609691619873,-0.17840343713760376,true
-0.7269880848455486,-0.16917472146572277,-0.7115716338157654,-0.17368976771831512,true
-0.7269884191548464,-0.16917452982279563,-0.6945837736129761,-0.17563456296920776,true
-0.7269897420730027,-0.16917467260177718,-0.7034270763397217,-0.17494195699691772,true
-0.7269880870188947,-0.16917472148767804,-0.7333875298500061,-0.17169685661792755,true
-0.7269886061923007,-0.16917464060964674,-0.7076298594474792,-0.17585639655590057,true
-0.726989493740213,-0.16917464168529825,-0.712022602558136,-0.17544487118721008,true
-0.7269880851161511,-0.1691747214425308,-0.6658334136009216,-0.18004314601421356,true
-0.7269884483242987,-0.16917454147668232,-0.6971085071563721,-0.17781272530555725,true
-0.7269893582913611,-0.1691746211705549,-0.7008388042449951,-0.177183598279953,true
-0.7269880789759576,-0.16917472139611062,-0.7176207304000854,-0.17323559522628784,true
-0.7269883751244421,-0.16917451931349814,-0.6738119721412659,-0.17904940247535706,true
-0.7269892955148836,-0.1691746204825029,-0.6703787446022034,-0.1798836588859558,true
-0.7246871887634491,-0.17357742083146965,-0.7730276584625244,-0.16882413625717163,true
-0.7246875130939041,-0.17357722465021858,-0.7435872554779053,-0.17318196594715118,true
-0.7246888726100718,-0.17357737199617274,-0.7392659187316895,-0.173947274684906,true
-0.7246871903312602,-0.17357742084564637,-0.7262898683547974,-0.17743618786334991,true
-0.7246873184004675,-0.17357727199341574,-0.7762041687965393,-0.1721789687871933,true
-0.7246882829108166,-0.1735773468042881,-0.7369101643562317,-0.17817404866218567,true
-0.7246891149364114,-0.1735773506211353,-0.7831757664680481,-0.17629006505012512,true
-0.724679854005648,-0.17357678008362792,-0.8375702500343323,-0.17050349712371826,true
-0.7246876762701687,-0.17357731045645103,3.9159693717956543,-0.2091333270072937,true
-0.7246885924098585,-0.1735773339078089,-0.8429828882217407,-0.17002639174461365,true
-0.7246890009854143,-0.1735773643566204,-0.726341962814331,-0.17955124378204346,true
-0.7246871884806422,-0.17357742081767602,-0.7661296725273132,-0.1758737415075302,true
-0.7246875430612327,-0.17357723455472168,-0.8129553198814392,-0.1687064915895462,true
-0.7246884782190439,-0.17357731978424043,-0.7695361375808716,-0.17544634640216827,true
-0.7246870797780548,-0.17357742031246484,-0.7056939601898193,-0.17954055964946747,true
-0.7246847455167142,-0.17357724586136145,-0.735153317451477,-0.17715291678905487,true
-0.7246878200248683,-0.1735773995979127,-0.7300248742103577,-0.17848435044288635,true
-0.7246887162707609,-0.17357735730459964,-0.7389658093452454,-0.17806634306907654,true
-0.7246871906571442,-0.1735774208548399,-0.7376158237457275,-0.17513996362686157,true
-0.7246881094407556,-0.17357741042990743,-0.7464981079101562,-0.1746399700641632,true
-0.7246889662480845,-0.17357736779115146,-0.7345114946365356,-0.17582537233829498,true
-0.7246871895369077,-0.17357742083718605,-0.8044052124023438,-0.1732434183359146,true
-0.7246874228970148,-0.17357722021869154,-0.8111557364463806,-0.17258626222610474,true
-0.7246883747163514,-0.1735773250241132,-0.8070381879806519,-0.17303793132305145,true
-0.7246891930573908,-0.17357734283236634,-0.7079569101333618,-0.17997699975967407,true
-0.7246798539420669,-0.17357678017877445,-0.7509058713912964,-0.17593741416931152,true
-0.7246876761798362,-0.1735773105426871,-0.73018878698349,-0.17873674631118774,true
-0.7246885922581893,-0.17357733400309863,-0.7364771366119385,-0.17837809026241302,true
-0.724687190829692,-0.17357742080399552,-0.726715624332428,-0.1780824512243271,true
-0.7246876762060463,-0.17357731039259094,-0.6955418586730957,-0.181383416056633,true
-0.7246881497253661,-0.1735773958020751,-0.6821459531784058,-0.18251430988311768,true
-0.7246890008688207,-0.17357736430425827,-0.7156329154968262,-0.17415311932563782,true
-0.7246871894796416,-0.17357742090672287,-0.6984665393829346,-0.17699898779392242,true
-0.7246879180200418,-0.17357743285011043,-0.715226948261261,-0.17439880967140198,true
-0.7246888009305659,-0.17357736869440324,-0.7162179946899414,-0.17452353239059448,true
-0.9885818259022393,-0.158520845185363,-0.935249924659729,-0.1639401763677597,true
-0.9885842855562554,-0.1585209167142217,-0.9532989263534546,-0.16192278265953064,true
-0.9885851038552892,-0.15852086981334942,-0.9661789536476135,-0.16057094931602478,true
-1.0995091796028773,-0.18901167899051827,3.424198865890503,-0.20073692500591278,false
-1.099509733086636,-0.1890116641108937,3.4374306201934814,-0.20315289497375488,false
-1.0995107281897492,-0.18901165803892644,3.3977890014648438,-0.1979101151227951,false
-1.0995091350744677,-0.18901173534739593,3.354114294052124,-0.1954631358385086,false
-1.0995084834904885,-0.18901199701678995,3.3903963565826416,-0.19648799300193787,false
-1.099509964457225,-0.18901175089857,3.379643440246582,-0.19512173533439636,false
-1.0995090749770557,-0.18901173504573002,3.3547403812408447,-0.19856835901737213,false
-1.09950721138704,-0.18901172862234875,3.390244722366333,-0.19871294498443604,false
-1.0995108361587675,-0.1890116757436217,3.389051914215088,-0.19782601296901703,false
-1.0995091489263582,-0.18901173542683067,3.3703596591949463,-0.19673597812652588,false
-1.0995096054524942,-0.18901158702053475,3.388411283493042,-0.19785450398921967,false
-1.099510128862324,-0.18901172946498285,3.387972593307495,-0.19777652621269226,false
-1.099511071457747,-0.1890116833575365,3.343506097793579,-0.18870952725410461,false
-1.0995088121226382,-0.1890119686667045,3.322908878326416,-0.1801759898662567,false
-1.0995100395357795,-0.18901174873759732,3.3116366863250732,-0.17664100229740143,false
-1.0995090559272156,-0.1890117349630807,3.3721554279327393,-0.19364947080612183,false
-1.0995068610005798,-0.18901164929997022,3.38830304145813,-0.1924906224012375,false
-1.0995098421406453,-0.18901172083528398,3.3804922103881836,-0.19217845797538757,false
-1.0995108225127226,-0.18901167393689156,3.384385824203491,-0.19198749959468842,false
-1.0995091492331488,-0.18901173542944422,3.446887731552124,-0.21484673023223877,false
-1.0995090646495262,-0.18901180354841335,3.5039806365966797,-0.21757788956165314,false
-1.0995106453754546,-0.18901164420407762,3.5081613063812256,-0.21761074662208557,false
-1.099511096780057,-0.18901168132951288,3.4642019271850586,-0.2130335122346878,false
-1.099508569407106,-0.1890120011145336,3.5059735774993896,-0.2128983438014984,false
-1.0995099794530954,-0.18901175160794628,3.539395570755005,-0.2157672792673111,false
-1.0995109416897255,-0.18901168559513623,3.4936420917510986,-0.21004456281661987,false
-1.0995113704816832,-0.18901165514828996,3.454803943634033,-0.20631632208824158,false
-1.0995091622092348,-0.18901169791033115,3.4593403339385986,-0.20553745329380035,false
-1.0995102317232628,-0.18901169489434508,3.4204697608947754,-0.2006455957889557,false
-1.0995111600270744,-0.18901167489538842,3.3358044624328613,-0.19563458859920502,false
-1.0995090646813173,-0.1890118034751177,3.3952367305755615,-0.19739551842212677,false
-1.0995101582414644,-0.18901172024761775,3.3822426795959473,-0.1966310441493988,false
-1.0995110965814843,-0.1890116812262031,3.8142335414886475,-0.21777929365634918,false
-1.0114288453859372,-0.20166378470806087,3.6029112339019775,-0.23158913850784302,false
-1.0114299160858213,-0.20166381576432257,3.604766607284546,-0.2313006967306137,false
-1.0114277753145333,-0.20166416895057182,3.4949886798858643,-0.21340656280517578,false
-1.0114297373329766,-0.2016638037934502,3.508648633956909,-0.2150382548570633,false
-1.0114283151882806,-0.20166390476277604,3.575073003768921,-0.21926169097423553,false
-1.0114286205613827,-0.2016637011622306,3.6116862297058105,-0.2217535823583603,false
-1.011429722181144,-0.2016638045294141,3.6106841564178467,-0.22126734256744385,false
-1.0114306730085119,-0.2016638245451727,3.492690324783325,-0.21627800166606903,false
-1.01142816905459,-0.20166401787422522,3.5692765712738037,-0.2207338809967041,false
-1.0114298716154764,-0.2016638099011459,3.5346968173980713,-0.21673715114593506,false
-1.011428316848165,-0.20166390487858848,3.4195680618286133,-0.2122059017419815,false
-1.0114288110237657,-0.201663765625522,3.4817662239074707,-0.216618150472641,false
-1.0114281948667772,-0.20166390428510128,3.521937131881714,-0.22492054104804993,false
-1.0114284462124419,-0.20166375607535744,3.5766475200653076,-0.2289758324623108,false
-1.0114295690758484,-0.20166383086950634,3.5891942977905273,-0.22970059514045715,false
-1.0114305417664866,-0.2016638346862347,3.444432258605957,-0.21088212728500366,false
-1.0114283145779628,-0.2016639048866007,3.524409532546997,-0.21630620956420898,false
-1.0114292561584133,-0.20166391818534396,3.520205497741699,-0.21535806357860565,false
-1.0114302717933161,-0.2016638560130375,3.3840248584747314,-0.19963237643241882,false
-1.011428314738003,-0.20166390476259582,3.575392246246338,-0.22917847335338593,false
-1.0114286728135355,-0.20166370856507967,3.5925064086914062,-0.23043471574783325,false
-1.0114297671320682,-0.20166380311526844,3.6037049293518066,-0.23129865527153015,false
-1.0114283081577398,-0.20166390477952434,3.581411838531494,-0.22776494920253754,false
-1.0114286379398436,-0.20166370256474883,3.6529111862182617,-0.23196418583393097,false
-1.01143023023075,-0.2016638554851153,3.6935713291168213,-0.23553621768951416,false
-1.0114283136452897,-0.2016639048457616,3.6284878253936768,-0.23545612394809723,false
-1.0114287939388427,-0.20166375641663983,3.6604292392730713,-0.23927155137062073,false
-1.0114298713855616,-0.20166380979942733,3.6881580352783203,-0.2420123666524887,false
-1.1366325698800432,-0.18634144071404765,3.3778514862060547,-0.20724238455295563,false
-1.1366328245619561,-0.18634124368529503,3.424015998840332,-0.2109636515378952,false
-1.136633852049501,-0.18634134714517592,3.4032084941864014,-0.20868945121765137,false
-1.1366324532104013,-0.18634144015850418,3.3519723415374756,-0.20428311824798584,false
-1.1366327120705249,-0.18634130460187623,3.4277470111846924,-0.20955273509025574,false
-1.1366337526402748,-0.18634137113465427,3.4440038204193115,-0.21113187074661255,false
-1.1366325809335154,-0.1863414407748868,3.3771705627441406,-0.20244359970092773,false
-1.1366328567265644,-0.18634123808254785,3.3990890979766846,-0.20246285200119019,false
-1.1366333883508812,-0.1863414549183216,3.404470205307007,-0.20104101300239563,false
-1.1366343394278446,-0.18634138965389782,3.418349027633667,-0.20292232930660248,false
-1.1366314201924381,-0.18634160835563757,3.369403839111328,-0.1989244520664215,false
-1.136633837791991,-0.18634134959209828,3.3673627376556396,-0.19916945695877075,false
-1.1366347269957664,-0.18634136464915657,3.4627363681793213,-0.21785151958465576,false
-1.1366325167736142,-0.18634150900132054,3.475823402404785,-0.21786920726299286,false
-1.1366340736665235,-0.18634134965776086,3.4196908473968506,-0.21186496317386627,false
-1.1366345177150978,-0.18634138678495432,3.330768585205078,-0.18960118293762207,false
-1.1366321000786817,-0.18634170504900824,3.3566081523895264,-0.1882762759923935,false
-1.1366339218906674,-0.1863413398948987,3.3522789478302,-0.18697543442249298,false
-1.1366325064405065,-0.18634144040976944,3.365823984146118,-0.20063090324401855,false
-1.1366303480638054,-0.18634135467119967,3.416029930114746,-0.2012988030910492,false
-1.1366337810266074,-0.18634136276082072,3.3917739391326904,-0.19895420968532562,false
-1.1366346782752252,-0.18634136929142234,3.3943393230438232,-0.1992308795452118,false
-1.1366254237277515,-0.18634093542807212,3.4040822982788086,-0.1961084008216858,false
-1.1366336087213713,-0.18634142085342142,3.398202896118164,-0.19592177867889404,false
-1.1366345301113407,-0.18634138556024143,3.3504464626312256,-0.19971585273742676,false
-1.1366322670830187,-0.18634167401851914,3.4184937477111816,-0.20369359850883484,false
-1.1366334772471431,-0.18634145410096545,3.4280142784118652,-0.2045781910419464,false
-1.1366344163478044,-0.1863413919392587,3.3906755447387695,-0.2008589804172516,false
-1.1366325983535648,-0.18634144082884457,3.3919126987457275,-0.1967359185218811,false
-1.1366332828838237,-0.1863414262075117,3.391188383102417,-0.19660866260528564,false
-1.1366346780614216,-0.18634136930141576,3.5189456939697266,-0.1982743740081787,false
-0.9605826636694152,-0.19083028164001425,3.605759382247925,-0.20383873581886292,false
-0.9605837958964658,-0.19083014461803066,3.6012673377990723,-0.20315468311309814,false
-0.9605847468878486,-0.19083009520703628,3.4718079566955566,-0.19418881833553314,false
-0.9605830693977797,-0.19082994573880133,3.543116807937622,-0.19965551793575287,false
-0.9605841185941618,-0.19083005053914953,3.5761210918426514,-0.20293423533439636,false
-0.960585024079653,-0.19083006834674196,3.454054355621338,-0.1986236274242401,false
-0.9605828880387413,-0.19083005481833368,3.4669063091278076,-0.19636383652687073,false
-0.9605839586045735,-0.19083009070969742,3.358649730682373,-0.1837487518787384,false
-0.9605848870382184,-0.19083008174814892,3.485037088394165,-0.20224863290786743,false
-0.9605822391298098,-0.1908304121977945,3.552403450012207,-0.20485034584999084,false
-0.9605836602242988,-0.19083016268042055,3.5571916103363037,-0.20522578060626984,false
-0.9605846292070634,-0.19083009666122144,3.575796604156494,-0.20702210068702698,false
-0.9605828246365002,-0.1908301463594542,3.603590726852417,-0.204628124833107,false
-0.9605829542476779,-0.1908299975031751,3.6052517890930176,-0.20377959311008453,false
-0.9605840170709365,-0.19083007231000018,3.6043450832366943,-0.20313940942287445,false
-0.9605849370802231,-0.19083007612525013,3.446542501449585,-0.19341932237148285,false
-0.9605776578310752,-0.1908295764254381,3.4709630012512207,-0.19248853623867035,false
-0.9605834435447607,-0.1908300933175534,3.4750235080718994,-0.1929199993610382,false
-0.9605844413229083,-0.19083007374701608,3.4840359687805176,-0.19429485499858856,false
-0.9605848868810383,-0.19083008162317408,3.5017151832580566,-0.19353702664375305,false
-0.96058273822141,-0.19083021447002846,3.582108497619629,-0.20144708454608917,false
-0.9605838404758291,-0.19083013124809922,3.584031581878662,-0.2007526159286499,false
-0.9605847851892897,-0.1908300922306646,3.4799797534942627,-0.1979534775018692,false
-0.9605817870284684,-0.19083035090448777,3.428779125213623,-0.18950900435447693,false
-0.9605830528325499,-0.19082994923060123,3.4405977725982666,-0.19086578488349915,false
-0.9605841039735411,-0.19083005269262843,3.4385006427764893,-0.18977540731430054,false
-0.9605850113214797,-0.1908300692487775,3.6712543964385986,-0.21453526616096497,false
-0.9605828183116659,-0.19083012881869194,3.6672868728637695,-0.2116754949092865,false
-0.9605838995626753,-0.19083011115858103,3.66951322555542,-0.2122681736946106,false
-0.9605843862204546,-0.19083006419167567,3.6788406372070312,-0.21319462358951569,false
-0.9605828201218263,-0.19083014639066312,3.616307020187378,-0.20463961362838745,false
-0.9605831684021228,-0.19082995028273936,3.675220012664795,-0.21119533479213715,false
-0.960584204034491,-0.19083004481370158,3.680516481399536,-0.2114284783601761,false
-1.0868066131087988,-0.18555970487580797,3.4005160331726074,-0.19098685681819916,false
-1.086806887876919,-0.1855595022199609,3.436311721801758,-0.1917903572320938,false
-1.0868079059958953,-0.1855596074111735,3.4428811073303223,-0.19262850284576416,false
-1.0868087839626346,-0.18555962620555794,3.3870224952697754,-0.19781659543514252,false
-1.0868065906395035,-0.18555972920920175,3.36443829536438,-0.19171874225139618,false
-1.0868076507026063,-0.1855596800252991,3.401524066925049,-0.19503848254680634,false
-1.0868085651137993,-0.18555964853566131,3.4849438667297363,-0.2120768129825592,false
-1.0868059776499517,-0.1855599665176822,3.4257314205169678,-0.20322725176811218,false
-1.0868074318867764,-0.1855597204049372,3.4281020164489746,-0.2031126469373703,false
-1.0868087958333432,-0.18555962538011456,3.3716180324554443,-0.19565629959106445,false
-1.0867994369937777,-0.18555894536394532,3.403599262237549,-0.19585469365119934,false
-1.086807693773829,-0.1855596644713498,3.41435170173645,-0.19646333158016205,false
-1.0868086020904988,-0.18555964447714465,3.28590726852417,-0.1858287751674652,false
-1.0868066284341291,-0.1855597049258847,3.4278526306152344,-0.19727057218551636,false
-1.0868070324374104,-0.18555953189061045,3.440742254257202,-0.1978662759065628,false
-1.0868080305278252,-0.18555960558950493,3.3199350833892822,-0.18449485301971436,false
-1.0868066170958144,-0.1855597049004952,3.471005439758301,-0.20583051443099976,false
-1.0868069040771864,-0.18555950111411582,3.4500694274902344,-0.20215025544166565,false
-1.0868079199228746,-0.18555960583307451,3.4663946628570557,-0.20361094176769257,false
-1.086806538881343,-0.18555970453572182,3.3904497623443604,-0.2024041712284088,false
-1.0868043910596987,-0.1855596188841727,3.4820237159729004,-0.20893362164497375,false
-1.0868073120029609,-0.18555969041887138,3.4840266704559326,-0.2094108760356903,false
-1.086808271719396,-0.1855596435172298,3.48876953125,-0.2093915343284607,false
-1.0868086995603201,-0.18555963351466642,3.519089698791504,-0.2160155475139618,false
-1.086806728005319,-0.18555958232463832,3.571835994720459,-0.21806003153324127,false
-1.0868082323237198,-0.18555963699413835,3.5799129009246826,-0.21800720691680908,false
-1.0868065848112007,-0.18555970475851266,3.4714081287384033,-0.20390544831752777,false
-1.0868052586490815,-0.1855598253533363,3.4425048828125,-0.19779765605926514,false
-1.0868073570887598,-0.18555970667633104,3.4545364379882812,-0.19885693490505219,false
-1.086808310703376,-0.18555964888158769,3.466003179550171,-0.20031510293483734,false
-1.0868066311630096,-0.18555970494868693,3.3868184089660645,-0.19993166625499725,false
-1.0868072050900421,-0.18555963359272332,3.4036953449249268,-0.20085112750530243,false
-1.0868081791026865,-0.1855596275176034,3.411414861679077,-0.20020908117294312,false
-1.0897834757862652,-0.178628658593006,3.3537049293518066,-0.18636015057563782,false
-1.0897845062606677,-0.17862857539869037,3.3442394733428955,-0.18565477430820465,false
-1.0897853860915983,-0.17862853638874623,3.345909595489502,-0.1843043565750122,false
-1.08978354875399,-0.17862859045724108,3.397918939590454,-0.18652893602848053,false
-1.0897838943886358,-0.17862839881470363,3.3979506492614746,-0.18649989366531372,false
-1.0897852899954084,-0.17862854159633315,3.400850534439087,-0.18637150526046753,false
-1.0897835510454759,-0.17862859039756365,3.4293770790100098,-0.19234712421894073,false
-1.0897836011625648,-0.1786285158468552,3.415785074234009,-0.1892126202583313,false
-1.089784602888365,-0.17862853965198563,3.4185309410095215,-0.1893157809972763,false
-1.0897854690227757,-0.17862852710810073,3.4034106731414795,-0.19420191645622253,false
-1.089775977066442,-0.17862794960775547,3.486835241317749,-0.1987203061580658,false
-1.0897840468533828,-0.17862847996613834,3.485206127166748,-0.1983475685119629,false
-1.089784989538504,-0.17862850342910855,3.4582440853118896,-0.19528861343860626,false
-1.0897835152773196,-0.17862859025945413,3.354050636291504,-0.19001387059688568,false
-1.0897842669212217,-0.17862859624262623,3.362133264541626,-0.18781591951847076,false
-1.0897851793707158,-0.17862853582247318,3.349245071411133,-0.18659420311450958,false
-1.0897835507334517,-0.17862859044099438,3.3931212425231934,-0.18499386310577393,false
-1.0897839863223606,-0.17862844203882908,3.4085259437561035,-0.1852346807718277,false
-1.0897844786055866,-0.1786285844883347,3.409477949142456,-0.18446242809295654,false
-1.0897835447228656,-0.17862859040128531,3.420137643814087,-0.19856734573841095,false
-1.0897831339900648,-0.17862884811911806,3.4518661499023438,-0.19902721047401428,false
-1.0897843665530835,-0.17862860642419415,3.4350101947784424,-0.1967916041612625,false
-1.0897835227736068,-0.17862859026597766,3.533381223678589,-0.20982027053833008,false
-1.0897825831589278,-0.1786287949168254,3.487117290496826,-0.20111510157585144,false
-1.0897842813426981,-0.17862859952850124,3.493272066116333,-0.20122452080249786,false
-1.089785596302698,-0.1786285132541769,3.495126247406006,-0.19244647026062012,false
-1.0897780605387781,-0.1786279366804426,3.4165287017822266,-0.18640361726284027,false
-1.089784121276565,-0.17862852845930396,3.417757034301758,-0.18596088886260986,false
-1.089785468839216,-0.17862852719757852,3.421553373336792,-0.1861897110939026,false
-1.0897835487095193,-0.1786285903777554,3.5347416400909424,-0.21075458824634552,false
-1.0897839098554754,-0.17862840411513997,3.522329568862915,-0.20925715565681458,false
-1.089785302049016,-0.17862854133454953,3.547231435775757,-0.21157903969287872,false
-1.1405104485021416,-0.16215889037559972,3.4861819744110107,-0.19347324967384338,false
-1.1405113945835168,-0.16215878943409334,3.4757537841796875,-0.1918671727180481,false
-1.1405121967698406,-0.16215874679043688,3.327502489089966,-0.17284035682678223,false
-1.1405099580872655,-0.16215906143011546,3.3307313919067383,-0.1690913885831833,false
-1.1405112415103154,-0.16215881531183934,3.3431496620178223,-0.17024832963943481,false
-1.1405120645206055,-0.16215874943755612,3.3391635417938232,-0.16946618258953094,false
-1.1405038924320463,-0.16215803537742468,3.4333934783935547,-0.1884383261203766,false
-1.1405110165198957,-0.1621587091892628,3.4215779304504395,-0.18634803593158722,false
-1.1405118701301438,-0.16215871759850145,3.4053049087524414,-0.18467843532562256,false
-1.1405105162957847,-0.1621587998463382,3.3583943843841553,-0.17346887290477753,false
-1.14051079408264,-0.16215859637039523,3.3396685123443604,-0.16971038281917572,false
-1.1405116792971195,-0.16215869972128058,3.3534224033355713,-0.17124438285827637,false
-1.1405105254510193,-0.16215879991410095,3.5204269886016846,-0.197440505027771,false
-1.1405107097961906,-0.16215861370073406,3.5175833702087402,-0.1955355405807495,false
-1.1405116060198697,-0.16215871157886774,3.514810800552368,-0.194500133395195,false
-1.1405123777390025,-0.1621587248707824,3.2973735332489014,-0.17265942692756653,false
-1.1405103171310829,-0.16215899815489293,3.3264174461364746,-0.17175036668777466,false
-1.1405113311447959,-0.16215880847057101,3.323432207107544,-0.17108938097953796,false
-1.1405121419416897,-0.16215875051967718,3.2498929500579834,-0.16337043046951294,false
-1.1405105237548407,-0.16215879978975412,3.366521120071411,-0.16797657310962677,false
-1.1405109063037104,-0.16215863440507144,3.374281883239746,-0.16822549700737,false
-1.1405117755433654,-0.16215870166566557,3.3742058277130127,-0.16831232607364655,false
-1.1405104996978643,-0.16215879974229133,3.375358819961548,-0.1770729422569275,false
-1.1405107379035435,-0.1621586027144538,3.4019546508789062,-0.17611296474933624,false
-1.1405112025692499,-0.16215880900806312,3.4086806774139404,-0.17665249109268188,false
-1.1405120307690966,-0.16215874646590658,3.4224681854248047,-0.17815962433815002,false
-1.1405105264072202,-0.16215879985930667,3.358051061630249,-0.17573010921478271,false
-1.140511043579582,-0.16215872850801755,3.344127893447876,-0.17334192991256714,false
-1.1405118933978273,-0.16215872243646895,3.3581769466400146,-0.1742720603942871,false
-1.1405105218327227,-0.16215879985131634,3.480685234069824,-0.19367016851902008,false
-1.1405108363755194,-0.16215860366011706,3.4309351444244385,-0.1868094950914383,false
-1.140511715630838,-0.16215869821018283,3.434969902038574,-0.18675939738750458,false
-0.9617778106568162,-0.15740853720301318,3.5623559951782227,-0.17302268743515015,false
-0.9617779797598937,-0.1574083583469848,3.53564190864563,-0.16872897744178772,false
-0.9617788519208592,-0.15740845197198094,3.5251588821411133,-0.16719737648963928,false
-0.9617778111756627,-0.15740853719507866,3.5868752002716064,-0.18001946806907654,false
-0.9617777389423127,-0.157408627698963,3.573498487472534,-0.17788031697273254,false
-0.9617790630742384,-0.15740844394846903,3.5782244205474854,-0.1775258332490921,false
-0.9617796133572896,-0.15740846213737722,3.6304917335510254,-0.18984147906303406,false
-0.961777912120149,-0.15740841460909605,3.7241098880767822,-0.1968027651309967,false
-0.96177879188512,-0.15740847190223461,3.738090991973877,-0.19861143827438354,false
-0.9617778113385573,-0.1574085372728214,3.548186779022217,-0.17207051813602448,false
-1.1294199015451571,-0.16001424417275706,3.262063503265381,-0.16300538182258606,false
-1.1294201272179796,-0.16001408444402174,3.433281183242798,-0.17863547801971436,false
-1.1294210165256768,-0.1600141665293783,3.441107988357544,-0.1793818324804306,false
-1.129421783456442,-0.16001417306159696,3.419558525085449,-0.17778970301151276,false
-1.1294152163318534,-0.16001391538247473,3.4553091526031494,-0.18113993108272552,false
-1.1294204170917066,-0.1600141147222985,3.4439303874969482,-0.17958630621433258,false
-1.1294216464364237,-0.160014190479064,3.4608895778656006,-0.18117199838161469,false
-1.1294199847755761,-0.16001424458769628,3.517685890197754,-0.19037263095378876,false
-1.12942018225894,-0.16001405224011853,3.5491981506347656,-0.19249483942985535,false
-1.1294210650358723,-0.16001415340899564,3.5379433631896973,-0.19022420048713684,false
-1.129419985666904,-0.1600142445898981,3.3141660690307617,-0.16813907027244568,false
-1.1294200438881778,-0.1600141700387672,3.3695144653320312,-0.17129218578338623,false
-1.1294209430828916,-0.16001419384482624,3.379929304122925,-0.17256411910057068,false
-1.1294199851017992,-0.16001424463879202,3.3150224685668945,-0.16789036989212036,false
-1.129419865042452,-0.16001437987986228,3.3665003776550293,-0.1712421178817749,false
-1.1294212318672952,-0.1600141480004085,3.388213634490967,-0.17357978224754333,false
-1.1294199522165527,-0.16001424444387766,3.3111934661865234,-0.16323038935661316,false
-1.1294206418316364,-0.16001425030862523,3.361783504486084,-0.16587765514850616,false
-1.1294198531507917,-0.16001424392152824,3.398736000061035,-0.17320267856121063,false
-1.1294205638530839,-0.1600142161232086,3.4568746089935303,-0.1754908263683319,false
-1.1294199822821238,-0.16001424462017086,3.3838982582092285,-0.18146097660064697,false
-1.1294203070764885,-0.16001405300986907,3.4339346885681152,-0.18480545282363892,false
-1.129421172805098,-0.16001414319083404,3.4390451908111572,-0.1849595606327057,false
-1.129419964809819,-0.16001424449640725,3.5198817253112793,-0.19230715930461884,false
-1.129419242402001,-0.16001447651769007,3.541771650314331,-0.1914164125919342,false
-1.129420209906585,-0.1600140439363563,3.5446879863739014,-0.19199097156524658,false
-1.129421089122429,-0.16001414874743164,3.533865451812744,-0.19100892543792725,false
-1.129421845182209,-0.16001416655892026,3.3395607471466064,-0.16681833565235138,false
-1.1294200144898596,-0.1600142072121611,3.386408567428589,-0.16694802045822144,false
-1.129420484369933,-0.16001416376396,3.3746111392974854,-0.1657988280057907,false
-1.1294213248225322,-0.16001416483336536,3.374908924102783,-0.16590146720409393,false
-0.9885835807079586,-0.1585209307078039,3.4701404571533203,-0.1619492471218109,false
-0.9885838134987917,-0.1585207823642919,3.5493640899658203,-0.16816404461860657,false
-0.9885846961076064,-0.1585208571815686,3.5433473587036133,-0.16726469993591309,false
-0.9885854576671622,-0.15852086099687024,3.482107400894165,-0.17440390586853027,false
-0.9885836830055104,-0.15852093122349806,3.5147206783294678,-0.175185427069664,false
-0.9885840873081099,-0.15852078280627982,3.543001890182495,-0.17761562764644623,false
-0.9885853110022187,-0.1585208791542294,3.507253646850586,-0.17361408472061157,false
-0.9885836844178425,-0.1585209313051536,3.7534685134887695,-0.20095831155776978,false
-0.9885839227260275,-0.15852072850694363,3.7662503719329834,-0.20078381896018982,false
-0.9885847920251485,-0.15852083370497644,3.751401424407959,-0.19901058077812195,false
-0.9885855392906524,-0.1585208525017387,3.4773757457733154,-0.1641874611377716,false
-0.9885795529337356,-0.1585203613427374,3.544282913208008,-0.16854307055473328,false
-0.9885837586292352,-0.15852083960307498,3.563589096069336,-0.17095337808132172,false
-0.9885846476137904,-0.15852087550076782,3.5472145080566406,-0.1689179390668869,false
-0.988583664978214,-0.15852093115163884,3.6123130321502686,-0.1905030608177185,false
-0.9885829498338512,-0.15852116317834694,3.6455724239349365,-0.19089825451374054,false
-0.9885843624305863,-0.15852094315809495,3.660459280014038,-0.19179828464984894,false
-0.9885851703636208,-0.15852087900597112,3.614020824432373,-0.19239777326583862,false
-0.9885825348157842,-0.15852105150266246,3.6616456508636475,-0.19389595091342926,false
-0.988584324173091,-0.15852093280966667,3.7007362842559814,-0.19726552069187164,false
-0.9885851372766291,-0.15852087501248327,3.6542718410491943,-0.1923438012599945,false
-0.9885836833926233,-0.158520931218461,3.5327329635620117,-0.17010420560836792,false
-0.9885840464711414,-0.1585207581861819,3.539663791656494,-0.17011822760105133,false
-0.9885848982572336,-0.15852083188885124,3.5422773361206055,-0.1703154593706131,false
-0.9885836797916125,-0.1585209312115422,3.500337600708008,-0.16331996023654938,false
-0.9885839778380902,-0.15852073147867993,3.5890228748321533,-0.17001008987426758,false
-0.9885848394831869,-0.15852082971449047,3.593057155609131,-0.17004364728927612,false
-0.9885836020551038,-0.1585209308271527,1.3367005586624146,-0.16202615201473236,false
-0.988583685670128,-0.1585209312942351,3.576814889907837,-0.17119398713111877,false
-0.9885836318413352,-0.15852099942528558,3.611243963241577,-0.17399847507476807,false
-0.9885845496206077,-0.1585209162156897,3.6242589950561523,-0.17508985102176666,false
-0.9885849562659098,-0.15852084007722156,3.621417760848999,-0.1747460663318634,false
-1.0028683597444517,-0.1662331201846057,3.4708147048950195,-0.1670987606048584,false
-1.0028686187025901,-0.1662329174011122,3.5141446590423584,-0.1704641729593277,false
-1.002869092389251,-0.1662331342705849,3.4742562770843506,-0.16435840725898743,false
-1.0028699368977758,-0.16623306900966184,3.512646436691284,-0.17139464616775513,false
-1.0028667054823002,-0.1662331135081255,3.486762762069702,-0.1715209186077118,false
-1.0028685326596705,-0.1662329500695983,3.5099761486053467,-0.17384767532348633,false
-1.0028694539214975,-0.16623303843353976,3.4810028076171875,-0.1711217164993286,false
-1.0028698674959031,-0.16623306062033755,3.5032858848571777,-0.17292718589305878,false
-1.0028634112060897,-0.16623279112376493,3.4777462482452393,-0.17219844460487366,false
-1.0028688191226616,-0.16623299045984152,3.484023094177246,-0.17272232472896576,false
-1.002870094773625,-0.16623306621355985,3.4802043437957764,-0.17251694202423096,false
-1.002868376194893,-0.16623312029877005,3.548524856567383,-0.17572064697742462,false
-1.0028684754824047,-0.16623299775439748,3.553712844848633,-0.17624814808368683,false
-1.0028694031846035,-0.16623305503577462,3.5520598888397217,-0.17625266313552856,false
-1.002869820471792,-0.16623305241452174,3.50437331199646,-0.1778162121772766,false
-1.0028685041014045,-0.16623297130172784,3.480651378631592,-0.17621532082557678,false
-1.002869844046827,-0.16623305662533233,3.488926410675049,-0.17624855041503906,false
-1.0028683765924127,-0.16623312024131334,3.606086015701294,-0.18424999713897705,false
-1.0028615479169556,-0.16623235575298168,3.6034412384033203,-0.18156476318836212,false
-1.002868875195853,-0.16623302956952765,3.6107397079467773,-0.1827283799648285,false
-1.0028697493637748,-0.1662330379736565,3.595672369003296,-0.1807449460029602,false
-1.0028683718981641,-0.1662331202432327,3.6507375240325928,-0.202877938747406,false
-1.0028686907716575,-0.166232924051365,3.665754556655884,-0.20052918791770935,false
-1.0028695912503507,-0.16623301859933587,3.7370545864105225,-0.20809940993785858,false
-1.0028703644284576,-0.16623303860752686,3.4724395275115967,-0.17674075067043304,false
-1.0028615478845981,-0.16623235581936277,3.507148027420044,-0.17684637010097504,false
-1.0028683856126308,-0.1662331026720337,3.512775421142578,-0.177087664604187,false
-1.0028697492683425,-0.16623303802975573,3.52177095413208,-0.1780577003955841,false
-1.0028683758927506,-0.16623312028694612,3.513634204864502,-0.1797395646572113,false
-1.0028682473180386,-0.16623325553182108,3.5272204875946045,-0.17908406257629395,false
-1.002869236419572,-0.16623311851371822,3.5246543884277344,-0.17886567115783691,false
-1.0028683422485825,-0.1662331201075918,3.5127720832824707,-0.1749916672706604,false
-1.0028685754879625,-0.16623292799752457,3.5394399166107178,-0.17600108683109283,false
-1.0028699021790795,-0.16623306561561738,3.5402355194091797,-0.17504410445690155,false
-1.1437255926471175,-0.16002152215345178,3.42970871925354,-0.1817677915096283,false
-1.143725996969331,-0.1600213737052313,3.3935084342956543,-0.1761593073606491,false
-1.1437268506326903,-0.160021427096146,3.284991502761841,-0.15928147733211517,false
-1.1437255913271334,-0.16002152212151027,3.346850633621216,-0.16982726752758026,false
-1.1437258726539001,-0.16002131992146795,3.362952947616577,-0.1709367334842682,false
-1.1437271340482973,-0.16002147284379467,3.3711183071136475,-0.1708834171295166,false
-1.1437255915604903,-0.16002152220201227,3.398566722869873,-0.16833162307739258,false
-1.1437262872975573,-0.16002153625043916,3.4004900455474854,-0.1683616042137146,false
-1.1437271009069068,-0.1600214709849537,3.4152870178222656,-0.1688365489244461,false
-1.143725591623707,-0.1600215221939317,3.5344014167785645,-0.19421268999576569,false
-1.1437259556495636,-0.16002134924601982,3.5154242515563965,-0.19003340601921082,false
-1.1437268152212088,-0.16002142292136712,3.52843976020813,-0.19077132642269135,false
-1.143725589484358,-0.16002152215410098,3.393465518951416,-0.18863357603549957,false
-1.143725914172217,-0.16002133057029228,3.5428993701934814,-0.19575436413288116,false
-1.1437267797357609,-0.16002142074758635,3.5532007217407227,-0.19622370600700378,false
-1.143727522849958,-0.16002144029311074,3.3398282527923584,-0.17474742233753204,false
-1.143721995802976,-0.1600210484944375,3.249739646911621,-0.16072796285152435,false
-1.1437261446981335,-0.16002147776761225,3.3674964904785156,-0.17220601439476013,false
-1.1437269776049903,-0.16002145192982417,3.3555123805999756,-0.17033438384532928,false
-1.1437190610901506,-0.16002075763629114,3.3152565956115723,-0.16323769092559814,false
-1.1437260781846523,-0.16002143144150927,3.311753749847412,-0.16323034465312958,false
-1.1437269203144818,-0.16002143985394182,3.3061299324035645,-0.16238637268543243,false
-1.1437255829707436,-0.16002152211430543,3.4111666679382324,-0.18491217494010925,false
-1.1437258587608,-0.16002131854923268,3.4610800743103027,-0.18860410153865814,false
-1.143726732164612,-0.16002142191658061,3.4614431858062744,-0.18790844082832336,false
-1.1437255851487504,-0.16002152207810652,3.3536059856414795,-0.16788707673549652,false
-1.1437258726036987,-0.16002131985077497,3.358344078063965,-0.1654198169708252,false
-1.14372674409774,-0.16002142104224135,3.3681726455688477,-0.1646982878446579,false
-1.1437274926576564,-0.16002144129414797,3.32291841506958,-0.17018620669841766,false
-1.1437201445952818,-0.16002080198842158,3.3447177410125732,-0.1692197322845459,false
-1.1437265378217323,-0.16002147650428625,3.346135139465332,-0.1690041720867157,false
-1.1437273168589028,-0.1600214602743325,3.4245834350585938,-0.18395842611789703,false
-1.1249343456274798,-0.20943951023931956,-1.013691259692371,-0.0025226543725200834,false
-1.1274600885327717,-0.20691376733402778,-1.0136912596923713,3.088532771755581e-06,false
-0.9902487214054626,-0.15707963267948966,-0.987949905320172,0.012942500232844933,false
-0.9886425183242076,-0.15707963267948966,-0.987949905320172,0.012965581219371636,false
-0.9886422478326851,-0.15710108146141527,-0.987949905320172,0.012946064668724255,false
-0.9905463262212897,-0.15913460496774579,-0.987949905320172,0.011201791546072148,false
-1.0163310260296148,-0.15707963267948966,-0.9891063331978048,0.012830501479513534,false
-1.0108765240314228,-0.1588455638076892,-1.0079479508816043,0.014335160343451059,false
-1.0097535408216625,-0.15886064130051258,-1.0079479508816043,0.01433516034345117,false
-1.0091823103795001,-0.15886956622601103,-1.007947950881604,0.014335160343490694,false
-1.0096808206744186,-0.15951324814030557,-1.0079479508816043,0.013782889169069307,false
-1.0471689030412794,-0.15707963267948966,-1.0201103186690146,0.01734406230554497,false
-0.9802398324646135,-0.19781537121005566,-0.9666323552724014,-0.024024905982156508,false
-0.9818071762349183,-0.19732646671997145,-0.9695089078502068,-0.02320460166473723,false
-0.9811648710135007,-0.19317686502637177,-0.9776788795939376,-0.0185419263931913,false
-0.9960424005868116,-0.1945161449919903,-0.9921458830440384,-0.017613172550782874,false
-0.9954469523365368,-0.20484699073290535,-0.9740171180506842,-0.024815643552947186,false
-0.9743753673205104,-0.15707963267948966,-0.9355737833961171,0.09182579656367876,false
-0.9743753673205104,-0.15707963267948966,-0.9480130585837458,0.0937805375815192,false
-0.9740175909664078,-0.15743740903359227,-0.9480130585837458,0.09544497272120495,false
-0.9740685120015592,-0.15707963267948932,-0.9480130585837458,0.09580274907530789,false
-0.9735936653262453,-0.1570796326794891,-0.9332152755328242,0.09661075461265745,false
-0.9707446173104888,-0.15707963267948932,-0.927516458283567,0.11451535814546228,false
-0.9788102762269555,-0.2047724233180378,-1.0602947923809347,-0.01496270716405862,false
-0.979337904397292,-0.2017916239031285,-1.0609200521365614,-0.011884276163859009,false
-0.9775037907388884,-0.20943951023931956,-1.0622789190360227,-0.016339181942185282,false
-0.9858550823203992,-0.15707963267948966,-1.0721755220359994,0.03756600703611046,false
-0.9866705525831626,-0.15707963267948966,-1.073857333021014,0.03782861449028943,false
-1.038701677266576,-0.174964429168945,-1.1312463232661734,0.02590541683065234,false
-1.0681218220519095,-0.174964429168945,-1.1696088662962347,0.03484781507538015,false
-1.068093372046371,-0.15707963267948966,-1.1696088662962336,0.052732611564835496,false
-1.037852114554534,-0.15707963267948932,-1.1696088662962347,0.05273261156483583,false
-0.9640863804810618,-0.2047724233180378,-1.1593685162268168,0.0988349124277173,false
-0.9654263673205103,-0.15707963267948977,-0.916916712348927,0.14802151371591205,false
-0.9650600616756522,-0.15707963267948966,-0.9161828708575337,0.15033312793351783,false
-0.9650600221859467,-0.15707963267948932,-0.9280734162581187,0.15220338742813164,false
-0.9633312895965012,-0.15917471040349887,-0.9280734162581187,0.1595084160962595,false
-0.9633409582177646,-0.15910926550079785,-0.9280734162581187,0.15957386099896054,false
-0.9654263673205103,-0.15707963267948932,-1.0079479508816043,0.17727033780716445,false
-0.9638073342249573,-0.15707963267948966,-0.8484969790655409,0.16473686261764808,false
-0.9638539403873455,-0.15707963267948966,-0.8484969790655409,0.16473686261764806,false
-0.9612819032827709,-0.15707963267948932,-0.6901326132850034,0.13966991223861525,false
-0.9875862483405696,-0.15707963267948966,-1.1156038798231835,0.03292206880312426,false
-0.9956641155104675,-0.1570796328970855,-1.1250590116068313,0.034299333199278303,false
-0.9989829542553496,-0.20149327851608836,-1.1379029806185679,-0.0005891821528700159,false
-0.9913253979515118,-0.20471264836191652,-1.1326260913115305,-0.0014278850018978329,false
-0.9368759105522217,-0.19243904247739896,-1.4060461167207043,0.3387152336910837,false
-0.9373707923539708,-0.18981476501418648,-1.4066302818072207,0.3414287944390635,false
-0.9374435113658044,-0.1894261373471503,-1.4067161202997434,0.3418305415867886,false
-0.9599824461991746,-0.16005555380082548,-1.433318635018798,0.37526470501879805,false
-0.9629583673205108,-0.15707963267948932,-1.4368305907187473,0.37877666071874694,false
-0.9670099536790234,-0.15707963267948966,-1.4416234458185717,0.3795082962701726,false
-0.9619583673205105,-0.15707963267948966,0.13644567223454332,0.0027876673205103897,false
-0.9617178370204741,-0.1573201629795261,0.1449183987118731,0.002547137020473933,false
-0.987586015395516,-0.15707963267948966,-1.1251239572775504,0.03440182920254481,false
-0.9876800172367144,-0.15707963267948966,-1.1252326060279996,0.034416476111795574,false
-0.9668895525262042,-0.1584893575533745,-1.4523577216627932,0.3809223315832144,false
-0.9615333673205104,-0.15707963267948954,0.5815265390937486,-0.06565349267948939,false
-0.9875956505782926,-0.15707963267948966,-1.129883866801539,0.035136643543756674,false
-0.9896339344723197,-0.15707963267948963,-1.1322727217673014,0.03548721461549195,false
-0.9899372068055079,-0.15707963267948966,-1.1326318961287816,0.03554311664378404,false
-0.9902622118779002,-0.15707963267948966,-1.1330007266512265,0.035586942093836754,false
-0.9909380867175206,-0.15707963463510877,-1.1338065416208905,0.03571688026826117,false
-1.0264385321781162,-0.15707963267948966,-1.1753597387354162,0.04176963387781027,false
-1.0283356187266726,-0.15707963267948932,-1.1904624710176188,0.054975279611456845,false
-1.0002058056808993,-0.20467317876431834,-1.2866738837717575,0.11744180884779498,false
-0.9536586292010396,-0.19872398550371473,-1.4396831652380413,0.3372286105332871,false
-0.955509331713832,-0.19872398550371473,-1.441867216707676,0.33756195949012924,false
-0.9866168467923572,-0.1630572565116534,-1.1322321978465661,0.03047836454255559,false
-0.996772833565223,-0.1600095106808057,-1.143537197407978,0.034675123161949435,false
-0.9847152327003902,-0.1741766391012314,-1.1321573249634787,0.021185723161856934,false
-0.9842197105016702,-0.17695220953962063,-1.1321416221202218,0.01888997207893109,false
-0.9845689975252645,-0.1746589006873876,-1.1325552379586072,0.021247609745955187,false
-1.0534532312306693,-0.18051865669002037,-1.221214219955192,0.02914461675297564,false
-1.012593168491134,-0.18051865669002035,-1.221214219955192,0.07602266477403785,false
-1.0126973431810178,-0.18051865669002035,-1.2213374545625404,0.07604172469150228,false
-0.9692791493240018,-0.18051865669002054,-1.2254303275037917,0.12355279148976922,false
-0.9697493887296674,-0.18051865669002054,-1.2259866024356543,0.12363882701596629,false
-0.9792329095984811,-0.20284792381761593,-1.1330977535763163,-0.002066669839780766,false
-0.9785290110240845,-0.20466769035200955,-1.1349996170505459,-0.0012806743255482367,false
-0.9791331592381411,-0.20466769034953636,-1.1357149981548378,-0.001169453305406909,false
-0.979133334875087,-0.20466769035200955,-1.2097481638109033,0.010320655476922624,false
-0.9615333673205104,-0.15707963267948966,0.8192528806028521,-0.10337599999999958,false
-0.9614874818841562,-0.15712551811584388,0.820605877506606,-0.10337599999999969,false
-0.9615333673205104,-0.15707963267948954,0.9389579362561208,-0.12223729999999988,false
-0.9612819355388715,-0.15707963267948943,0.949594760351259,-0.12223729999999988,false
-0.9598681956080187,-0.15707963267948932,1.009534483562141,-0.12223729999999988,false
-0.9871388262621817,-0.1598692921491439,-1.1501937125380195,0.0359507641266939,false
-0.9871306410882125,-0.1598955648646578,-1.1502151271385543,0.03595409118568402,false
-0.987501576994174,-0.1598955648646578,-1.1506542937456092,0.03602232188677748,false
-0.986991696023944,-0.16077376842961738,-1.1501873364621555,0.03518704200859418,false
-0.9870972425990656,-0.1600110369244636,-1.1503122974878677,0.035969187964338456,false
-0.9839667337506847,-0.17835469657815164,-1.1500765691808426,0.020520308852006286,false
-0.9840504340165436,-0.1778092552535208,-1.1501756654429625,0.02108114617289819,false
-0.9858256832531799,-0.1658738454144123,-1.1522774576162218,0.033343098948629635,false
-0.9998403809412011,-0.15707963267968725,-1.1688689833980972,0.04471413977720887,false
-1.0414006930918396,-0.15707963267948966,-1.2180536281454826,0.0523384723741534,false
-0.9094342,-0.20943951023931925,-0.8138443133883455,0.3929973315802128,false
-0.9094342,-0.20943951023931925,-0.8088122411129423,0.3922048848313882,false
-0.9094342,-0.20923519921139083,-0.8088122411129423,0.392722415753176,false
-0.9094342,-0.20927180731015643,-0.769192105652123,0.3863631795304458,false
-0.909123412471442,-0.20943951023931956,-0.769192105652123,0.38811343922717884,false
-0.9091694882716143,-0.20094679584279673,-0.8484969790655409,0.4216731040027345,false
-0.909280753301398,-0.20042088214014267,-0.8484969790655409,0.422199017705388,false
-0.9093863636001545,-0.1978134270454177,-0.8110354393394994,0.4220243225517971,false
-0.8884941358740821,-0.19468005824803852,-0.7659194472565887,0.577823298699757,false
-0.9879803651656396,-0.1596577329021816,-1.1530231435281366,0.036709335460315434,false
-0.9923546027511937,-0.1585161363275831,-1.1582016132594906,0.0386551641807138,false
-1.0192082604012818,-0.15707963267948966,-1.188915608527089,0.04395200544631769,false
-1.034826549235317,-0.15707963267948966,-1.2071957410834455,0.04661384916863884,false
-1.0348754765777144,-0.15707963267948966,-1.2072536411181094,0.04662282186090533,false
-1.0464214423566895,-0.15707963267948966,-1.220768719834787,0.04859193479860768,false
-1.0463073090476473,-0.15707963267948963,-1.2623904639788108,0.09032773842769085,false
-1.0566623699265099,-0.15707963267948966,-1.2746343247350667,0.09221661212906715,false
-0.975430000931017,-0.15707963267948966,-1.2323387027018275,0.13115335909132098,false
-0.9755796069449134,-0.15707963267948966,-1.2325156726362017,0.13118072301179867,false
-0.9778295629649917,-0.20943951023931956,0.4446527170206792,-0.2588137629649902,false
-0.9778915724169392,-0.20943951023931956,0.44503094477934724,-0.2588757724169392,false
-0.9775011829843243,-0.20943951023931956,0.4554843815869711,-0.2584853829843243,false
-0.9828160070731347,-0.207213533437555,0.5030559948460201,-0.2645346626232891,false
-0.9776061072366591,-0.20943951023931956,0.5619743717990545,-0.2761607458171908,false
-0.9776247433425959,-0.20933779472363728,0.5619743717990545,-0.2760590303015085,false
-0.9780106496972575,-0.207213533437555,0.5619743717990545,-0.2739347690154264,false
-0.9817134984189303,-0.16021300147686846,1.734170272014829,-0.3836026769236946,false
-0.9946681464291458,-0.15707963267948943,1.7551996534452645,-0.3836026769236949,false
-0.9871770826640474,-0.15963016945039826,-1.1541313919521523,0.0367629298377066,false
-0.9870916038053601,-0.15992484019202685,-1.1543790639460012,0.036801409948614194,false
-0.984176144114215,-0.17719884243469436,-1.154018173104234,0.022081976555324706,false
-0.9838515119954453,-0.1789895363386329,-1.1540096654810736,0.020607407146995355,false
-0.9837525609135773,-0.17953037955607362,-1.1540075756572636,0.020163425187612605,false
-0.9898275146902542,-0.18054034597106358,-1.1612969731235352,0.02036790246221749,false
-1.1874077297344616,-0.15707963267948966,-1.3947938529550579,0.07974528054110652,false
-0.9184903673205105,-0.15707963267948966,-0.8223765492864346,0.454850545221841,false
-0.9184403345663738,-0.15712966543362636,-0.8222818833968418,0.45508467933442937,false
-0.918449080343213,-0.15707963267948966,-0.8222904174170801,0.4551360602842289,false
-0.9867760982829752,-0.16208941978765665,-1.158136114013484,0.03531579594285225,false
-0.9867779732197198,-0.16207811091567262,-1.1581383338385691,0.03532744970317658,false
-0.9896193892895812,-0.1599503338396987,-1.1637253732201418,0.03826124996818925,false
-0.9895955732244686,-0.16009766756242064,-1.163725373220142,0.03817593655797666,false
-1.0084985207157036,-0.15707963267948966,-1.1826221391236045,0.04308918572841122,false
-1.0231847537930103,-0.15707963267948966,-1.1998198481780202,0.045600661705520185,false
-1.0246638291890056,-0.15707963267948966,-1.201539983161809,0.04584172129331385,false
-1.0385772904424158,-0.15707963267948966,-1.217831483276872,0.04821976015496646,false
-1.0392239923276652,-0.15707963267948966,-1.218590683231975,0.048332258224820235,false
-1.0408226716140379,-0.15707963267948966,-1.2204792665903406,0.04859963389046873,false
-0.9146673673205103,-0.15707963267948966,-0.8130280217962985,0.4812118496581179,false
-0.914577198392898,-0.15707963267948966,-0.812837351619703,0.48184299393437996,false
-0.9145769524060288,-0.15707963267948932,-0.8088122411129423,0.48120711115293735,false
-0.9146673673205103,-0.15707963267948966,-0.8484969790655409,0.4868134794148019,false
-0.9140412871680899,-0.15770571283191015,-0.769192105652123,0.4774476622031375,false
-0.9851592712069647,-0.17362513587287765,-1.1641725480135046,0.026618970933662278,false
-0.969887505191397,-0.18054240235635477,-1.258392904756088,0.12919382720833628,false
-1.0666807080340948,-0.18054240235635477,-1.3727831848564354,0.14679090446598553,false
-0.9728296293266325,-0.15707963267948966,-1.3727831848564354,0.2641047528503129,false
-0.9690284612109309,-0.15707963267948966,-1.3727831848564354,0.2641047528503129,false
-0.9407107904214503,-0.18054240235635488,-1.445655150296868,0.3456327875190626,false
-0.9442170569464419,-0.1597767360628631,-1.4497924935722466,0.36702953056294174,false
-0.9539101143611675,-0.15707963267948932,-1.4612275247725854,0.3714686077319289,false
-0.977038267634092,-0.15707963267948932,-1.4885071055713188,0.3756200352577377,false
-1.1268472084185608,-0.15707963267948932,-1.6824095844719635,0.4048813709115061,false
-0.8852433,-0.20943951023931956,-0.7638657303428812,0.562077729582703,false
-0.8852433,-0.20943951023931956,-0.769192105652123,0.5629211931998306,false
-1.0674329634296138,-0.16437159007822802,-1.2602651468592276,0.04825397335138579,false
-1.0681809980855055,-0.16786533852026952,-1.261761216171011,0.045508259565235964,false
-1.0713844656368332,-0.1713678985583567,-1.2668755749656333,0.04391659077044344,false
-1.0938778115285976,-0.15707963267948932,-1.2899501091257122,0.05878604491762518,false
-1.107154384974009,-0.15707963267948966,-1.3055026091806525,0.06106197152715376,false
-1.1236825531821677,-0.15707963267948966,-1.3248517620290658,0.06388295616740858,false
-1.1368230357384137,-0.15707963267948966,-1.3402360629630972,0.06612677454519386,false
-1.1392309208999045,-0.15707963267948966,-1.343043912842575,0.0665267392631809,false
-1.14023121906033,-0.15707963267948966,-1.3442258041536599,0.06670833241384022,false
-1.1562264996452778,-0.15707963267948966,-1.3636245609128337,0.07011180858806643,false
-0.9127323673205106,-0.15707963267948966,-0.8096687266201096,0.49491762002154355,false
-0.9127323673205106,-0.15707963267948966,-0.8484969790655409,0.5010474015700006,false
-0.9123887793790574,-0.15742322062094283,-0.769192105652123,0.49026362960362124,false
-0.9123892645350503,-0.1574227354649499,-0.6901326132850034,0.47773063957009765,false
-0.9123970168699433,-0.15737902308656662,-0.6901326132850034,0.47777435194848095,false
-0.8859534307415743,-0.16961310786900563,-0.769192105652123,0.6660758701983045,false
-0.8859881874411782,-0.16961310786900563,-0.769192105652123,0.6660758701983045,false
-1.0857619819676887,-0.15707963267948966,-1.2869416700918141,0.058408155444635845,false
-1.092685063314198,-0.15707963267948966,-1.2950414626394446,0.05958486664575688,false
-1.093177965739442,-0.15707965607964283,-1.2956241351580375,0.05967461333895269,false
-1.1067780087867742,-0.15707963267948966,-1.3115455597960288,0.06199601832976506,false
-1.1071509620124542,-0.18384068437722992,-1.3255755149544548,0.04889195267616822,false
-1.1174753113393339,-0.1838406843772299,-1.337774013656329,0.050766117939765265,false
-0.8836179,-0.20943951023931956,-0.7596262926816103,0.5739948669720627,false
-1.0677460316132594,-0.15707963267948966,-1.2677031757192605,0.05562474142651136,false
-1.0742609894709465,-0.1570796765995978,-1.2753297443226177,0.05673630825207335,false
-1.0892972402220047,-0.20167871807289162,-1.3062869684520537,0.02805824015715741,false
-1.104570127117475,-0.20167886528343615,-1.3243364714616404,0.03083470906072916,false
-1.104570127117475,-0.20167871807289162,-1.325614843173145,0.03103151251671754,false
-1.1043193363513333,-0.20167871807289162,-1.325614843173145,0.03103151251671754,false
-1.104089041850221,-0.20167871807289162,-1.325614843173145,0.03103151251671754,false
-1.1038858375777418,-0.20167871807289162,-1.325614843173145,0.03103151251671754,false
-1.1220309466948146,-0.15707963267948932,-1.344967219643984,0.07860387026968002,false
-1.138433908623221,-0.15707963267948968,-1.3643444873049322,0.08157714262923968,false
-0.8836179,-0.20943951023931956,1.6468621203556466,0.193770189760681,false
-1.0686526198789288,-0.1599102979289516,-1.2725753097578576,0.053934921949977205,false
-1.0688105751459878,-0.16060205537256306,-1.2728912202919753,0.053401119773424405,false
-1.0775157237353779,-0.16060976836381693,-1.2830772232141368,0.05487426111494201,false
-1.080257364803492,-0.20805905293437693,-1.2957847996069842,0.017390911869115122,false
-1.2,-0.16573306189042958,-1.5343652471451437,0.1769368872072582,false
-1.1974773490976878,-0.15707963267948932,-1.5343652471451437,0.18559031641819845,false
-0.9786164679100215,-0.20540544509230022,0.6603994663439181,-0.2896016130023218,false
-0.9784428203133481,-0.20592575370303856,0.6625814991450634,-0.2899482740163867,false
-0.9776055253023432,-0.20943951023931956,0.6654170428123181,-0.29262473554166285,false
-0.9833419562245294,-0.18176682835907876,0.6596891995846268,-0.27068848458360817,false
-0.984035599920267,-0.17797364249464703,0.6598654856218379,-0.26758990930547694,false
-0.984113584490009,-0.17754102610897804,0.6598845538150148,-0.26723431059898706,false
-0.9564643373131327,-0.15707963267948966,2.0,-0.2191236699926225,false
-0.9778216104898367,-0.20943951023931956,0.7098922968330419,-0.30107362072915644,false
-0.9777472491417174,-0.20943951023931956,0.7196087048618146,-0.30213508819183804,false
-0.9780108623947696,-0.207213533437555,0.7198305891226278,-0.2990368958323246,false
-0.9779915127859338,-0.207298818494842,0.7202464936066733,-0.29910283128077586,false
-0.9781766863200145,-0.20629416892707966,0.720876565387161,-0.29828335524709415,false
-0.9778218569613274,-0.20943951023931956,0.7394307437607297,-0.30575776720064685,false
-0.9780005137173629,-0.20860248121385183,0.7395077330223216,-0.3050993949312141,false
-0.9781516992970608,-0.207893460222101,0.7395524381892568,-0.3045415595191612,false
-0.9803770224018342,-0.1971341533801396,0.740252071656186,-0.2960075757819738,false
-0.980819485235853,-0.19492090928332545,0.7404001581147934,-0.29423679451917845,false
-0.974684422371895,-0.207213533437555,1.118164895379864,-0.3366021449630084,false
