-0.042278414213947735,-0.06109169071624887,-0.005449284315109253,-0.21080099046230316,true
-0.042278414213947735,-0.06109169071624887,-0.06993130803108215,-0.2704388201236725,true
-0.04227841421394751,-0.06109169071624887,-0.08795721411705017,-0.06951972097158432,true
-0.04227841421394907,-0.06109169071624887,-0.05373357772827148,0.14602002501487732,true
-0.0422784142139484,-0.06109169071624887,-0.05303691625595093,-0.11461354792118073,true
-0.0422784142139484,-0.06109169071624887,-0.06585992217063903,-0.004780412185937166,true
-0.04227841421394751,-0.06109169071624887,-0.06645807981491089,-0.005531783681362867,true
-0.04227841421395084,-0.06109169071624887,-0.008694610595703126,0.06130698695778847,true
-0.042278414213948956,-0.06109169071624887,0.02437640190124512,0.028430763632059097,true
-0.042278414213948956,-0.06109169071624887,-0.05815666913986206,-0.12216037511825562,true
-0.042278414213948956,-0.06109169071624887,-0.06038744449615479,-0.13000793755054474,true
-0.04227841421394862,-0.06109169071624887,0.0017067956924438476,-0.229465052485466,true
-0.04227841421394862,-0.06109169071624887,0.002295961380004883,-0.2241836041212082,true
-0.0422784142139484,-0.06109169071624887,0.002295961380004883,-0.2241836041212082,true
-0.0422784142139484,-0.06109169071624887,-0.11165749788284302,-0.10428538918495178,true
-0.04227841421394862,-0.06109169071624887,-0.07513778686523438,-0.09400796890258789,true
-0.04227841421394751,-0.06109169071624887,-0.05507068395614624,-0.043232254683971405,true
-0.01328031045207323,-0.09561465213776299,-0.0344780158996582,-0.02609444409608841,true
-0.01328031045207212,-0.09561465213776299,-0.13959111332893373,-0.1792263388633728,true
-0.013280310452075672,-0.09561465213776299,-0.08380453824996949,-0.06409192830324173,true
-0.013280310452072563,-0.09561465213776299,-0.06441208124160766,-0.1324230581521988,true
-0.013280310452073452,-0.09561465213776299,-0.10536783933639526,-0.18731801211833954,true
-0.013280310452073452,-0.09561465213776299,-0.1112365746498108,-0.10520943254232407,true
-0.013280310452073452,-0.09561465213776299,-0.11040922403335571,-0.09769667685031891,true
-0.013280310452073452,-0.09561465213776299,-0.07755354285240174,-0.12367428094148636,true
-0.013280310452072341,-0.09561465213776299,-0.07797587037086487,-0.12484004348516464,true
-0.013280310452074118,-0.09561465213776299,-0.07570851564407349,0.030281372368335724,true
-0.013280310452073452,-0.09561465213776299,-0.023772038221359253,-0.15016981959342957,true
-0.01328031045207212,-0.09561465213776299,-0.08188032746315002,-0.2239125370979309,true
-0.01328031045207212,-0.09561465213776299,-0.11717831015586853,-0.13466818630695343,true
-0.013280310452075672,-0.09561465213776299,-0.09277765035629272,-0.12698981165885925,true
0.01470860670276608,-0.07551257825976276,-0.03947724938392639,-0.1894294172525406,true
0.01470860670276608,-0.07551257825976276,-0.03437776803970337,-0.010766102001070976,true
0.014708606702765636,-0.07551257825976276,-0.03789944410324097,-0.024106372147798538,true
0.014708606702765636,-0.07551257825976276,0.014710524082183839,0.0005855337949469686,true
0.014708606702767635,-0.07551257825976276,0.014977066516876221,-0.002477643545717001,true
0.014708606702765858,-0.07551257825976276,-0.045187323093414306,-0.12064875662326813,true
0.014708606702766303,-0.07551257825976276,-0.07652180075645447,-0.046821847558021545,true
0.014708606702765858,-0.07551257825976276,-0.0680081844329834,-0.10520275682210922,true
0.014708606702763638,-0.07551257825976276,-0.015700907707214357,-0.07963012903928757,true
0.01470860670276608,-0.07551257825976276,-0.10164430856704712,-0.04663785919547081,true
0.014708606702766525,-0.07551257825976276,0.0006296634674072266,-0.08061996102333069,true
0.014708606702766525,-0.07551257825976276,-0.07126925230026246,-0.09765495359897614,true
0.014708606702766525,-0.07551257825976276,-0.08538490295410156,-0.09170086681842804,true
0.01470860670276719,-0.07551257825976276,0.020244858264923095,-0.013744255527853966,true
0.014708606702767635,-0.07551257825976276,-0.08740209102630615,-0.03628404811024666,true
0.01470860670276608,-0.07551257825976276,-0.04998479247093201,-0.0759812444448471,true
0.01470860670276608,-0.07551257825976276,-0.13692684412002565,-0.15445616841316223,true
0.014708606702765636,-0.07551257825976276,-0.13361522197723388,-0.15597273409366608,true
0.014708606702767635,-0.07551257825976276,-0.09493003487586975,-0.07401324063539505,true
0.02778145213619665,-0.08707452118126024,0.015785844326019288,-0.07664137333631516,true
0.02778145213619687,-0.08707452118126024,-0.07045449495315552,-0.058579593896865845,true
0.027781452136195095,-0.08707452118126024,-0.09084177494049073,-0.1408846527338028,true
0.02778145213619665,-0.08707452118126024,-0.02904037356376648,-0.1093701422214508,true
0.02778145213619687,-0.08707452118126024,-0.00394257664680481,-0.08981843292713165,true
0.02778145213619687,-0.08707452118126024,-0.023845763206481935,0.023213643580675125,true
0.02778145213619687,-0.08707452118126024,-0.05815968155860901,-0.04332827404141426,true
0.02778145213619665,-0.08707452118126024,-0.05803694248199463,-0.043420352041721344,true
0.027781452136198648,-0.08707452118126024,-0.07878315329551697,-0.07617878913879395,true
0.027781452136198648,-0.08707452118126024,-0.07311545729637146,-0.07553540915250778,true
0.02778145213619665,-0.08707452118126024,0.0001522970199584961,-0.0369703434407711,true
0.02778145213619465,-0.08707452118126024,-0.039552016258239744,-0.07672915607690811,true
0.02778145213619665,-0.08707452118126024,-0.05965463399887085,-0.11114586889743805,true
0.027781452136198648,-0.08707452118126024,-0.058154404163360596,-0.11303093284368515,true
0.02778145213619687,-0.08707452118126024,-0.02084639072418213,-0.006158778909593821,true
0.027781452136197315,-0.08707452118126024,-0.041136707067489627,-0.08677790313959122,true
0.027781452136197315,-0.08707452118126024,-0.1102459192276001,-0.14240522682666779,true
0.027781452136198426,-0.08707452118126024,-0.11420482635498047,-0.14225679636001587,true
-0.039998298950369215,-0.032404698735001736,0.019566543102264404,-0.0679238885641098,true
-0.03999829895036877,-0.032404698735001736,0.052346687316894534,-0.030474605038762093,true
-0.03999829895036877,-0.032404698735001736,-0.04413718938827515,-0.062273718416690826,true
-0.03999829895037055,-0.032404698735001736,-0.04011805653572083,-0.06822863966226578,true
-0.03999829895036877,-0.032404698735001736,-0.07953449130058289,-0.01882278360426426,true
-0.03999829895036855,-0.032404698735001736,-0.07660340785980224,-0.04823235049843788,true
-0.03999829895036855,-0.032404698735001736,-0.05398197770118714,-0.06021067127585411,true
-0.03999829895037055,-0.032404698735001736,-0.09614349603652954,0.10498269647359848,true
-0.03999829895036833,-0.032404698735001736,-0.029252375364303588,-0.08429430425167084,true
-0.03999829895037055,-0.032404698735001736,-0.10434465885162354,-0.06482961773872375,true
-0.03999829895036855,-0.032404698735001736,-0.020557628870010378,0.03485909476876259,true
-0.03999829895036855,-0.032404698735001736,-0.12104641437530518,-0.05818437784910202,true
-0.03999829895037055,-0.032404698735001736,-0.048839054107666015,-0.03360317647457123,true
-0.03999829895036877,-0.032404698735001736,-0.026820991039276123,-0.09601924568414688,true
-0.03999829895036877,-0.032404698735001736,-0.04451464772224426,-0.03728218749165535,true
-0.03999829895036855,-0.032404698735001736,-0.04812918782234192,-0.04586914926767349,true
-0.03999829895036855,-0.032404698735001736,0.014625813961029053,-0.10878432542085648,true
-0.03999829895036855,-0.032404698735001736,0.014800353050231934,-0.11240658909082413,true
-0.03999829895036855,-0.032404698735001736,-0.020476701259613036,0.00912552885711193,true
-0.03999829895036855,-0.032404698735001736,-0.020127804279327394,0.008973661810159683,true
-0.03999829895036855,-0.032404698735001736,-0.020127804279327394,0.008973661810159683,true
-0.03999829895036855,-0.032404698735001736,0.02360902786254883,-0.03451305255293846,true
-0.03999829895036855,-0.032404698735001736,0.02387162923812866,-0.03424461558461189,true
-0.03999829895036855,-0.032404698735001736,0.02387162923812866,-0.03424461558461189,true
-0.0066414776242812446,-0.009239787474847327,-0.01921134948730469,0.013221969828009605,true
-0.006641477624282577,-0.009239787474847327,-0.08987741589546204,-0.10924263298511505,true
-0.0066414776242812446,-0.009239787474847327,-0.026475627422332764,-0.017535526305437088,true
-0.006641477624282355,-0.009239787474847327,0.038632254600524905,0.09346567839384079,true
-0.006641477624282355,-0.009239787474847327,-0.05036727905273437,-0.0422028973698616,true
-0.006641477624283021,-0.009239787474847327,-0.04721882581710816,-0.03765040263533592,true
-0.006641477624283021,-0.009239787474847327,0.003971998691558838,-0.02088857628405094,true
-0.006641477624283021,-0.009239787474847327,0.004810447692871094,-0.02307780273258686,true
-0.006641477624282133,-0.009239787474847327,0.005956254005432129,-0.07117608934640884,true
-0.006641477624282133,-0.009239787474847327,0.006865596771240235,-0.07537443935871124,true
-0.006641477624282133,-0.009239787474847327,0.006865596771240235,-0.07537443935871124,true
-0.006641477624282133,-0.009239787474847327,0.006865596771240235,-0.07537443935871124,true
-0.006641477624282355,-0.009239787474847327,0.006865596771240235,-0.07537443935871124,true
-0.006641477624282355,-0.009239787474847327,0.005891475677490234,-0.21147474646568298,true
-0.006641477624282355,-0.009239787474847327,0.006543517112731934,-0.20861737430095673,true
-0.006641477624283021,-0.009239787474847327,0.006543517112731934,-0.20861737430095673,true
-0.006641477624283021,-0.009239787474847327,-0.01898673176765442,0.0042083472944796085,true
-0.0066414776242812446,-0.009239787474847327,-0.013959774971008301,0.005407695658504963,true
-0.0066414776242810225,-0.009239787474847327,0.03455149173736572,0.007576986216008663,true
-0.006641477624283021,-0.009239787474847327,0.017258350849151612,0.01567024551331997,true
-0.0066414776242808005,-0.009239787474847327,-0.0190372633934021,-0.006434871349483728,true
-0.0066414776242810225,-0.009239787474847327,-0.06793384790420533,0.0030025537125766277,true
-0.0066414776242810225,-0.009239787474847327,-0.0491598653793335,0.00459213787689805,true
-0.006641477624283021,-0.009239787474847327,-0.012369534969329835,0.009907335974276066,true
0.006242578458631409,-0.04727191643718198,-0.002076009511947632,-0.010873835533857346,true
0.006242578458630965,-0.04727191643718198,0.016024391651153564,0.052670083940029144,true
0.006242578458631409,-0.04727191643718198,0.004804694652557373,0.004027135204523802,true
0.006242578458632964,-0.04727191643718198,-0.0023382484912872316,-0.07590165734291077,true
0.006242578458631409,-0.04727191643718198,0.04688116312026978,-0.005446102004498243,true
0.006242578458630743,-0.04727191643718198,-0.05081578969955444,-0.02907450497150421,true
0.006242578458630743,-0.04727191643718198,-0.008680024147033692,-0.007515585515648127,true
0.006242578458630743,-0.04727191643718198,-0.007360992431640625,-0.009729010052978992,true
0.006242578458630743,-0.04727191643718198,-0.007360992431640625,-0.009729010052978992,true
0.006242578458630743,-0.04727191643718198,-0.012957907915115356,-0.04962645843625069,true
0.006242578458630521,-0.04727191643718198,-0.013180215358734131,-0.049970440566539764,true
0.006242578458630521,-0.04727191643718198,-0.01994615316390991,0.0753733441233635,true
0.006242578458630521,-0.04727191643718198,-0.02091071605682373,0.07869167625904083,true
0.006242578458630743,-0.04727191643718198,-0.02091071605682373,0.07869167625904083,true
0.006242578458630743,-0.04727191643718198,-0.02941429853439331,-0.05938568338751793,true
0.006242578458630521,-0.04727191643718198,-0.028397912979125976,-0.0606386624276638,true
0.006242578458630521,-0.04727191643718198,0.02892207384109497,-0.14199405908584595,true
0.006242578458630521,-0.04727191643718198,0.02930739164352417,-0.13926734030246735,true
0.006242578458630965,-0.04727191643718198,0.02930739164352417,-0.13926734030246735,true
0.006242578458630965,-0.04727191643718198,-0.07651765584945679,0.07300613820552826,true
0.006242578458632964,-0.04727191643718198,-0.07802332162857056,0.07672382146120071,true
0.006242578458632964,-0.04727191643718198,-0.028016151189804078,-0.02446683682501316,true
0.006242578458631409,-0.04727191643718198,-0.02935137748718262,-0.025000033900141716,true
0.006242578458630743,-0.04727191643718198,-0.08802108645439148,-0.030091211199760437,true
0.006242578458630743,-0.04727191643718198,0.010137944221496583,-0.0677495002746582,true
0.006242578458630743,-0.04727191643718198,0.010362629890441896,-0.06895733624696732,true
0.006242578458630965,-0.04727191643718198,0.010362629890441896,-0.06895733624696732,true
0.024302655843233822,-0.012797527769199624,-0.02240410566329956,-0.044344283640384674,true
0.024302655843233822,-0.012797527769199624,0.030520377159118654,0.041692040860652924,true
0.024302655843233822,-0.012797527769199624,0.035822913646698,0.04218725860118866,true
0.024302655843233822,-0.012797527769199624,0.035822913646698,0.04218725860118866,true
0.024302655843231658,-0.012797527769199624,0.035822913646698,0.04218725860118866,true
0.024302655843231658,-0.012797527769199624,0.006425421237945557,-0.02562261000275612,true
0.024302655843233878,-0.012797527769199624,0.005929255485534668,-0.026595009490847588,true
0.024302655843233878,-0.012797527769199624,0.03605181217193604,0.029744388535618782,true
0.024302655843233656,-0.012797527769199624,0.03546282768249512,0.02607662044465542,true
0.024302655843233656,-0.012797527769199624,0.008924822807312011,-0.061691269278526306,true
0.024302655843231213,-0.012797527769199624,0.012398028373718261,-0.06045283377170563,true
0.024302655843234988,-0.012797527769199624,0.014775121212005615,0.0588514469563961,true
0.024302655843233878,-0.012797527769199624,0.053861413002014163,0.0017489533638581634,true
0.024302655843233878,-0.012797527769199624,-0.011677086353302002,0.07459262758493423,true
0.024302655843233878,-0.012797527769199624,-0.006317970752716065,0.07373284548521042,true
0.02430265584323521,-0.012797527769199624,-0.006317970752716065,0.07373284548521042,true
0.024302655843233656,-0.012797527769199624,-0.013106966018676757,-0.03661126643419266,true
0.02430265584323521,-0.012797527769199624,-0.0016555392742156983,0.00047086874837987125,true
0.024302655843233822,-0.012797527769199624,0.013614048957824707,0.1156301274895668,true
0.024302655843233822,-0.012797527769199624,0.038142249584198,-0.007126380689442158,true
0.024302655843233822,-0.012797527769199624,0.042362534999847413,0.01492606196552515,true
0.024302655843233822,-0.012797527769199624,0.042362534999847413,0.01492606196552515,true
0.024302655843234766,-0.012797527769199624,-0.024453818798065186,-0.08870957791805267,true
0.024302655843233212,-0.012797527769199624,-0.027348119020462035,-0.11999240517616272,true
0.024302655843234766,-0.012797527769199624,0.013165175914764404,0.051057908684015274,true
0.024302655843231213,-0.012797527769199624,-0.046098387241363524,-0.0725722461938858,true
0.024302655843231213,-0.012797527769199624,-0.012421334981918336,0.06434960663318634,true
0.024302655843233878,-0.012797527769199624,-0.01788543224334717,0.08093279600143433,true
0.024302655843233878,-0.012797527769199624,0.025213356018066405,-0.044798512011766434,true
0.024302655843233212,-0.012797527769199624,0.025159404277801514,-0.049581270664930344,true
0.024302655843233212,-0.012797527769199624,0.017776577472686766,0.030196208506822586,true
0.024302655843233212,-0.012797527769199624,0.011650631427764893,0.03656533733010292,true
-0.031044975052185397,0.0031120581448511597,0.023180992603302003,-0.02352140098810196,true
-0.031044975052185397,0.0031120581448511597,-0.018938148021698,0.02586556039750576,true
-0.031044975052185397,0.0031120581448511597,-0.03229634523391724,0.04029526934027672,true
-0.031044975052185397,0.0031120581448511597,-0.029805686473846436,-0.04311167076230049,true
-0.031044975052185397,0.0031120581448511597,0.010365710258483887,-0.036839559674263,true
-0.031044975052187174,0.0031120581448511597,0.011522207260131836,-0.0362316370010376,true
-0.031044975052187174,0.0031120581448511597,-0.02129539966583252,-0.06750764697790146,true
-0.03104497505218473,0.0031120581448511597,-0.02914284110069275,-0.05997417867183685,true
-0.03104497505218473,0.0031120581448511597,0.018102598190307618,0.03972327709197998,true
-0.03104497505218473,0.0031120581448511597,0.017123947143554686,0.04092370718717575,true
-0.031044975052185397,0.0031120581448511597,0.017123947143554686,0.04092370718717575,true
-0.031044975052185397,0.0031120581448511597,0.0057427120208740235,-0.007473727222532034,true
-0.031044975052185397,0.0031120581448511597,-0.013038699626922608,0.07270563393831253,true
-0.031044975052185397,0.0031120581448511597,-0.013085607290267944,0.07282643020153046,true
-0.031044975052185397,0.0031120581448511597,-0.013085607290267944,0.07282643020153046,true
-0.03104497505218551,0.0031120581448511597,-0.013085607290267944,0.07282643020153046,true
-0.03104497505218551,0.0031120581448511597,-0.008070292472839356,-0.008091816678643227,true
-0.031044975052187174,0.0031120581448511597,-0.0048120105266571045,-0.008741140365600586,true
-0.031044975052187174,0.0031120581448511597,0.02093454360961914,-0.036116279661655426,true
-0.03104497505218562,0.0031120581448511597,0.02579314470291138,-0.036331791430711746,true
-0.03104497505218562,0.0031120581448511597,0.02306253433227539,-0.015715191140770912,true
-0.03104497505218473,0.0031120581448511597,0.02224759578704834,-0.016520168632268906,true
-0.03104497505218562,0.0031120581448511597,-5.1981210708618165e-05,-0.013954256661236286,true
-0.03104497505218562,0.0031120581448511597,0.007002310752868652,0.020709389820694923,true
-0.031044975052187618,0.0031120581448511597,-0.03270784616470337,0.03840574249625206,true
-0.031044975052185397,0.0031120581448511597,-0.0019872903823852537,0.0004930478753522038,true
-0.031044975052185397,0.0031120581448511597,-0.027980772256851198,0.00948327500373125,true
-0.03104497505218562,0.0031120581448511597,-0.02636061191558838,0.008440940640866756,true
-0.0005142738134243929,0.047453473185313566,-0.02952616572380066,0.007781136780977249,true
-0.0005142738134237268,0.047453473185313566,0.047749691009521485,0.09337128698825836,true
-0.0005142738134239488,0.047453473185313566,0.042091689109802245,0.11104045063257217,true
-0.0005142738134239488,0.047453473185313566,0.08313039064407349,0.07637225836515427,true
-0.0005142738134239488,0.047453473185313566,0.08276790380477905,0.07619336992502213,true
-0.000514273813424615,0.047453473185313566,0.046893529891967774,0.03876211494207382,true
-0.000514273813424615,0.047453473185313566,0.04500349760055542,0.03638419881463051,true
-0.000514273813424615,0.047453473185313566,0.04500349760055542,0.03638419881463051,true
-0.0005142738134235048,0.047453473185313566,0.04500349760055542,0.03638419881463051,true
-0.0005142738134235048,0.047453473185313566,0.02673736810684204,0.046082980930805206,true
-0.0005142738134237268,0.047453473185313566,0.01846259355545044,0.04201577976346016,true
-0.0005142738134237268,0.047453473185313566,0.05232168197631836,0.10352405905723572,true
-0.000514273813424615,0.047453473185313566,0.022294979095458984,0.017207039520144463,true
-0.0005142738134235048,0.047453473185313566,0.029231061935424806,0.03338231146335602,true
-0.0005142738134235048,0.047453473185313566,0.11107109546661377,0.08846662938594818,true
-0.0005142738134275016,0.047453473185313566,0.12100260972976684,0.08369175344705582,true
-0.0005142738134235048,0.047453473185313566,0.022613751888275146,0.13972358405590057,true
-0.0005142738134243929,0.047453473185313566,0.011272742748260497,0.024264952167868614,true
-0.0005142738134243929,0.047453473185313566,-0.013270406723022462,0.08142507076263428,true
-0.0005142738134243929,0.047453473185313566,-0.010070900917053222,0.07825646549463272,true
-0.0005142738134243929,0.047453473185313566,-0.010070900917053222,0.07825646549463272,true
-0.0005142738134270575,0.047453473185313566,-0.010070900917053222,0.07825646549463272,true
-0.0005142738134270575,0.047453473185313566,0.027658398151397704,0.05854399502277374,true
-0.0005142738134239488,0.047453473185313566,0.02771026611328125,0.06123320385813713,true
-0.0005142738134243929,0.047453473185313566,0.055022258758544926,0.06181034445762634,true
-0.0005142738134243929,0.047453473185313566,0.0645268702507019,0.06005096063017845,true
-0.0005142738134237268,0.047453473185313566,0.04919356822967529,-0.005053109489381313,true
-0.0005142738134235048,0.047453473185313566,-0.011449252367019654,0.09344664961099625,true
-0.0005142738134270575,0.047453473185313566,0.04214455366134644,0.06714261323213577,true
-0.0005142738134243929,0.047453473185313566,0.021270394325256348,0.12149498611688614,true
0.005920252807146809,0.05215281718622622,0.0011617064476013184,-0.1764291673898697,true
0.005920252807146809,0.05215281718622622,-0.005944430828094482,0.10050074756145477,true
0.005920252807146809,0.05215281718622622,-0.005819109678268433,0.10000036656856537,true
0.005920252807146809,0.05215281718622622,-0.005819109678268433,0.10000036656856537,true
0.005920252807146809,0.05215281718622622,-0.005819109678268433,0.10000036656856537,true
0.00592025280714592,0.05215281718622622,0.037317435741424564,0.1725604236125946,true
0.00592025280714592,0.05215281718622622,0.03516448497772217,0.17708709836006165,true
0.00592025280714592,0.05215281718622622,0.03516448497772217,0.17708709836006165,true
0.00592025280714592,0.05215281718622622,-0.01602855920791626,0.15468399226665497,true
0.00592025280714592,0.05215281718622622,0.04061587572097779,0.13396668434143066,true
0.00592025280714592,0.05215281718622622,0.04081646203994751,0.11816911399364471,true
0.005920252807147697,0.05215281718622622,0.04081646203994751,0.11816911399364471,true
0.0059202528071465865,0.05215281718622622,0.07767578363418579,0.11897427588701248,true
0.0059202528071465865,0.05215281718622622,0.033165779113769535,0.0936422124505043,true
0.0059202528071465865,0.05215281718622622,0.03566060543060303,0.10077378898859024,true
0.005920252807147919,0.05215281718622622,0.03566060543060303,0.10077378898859024,true
0.005920252807147919,0.05215281718622622,0.0031279325485229492,0.13351662456989288,true
0.005920252807147919,0.05215281718622622,0.004219424724578857,0.1348145753145218,true
0.005920252807147031,0.05215281718622622,0.052355701923370364,0.11865922063589096,true
0.0059202528071465865,0.05215281718622622,0.05376610279083252,0.1176266297698021,true
0.0059202528071465865,0.05215281718622622,0.047098963260650634,0.164113849401474,true
0.005920252807147919,0.05215281718622622,0.07467274188995361,0.05904695764183998,true
0.00592025280714592,0.05215281718622622,0.07438055992126465,0.05290780961513519,true
0.0059202528071463645,0.05215281718622622,0.08940722942352294,0.11163367331027985,true
0.0059202528071463645,0.05215281718622622,0.03198572635650635,0.06077741086483002,true
0.005920252807146642,0.05215281718622622,0.0359916090965271,0.09435959905385971,true
0.005920252807146642,0.05215281718622622,-0.004985190629959106,0.11571826040744781,true
0.005920252807146642,0.05215281718622622,-0.002674257755279541,0.1135953962802887,true
0.005920252807147919,0.05215281718622622,-0.002674257755279541,0.1135953962802887,true
0.005920252807147919,0.05215281718622622,0.10132277250289917,-0.0033873349893838167,true
0.005920252807147031,0.05215281718622622,0.10515488624572754,-0.0024652278516441584,true
0.005920252807147031,0.05215281718622622,0.027562453746795654,0.13223819434642792,true
0.005920252807148141,0.05215281718622622,0.035236148834228515,0.1316106617450714,true
0.005920252807148141,0.05215281718622622,-0.0029050588607788088,-0.10497373342514038,true
0.005920252807148141,0.05215281718622622,-0.0052591168880462644,-0.07821228355169296,true
0.0059202528071463645,0.05215281718622622,0.10235687017440796,0.1281575709581375,true
0.0059202528071463645,0.05215281718622622,0.02534209728240967,0.03827471658587456,true
0.028290537413376726,0.03970447680360634,0.024627904891967773,0.03726187348365784,true
0.028290537413376726,0.03970447680360634,0.001074233055114746,-0.036837656050920486,true
0.028290537413375616,0.03970447680360634,0.11949617385864258,0.05673905462026596,true
0.028290537413374728,0.03970447680360634,0.11701720237731934,0.05354919657111168,true
0.028290537413374728,0.03970447680360634,0.03802084684371948,0.10143864899873734,true
0.02829053741337695,0.03970447680360634,0.03812847852706909,0.1004285216331482,true
0.028290537413375616,0.03970447680360634,0.005008225440979004,0.09857495874166489,true
0.028290537413375616,0.03970447680360634,0.05191788196563721,0.06899771839380264,true
0.028290537413376504,0.03970447680360634,0.04961181879043579,0.07001295685768127,true
0.028290537413376726,0.03970447680360634,0.05418874740600586,0.06627358496189117,true
0.028290537413376726,0.03970447680360634,0.0048277974128723145,0.0032810757402330637,true
0.028290537413376726,0.03970447680360634,0.005266478061676025,0.00022735557286068797,true
0.028290537413376726,0.03970447680360634,0.005266478061676025,0.00022735557286068797,true
0.028290537413375616,0.03970447680360634,0.005266478061676025,0.00022735557286068797,true
0.028290537413375616,0.03970447680360634,0.1494590497016907,0.11587198078632355,true
0.028290537413375616,0.03970447680360634,0.141105272769928,0.10811932384967804,true
0.028290537413375616,0.03970447680360634,0.07775487661361695,0.0825030654668808,true
0.028290537413375616,0.03970447680360634,0.08147093296051025,0.08957840502262115,true
0.028290537413375172,0.03970447680360634,0.08147093296051025,0.08957840502262115,true
0.028290537413375172,0.03970447680360634,-0.0061667835712432865,-0.15978272259235382,true
0.028290537413375172,0.03970447680360634,-0.006340348720550537,-0.1593284159898758,true
0.028290537413375172,0.03970447680360634,-0.006340348720550537,-0.1593284159898758,true
0.028290537413375172,0.03970447680360634,-0.008557217121124268,0.09156837314367294,true
0.028290537413375172,0.03970447680360634,0.005732429027557373,-0.0009090541861951351,true
0.028290537413375172,0.03970447680360634,0.0034650063514709475,-0.007181327790021896,true
0.028290537413374728,0.03970447680360634,0.09847587823867798,0.08889240026473999,true
0.028290537413375838,0.03970447680360634,0.0987673807144165,0.09203392267227173,true
0.028290537413375838,0.03970447680360634,0.07489049673080445,0.07957178354263306,true
0.028290537413375838,0.03970447680360634,0.07213130235671997,0.026197368279099464,true
0.028290537413376726,0.03970447680360634,0.03604778051376343,0.162145733833313,true
0.02829053741337695,0.03970447680360634,0.07414255619049072,0.10718692094087601,true
-0.032314982722684626,0.08432617780696128,0.021273927688598634,-0.008698232471942902,true
-0.032314982722684404,0.08432617780696128,0.024069905281066895,-0.0007085821125656366,true
-0.032314982722684404,0.08432617780696128,0.09900914430618286,0.0777800902724266,true
-0.03231498272268529,0.08432617780696128,0.03902930498123169,0.17271772027015686,true
-0.03231498272268418,0.08432617780696128,0.05954487323760987,0.09018371254205704,true
-0.03231498272268418,0.08432617780696128,0.01677129030227661,0.017720691859722137,true
-0.03231498272268418,0.08432617780696128,0.007635326385498047,0.026992160826921463,true
-0.032314982722684404,0.08432617780696128,0.04998196125030518,0.1560048758983612,true
-0.032314982722684404,0.08432617780696128,0.03729723215103149,0.16764473915100098,true
-0.032314982722684404,0.08432617780696128,0.014245750904083252,0.01764495298266411,true
-0.032314982722685515,0.08432617780696128,0.024501020908355712,0.08338426053524017,true
-0.03231498272268574,0.08432617780696128,0.07153230667114258,0.12514707446098328,true
-0.03231498272268574,0.08432617780696128,0.07576500415802002,0.13218970596790314,true
-0.0323149827226864,0.08432617780696128,0.07588876247406005,0.12604907155036926,true
-0.0323149827226864,0.08432617780696128,0.051416234970092775,0.07200775295495987,true
-0.0323149827226864,0.08432617780696128,0.04649240255355835,0.0723651871085167,true
-0.032314982722684404,0.08432617780696128,0.04649240255355835,0.0723651871085167,true
-0.032314982722684404,0.08432617780696128,-0.0014547264575958253,0.15393947064876556,true
-0.03231498272268529,0.08432617780696128,-0.004116753339767456,0.14756959676742554,true
-0.03231498272268529,0.08432617780696128,0.09428105115890503,0.13283224403858185,true
-0.03231498272268596,0.08432617780696128,0.0937471055984497,0.1310044825077057,true
-0.03231498272268596,0.08432617780696128,0.03863012552261352,0.09264500439167023,true
-0.03231498272268596,0.08432617780696128,0.038127164840698245,0.09414101392030716,true
-0.03231498272268596,0.08432617780696128,0.046337568759918214,0.07633143663406372,true
-0.03231498272268596,0.08432617780696128,0.04639636754989624,0.07735737413167953,true
-0.03231498272268529,0.08432617780696128,0.04639636754989624,0.07735737413167953,true
-0.03231498272268529,0.08432617780696128,0.11788169860839844,0.00919242762029171,true
-0.03231498272268574,0.08432617780696128,0.11785035133361817,0.01010117493569851,true
-0.03231498272268574,0.08432617780696128,-0.013285151720046998,0.06344617903232574,true
-0.03231498272268574,0.08432617780696128,-0.007583458423614502,0.06818477809429169,true
-0.03231498272268574,0.08432617780696128,-0.007583458423614502,0.06818477809429169,true
-0.03231498272268574,0.08432617780696128,-0.007583458423614502,0.06818477809429169,true
-0.03231498272268418,0.08432617780696128,0.030374422073364257,0.16285818815231323,true
-0.01416612272393547,0.07818971385106832,0.036330630779266355,0.16206258535385132,true
-0.01416612272393547,0.07818971385106832,-0.0009897494316101075,-0.19903196394443512,true
-0.01416612272393547,0.07818971385106832,0.0007445430755615235,-0.19530338048934937,true
-0.01416612272393547,0.07818971385106832,0.0007445430755615235,-0.19530338048934937,true
-0.014166122723936359,0.07818971385106832,0.0007445430755615235,-0.19530338048934937,true
-0.014166122723936359,0.07818971385106832,0.022262318134307863,0.0008059292449615896,true
-0.014166122723936359,0.07818971385106832,0.03027575969696045,-0.0022997837513685226,true
-0.014166122723934804,0.07818971385106832,0.0003498029708862305,0.1569754034280777,true
-0.014166122723934804,0.07818971385106832,0.019783709049224853,0.09935631603002548,true
-0.014166122723934804,0.07818971385106832,0.007524251937866211,0.015872308984398842,true
-0.014166122723934804,0.07818971385106832,0.006813139915466309,0.015040560625493526,true
-0.014166122723935026,0.07818971385106832,0.016066927909851075,0.17094510793685913,true
-0.014166122723935026,0.07818971385106832,0.06754499673843384,0.14416691660881042,true
-0.014166122723934804,0.07818971385106832,0.06438372373580932,0.13279350101947784,true
-0.014166122723935026,0.07818971385106832,0.08605397701263427,0.11396993696689606,true
-0.014166122723935026,0.07818971385106832,0.07459595918655396,0.11499764770269394,true
-0.014166122723935026,0.07818971385106832,0.07440126180648804,0.11522534489631653,true
-0.014166122723934804,0.07818971385106832,0.07440126180648804,0.11522534489631653,true
-0.014166122723935026,0.07818971385106832,0.1377956438064575,0.09539952129125595,true
-0.014166122723935026,0.07818971385106832,0.06057281017303467,0.14538542926311493,true
-0.014166122723935026,0.07818971385106832,0.05055513620376587,0.14293049275875092,true
-0.014166122723934804,0.07818971385106832,0.05055513620376587,0.14293049275875092,true
-0.014166122723934804,0.07818971385106832,0.007962615489959716,-0.0034492360427975655,true
-0.01416612272393547,0.07818971385106832,0.008683240413665772,-0.0036555128172039986,true
-0.01416612272393547,0.07818971385106832,-0.007039388418197632,-0.008482675068080425,true
-0.01416612272393547,0.07818971385106832,-0.008997913599014282,-0.017250671982765198,true
-0.01416612272393547,0.07818971385106832,-0.008997913599014282,-0.017250671982765198,true
-0.014166122723935082,0.07818971385106832,0.07660820960998535,0.11228536069393158,true
-0.014166122723935026,0.07818971385106832,0.04865319013595581,0.1849418580532074,true
-0.014166122723935082,0.07818971385106832,0.0628544569015503,0.10565505921840668,true
-0.014166122723935082,0.07818971385106832,0.05014784812927246,0.03155146539211273,true
-0.014166122723935026,0.07818971385106832,0.04749682903289795,0.02720746397972107,true
-0.014166122723935026,0.07818971385106832,0.06448406219482422,0.09828701615333557,true
0.021236455699734536,0.05473247856008179,0.06136369466781616,0.10196074098348618,true
0.02123645569973387,0.05473247856008179,0.06334052085876465,0.030535314232110977,true
0.02123645569973387,0.05473247856008179,0.08966620683670044,0.07172747701406479,true
0.021236455699734758,0.05473247856008179,0.09121522426605225,0.06885797530412674,true
0.021236455699734758,0.05473247856008179,0.07991181373596191,0.10772031545639038,true
0.021236455699734536,0.05473247856008179,0.08047941684722901,0.0959768146276474,true
0.021236455699734536,0.05473247856008179,0.07786685705184937,0.07635941356420517,true
0.021236455699734536,0.05473247856008179,0.08179423570632935,0.08118514716625214,true
0.021236455699734758,0.05473247856008179,0.02124122142791748,0.10935581475496292,true
0.02123645569973387,0.05473247856008179,0.018909201622009278,0.10106118768453598,true
0.021236455699734313,0.05473247856008179,0.08485381126403808,0.0801573246717453,true
0.021236455699734758,0.05473247856008179,0.09869336128234864,0.01913399063050747,true
0.021236455699734758,0.05473247856008179,0.03343372583389282,0.03303311765193939,true
0.021236455699736312,0.05473247856008179,0.03307871341705322,0.03435995802283287,true
0.021236455699734313,0.05473247856008179,0.050639257431030274,0.06212053447961807,true
0.021236455699736312,0.05473247856008179,0.053390252590179446,0.06999864429235458,true
0.021236455699736312,0.05473247856008179,0.08086233377456666,0.021624384447932243,true
0.021236455699734313,0.05473247856008179,0.07454440832138062,0.02430843748152256,true
0.021236455699734313,0.05473247856008179,0.023897087574005126,0.1381153017282486,true
0.021236455699734313,0.05473247856008179,0.019276444911956788,0.15013059973716736,true
0.021236455699734313,0.05473247856008179,0.017339165210723876,0.1657816767692566,true
0.021236455699734313,0.05473247856008179,0.017339165210723876,0.1657816767692566,true
0.02123645569973437,0.05473247856008179,0.042274699211120606,0.14560599625110626,true
0.021236455699734758,0.05473247856008179,0.04303944587707519,0.14528201520442963,true
0.021236455699734758,0.05473247856008179,0.11884100675582886,0.13619364798069,true
0.021236455699734313,0.05473247856008179,0.12890629053115846,0.13946165144443512,true
0.021236455699734313,0.05473247856008179,0.08881706714630128,0.027134111151099205,true
0.0366657398824185,0.07369394084733938,0.095658700466156,0.09481294453144073,true
0.03666573988241828,0.07369394084733938,0.11678594827651978,0.10641614347696304,true
0.03666573988241806,0.07369394084733938,0.11079694271087646,0.10745427757501602,true
0.03666573988241806,0.07369394084733938,0.1005255913734436,0.052134521305561066,true
0.036665739882418946,0.07369394084733938,0.10474112033843994,0.16303545236587524,true
0.03666573988241917,0.07369394084733938,0.11475231647491455,0.16296423971652985,true
0.03666573988241917,0.07369394084733938,0.050481297969818116,0.16745439171791077,true
0.03666573988241806,0.07369394084733938,0.0503554105758667,0.16825157403945923,true
0.03666573988241806,0.07369394084733938,0.13417951822280885,0.17960934340953827,true
0.03666573988241828,0.07369394084733938,0.1409749460220337,0.18098220229148865,true
0.0366657398824185,0.07369394084733938,0.040072643756866456,0.07975267618894577,true
0.0366657398824185,0.07369394084733938,0.08469526290893555,0.1652306318283081,true
0.036665739882420056,0.07369394084733938,0.030924403667449953,0.11089152097702026,true
0.0366657398824185,0.07369394084733938,0.0811980938911438,0.1129150316119194,true
0.03666573988241806,0.07369394084733938,0.07773571491241456,0.18636995553970337,true
0.03666573988241806,0.07369394084733938,0.08927894115447998,0.17963849008083344,true
0.036665739882418225,0.07369394084733938,0.11637086868286133,0.13964520394802094,true
0.03666573988241806,0.07369394084733938,0.11494275569915771,0.15323975682258606,true
0.0366657398824185,0.07369394084733938,0.06609962463378906,0.1033317819237709,true
0.036665739882418225,0.07369394084733938,0.09653719425201417,0.18013733625411987,true
0.036665739882418225,0.07369394084733938,0.09547066211700439,0.17498964071273804,true
0.036665739882418225,0.07369394084733938,0.09547066211700439,0.17498964071273804,true
0.036665739882420056,0.07369394084733938,0.09547066211700439,0.17498964071273804,true
0.03666573988241806,0.07369394084733938,0.04174310922622681,0.12106240540742874,true
0.03666573988241806,0.07369394084733938,0.13101022720336913,0.11427041888237,true
0.03666573988241806,0.07369394084733938,0.13079124927520752,0.11464628577232361,true
0.03666573988241806,0.07369394084733938,0.08992772102355957,0.15793642401695251,true
