0.1376254389328796,0.11233529511628171,0.038224287033081054,0.1765502691268921,true
0.1376254389328796,0.11233529511628171,0.0985448694229126,0.2651359438896179,true
0.1376254389328796,0.11233529511628171,0.100969979763031,0.2583373486995697,true
0.13762543893287982,0.11233529511628171,0.100969979763031,0.2583373486995697,true
0.13762543893287982,0.11233529511628171,0.15349945068359375,0.1973491907119751,true
0.1376254389328796,0.11233529511628171,0.1515614914894104,0.19553235173225403,true
0.1376254389328796,0.11233529511628171,-0.028725383281707765,0.15917767584323883,true
0.13762543893287782,0.11233529511628171,-0.030011754035949707,0.15759360790252686,true
0.13762543893287782,0.11233529511628171,0.13642623901367187,0.20663511753082275,true
0.13762543893287782,0.11233529511628171,0.13971050024032594,0.2607037425041199,true
0.1376254389328796,0.11233529511628171,0.16524792909622193,0.3006677031517029,true
0.1376254389328796,0.11233529511628171,0.15904107809066773,0.3121670186519623,true
0.13762543893287982,0.11233529511628171,0.07091840744018554,0.00851504411548376,true
0.13762543893287982,0.11233529511628171,0.01661102056503296,0.024250978603959084,true
0.13762543893287982,0.11233529511628171,0.014747805595397949,0.023647267371416092,true
0.13762543893287982,0.11233529511628171,0.15146663427352905,0.30045461654663086,true
0.13762543893287915,0.11233529511628171,0.15267142057418823,0.3014358878135681,true
0.13762543893287915,0.11233529511628171,0.18112346649169922,0.15093913674354553,true
0.13762543893287982,0.11233529511628171,0.18123635292053222,0.15184065699577332,true
0.13762543893287982,0.11233529511628171,0.1290211248397827,0.1690567284822464,true
0.13762543893287982,0.11233529511628171,0.12905500888824464,0.16872566938400269,true
0.13762543893287982,0.11233529511628171,0.12905500888824464,0.16872566938400269,true
0.13762543893287982,0.11233529511628171,0.12905500888824464,0.16872566938400269,true
0.1376254389328797,0.11233529511628171,0.12905500888824464,0.16872566938400269,true
0.1376254389328797,0.11233529511628171,0.1607679867744446,0.20721910893917084,true
0.13762543893288004,0.11233529511628171,0.15983540534973145,0.20387709140777588,true
0.13762543893287982,0.11233529511628171,0.14859681844711303,0.2623945474624634,true
0.13762543893287982,0.11233529511628171,0.07201547145843507,0.21764934062957764,true
0.13762543893287982,0.11233529511628171,0.029053895473480223,0.19247400760650635,true
0.13762543893287982,0.11233529511628171,0.028630797863006593,0.19224701821804047,true
0.13762543893287782,0.11233529511628171,-0.004996742010116577,0.15096837282180786,true
0.13762543893287782,0.11233529511628171,0.09311861991882324,0.09768527001142502,true
0.13762543893288004,0.11233529511628171,0.09035706996917725,0.10250690579414368,true
0.13762543893288004,0.11233529511628171,0.1159165596961975,0.23630499839782715,true
0.16522195784469706,0.15445158949258508,0.20756407737731933,0.32089394330978394,true
0.1652219578446975,0.15445158949258508,-0.05641825437545776,0.19621337950229645,true
0.16522195784469706,0.15445158949258508,0.0917948317527771,0.24044543504714966,true
0.16522195784469706,0.15445158949258508,0.1263776707649231,0.1543005108833313,true
0.1652219578446953,0.15445158949258508,0.122552170753479,0.1513272374868393,true
0.1652219578446953,0.15445158949258508,-0.019289491176605226,0.10801750421524048,true
0.16522195784469684,0.15445158949258508,-0.018829383850097657,0.11300840973854065,true
0.16522195784469706,0.15445158949258508,0.12921740770339965,0.2706333100795746,true
0.16522195784469706,0.15445158949258508,0.07486263751983643,0.2054063230752945,true
0.16522195784469706,0.15445158949258508,0.08347847223281861,0.40115854144096375,true
0.16522195784469706,0.15445158949258508,0.09804738998413086,0.3978700041770935,true
0.16522195784469684,0.15445158949258508,0.09804738998413086,0.3978700041770935,true
0.16522195784469684,0.15445158949258508,0.08336268663406372,0.17726625502109528,true
0.1652219578446973,0.15445158949258508,0.08218014240264893,0.17975477874279022,true
0.1652219578446973,0.15445158949258508,0.04359499931335449,0.0988934263586998,true
0.1652219578446973,0.15445158949258508,0.041935133934021,0.09398330003023148,true
0.16522195784469662,0.15445158949258508,0.041935133934021,0.09398330003023148,true
0.16522195784469662,0.15445158949258508,0.14672617435455323,0.24739386141300201,true
0.1652219578446953,0.15445158949258508,0.15080195426940918,0.2500934898853302,true
0.1652219578446953,0.15445158949258508,0.13070952892303467,0.318489134311676,true
0.1652219578446975,0.15445158949258508,0.1318740439414978,0.3331894874572754,true
0.16522195784469706,0.15445158949258508,0.1273372507095337,0.32023724913597107,true
0.16522195784469706,0.15445158949258508,0.090880868434906,0.31682687997817993,true
0.16522195784469706,0.15445158949258508,0.08440706729888917,0.33750975131988525,true
0.16522195784469673,0.15445158949258508,0.07002727508544922,0.13805046677589417,true
0.16522195784469673,0.15445158949258508,0.15399249076843263,0.30194273591041565,true
0.16522195784469673,0.15445158949258508,0.15518903255462646,0.3028066158294678,true
0.16522195784469673,0.15445158949258508,0.15518903255462646,0.3028066158294678,true
0.1652219578446953,0.15445158949258508,0.15518903255462646,0.3028066158294678,true
0.16522195784469573,0.15445158949258508,-0.026722419261932372,0.12451723963022232,true
0.16522195784469673,0.15445158949258508,0.04216620683670044,0.2893843948841095,true
0.16522195784469673,0.15445158949258508,0.13553637504577637,0.33317893743515015,true
0.1652219578446973,0.15445158949258508,0.13972146272659303,0.32217296957969666,true
0.20081911005914888,0.13556607174655966,0.19115414142608642,0.3298904597759247,true
0.20081911005914888,0.13556607174655966,0.029169273376464844,0.11347354203462601,true
0.20081911005914888,0.13556607174655966,0.14082690715789795,0.22552433609962463,true
0.20081911005914888,0.13556607174655966,0.09022760391235352,0.3710743188858032,true
0.20081911005914888,0.13556607174655966,0.09770787000656128,0.35003846883773804,true
0.20081911005914888,0.13556607174655966,0.09585362434387207,0.35773879289627075,true
0.20081911005915087,0.13556607174655966,0.09585362434387207,0.35773879289627075,true
0.20081911005914932,0.13556607174655966,0.09015748023986817,0.13492591679096222,true
0.20081911005915087,0.13556607174655966,0.03990634918212891,0.33067435026168823,true
0.20081911005915087,0.13556607174655966,-0.001298896074295044,-0.08682489395141602,true
0.20081911005914888,0.13556607174655966,-0.0009190595149993897,-0.0905991643667221,true
0.20081911005914888,0.13556607174655966,0.059633207321166996,0.09536546468734741,true
0.20081911005914888,0.13556607174655966,0.05967198371887207,0.09548191726207733,true
0.20081911005914932,0.13556607174655966,0.09892701625823974,0.2959885895252228,true
0.20081911005914932,0.13556607174655966,0.020927295684814454,0.3303959369659424,true
0.20081911005914888,0.13556607174655966,0.08471678018569946,0.3495393991470337,true
0.20081911005914888,0.13556607174655966,0.08191731452941894,0.34669730067253113,true
0.20081911005914932,0.13556607174655966,0.08191731452941894,0.34669730067253113,true
0.20081911005914888,0.13556607174655966,0.16952887058258057,0.20535540580749512,true
0.20081911005914888,0.13556607174655966,0.0983137059211731,0.2234167903661728,true
0.20081911005914888,0.13556607174655966,0.09555559873580932,0.22155331075191498,true
0.20081911005914888,0.13556607174655966,0.09555559873580932,0.22155331075191498,true
0.20081911005914888,0.13556607174655966,0.019288268089294434,0.07060150802135468,true
0.20081911005914888,0.13556607174655966,0.018401575088500977,0.07000844925642014,true
0.20081911005914888,0.13556607174655966,0.14589764595031737,0.13628549873828888,true
0.20081911005914888,0.13556607174655966,0.04342159271240235,0.31352078914642334,true
0.20081911005914888,0.13556607174655966,0.05553196907043457,0.10132235288619995,true
0.20081911005915087,0.13556607174655966,0.04743993282318115,0.09714897722005844,true
0.20081911005914888,0.13556607174655966,-0.002472312450408936,0.09865649044513702,true
0.2115138227841683,0.11925852245360136,0.12785312175750732,0.253012478351593,true
0.2115138227841683,0.11925852245360136,0.07980291366577148,0.3893292546272278,true
0.2115138227841683,0.11925852245360136,0.0807207727432251,0.38361480832099915,true
0.2115138227841703,0.11925852245360136,0.08540130138397217,0.10452836751937866,true
0.2115138227841703,0.11925852245360136,0.08546481132507325,0.1041296198964119,true
0.21151382278416941,0.11925852245360136,0.1182887601852417,0.10925033688545227,true
0.21151382278416941,0.11925852245360136,0.08786844968795776,0.3275022804737091,true
0.2115138227841683,0.11925852245360136,0.09752599239349366,0.3365296721458435,true
0.21151382278416875,0.11925852245360136,-0.002420738935470581,0.15190789103507996,true
0.21151382278417008,0.11925852245360136,-0.045760384798049926,0.14500664174556732,true
0.2115138227841703,0.11925852245360136,0.03816662073135376,0.05376850441098213,true
0.2115138227841703,0.11925852245360136,0.08594951629638672,0.08688513934612274,true
0.21151382278417052,0.11925852245360136,0.012595715522766114,0.11724497377872467,true
0.2115138227841683,0.11925852245360136,0.07885361671447753,0.3272016942501068,true
0.2115138227841683,0.11925852245360136,-0.005729461908340454,0.07515829056501389,true
0.2115138227841683,0.11925852245360136,-0.0020079469680786134,0.07300584018230438,true
0.2115138227841683,0.11925852245360136,-0.020253533124923707,0.18467140197753906,true
0.2115138227841692,0.11925852245360136,0.06881456136703491,0.09839377552270889,true
0.2115138227841703,0.11925852245360136,0.07020349025726319,0.4182959496974945,true
0.21151382278417052,0.11925852245360136,0.01315004587173462,0.12632955610752106,true
0.21151382278416875,0.11925852245360136,0.06247172117233277,0.23997505009174347,true
0.21151382278417052,0.11925852245360136,0.13250379800796508,0.2879672646522522,true
0.21151382278417052,0.11925852245360136,0.05749814987182617,0.3069438338279724,true
0.1510420709375876,0.19221379662497085,0.05158035516738892,0.27491694688796997,true
0.1510420709375876,0.19221379662497085,0.1382763171195984,0.2086835652589798,true
0.15104207093758737,0.19221379662497085,0.00039215803146362303,-0.03252028673887253,true
0.15104207093758737,0.19221379662497085,0.09590200424194337,0.2183818370103836,true
0.15104207093758737,0.19221379662497085,0.09644953966140747,0.21985353529453278,true
0.15104207093758737,0.19221379662497085,0.09644953966140747,0.21985353529453278,true
0.15104207093758737,0.19221379662497085,0.12228712320327759,0.4928361177444458,true
0.15104207093758715,0.19221379662497085,0.12192282438278199,0.4923662841320038,true
0.15104207093758715,0.19221379662497085,-0.01733153223991394,0.22597475349903107,true
0.15104207093758693,0.19221379662497085,-0.015909398794174193,0.22997567057609558,true
0.15104207093758693,0.19221379662497085,0.0822376275062561,0.32360175251960754,true
0.1510420709375867,0.19221379662497085,0.08714388370513916,0.3195359706878662,true
0.1510420709375867,0.19221379662497085,0.08680028676986694,0.4092935025691986,true
0.1510420709375867,0.19221379662497085,0.07851948738098144,0.40670856833457947,true
0.1510420709375876,0.19221379662497085,0.07851948738098144,0.40670856833457947,true
0.15104207093758715,0.19221379662497085,-0.017132803201675414,-0.03811080753803253,true
0.15104207093758715,0.19221379662497085,0.0011354780197143555,0.08390616625547409,true
0.15104207093758693,0.19221379662497085,0.0012602782249450683,0.0842810869216919,true
0.15104207093758693,0.19221379662497085,0.08935413837432861,0.39265987277030945,true
0.1510420709375867,0.19221379662497085,-0.052512325048446655,0.2293802946805954,true
0.15104207093758737,0.19221379662497085,-0.04841004490852356,0.23873533308506012,true
0.1510420709375876,0.19221379662497085,0.10188743114471435,0.14758612215518951,true
0.1510420709375876,0.19221379662497085,0.0745858120918274,0.21371011435985565,true
0.15104207093758715,0.19221379662497085,0.09206735372543336,0.42855894565582275,true
0.15104207093758737,0.19221379662497085,-0.0021103692054748537,0.14314530789852142,true
0.17702914541416204,0.18431906023955658,0.008611531257629394,0.09391039609909058,true
0.1770291454141616,0.18431906023955658,0.06120519161224365,0.41219550371170044,true
0.1770291454141616,0.18431906023955658,0.08264885663986206,0.44375067949295044,true
0.17702914541416204,0.18431906023955658,0.08258711338043213,0.44428858160972595,true
0.17702914541416204,0.18431906023955658,0.08258711338043213,0.44428858160972595,true
0.17702914541416204,0.18431906023955658,0.0364315128326416,0.3776496648788452,true
0.17702914541416193,0.18431906023955658,0.036236634254455564,0.37721937894821167,true
0.17702914541416193,0.18431906023955658,0.12267316579818725,0.3460841476917267,true
0.17702914541416193,0.18431906023955658,0.12421008825302124,0.3308448791503906,true
0.17702914541416248,0.18431906023955658,0.12421008825302124,0.3308448791503906,true
0.17702914541416204,0.18431906023955658,-0.016180810928344728,0.3787786662578583,true
0.17702914541416226,0.18431906023955658,0.14677509784698486,0.3986104428768158,true
0.17702914541416226,0.18431906023955658,0.0681790542602539,0.4646696448326111,true
0.17702914541416226,0.18431906023955658,0.06979805946350098,0.4760723412036896,true
0.17702914541416404,0.18431906023955658,0.09439751625061035,0.06403016299009323,true
0.17702914541416404,0.18431906023955658,0.0872620701789856,0.06627064943313599,true
0.1770291454141616,0.18431906023955658,0.0872620701789856,0.06627064943313599,true
0.1770291454141616,0.18431906023955658,0.07901139497756958,0.40007513761520386,true
0.17702914541416404,0.18431906023955658,0.06662328720092774,0.40222784876823425,true
0.17702914541416404,0.18431906023955658,0.13462476730346679,0.11672960221767426,true
0.17702914541416226,0.18431906023955658,0.13413186311721803,0.09826283901929855,true
0.17702914541416204,0.18431906023955658,-0.013558489084243775,0.13174065947532654,true
0.17702914541416226,0.18431906023955658,0.11814615726470948,0.35497409105300903,true
0.17702914541416248,0.18431906023955658,0.11734575986862182,0.4393482506275177,true
0.17702914541416248,0.18431906023955658,0.005546519756317139,0.2709366977214813,true
0.17702914541416204,0.18431906023955658,0.0055475616455078125,0.25568708777427673,true
0.17702914541416204,0.18431906023955658,0.007979149818420411,0.0182656217366457,true
0.17702914541416204,0.18431906023955658,0.003633248805999756,0.03115309402346611,true
0.1770291454141616,0.18431906023955658,0.003633248805999756,0.03115309402346611,true
0.1770291454141616,0.18431906023955658,0.11670486211776733,0.3672122061252594,true
0.17702914541416193,0.18431906023955658,0.12199978828430176,0.36485156416893005,true
0.17702914541416193,0.18431906023955658,0.09009718656539917,0.373972088098526,true
0.1770291454141616,0.18431906023955658,0.08860243797302246,0.37398624420166016,true
0.1770291454141616,0.18431906023955658,0.07391415596008301,0.37516263127326965,true
0.18880345013572286,0.18767217472802544,0.07660671472549438,0.375489205121994,true
0.18880345013572308,0.18767217472802544,-0.012951701879501343,0.10848487168550491,true
0.18880345013572108,0.18767217472802544,0.014475510120391846,0.02104000188410282,true
0.18880345013572286,0.18767217472802544,0.012455830574035645,0.14616091549396515,true
0.18880345013572286,0.18767217472802544,0.0024062204360961914,0.36210107803344727,true
0.1888034501357233,0.18767217472802544,0.0003912067413330078,0.3676396310329437,true
0.18880345013572308,0.18767217472802544,0.11029642820358276,0.13034647703170776,true
0.18880345013572308,0.18767217472802544,0.09374542951583863,0.41399088501930237,true
0.18880345013572242,0.18767217472802544,0.09989850997924805,0.410466730594635,true
0.18880345013572242,0.18767217472802544,0.11982142448425293,0.19041664898395538,true
0.18880345013572242,0.18767217472802544,0.10664265871047973,0.3821021020412445,true
0.18880345013572264,0.18767217472802544,0.11091571807861328,0.38270649313926697,true
0.18880345013572264,0.18767217472802544,0.11172114372253418,0.32638004422187805,true
0.18880345013572308,0.18767217472802544,0.03835221290588379,0.0539335235953331,true
0.18880345013572308,0.18767217472802544,0.03856770277023316,0.05356546863913536,true
0.18880345013572308,0.18767217472802544,0.03856770277023316,0.05356546863913536,true
0.18880345013572264,0.18767217472802544,0.030035219192504882,0.3464573919773102,true
0.18880345013572286,0.18767217472802544,0.022345035076141356,0.3462435007095337,true
0.18880345013572286,0.18767217472802544,0.14183101654052735,0.3782751262187958,true
0.1888034501357233,0.18767217472802544,0.14106183052062987,0.3369140625,true
0.18880345013572308,0.18767217472802544,0.038237876892089843,0.3456319272518158,true
0.18880345013572242,0.18767217472802544,0.056395514011383055,0.22573046386241913,true
0.18880345013572242,0.18767217472802544,-0.1046141004562378,0.42708462476730347,true
0.18880345013572242,0.18767217472802544,-0.10131525278091431,0.4254869520664215,true
0.18880345013572242,0.18767217472802544,0.10547583341598511,0.28286293148994446,true
0.18880345013572242,0.18767217472802544,0.10230454921722412,0.31458792090415955,true
0.18880345013572308,0.18767217472802544,0.0072676301002502445,0.037827782332897186,true
0.18880345013572286,0.18767217472802544,0.007255897521972656,0.03572317957878113,true
0.21606258803260203,0.20371000518424376,0.003762352466583252,0.22305810451507568,true
0.21606258803260203,0.20371000518424376,-0.006447572708129883,0.06559515744447708,true
0.21606258803260003,0.20371000518424376,-0.006629291772842407,0.0646774098277092,true
0.21606258803260203,0.20371000518424376,-0.04292710304260254,-0.014372851699590683,true
0.21606258803260203,0.20371000518424376,0.12815232515335084,0.2618259787559509,true
0.2160625880326016,0.20371000518424376,0.12480618476867676,0.2555341422557831,true
0.2160625880326016,0.20371000518424376,0.10242463827133179,0.2731078565120697,true
0.2160625880326007,0.20371000518424376,0.10247994899749756,0.2734091579914093,true
0.2160625880326007,0.20371000518424376,0.0642709732055664,0.4259463846683502,true
0.2160625880326007,0.20371000518424376,0.06608277320861816,0.41660305857658386,true
0.21606258803260092,0.20371000518424376,0.046061921119689944,0.49663645029067993,true
0.21606258803260092,0.20371000518424376,-0.009339653253555298,0.4530760943889618,true
0.21606258803260092,0.20371000518424376,-0.008745663166046143,0.45528173446655273,true
0.2160625880326016,0.20371000518424376,-0.008745663166046143,0.45528173446655273,true
0.2160625880326018,0.20371000518424376,0.05219892024993897,0.1022452861070633,true
0.21606258803260003,0.20371000518424376,-0.01912915349006653,0.09616941958665848,true
0.2160625880326018,0.20371000518424376,-0.056044397354125974,-0.003906874917447567,true
0.21606258803259804,0.20371000518424376,0.06921351432800293,0.13894842565059662,true
0.21606258803259804,0.20371000518424376,-0.07516578197479248,0.13025084137916565,true
0.2160625880326018,0.20371000518424376,-0.06871383786201476,0.12958933413028717,true
0.21606258803259848,0.20371000518424376,-0.02451406717300415,0.15099585056304932,true
0.15766736396847436,0.24718496088438413,0.04487973928451538,0.21228574216365814,true
0.15766736396847436,0.24718496088438413,0.045005671977996826,0.21233080327510834,true
0.15766736396847436,0.24718496088438413,0.045005671977996826,0.21233080327510834,true
0.15766736396847436,0.24718496088438413,0.045005671977996826,0.21233080327510834,true
0.15766736396847436,0.24718496088438413,0.10625498533248902,0.495281845331192,true
0.15766736396847436,0.24718496088438413,0.053310389518737795,0.3823084533214569,true
0.15766736396847436,0.24718496088438413,0.06196844339370727,0.39152395725250244,true
0.15766736396847436,0.24718496088438413,0.06196844339370727,0.39152395725250244,true
0.15766736396847436,0.24718496088438413,0.02535799741744995,0.12575489282608032,true
0.15766736396847547,0.24718496088438413,0.024385597705841065,0.12014671415090561,true
0.15766736396847392,0.24718496088438413,0.018370680809020996,0.05973692983388901,true
0.15766736396847547,0.24718496088438413,0.01210756778717041,0.441477507352829,true
0.15766736396847392,0.24718496088438413,0.015046510696411133,0.08070027083158493,true
0.15766736396847392,0.24718496088438413,0.06079260349273682,0.1848679929971695,true
0.15766736396847392,0.24718496088438413,0.06989826202392578,0.18047024309635162,true
0.15766736396847392,0.24718496088438413,0.06989826202392578,0.18047024309635162,true
0.1576673639684757,0.24718496088438413,-0.062138679027557375,0.07514971494674683,true
0.15766736396847347,0.24718496088438413,0.08144012928009034,0.2370205521583557,true
0.1576673639684757,0.24718496088438413,-0.04406980633735657,0.39433109760284424,true
0.15766736396847436,0.24718496088438413,-0.0847919774055481,0.477098673582077,true
0.15766736396847436,0.24718496088438413,0.010472934246063232,0.06624992191791534,true
0.15766736396847547,0.24718496088438413,-0.006037521362304688,0.09627513587474823,true
0.15766736396847347,0.24718496088438413,-0.005266863107681275,0.09719233214855194,true
0.1778188352288147,0.24854403006575154,0.0005159616470336914,0.21930275857448578,true
0.1778188352288147,0.24854403006575154,0.00023415327072143555,0.07962643355131149,true
0.1778188352288116,0.24854403006575154,0.0005016469955444336,0.08766153454780579,true
0.17781883522881392,0.24854403006575154,0.0011066675186157226,0.38505101203918457,true
0.17781883522881392,0.24854403006575154,-0.12297429442405701,0.4292812943458557,true
0.1778188352288147,0.24854403006575154,-0.1301821517944336,0.41718873381614685,true
0.1778188352288147,0.24854403006575154,0.14392186164855958,0.17607668042182922,true
0.17781883522881314,0.24854403006575154,0.14541719913482667,0.14974430203437805,true
0.17781883522881314,0.24854403006575154,0.025956132411956788,0.08344706147909164,true
0.17781883522881115,0.24854403006575154,0.025885419845581056,0.08036207407712936,true
0.17781883522881115,0.24854403006575154,0.03408513307571411,0.10754510760307312,true
0.1778188352288147,0.24854403006575154,0.033838431835174564,0.10769767314195633,true
0.17781883522881314,0.24854403006575154,-0.03503572106361389,-0.07005629688501358,true
0.1778188352288138,0.24854403006575154,0.03483212232589722,0.12801571190357208,true
0.1778188352288138,0.24854403006575154,0.029772164821624755,0.37221699953079224,true
0.17781883522881403,0.24854403006575154,-0.03864838123321533,0.4922761917114258,true
0.17781883522881403,0.24854403006575154,-0.06227430582046509,0.4330331087112427,true
0.17781883522881403,0.24854403006575154,0.051284821033477784,0.37297916412353516,true
0.17781883522881403,0.24854403006575154,0.056601581573486326,0.5544911623001099,true
0.17781883522881403,0.24854403006575154,0.06217265367507935,0.5515472292900085,true
0.17781883522881403,0.24854403006575154,0.06217265367507935,0.5515472292900085,true
0.1778188352288116,0.24854403006575154,-0.03361433506011963,0.1523233950138092,true
0.1778188352288116,0.24854403006575154,-0.03361587524414063,0.1512611210346222,true
0.1778188352288116,0.24854403006575154,-0.03361587524414063,0.1512611210346222,true
0.1778188352288116,0.24854403006575154,0.0018114829063415527,0.1635075807571411,true
0.1778188352288116,0.24854403006575154,0.0017012691497802735,0.16352012753486633,true
0.17781883522881392,0.24854403006575154,0.0017012691497802735,0.16352012753486633,true
0.17781883522881514,0.24854403006575154,0.07269614219665528,0.3870086669921875,true
0.1778188352288138,0.24854403006575154,-0.03558343768119812,0.02392547018826008,true
0.1778188352288138,0.24854403006575154,0.08233832836151123,0.16761723160743713,true
0.17781883522881337,0.24854403006575154,0.08389318943023681,0.1738961786031723,true
0.17781883522881514,0.24854403006575154,0.07810898303985596,0.47578689455986023,true
0.17781883522881514,0.24854403006575154,-0.03500412464141846,0.19821573793888092,true
0.1961145382900552,0.21627890299030028,-0.13035496950149536,0.4578959047794342,true
0.1961145382900552,0.21627890299030028,-0.13149620056152345,0.45685628056526184,true
0.19611453829005654,0.21627890299030028,-0.035979740619659424,-0.05588768422603607,true
0.19611453829005654,0.21627890299030028,-0.08834928154945373,0.4503328204154968,true
0.1961145382900552,0.21627890299030028,-0.08815619230270386,0.44753995537757874,true
0.196114538290053,0.21627890299030028,-0.03613842487335205,0.46551087498664856,true
0.1961145382900552,0.21627890299030028,-0.005046707391738891,0.29675501585006714,true
0.1961145382900552,0.21627890299030028,-0.047862486839294435,0.48784181475639343,true
0.19611453829005543,0.21627890299030028,-0.058290574550628665,0.4816720485687256,true
0.19611453829005543,0.21627890299030028,-0.010808196067810059,0.17275692522525787,true
0.19611453829005632,0.21627890299030028,-0.010621516704559327,0.17461387813091278,true
0.19611453829005632,0.21627890299030028,0.1534764838218689,0.09835892170667648,true
0.1961145382900552,0.21627890299030028,0.14977320194244384,0.09843848645687103,true
0.1961145382900552,0.21627890299030028,0.05958215475082398,0.48100560903549194,true
0.1961145382900552,0.21627890299030028,-0.0852105450630188,0.48729342222213745,true
0.196114538290053,0.21627890299030028,-0.08727547883987427,0.48800742626190186,true
0.196114538290053,0.21627890299030028,-0.004915406703948974,0.34629130363464355,true
0.19611453829005454,0.21627890299030028,-0.007825697660446168,0.36422669887542725,true
0.19611453829005654,0.21627890299030028,0.008757078647613525,0.17165155708789825,true
0.19611453829005632,0.21627890299030028,0.023103666305541993,0.12850312888622284,true
0.19611453829005254,0.21627890299030028,0.008868062496185302,0.12543369829654694,true
0.19611453829005254,0.21627890299030028,-0.004414054155349731,0.13492991030216217,true
0.196114538290053,0.21627890299030028,-0.0017994332313537597,0.12809230387210846,true
0.196114538290053,0.21627890299030028,-0.00602676272392273,0.20564965903759003,true
0.19611453829005476,0.21627890299030028,-0.005710458755493164,0.20275481045246124,true
0.19611453829005476,0.21627890299030028,0.00803260326385498,0.39647015929222107,true
0.19611453829005543,0.21627890299030028,0.0008238625526428223,0.3941347002983093,true
0.19611453829005476,0.21627890299030028,0.028599495887756347,0.4021255373954773,true
0.22128025759047232,0.24315282577839903,0.011964874267578125,0.4373630881309509,true
0.22128025759047032,0.24315282577839903,-0.012902393341064453,0.11859391629695892,true
0.22128025759047032,0.24315282577839903,-0.1015926218032837,0.07768706977367401,true
0.22128025759047232,0.24315282577839903,-0.10576602220535278,0.07865919172763824,true
0.22128025759047232,0.24315282577839903,-0.011837741136550903,0.01806041970849037,true
0.22128025759047432,0.24315282577839903,0.007306723594665527,0.15981169044971466,true
0.22128025759047032,0.24315282577839903,0.007342872619628907,0.1598176509141922,true
0.22128025759047432,0.24315282577839903,0.05246673107147217,0.08043856173753738,true
0.22128025759047387,0.24315282577839903,-0.053436729907989505,0.12268827110528946,true
0.22128025759047387,0.24315282577839903,0.02449345588684082,0.07016906142234802,true
0.22128025759047298,0.24315282577839903,0.02430342435836792,0.07351638376712799,true
0.22128025759047298,0.24315282577839903,0.050994224548339843,0.19239452481269836,true
0.22128025759047298,0.24315282577839903,0.051739718914031986,0.19223763048648834,true
0.22128025759047298,0.24315282577839903,0.051739718914031986,0.19223763048648834,true
0.22128025759047032,0.24315282577839903,0.0104022216796875,0.03132176026701927,true
0.22128025759047032,0.24315282577839903,0.010570147037506104,0.031346894800662994,true
0.22128025759047076,0.24315282577839903,0.010570147037506104,0.031346894800662994,true
0.2212802575904741,0.24315282577839903,-0.013983398675918579,0.5221316814422607,true
0.22128025759047032,0.24315282577839903,0.013506190776824951,0.060132864862680435,true
0.22128025759047032,0.24315282577839903,0.013419125080108642,0.06210046261548996,true
0.22128025759047232,0.24315282577839903,0.013419125080108642,0.06210046261548996,true
0.22128025759047232,0.24315282577839903,0.05171195030212403,0.192811518907547,true
0.22128025759047332,0.24315282577839903,0.05193794965744018,0.1926262229681015,true
0.22128025759047332,0.24315282577839903,-0.04245154857635498,0.4430921971797943,true
0.22128025759047332,0.24315282577839903,-0.045732434988021854,0.45630499720573425,true
0.22128025759047076,0.24315282577839903,0.05099254846572876,0.10510683804750443,true
0.22128025759047232,0.24315282577839903,0.05098937749862671,0.10501730442047119,true
0.22128025759047387,0.24315282577839903,0.09916977643966675,0.18662326037883759,true
0.14111490417459172,0.27376975043463014,-0.110428204536438,0.4726417362689972,true
0.14111490417458794,0.27376975043463014,-0.051608214378356936,0.3224765360355377,true
0.14111490417459172,0.27376975043463014,0.03750153303146363,0.21996375918388367,true
0.14111490417459094,0.27376975043463014,-0.09161007761955262,0.5097423195838928,true
0.14111490417458794,0.27376975043463014,-0.08828475236892701,0.5152695775032043,true
0.14111490417459172,0.27376975043463014,0.0056020569801330565,0.44491028785705566,true
0.14111490417458994,0.27376975043463014,0.13822956800460814,0.11445610225200653,true
0.14111490417458994,0.27376975043463014,0.015437626838684082,0.1368587613105774,true
0.14111490417458794,0.27376975043463014,0.016040563583374023,0.13653899729251862,true
0.14111490417459194,0.27376975043463014,-0.10845409631729126,0.31288379430770874,true
0.14111490417459105,0.27376975043463014,0.04861459493637085,0.21386750042438507,true
0.14111490417459105,0.27376975043463014,0.05797393083572388,0.4549202620983124,true
0.14111490417458794,0.27376975043463014,0.05708479166030884,0.4469336271286011,true
0.14111490417458794,0.27376975043463014,0.011852757930755615,0.3438207507133484,true
0.14111490417458838,0.27376975043463014,0.010530192852020264,0.347989559173584,true
0.14111490417459194,0.27376975043463014,-0.0031125760078430176,0.12107200920581818,true
0.14111490417459194,0.27376975043463014,-0.009645696878433228,0.2888372242450714,true
0.14111490417459194,0.27376975043463014,-0.009341646432876587,0.3071542978286743,true
0.14111490417459094,0.27376975043463014,-0.0018171453475952148,0.48886966705322266,true
0.14111490417459194,0.27376975043463014,-0.07169139862060547,0.5263472199440002,true
0.17402379532254286,0.26572026758970346,0.036850805282592776,0.18325932323932648,true
0.17402379532254286,0.26572026758970346,-0.009165000915527344,0.2209843397140503,true
0.17402379532254286,0.26572026758970346,-0.009042646884918213,0.23248231410980225,true
0.17402379532254242,0.26572026758970346,-0.037136985063552855,0.5175756812095642,true
0.17402379532254242,0.26572026758970346,-0.06034395694732666,-0.10366904735565186,true
0.1740237953225433,0.26572026758970346,-0.05936172723770142,-0.10369713604450226,true
0.1740237953225433,0.26572026758970346,-0.007172659635543823,0.292534202337265,true
0.17402379532254286,0.26572026758970346,-0.013267688751220703,0.320945143699646,true
0.17402379532254242,0.26572026758970346,0.00580930233001709,0.13754160702228546,true
0.17402379532254242,0.26572026758970346,-0.058057485818862914,0.15581919252872467,true
0.1740237953225442,0.26572026758970346,-0.06055199503898621,0.14684469997882843,true
0.17402379532254242,0.26572026758970346,0.02378945589065552,0.48566800355911255,true
0.17402379532254242,0.26572026758970346,-0.002405563592910767,0.05008253455162048,true
0.17402379532254442,0.26572026758970346,-0.002095375061035156,0.04979204759001732,true
0.1740237953225442,0.26572026758970346,0.02037649869918823,0.033346451818943024,true
0.17402379532254442,0.26572026758970346,0.03942852973937988,0.11151648312807083,true
0.17402379532254442,0.26572026758970346,0.06865293264389039,0.13032613694667816,true
0.17402379532254342,0.26572026758970346,0.12825723886489868,0.10689521580934525,true
0.17402379532254242,0.26572026758970346,-0.10359671831130982,0.23838278651237488,true
0.17402379532254286,0.26572026758970346,-0.10867352724075317,0.08888548612594604,true
0.17402379532254286,0.26572026758970346,0.0454571270942688,0.012245477177202702,true
0.17402379532254353,0.26572026758970346,0.04928674936294556,0.010908009484410286,true
0.20471231667942902,0.29378308246723783,-0.015868334770202636,0.48568278551101685,true
0.20471231667942902,0.29378308246723783,-0.013224155902862548,0.06558304280042648,true
0.20471231667943057,0.29378308246723783,-0.0867640471458435,0.10985352843999863,true
0.20471231667943057,0.29378308246723783,-0.013355796337127687,0.04202130436897278,true
0.20471231667943057,0.29378308246723783,-0.01288513422012329,0.03839770704507828,true
0.20471231667943013,0.29378308246723783,0.06415342092514038,0.5826014280319214,true
0.20471231667943035,0.29378308246723783,-0.24021833419799804,0.5345518589019775,true
0.20471231667942857,0.29378308246723783,0.020951712131500246,0.15576185286045074,true
0.20471231667942857,0.29378308246723783,-0.02071049213409424,0.08019362390041351,true
0.20471231667942857,0.29378308246723783,-0.019140251874923707,0.0815296545624733,true
0.20471231667943057,0.29378308246723783,-0.019140251874923707,0.0815296545624733,true
0.20471231667942857,0.29378308246723783,-0.06959973812103272,0.5425624847412109,true
0.20471231667943013,0.29378308246723783,0.03157191514968872,0.12342289090156555,true
0.20471231667943013,0.29378308246723783,0.009021627902984618,0.18461114168167114,true
0.20471231667943035,0.29378308246723783,0.007477774620056153,0.18876886367797852,true
0.2047123166794308,0.29378308246723783,0.0571189022064209,0.15609218180179596,true
0.22343716582488382,0.28536525115412537,-0.11168304681777955,0.5820500254631042,true
0.22343716582488538,0.28536525115412537,-0.10493966817855835,0.5325590968132019,true
0.2234371658248847,0.28536525115412537,-0.10924285173416137,0.36545419692993164,true
0.22343716582488404,0.28536525115412537,-0.06265368938446045,0.48866212368011475,true
0.2234371658248856,0.28536525115412537,-0.05525507569313049,0.03932434320449829,true
0.22343716582488404,0.28536525115412537,0.014649369716644288,0.36181962490081787,true
0.22343716582488404,0.28536525115412537,-0.15959253191947936,0.11205624788999557,true
0.22343716582488382,0.28536525115412537,-0.1604066777229309,0.10225539654493332,true
0.22343716582488404,0.28536525115412537,-0.07660485744476318,0.0665908232331276,true
0.22343716582488227,0.28536525115412537,-0.11858388662338257,0.12291300296783447,true
0.22343716582488182,0.28536525115412537,0.04942169666290283,0.1296572983264923,true
0.22343716582488182,0.28536525115412537,0.04967541933059692,0.13005082309246063,true
0.2234371658248847,0.28536525115412537,0.0932168745994568,0.5658695101737976,true
0.2234371658248847,0.28536525115412537,-0.09890101432800293,0.18717695772647858,true
0.22128025759047343,0.24315282577839903,-0.003977094888687134,-0.05346904695034027,false
0.22128025759047298,0.24315282577839903,-0.14015110611915588,-0.03024958074092865,false
0.20471231667943013,0.29378308246723783,-0.020678374767303467,-0.07865997403860092,false
0.20471231667943013,0.29378308246723783,-0.047691956758499146,-0.060466621071100235,false
0.22343716582488382,0.28536525115412537,-0.02894028425216675,-0.15529923141002655,false
0.22343716582488427,0.28536525115412537,-0.029816445112228394,-0.15675905346870422,false
0.22343716582488427,0.28536525115412537,-0.09686611413955688,0.04493553936481476,false
0.22343716582488427,0.28536525115412537,-0.08129920244216919,0.03479527682065964,false
0.2234371658248847,0.28536525115412537,-0.09030200839042664,0.02566724456846714,false
0.22343716582488182,0.28536525115412537,-0.11788142681121826,-0.10639676451683044,false
0.228,0.23594113233686723,-0.06267186220968059,0.023893247325431986,false
0.21734104729702067,0.23594113233686723,-0.06267186220968059,0.007200558323027129,false
0.19568598250688987,0.27505019884792326,-0.07123657137792838,0.009517831964003687,false
0.1961145401000977,0.2945984590968338,-0.061570151121600525,0.01982822954979424,false
0.18910684115223736,0.30339300620123805,-0.08837413529281252,0.048122279719068295,false
0.1867476684161792,0.3068263153881563,-0.08837413529281252,0.048104630043562024,false
0.15704267064327915,0.3141592653589793,-0.3597764725233793,0.15298467988582942,false
0.15704267064327906,0.3141592653589793,-0.3787338686025112,0.16215086734949896,false
0.1971145401000977,0.3020211766861886,-0.12925061477194122,0.06856972656142293,false
0.19857743816271528,0.28988308801339785,-0.1399258053821144,0.07305871240535719,false
0.19711454010009766,0.3141592653589793,-0.36564580228691335,0.15582589584342732,false
0.1971145401000977,0.3141592653589793,-0.38,0.1627619465135657,false
0.228,0.24711231525918084,0.08528142758869292,-0.03870153313926958,false
0.228,0.24711231525918084,0.08650584013942106,-0.039312612303504836,false
0.228,0.24711235031834775,0.08405707884498276,-0.03809040942490213,false
0.228,0.2428368014531338,-0.1107876742171583,0.0547958650427067,false
0.22498687835262782,0.2495232824443068,-0.12606181600128188,0.06449546768125189,false
0.22586020762981204,0.2572136099051604,-0.021393914116491358,0.011927836116948587,false
0.22587577285301094,0.2572136099051604,-0.021393914116491358,0.011943401340147292,false
0.21686087142382127,0.2643318168368878,-0.03385319283759495,0.02087807414913695,false
0.22235448233515598,0.3141592653589793,0.07919292417425866,-0.03521907201463864,false
0.15704267064327912,0.3141592653589793,0.07919292417425867,-0.10053088370651547,false
0.2279959170207524,0.2427667257577287,0.008540112095626873,-0.004776725297095646,false
0.228,0.24508565043496472,0.008258187987327009,-0.0023327028270673233,false
0.22799999394102816,0.2200456248959626,0.008304590067648446,-0.0277292712665644,false
0.17420702210763916,0.2937830686569214,-0.07874218217758987,-0.09080057962664445,false
0.227806011871396,0.27542190357300234,-0.011205496545309283,0.009733396367211353,false
0.21915886021996134,0.2937830686569214,-0.06631315918402486,0.03733118623785192,false
0.228,0.2920690711231242,-0.08882238416896966,0.04863638131904502,false
0.19521210003760298,0.2937830686569214,-0.15472578624756703,0.07971028374764486,false
0.17420702210763928,0.2937830686569214,-0.36581127770004546,0.15590595637840446,false
0.17420702210763916,0.2937830686569214,-0.38,0.16276194651358405,false
0.22343689906351544,0.2542735072639247,0.07916030355705528,-0.03563673666787046,false
0.22342436026349563,0.2542744383234992,0.07916030355705528,-0.03565551771288311,false
0.2234371602535248,0.2530513489354542,0.07916030355705528,-0.036877096095719875,false
0.22341659669730282,0.2543145750173182,0.07916030355705528,-0.03562696325366954,false
0.2234371602535248,0.23594113233686723,-0.033322643993413815,0.0018947363263979978,false
0.2234371602535248,0.27915889923466614,-0.03873182451208972,0.023483786893950198,false
0.2234371602535248,0.27915889923466614,-0.038780252796144984,0.023483786893950198,false
0.21199836337702074,0.3141592653589793,-0.06935260283894637,0.03892082146694187,false
0.21199279799530776,0.3141592653589793,-0.06936385376698553,0.03892638684865485,false
0.21183176068419404,0.3140281416219806,-0.06995372138020992,0.03921854789676715,false
0.21183843500094351,0.3140263666163663,-0.06995372138021,0.039218600430663386,false
0.21203678410656113,0.3141592653589793,-0.0693526028389464,0.038920634707077295,false
0.21258466088987119,0.31385907019453396,-0.06935260283894637,0.038924458803556716,false
0.20831180839721297,0.31295848470119797,-0.08017475673980039,0.04428087231288363,false
0.20438284930280531,0.3135588750300886,-0.08739209206216558,0.0478489524952817,false
0.20437733247746495,0.3135663017930286,-0.08739209206216558,0.04784894719078334,false
0.2234371602535248,0.27573428430997554,-0.12378161422951361,0.06590700563944157,false
0.228,0.24694055729310174,0.08654254392652065,-0.03950540040600191,false
0.228,0.24571839896463124,0.08658063513226107,-0.040765649940212825,false
0.22799122435895672,0.24571839896463124,0.0865913186316205,-0.04078510908061554,false
0.228,0.24536232032879965,0.08895486034010466,-0.0423121123907568,false
0.228,0.24203792997639936,0.10610586963045403,-0.05424354838052934,false
0.2280000000000001,0.27622794914245596,-0.07698687326908094,0.03474987840652466,false
0.228,0.27622794914245596,-0.18414200119008134,0.09407307028770495,false
0.22564167197519022,0.3141592653589793,-0.37999999999999945,0.13436271452903797,false
0.228,0.2345585148385378,-0.003834261837079655,-0.006919555897393598,false
0.228,0.23356350545703192,-0.003865406842014694,-0.007914565278899471,false
0.228,0.2295834679310102,-0.0042921671680252625,-0.011743542173768912,false
0.22772158377017593,0.23986523153990058,-0.004955510307307391,-0.0014169737449983288,false
0.2277146021200762,0.23986523153990058,-0.004955510307307391,-0.0014331483207720708,false
0.22785080065047633,0.22925179813717503,-0.004955510307307391,-0.012164293914157104,false
0.2276041114989293,0.23986523153990058,-0.004955510307307391,-0.0019112304229290111,false
0.22759969630855278,0.23986523153990058,-0.004955510307307391,-0.0019288911844351497,false
0.228,0.23986523153990058,-0.010925665136557391,0.002015813745500028,false
0.228,0.23986523153990058,-0.010925665136557391,0.0020053111808989166,false
0.22795902692150594,0.23643323580162134,-0.1263204537426784,0.05607788625614443,false
0.1758660840094943,0.3141592653589793,-0.3793338958320856,0.18513830249473345,false
0.2184278143847431,0.2625522651039559,0.07934594660007055,-0.03569894622398495,false
0.21843119095416122,0.2625522651039559,0.07934594660007055,-0.03569891731512087,false
0.21721234771485162,0.26344204097042184,0.07919292417425867,-0.03598990809162139,false
0.2168608491914823,0.2643318168368878,0.07919292417425867,-0.035622775057949974,false
0.21724048177093133,0.26166248923749,0.08549701668049628,-0.04096024043794483,false
0.21190227169538647,0.27169613210366794,0.0938537068966094,-0.042928947799260625,false
0.21115912275444249,0.27260588219098225,0.0938537068966094,-0.04310897373006495,false
0.20879360471635566,0.27505019884792326,0.0938537068966094,-0.04419496092261316,false
0.2084709982050651,0.27505019884792326,0.0938537068966094,-0.04458614634590663,false
0.228,0.23594113233686723,0.24905234037071974,-0.13132086038971175,false
0.1570426706432791,0.3141592653589793,0.38,-0.2127619465135986,false
0.20666071107293302,0.29752499424911855,-0.12606181204319,0.0670437803089375,false
0.20669353318727504,0.29752499424911855,-0.12606181204319,0.06701095819459549,false
0.20450990206060193,0.28203089048949925,-0.03818059405515721,0.02273432935347619,false
0.19757135195770784,0.2920710076362118,-0.03349369954963488,0.020717852004457193,false
0.19757108282875294,0.2920710076362118,-0.03349369954963488,0.020716775488637873,false
0.19756777719252366,0.2920710076362118,-0.03349369954963488,0.020703552943720706,false
0.19704369517093526,0.292740348779326,-0.03349369954963488,0.020717254611991143,false
0.1967700751576321,0.292740348779326,-0.03349369954963488,0.020338330843269692,false
0.18906371600864655,0.30344980706915264,-0.028807172789826918,0.018366473764248492,false
0.15704267064327912,0.3141592653589793,-0.313804924464428,-0.2798986234483263,false
0.15704267064327906,0.3141592653589793,-0.33578888125560236,-0.30188257995989554,false
0.2221176592544093,0.3052615066943205,0.19454277153419497,-0.09267259444273451,false
0.15704267064327906,0.3141592653589793,0.2134225665270088,-0.16772961938201947,false
0.20228418607209295,0.2853652536869049,-0.14609163235484354,0.07676546174977396,false
0.19305134350338496,0.2853652536869049,-0.1533247795871783,0.06753261918106597,false
0.18093494137295818,0.2853652536869049,-0.3780130285106125,0.15272680858603382,false
0.20237116507285818,0.2853652536869049,-0.3800000000000085,0.1312905398861126,false
0.20237116507285796,0.2853652536869049,-0.06842852959824101,0.03817357874064248,false
0.228,0.2452687346628329,-0.02182020388355002,0.01295063720022841,false
0.228,0.24675316620495613,-0.12918136746087,0.06804966247704314,false
0.228,0.2461232026614606,-0.12920112010634183,0.0674196989335476,false
0.227256428148076,0.24360334848747842,-0.13381704616844822,0.06596388880617249,false
0.20770294761657712,0.2975249886512756,-0.09417632012329219,0.051159379326288446,false
0.2242330232885541,0.25216426426429667,-0.028353786223204624,0.01655675789843092,false
0.21658052934760655,0.2645632644832332,-0.053162402843373785,0.02970648079801194,false
0.228,0.25960523708774874,-0.04800646297023467,0.02650753673031167,false
0.228,0.25181180447757295,-0.0557998955804104,0.018714104120135883,false
0.22145587795579197,0.24297719604170565,0.07295547666498917,-0.047106651036028624,false
0.22799999999947332,0.22162257524652357,0.38,-0.35588641361127243,false
0.2189876677572764,0.2755863256871663,0.09099837731825693,-0.04141300465608144,false
0.21874484103520084,0.2758876767783523,0.09099837731825693,-0.04141295209330831,false
0.21890382264011332,0.3141592653589793,0.38,-0.32907524436712166,false
0.18041472808546333,0.3141592653589793,0.38,-0.3290752443671088,false
0.228,0.2830308804512024,-0.07972467648982577,0.030684750318527187,false
0.228,0.285247877188086,-0.08415866996359689,0.03290174705541077,false
0.22388553247159937,0.2830308804512024,-0.061312990993680205,0.03479933346163688,false
0.19950825984199247,0.28908396260442776,0.10829282410335857,-0.050391928265278274,false
0.1994914270085674,0.28908396260442776,0.10829282410335857,-0.050415522175786875,false
0.19777907225096983,0.28629781785392205,0.10829282410335857,-0.05562918339962297,false
0.19778021159552972,0.28629781785392205,0.10829282410335857,-0.055647292253872604,false
0.19775980562797701,0.28629781785392205,0.10829282410335857,-0.05572891612408304,false
0.19773236265122673,0.28629781785392205,0.10829282410335857,-0.05583868803108416,false
0.21449708009856405,0.3030146863569564,0.18252423059896075,-0.09052145300070957,false
0.21449708009856405,0.3030146863569564,0.18252423059896075,-0.0915393078587895,false
0.22193854434368102,0.23853085280967434,-0.16359703007128237,0.06721027438789823,false
0.22194755627301374,0.23853085280967434,-0.16359703007128237,0.067224334843354,false
0.21881349916689402,0.25047218110693303,-0.19569815764273052,0.08227565206189946,false
0.2138176095132913,0.2478185525964311,-0.2057495173376134,0.08461791320500017,false
0.21357271292193655,0.26108669514894073,-0.20641996834915605,0.09853999003957178,false
0.2137935612937849,0.24516492408592916,-0.20641996834915605,0.08271816522032932,false
0.21648970730965514,0.2372040385544234,-0.20641996834915605,0.07870721334629788,false
0.2176926786410831,0.23455041004392146,-0.20641996834915605,0.07784583417753171,false
0.1977515145884518,0.26613855049845386,0.044374168896274324,-0.044186071716077635,false
0.22228026187419891,0.31011168372540227,-0.11254967117817646,0.06050133138779923,false
0.2214366314747715,0.26208616549087743,-0.11047433961559477,0.05915663162921352,false
0.228,0.23612560371062544,0.05188175932202261,-0.03329259440226291,false
0.19829452349904375,0.26613855049845386,0.18974559354791443,-0.19873675534969765,false
0.22792473953291473,0.3045668522253816,-0.024716899516787582,0.0167000298131287,false
0.22799065592220336,0.24712717042535395,-0.022214411146325684,0.015020125990120231,false
0.228,0.24673970166851195,-0.022215109929076226,0.014642001311074876,false
0.22799640272107083,0.24673970166851195,-0.022219499200628653,0.014638404032145697,false
0.22720320121542859,0.24828957669587903,-0.02370337153259664,0.015679834801890807,false
0.22598491129758258,0.25061438923692964,-0.025253478806185038,0.016550840339812162,false
0.2247246834727079,0.25216426426429667,-0.026028543702447542,0.01682741422177947,false
0.22471070157372544,0.25216426426429667,-0.026080869974186363,0.016831433853100708,false
0.21670682964634078,0.2645632644832332,-0.034554824699206975,0.021229094686763483,false
0.22480193642577995,0.2832951011328677,0.09032870627523076,-0.04097121259310138,false
0.22462130263757907,0.2832951011328677,0.14758619073899706,-0.07061725076036424,false
0.22161857581138597,0.28629782795906067,0.054999249541781314,-0.052492696223135904,false
0.22161857581138597,0.28629782795906067,0.3799999998779929,-0.2975925849648132,false
0.19558208069659733,0.26613855049845386,-0.0021531786166454903,-0.023923411107617476,false
0.1807789116029649,0.3141592653589793,-0.12736817415746443,0.06754532945457856,false
0.18077891160296483,0.3141592653589793,-0.1314314059885137,0.06956848154135076,false
0.15704267064327915,0.3141592653589793,-0.18589442489786231,0.06768092867729109,false
0.1570426706432791,0.3141592653589793,-0.18742500151308245,0.06492956654257043,false
0.15704267064327912,0.3141592653589793,-0.3128049244880676,0.13014556719210102,false
0.22045587205886835,0.24397720193862926,0.07337156020000074,-0.047852157128520756,false
0.22045587205886835,0.24397720193862926,0.08032125827948741,-0.05132188019740602,false
0.21957655345447527,0.24397720193862926,0.07568792137125521,-0.05036774233885122,false
0.21133137258904852,0.24397720193862926,0.38,-0.3502004143295778,false
0.2233550005196102,0.3060772841445193,-0.1820567089825289,0.09508894463914846,false
0.2233544865846634,0.3060772841445193,-0.24746357109646747,0.1274168647598551,false
0.2233544865846634,0.30607728414451923,-0.3466046906654835,0.14659798408467342,false
0.2233544865846634,0.30607728414451923,-0.3779069658556117,0.16175169886178592,false
0.2233544865846634,0.3060772841445193,-0.3789533827664947,0.16225682268768968,false
0.2233544865846634,0.3141592653589793,-0.38,0.16276194651359321,false
0.21133137258904872,0.24397720193862926,-0.37938595689023374,0.07618333601951899,false
