-0.034385273438665265,0.34400828547317763,0.07509615659713745,0.1656309813261032,true
-0.03438527343866615,0.34400828547317763,0.17687169790267945,0.18512845039367676,true
-0.03438527343866504,0.34400828547317763,0.002316255569458008,0.5008866190910339,true
-0.03438527343866726,0.34400828547317763,0.10006090879440308,0.17145204544067383,true
-0.03438527343866504,0.34400828547317763,0.014819107055664063,0.5395511984825134,true
-0.0343852734386661,0.34400828547317763,0.13819437026977538,0.1816408485174179,true
-0.0343852734386661,0.34400828547317763,0.03261760950088501,0.5018321871757507,true
-0.03438527343866504,0.34400828547317763,0.12070404052734375,0.2609347105026245,true
-0.0343852734386661,0.34400828547317763,0.022119624614715578,0.43569615483283997,true
-0.03438527343866549,0.34400828547317763,0.0001883554458618164,0.48559802770614624,true
-0.034385273438665265,0.34400828547317763,0.06588920831680298,0.19983327388763428,true
-0.03438527343866593,0.34400828547317763,0.09739539384841919,0.1661970168352127,true
-0.0343852734386661,0.34400828547317763,0.1873159122467041,0.11016221344470978,true
-0.03438527343866593,0.34400828547317763,-0.007613741159439087,0.5265159606933594,true
-0.0027450952353834657,0.36154402480577486,0.034698805809020995,0.47556328773498535,true
-0.002745095235384576,0.36154402480577486,-0.0828134524822235,0.3879431188106537,true
-0.0027450952353836877,0.36154402480577486,0.08931196451187134,0.39614754915237427,true
-0.0027450952353823554,0.36154402480577486,0.05801316022872925,0.5881453156471252,true
-0.0027450952353823554,0.36154402480577486,0.06490620851516724,0.2923957109451294,true
-0.0027450952353836877,0.36154402480577486,0.06185859203338623,0.3039734959602356,true
-0.0027450952353839098,0.36154402480577486,0.015178513526916505,0.5548006296157837,true
-0.0027450952353834657,0.36154402480577486,0.06921573400497437,0.18329979479312897,true
-0.002745095235384132,0.36154402480577486,0.08283580780029297,0.17287106812000275,true
-0.002745095235384576,0.36154402480577486,0.00012511730194091796,0.11365552246570587,true
-0.002745095235384576,0.36154402480577486,0.0437445330619812,0.4149411618709564,true
-0.0027450952353827995,0.36154402480577486,0.04391331911087036,0.04115714132785797,true
-0.0027450952353839098,0.36154402480577486,0.0899157166481018,0.32845550775527954,true
0.006966856831596702,0.33636424892631056,0.017610554695129396,0.5739571452140808,true
0.006966856831596702,0.33636424892631056,0.17514972686767577,0.06571021676063538,true
0.006966856831596924,0.33636424892631056,0.17987406015396118,0.06154346093535423,true
0.0069668568315955914,0.33636424892631056,0.004371676445007324,0.5477911829948425,true
0.006966856831596924,0.33636424892631056,0.025420284271240233,0.4005061984062195,true
0.0069668568315955914,0.33636424892631056,-0.023072047233581545,0.2489098459482193,true
0.006966856831595369,0.33636424892631056,0.02095791816711426,0.5714083909988403,true
0.006966856831596924,0.33636424892631056,0.009569978713989258,0.5287806987762451,true
0.0069668568315955914,0.33636424892631056,0.15996170043945312,0.013614854775369167,true
0.006966856831596702,0.33636424892631056,0.013915607929229737,0.17587311565876007,true
0.0069668568315955914,0.33636424892631056,0.006044588088989258,0.17912623286247253,true
0.006966856831596702,0.33636424892631056,0.07110273122787476,0.5312391519546509,true
0.0069668568315958135,0.33636424892631056,-0.04651955962181091,0.32025057077407837,true
0.03271647893857399,0.35640621449472554,0.1153286623954773,0.19008055329322815,true
0.03271647893857377,0.35640621449472554,0.16129713058471679,0.18748709559440613,true
0.03271647893857377,0.35640621449472554,-0.02068775177001953,0.5715083479881287,true
0.03271647893857421,0.35640621449472554,0.015168819427490234,0.19577930867671967,true
0.03271647893857532,0.35640621449472554,0.09194246292114258,0.5826668739318848,true
0.03271647893857532,0.35640621449472554,-0.019889596700668335,0.06599818915128708,true
0.03271647893857532,0.35640621449472554,-0.01665774703025818,0.06504393368959427,true
0.03271647893857421,0.35640621449472554,0.17422620534896852,0.27793511748313904,true
0.03271647893857532,0.35640621449472554,0.08907763004302979,0.17153486609458923,true
0.03271647893857532,0.35640621449472554,0.018445606231689452,0.26786020398139954,true
0.032716478938575544,0.35640621449472554,0.01829715967178345,0.09897245466709137,true
0.03271647893857377,0.35640621449472554,0.010460114479064942,0.4517427980899811,true
0.03271647893857399,0.35640621449472554,0.050279760360717775,0.5949178338050842,true
-0.04282825388141831,0.36713441831880966,0.019500858783721924,0.6034804582595825,true
-0.04282825388142031,0.36713441831880966,-0.047774990797042845,0.19550979137420654,true
-0.04282825388141853,0.36713441831880966,-0.016247650384902956,0.1746838539838791,true
-0.04282825388141975,0.36713441831880966,0.07014233589172364,0.20269355177879333,true
-0.04282825388142031,0.36713441831880966,0.05529387474060059,0.18832410871982574,true
-0.04282825388142031,0.36713441831880966,-0.00793246865272522,0.25065165758132935,true
-0.04282825388141964,0.36713441831880966,-0.0036549925804138183,0.23803038895130157,true
-0.04282825388141964,0.36713441831880966,0.0469609808921814,0.15139633417129517,true
-0.04282825388141853,0.36713441831880966,0.13858956336975098,0.19796539843082428,true
-0.04282825388141831,0.36713441831880966,0.0665870475769043,0.20317526161670685,true
-0.01607815990615291,0.3864992801428948,-0.02926807165145874,0.17651745676994324,true
-0.016078159906155354,0.3864992801428948,-0.07263587117195129,0.45016783475875854,true
-0.016078159906155354,0.3864992801428948,-0.005390734672546387,0.49445727467536926,true
-0.016078159906155354,0.3864992801428948,-0.002116529941558838,0.5132967829704285,true
-0.016078159906152245,0.3864992801428948,-0.011858760118484498,0.09257051348686218,true
-0.016078159906153133,0.3864992801428948,0.03107520580291748,0.393778532743454,true
-0.016078159906155798,0.3864992801428948,0.07844352006912232,0.2127227932214737,true
-0.0160781599061518,0.3864992801428948,0.060539016723632814,0.22064988315105438,true
-0.016078159906152023,0.3864992801428948,-0.011532920598983764,0.2643505334854126,true
-0.016078159906155354,0.3864992801428948,0.01037386417388916,0.19891268014907837,true
-0.016078159906153133,0.3864992801428948,0.017604665756225588,0.3694048821926117,true
-0.016078159906155798,0.3864992801428948,0.023855230808258056,0.4808252453804016,true
-0.016078159906153133,0.3864992801428948,0.027636427879333497,0.04406176507472992,true
-0.0160781599061518,0.3864992801428948,0.012244961261749268,0.5296741724014282,true
-0.016078159906155354,0.3864992801428948,-0.08054072976112366,0.3279041647911072,true
-0.016078159906155354,0.3864992801428948,-0.029460526704788208,0.3856293261051178,true
0.007769676216761057,0.3869272242302044,-0.02187052249908447,0.3778952956199646,true
0.007769676216759502,0.3869272242302044,-0.02214793682098389,0.14826634526252747,true
0.007769676216759502,0.3869272242302044,-0.020091134309768676,0.18585991859436035,true
0.007769676216759502,0.3869272242302044,-0.020659213066101075,0.17975983023643494,true
0.007769676216759058,0.3869272242302044,-0.05414018630981445,0.5943595767021179,true
0.007769676216759724,0.3869272242302044,-0.004624176025390625,0.6260545253753662,true
0.00776967621675928,0.3869272242302044,0.01615349531173706,0.5735461711883545,true
0.007769676216759502,0.3869272242302044,0.02868950605392456,-0.004589910618960857,true
0.007769676216761057,0.3869272242302044,-0.09571074962615966,0.45597338676452637,true
0.007769676216759502,0.3869272242302044,-0.0016555166244506835,0.2034396380186081,true
0.007769676216759724,0.3869272242302044,-0.011273852586746217,0.13999353349208832,true
0.007769676216761057,0.3869272242302044,0.04992230176925659,0.27569547295570374,true
0.007769676216761057,0.3869272242302044,0.07059809446334839,0.24691465497016907,true
0.007769676216761057,0.3869272242302044,0.0707643437385559,0.2431696653366089,true
0.0077696762167601685,0.3869272242302044,0.015564193725585937,0.11411048471927643,true
0.044055267366185924,0.38731606244663563,-0.05389692783355713,0.25948140025138855,true
0.0440552673661857,0.38731606244663563,0.02412240743637085,0.6590932011604309,true
0.04405526736618559,0.38731606244663563,0.01732743263244629,0.2208094745874405,true
0.04405526736618681,0.38731606244663563,-0.04969276905059815,0.07378357648849487,true
0.044055267366184814,0.38731606244663563,-0.04823969602584839,0.07205309718847275,true
0.04405526736618526,0.38731606244663563,-0.00715900182723999,0.40354010462760925,true
0.04405526736618681,0.38731606244663563,0.003950300216674804,0.1350955218076706,true
0.0440552673661857,0.38731606244663563,0.05060913324356079,0.1200501099228859,true
0.04405526736618681,0.38731606244663563,0.1415244746208191,0.20682619512081146,true
0.04405526736618681,0.38731606244663563,0.01859717845916748,0.21465547382831573,true
0.04405526736618681,0.38731606244663563,0.0756593656539917,0.11684764176607132,true
0.04405526736618559,0.38731606244663563,0.07415822982788087,0.1203639805316925,true
0.044055267366184814,0.38731606244663563,-0.03503809928894043,0.5719200372695923,true
0.044055267366184814,0.38731606244663563,-0.09506464242935181,0.12214340269565582,true
0.044055267366184814,0.38731606244663563,-0.09090109467506409,0.12151296436786652,true
0.044055267366187034,0.38731606244663563,0.09069106340408326,0.16534267365932465,true
-0.037316830305540116,0.46702997344747477,0.050302817821502685,0.2092757672071457,true
-0.037316830305540116,0.46702997344747477,0.10676125288009644,0.13769082725048065,true
-0.03731683030553967,0.46702997344747477,0.09478075027465821,0.13966725766658783,true
-0.03731683030553745,0.46702997344747477,0.010742738246917724,0.10934413224458694,true
-0.03731683030553634,0.46702997344747477,-0.006532803773880005,0.49882665276527405,true
-0.03731683030553723,0.46702997344747477,0.04492870807647705,0.18200187385082245,true
-0.037316830305537896,0.46702997344747477,0.06326079368591309,0.1435115784406662,true
-0.03731683030553812,0.46702997344747477,-0.040588265657424925,0.3496967852115631,true
-0.03731683030553812,0.46702997344747477,0.017332642078399657,0.10556449741125107,true
-0.03731683030553812,0.46702997344747477,0.018909518718719483,0.10803604125976562,true
-0.037316830305537674,0.46702997344747477,0.0492563533782959,0.21013377606868744,true
-0.03731683030553812,0.46702997344747477,0.00015872955322265625,0.6129105687141418,true
-0.03731683030553745,0.46702997344747477,-0.017892725467681884,0.14294584095478058,true
-0.008465380683989943,0.4533933887929149,-0.021610729694366455,0.44195103645324707,true
-0.00846538068398972,0.4533933887929149,0.05964634418487549,0.02680717036128044,true
-0.00846538068398972,0.4533933887929149,-0.08714886665344239,0.07365167140960693,true
-0.00846538068398972,0.4533933887929149,0.011792373657226563,0.11387961357831955,true
-0.00846538068398972,0.4533933887929149,-0.012822394371032716,0.09584861248731613,true
-0.008465380683989499,0.4533933887929149,-0.02838409662246704,0.6186488270759583,true
-0.00846538068398972,0.4533933887929149,0.03414900541305542,0.6347110867500305,true
-0.00846538068398972,0.4533933887929149,0.05868019580841065,0.2108725607395172,true
0.013969561273812992,0.4572906796986129,-0.02868112564086914,0.6399602890014648,true
0.01396956127381499,0.4572906796986129,0.10591238498687744,0.5884945392608643,true
0.01396956127381499,0.4572906796986129,0.006646709442138672,0.12369278073310852,true
0.013969561273813436,0.4572906796986129,0.046010823249816896,0.0661836713552475,true
0.01396956127381499,0.4572906796986129,0.0016675209999084473,0.23039186000823975,true
0.01396956127381499,0.4572906796986129,0.046982362270355224,0.07247231900691986,true
0.01396956127381499,0.4572906796986129,0.047717709541320805,0.0723513811826706,true
0.013969561273813214,0.4572906796986129,0.047717709541320805,0.0723513811826706,true
0.01396956127381388,0.4572906796986129,0.02142115116119385,0.5754762291908264,true
0.013969561273812992,0.4572906796986129,0.004065406322479248,0.691284716129303,true
0.013969561273813436,0.4572906796986129,0.006374051570892334,0.09954187273979187,true
0.031021081786941074,0.42328412375517455,0.017921535968780516,0.3854207396507263,true
0.031021081786942184,0.42328412375517455,-0.05050498962402344,0.13836894929409027,true
0.031021081786941074,0.42328412375517455,-0.03906248688697815,0.5661232471466064,true
0.031021081786943294,0.42328412375517455,-0.008768448829650879,0.23048099875450134,true
0.03102108178694285,0.42328412375517455,0.026697731018066405,0.05870525911450386,true
0.031021081786943072,0.42328412375517455,-0.03396803379058838,0.2006092369556427,true
0.031021081786941962,0.42328412375517455,-0.009424386024475097,0.35176002979278564,true
0.031021081786941074,0.42328412375517455,-0.10236713051795959,0.29146847128868103,true
0.031021081786941962,0.42328412375517455,-0.027888723611831666,0.12017262727022171,true
0.031021081786941074,0.42328412375517455,-0.07389046430587769,0.4668705463409424,true
0.031021081786941074,0.42328412375517455,0.005236489772796631,0.1436556726694107,true
-0.03445868626284965,0.503404772011498,0.014759447574615479,0.2397984117269516,true
-0.03445868626284965,0.503404772011498,0.06633038043975831,0.5649993419647217,true
-0.0344586862628532,0.503404772011498,0.11540616989135742,0.2558020353317261,true
-0.0344586862628492,0.503404772011498,0.006201596260070801,0.08741569519042969,true
-0.034458686262849425,0.503404772011498,-0.030631904602050782,0.5780693292617798,true
-0.034458686262849425,0.503404772011498,0.013858122825622559,0.16139563918113708,true
-0.03445868626284965,0.503404772011498,-0.07862940669059754,0.06237894296646118,true
-0.0344586862628512,0.503404772011498,0.047665252685546874,0.013148137368261814,true
-0.03445868626284965,0.503404772011498,-0.0416933023929596,0.10344447195529938,true
-0.011723396433939048,0.4778225726527259,-0.04585857152938843,0.2509410083293915,true
-0.011723396433939048,0.4778225726527259,0.04791014194488526,0.4628029465675354,true
-0.01172339643393927,0.4778225726527259,-0.1204735565185547,0.18916471302509308,true
-0.011723396433940825,0.4778225726527259,-0.02307807207107544,0.07445860654115677,true
-0.011723396433939048,0.4778225726527259,-0.06428483486175537,0.13605718314647675,true
0.017849116329456627,0.5119415438003756,-0.09841452002525329,0.13011890649795532,true
0.017849116329457515,0.5119415438003756,-0.011730154752731323,0.051663897931575775,true
0.017849116329458625,0.5119415438003756,0.036312193870544435,0.5045732855796814,true
0.017849116329458625,0.5119415438003756,0.03323232412338257,0.19577017426490784,true
0.017849116329458625,0.5119415438003756,-0.07872990369796753,0.14226984977722168,true
0.017849116329456627,0.5119415438003756,-0.07230355381965638,0.14313317835330963,true
0.017849116329456627,0.5119415438003756,0.03509060144424438,0.25930294394493103,true
0.017849116329456627,0.5119415438003756,-0.0029555904865264894,0.12715502083301544,true
0.017849116329457737,0.5119415438003756,0.051116487979888915,0.11478020995855331,true
0.01784911632945707,0.5119415438003756,0.07696770668029786,0.13596783578395844,true
0.01784911632945735,0.5119415438003756,0.034736359119415285,0.1850133240222931,true
0.017849116329457515,0.5119415438003756,-0.06224264144897461,0.6056888699531555,true
0.031179834864151545,0.4971984339470181,-0.016866623163223265,0.1999804526567459,true
0.03117983486415088,0.4971984339470181,0.0052488112449646,0.1442120373249054,true
0.03117983486414999,0.4971984339470181,0.03801228523254395,0.1460345834493637,true
0.031179834864150435,0.4971984339470181,0.05524440765380859,0.4023013710975647,true
0.031179834864149547,0.4971984339470181,0.019039981365203858,0.37868577241897583,true
0.031179834864150435,0.4971984339470181,0.019879291057586672,0.12397152930498123,true
0.031179834864149547,0.4971984339470181,0.03469164848327637,0.12993492186069489,true
0.031179834864151545,0.4971984339470181,0.07423188686370849,0.6731119155883789,true
-0.008465380683989832,0.4533933887929149,-0.024541360139846802,-0.15380418300628662,false
0.013969561273813103,0.4572906796986129,-0.07113362550735473,-0.10331373661756516,false
-0.011723396433939048,0.4778225726527259,-0.06013979196548462,0.007726076990365982,false
-0.01172339643393927,0.4778225726527259,0.05617187023162842,-0.03815281018614769,false
-0.011723396433941269,0.4778225726527259,-0.07891533732414245,0.030285876244306564,false
-0.011723396433939492,0.4778225726527259,-0.007183395624160767,-0.27104905247688293,false
0.031179834864151768,0.4971984339470181,-0.024264557361602785,0.014887858182191849,false
0.031179834864149547,0.4971984339470181,-0.05828269243240357,-0.007813247852027416,false
0.031179834864149547,0.4971984339470181,-0.05738757371902466,-0.005103001836687326,false
0.031179834864149547,0.4971984339470181,-0.05738757371902466,-0.005103001836687326,false
-0.005976586181483261,0.47104596747406713,-0.056555636690373993,0.030446136881500996,false
-0.005972550703786457,0.47104596747406713,-0.056555636690373993,0.030446204935861587,false
-0.007920246652248164,0.47104596747406713,-0.056555636690373993,0.028821304917003743,false
-0.012608097024155903,0.47471244245947863,-0.056555636690373993,0.030350251159809445,false
-0.029051628173168132,0.4618797800105384,-0.06389524420350148,0.014641400583016717,false
-0.030132558383712964,0.4789899966091254,-0.056555636690373993,0.027713450544488205,false
-0.030191779485804232,0.4789899966091254,-0.056555636690373993,0.027661417785600384,false
-0.032777272541139484,0.4789899966091254,-0.056555636690373993,0.0266722343303899,false
-0.03277678893775077,0.4789899966091254,-0.056555636690373993,0.026513227707947284,false
-0.0456,0.4863229465799484,-0.06267186220968057,0.03236789807385082,false
0.0456,0.4418204449282435,-0.08252581875473593,0.044109077727931836,false
0.0456,0.44171416759077514,-0.0825245159538168,0.04400149758954434,false
0.039831895682928664,0.44538064257618665,-0.07487061893475941,0.04001407555589845,false
0.045090204443283106,0.441965582334058,-0.15542603110742323,0.08022694151506839,false
-0.0456,0.5235987755982987,-0.32016727537760425,0.16043232328277995,false
-0.0456,0.4822408515650982,-0.22950819288161364,0.11123942192660397,false
-0.0456,0.48132178658658265,-0.22950819288161364,0.1103175813605628,false
-0.0456,0.4794836566295515,-0.22850001376166237,0.10797633073501889,false
-0.0456,0.472131136801427,-0.2313587332110682,0.10201226401325865,false
-0.0455733033581343,0.472131136801427,-0.2313587332110682,0.10202135483174626,false
-0.0456,0.46665329602581007,-0.22850016766770057,0.09510715474921858,false
-0.0456,0.46477861697330247,-0.22851279133440017,0.09323300711787555,false
-0.04394467773722463,0.46753581190884913,-0.20637330889062047,0.08562678275272688,false
-0.0456,0.4794836566295515,-0.19955707984831625,0.09366894885159353,false
0.045598600505999454,0.44178898437683084,0.03236139992261469,-0.01334233838701784,false
0.0456,0.43584005121985747,-0.04161865483946586,0.01765865401399197,false
0.04454982069619925,0.4358400512198572,-0.04161865483946586,0.016947720410056155,false
0.03252794451127705,0.43637516539289645,-0.027892822686269525,0.0027833917473104597,false
0.0456,0.44171416759077514,0.035124915979608484,-0.014798013957388084,false
0.04111444782884961,0.4456608295290324,0.03500855170676058,-0.014683931706585718,false
-0.0456,0.5040442423427707,-0.06267186220968064,0.03295902170894044,false
-0.039623415599339525,0.48448970908724265,-0.030877697363601186,0.01678298087225632,false
-0.043604171954193915,0.4600465425178326,-0.0333226439934134,-0.007930518664766295,false
-0.043704557238424556,0.4600465425178326,-0.0333226439934134,-0.007965359066047395,false
-0.0437860449281322,0.4600465425178326,-0.0333226439934134,-0.007993674383005578,false
-0.04387700011085624,0.4600465425178326,-0.0333226439934134,-0.00802518439812061,false
0.04031683091442066,0.44538064257618665,0.03879264404784204,-0.01658880208512714,false
0.02303992720316186,0.45515790920395066,0.054689463545841754,-0.025422160733514387,false
0.038549080142189655,0.44538064257618665,0.09385370689660935,-0.04513656071502398,false
0.044391567198895455,0.4258261093206586,0.12695327919901783,-0.07743226307651566,false
-0.02433968584414098,0.5223766172698282,0.04001527681709822,-0.017913629363919912,false
