-0.1285449159365487,-0.0913219528475333,-0.12629472732543945,-0.20371083915233612,true
-0.12854491593654693,-0.0913219528475333,-0.001727973222732544,0.014405018649995327,true
-0.12854491593654738,-0.0913219528475333,-0.11632620334625245,-0.10529100149869919,true
-0.12854491593654715,-0.0913219528475333,-0.07751852631568909,-0.1844514012336731,true
-0.12854491593654715,-0.0913219528475333,-0.1313492488861084,-0.19771364331245422,true
-0.12854491593654715,-0.0913219528475333,-0.07935832142829895,-0.24473893642425537,true
-0.12854491593654715,-0.0913219528475333,-0.10304048538208008,-0.29582083225250244,true
-0.12854491593654715,-0.0913219528475333,-0.10301303386688232,-0.29501059651374817,true
-0.12854491593654693,-0.0913219528475333,-0.046791515350341796,-0.08058328181505203,true
-0.12854491593654727,-0.0913219528475333,-0.15588743805885316,-0.18275591731071472,true
-0.12854491593654738,-0.0913219528475333,-0.12397011399269105,-0.16154636442661285,true
-0.12854491593654693,-0.0913219528475333,-0.09925004720687866,-0.2283547818660736,true
-0.12854491593654693,-0.0913219528475333,-0.15224125623703003,-0.1870502531528473,true
-0.12854491593654715,-0.0913219528475333,-0.14537124276161195,-0.19062428176403046,true
-0.12854491593654727,-0.0913219528475333,-0.0844026505947113,-0.15319788455963135,true
-0.12854491593654727,-0.0913219528475333,-0.19337655901908873,-0.18182158470153809,true
-0.10167139918813228,-0.09329664965710482,-0.18296117782592775,-0.19160529971122742,true
-0.10167139918813206,-0.09329664965710482,-0.06607523083686828,0.0013758793938905,true
-0.10167139918813606,-0.09329664965710482,-0.04896299362182617,-0.2069605588912964,true
-0.10167139918813295,-0.09329664965710482,-0.016116734743118286,-0.1804501861333847,true
-0.10167139918813295,-0.09329664965710482,-0.10728269577026367,-0.1777779757976532,true
-0.10167139918813273,-0.09329664965710482,-0.10695982336997986,-0.1679830104112625,true
-0.10167139918813295,-0.09329664965710482,-0.1571730160713196,-0.2122761756181717,true
-0.10167139918813295,-0.09329664965710482,-0.07576597809791565,-0.23438574373722076,true
-0.10167139918813295,-0.09329664965710482,-0.07577508330345153,-0.23478750884532928,true
-0.10167139918813273,-0.09329664965710482,-0.1390709388256073,-0.195021852850914,true
-0.10167139918813228,-0.09329664965710482,-0.1274555504322052,-0.22003890573978424,true
-0.10167139918813273,-0.09329664965710482,-0.10190315008163452,-0.07782705128192902,true
-0.10167139918813273,-0.09329664965710482,-0.13043551206588747,-0.26534146070480347,true
-0.1016713991881325,-0.09329664965710482,-0.1296950912475586,-0.26882871985435486,true
-0.1016713991881325,-0.09329664965710482,-0.0905307936668396,-0.1301223635673523,true
-0.10167139918813295,-0.09329664965710482,-0.09213065981864929,-0.13419634103775024,true
-0.10167139918813406,-0.09329664965710482,-0.10466861844062805,-0.19593468308448792,true
-0.10167139918813273,-0.09329664965710482,-0.03159302473068237,-0.12545078992843628,true
-0.09036575540772118,-0.06623398237102407,-0.1238162088394165,-0.28058844804763794,true
-0.09036575540772118,-0.06623398237102407,0.014845969676971436,0.043180011212825775,true
-0.0903657554077214,-0.06623398237102407,0.013976988792419433,0.04417409747838974,true
-0.0903657554077214,-0.06623398237102407,-0.06974610090255737,-0.1450168341398239,true
-0.0903657554077214,-0.06623398237102407,-0.08211665511131287,-0.08710099756717682,true
-0.09036575540772163,-0.06623398237102407,-0.08166123628616333,-0.0847238153219223,true
-0.09036575540772163,-0.06623398237102407,-0.10706974267959594,-0.11471851170063019,true
-0.0903657554077214,-0.06623398237102407,-0.10472268342971802,-0.11528775840997696,true
-0.0903657554077214,-0.06623398237102407,-0.02015117883682251,-0.05909397825598717,true
-0.0903657554077214,-0.06623398237102407,-0.021508873701095582,-0.051897596567869186,true
-0.0903657554077214,-0.06623398237102407,-0.10769464969635009,-0.154740571975708,true
-0.09036575540772007,-0.06623398237102407,-0.10786801099777221,-0.15499594807624817,true
-0.09036575540772118,-0.06623398237102407,-0.1309844970703125,-0.08702729642391205,true
-0.0903657554077214,-0.06623398237102407,-0.07698005080223083,-0.09029873460531235,true
-0.0903657554077214,-0.06623398237102407,-0.0788060975074768,-0.0937286913394928,true
-0.09036575540771985,-0.06623398237102407,-0.0788060975074768,-0.0937286913394928,true
-0.09036575540771985,-0.06623398237102407,-0.1539310872554779,-0.1232941672205925,true
-0.09036575540772118,-0.06623398237102407,-0.09686375856399536,-0.10859223455190659,true
-0.09036575540772118,-0.06623398237102407,-0.08523584485054016,-0.11585363745689392,true
-0.0903657554077214,-0.06623398237102407,-0.07496866106986999,-0.11402284353971481,true
-0.0903657554077214,-0.06623398237102407,-0.1226203691959381,-0.14467120170593262,true
-0.0903657554077214,-0.06623398237102407,-0.09446557879447937,-0.11874609440565109,true
-0.09036575540772163,-0.06623398237102407,-0.09466102361679077,-0.11767113953828812,true
-0.09036575540772163,-0.06623398237102407,-0.00846138596534729,-0.3320258557796478,true
-0.09036575540771985,-0.06623398237102407,-0.008090178966522216,-0.32962509989738464,true
-0.09036575540772207,-0.06623398237102407,-0.16066653847694398,-0.06540627777576447,true
-0.051445441096088174,-0.09340862391870663,-0.06325889110565186,-0.15119357407093048,true
-0.05144544109609017,-0.09340862391870663,-0.061435585021972654,-0.087715744972229,true
-0.051445441096088174,-0.09340862391870663,-0.09766157388687134,-0.12175990641117096,true
-0.051445441096088174,-0.09340862391870663,0.02185643434524536,-0.05892907828092575,true
-0.051445441096088174,-0.09340862391870663,-0.08566630363464356,-0.17931100726127625,true
-0.051445441096088396,-0.09340862391870663,-0.07683393716812134,-0.1320333480834961,true
-0.05144544109608884,-0.09340862391870663,-0.09298534870147705,-0.22342129051685333,true
-0.05144544109608884,-0.09340862391870663,0.036591737270355223,-0.30883926153182983,true
-0.05144544109608973,-0.09340862391870663,0.034506237506866454,-0.31734147667884827,true
-0.05144544109608862,-0.09340862391870663,-0.015606367588043213,-0.18703503906726837,true
-0.05144544109608862,-0.09340862391870663,0.015584940910339356,-0.20344248414039612,true
-0.05144544109608862,-0.09340862391870663,0.015862038135528566,-0.19671082496643066,true
-0.05144544109608862,-0.09340862391870663,0.015862038135528566,-0.19671082496643066,true
-0.051445441096088174,-0.09340862391870663,0.015862038135528566,-0.19671082496643066,true
-0.051445441096088174,-0.09340862391870663,-0.09899365186691285,-0.17199857532978058,true
-0.051445441096088396,-0.09340862391870663,-0.10754892110824585,-0.20855116844177246,true
-0.12210693123234806,-0.014771765722265462,-0.09377070665359497,-0.044697605073451996,true
-0.12210693123235006,-0.014771765722265462,-0.024862873554229736,-0.1353302150964737,true
-0.12210693123234806,-0.014771765722265462,-0.013161778450012207,-0.11427872627973557,true
-0.12210693123234806,-0.014771765722265462,-0.0032831966876983643,-0.17399811744689941,true
-0.12210693123234806,-0.014771765722265462,-0.003571279048919678,-0.18679435551166534,true
-0.12210693123234806,-0.014771765722265462,-0.11097275018692017,-0.09555377066135406,true
-0.12210693123234784,-0.014771765722265462,-0.11448079109191894,-0.09895375370979309,true
-0.12210693123234806,-0.014771765722265462,-0.1390869975090027,-0.06523754447698593,true
-0.12210693123234806,-0.014771765722265462,0.004746122360229492,-0.05627325549721718,true
-0.12210693123234961,-0.014771765722265462,-0.04995722770690918,-0.0393046997487545,true
-0.12210693123235006,-0.014771765722265462,0.016470274925231933,0.008044404909014702,true
-0.12210693123234784,-0.014771765722265462,-0.05945497632026672,-0.0656600296497345,true
-0.12210693123234806,-0.014771765722265462,-0.04508084654808044,-0.08736855536699295,true
-0.12210693123234828,-0.014771765722265462,-0.019319547414779665,-0.02800607867538929,true
-0.12210693123234784,-0.014771765722265462,-0.0880180287361145,-0.31614184379577637,true
-0.12210693123234828,-0.014771765722265462,-0.07472802996635437,-0.23300206661224365,true
-0.12210693123234828,-0.014771765722265462,-0.14917323231697083,-0.0801280215382576,true
-0.10975655693294828,-0.03285437284480852,-0.16327884912490845,0.006975316442549229,true
-0.10975655693294828,-0.03285437284480852,-0.09158011198043824,-0.07016202807426453,true
-0.10975655693294845,-0.03285437284480852,-0.1802129912376404,-0.08914655447006226,true
-0.10975655693294872,-0.03285437284480852,-0.050113216638565064,-0.18621233105659485,true
-0.10975655693294872,-0.03285437284480852,-0.04861525177955627,-0.17349442839622498,true
-0.10975655693294872,-0.03285437284480852,0.042775440216064456,-0.20214970409870148,true
-0.10975655693294872,-0.03285437284480852,0.04187973260879517,-0.20477734506130219,true
-0.10975655693294806,-0.03285437284480852,-0.022769378423690798,-0.08805947750806808,true
-0.10975655693294628,-0.03285437284480852,-0.08196216106414796,-0.3235371708869934,true
-0.10975655693294806,-0.03285437284480852,-0.05025640845298767,-0.19672419130802155,true
-0.10975655693294806,-0.03285437284480852,-0.1249805200099945,-0.11731904745101929,true
-0.10975655693294845,-0.03285437284480852,-0.12270319938659668,-0.11800544708967209,true
-0.10975655693294845,-0.03285437284480852,-0.03518369197845459,-0.199893519282341,true
-0.10975655693294845,-0.03285437284480852,-0.03838197469711304,-0.20135292410850525,true
-0.10975655693294784,-0.03285437284480852,-0.022217811346054078,-0.11629511415958405,true
-0.10975655693294806,-0.03285437284480852,-0.0356242299079895,-0.10881735384464264,true
-0.10975655693294806,-0.03285437284480852,-0.04234806180000305,-0.1301683485507965,true
-0.10975655693294806,-0.03285437284480852,-0.043601839542388915,-0.14330539107322693,true
-0.10975655693294784,-0.03285437284480852,-0.043601839542388915,-0.14330539107322693,true
-0.10975655693294806,-0.03285437284480852,-0.11083714604377747,-0.14121781289577484,true
-0.10975655693294806,-0.03285437284480852,-0.12197736501693726,-0.04012575373053551,true
-0.10975655693294806,-0.03285437284480852,-0.12024619817733764,-0.027228321880102158,true
-0.10975655693294828,-0.03285437284480852,-0.07417666673660278,-0.07775765657424927,true
-0.10975655693294828,-0.03285437284480852,-0.07890414834022522,-0.0949520543217659,true
-0.08135178385771458,-0.01606034029127601,-0.07890414834022522,-0.0949520543217659,true
-0.08135178385771458,-0.01606034029127601,-0.02354205250740051,-0.09886544197797775,true
-0.08135178385771458,-0.01606034029127601,-0.023371386528015136,-0.0980525091290474,true
-0.08135178385771413,-0.01606034029127601,-0.023371386528015136,-0.0980525091290474,true
-0.08135178385771569,-0.01606034029127601,-0.12627565622329712,-0.04242253303527832,true
-0.08135178385771569,-0.01606034029127601,-0.004207103252410888,-0.0775611400604248,true
-0.08135178385771458,-0.01606034029127601,-0.0024340343475341797,-0.059897180646657944,true
-0.08135178385771458,-0.01606034029127601,-0.06032563328742981,-0.07315506786108017,true
-0.08135178385771458,-0.01606034029127601,-0.06271185398101807,-0.05659924075007439,true
-0.08135178385771458,-0.01606034029127601,-0.06271185398101807,-0.05659924075007439,true
-0.08135178385771569,-0.01606034029127601,-0.06271185398101807,-0.05659924075007439,true
-0.08135178385771569,-0.01606034029127601,-0.036309725046157836,-0.04092402756214142,true
-0.08135178385771391,-0.01606034029127601,-0.035375014543533326,-0.04371850565075874,true
-0.08135178385771391,-0.01606034029127601,-0.05138278126716614,0.02951410412788391,true
-0.08135178385771391,-0.01606034029127601,-0.05251839518547058,0.026855604723095894,true
-0.08135178385771769,-0.01606034029127601,-0.05251839518547058,0.026855604723095894,true
-0.08135178385771369,-0.01606034029127601,-0.0424126136302948,-0.03272490203380585,true
-0.08135178385771413,-0.01606034029127601,-0.10883760213851928,-0.1136367991566658,true
-0.08135178385771769,-0.01606034029127601,-0.05768331170082092,-0.1357794553041458,true
-0.08135178385771369,-0.01606034029127601,-0.0745262885093689,-0.06262604892253876,true
-0.08135178385771413,-0.01606034029127601,-0.08434652447700501,-0.05223024636507034,true
-0.08135178385771769,-0.01606034029127601,-0.0508435583114624,-0.1388915628194809,true
-0.08135178385771769,-0.01606034029127601,-0.06567806720733643,-0.03925195336341858,true
-0.08135178385771469,-0.01606034029127601,-0.04236914873123169,-0.01864195615053177,true
-0.08135178385771469,-0.01606034029127601,-0.04128350019454956,-0.06880319118499756,true
-0.08135178385771469,-0.01606034029127601,-0.04070026874542236,-0.070247121155262,true
-0.08135178385771769,-0.01606034029127601,-0.04070026874542236,-0.070247121155262,true
-0.08135178385771769,-0.01606034029127601,-0.05866973161697388,-0.0819823294878006,true
-0.08135178385771769,-0.01606034029127601,0.002997152805328369,-0.0066476366482675076,true
-0.06348520294401638,-0.018415495805606197,-0.03403913140296936,-0.058992985635995865,true
-0.0634852029440166,-0.018415495805606197,-0.09092342734336853,-0.04664033278822899,true
-0.06348520294401705,-0.018415495805606197,-0.0232191801071167,0.06516178697347641,true
-0.06348520294401705,-0.018415495805606197,-0.05244254112243652,-0.07175196707248688,true
-0.06348520294401705,-0.018415495805606197,-0.04785326838493347,-0.06675809621810913,true
-0.0634852029440166,-0.018415495805606197,-0.04785326838493347,-0.06675809621810913,true
-0.06348520294401638,-0.018415495805606197,-0.0644928503036499,-0.00692520709708333,true
-0.06348520294401638,-0.018415495805606197,-0.06260324835777283,-0.11271043866872787,true
-0.0634852029440166,-0.018415495805606197,0.013962810039520265,-0.07145325839519501,true
-0.06348520294401683,-0.018415495805606197,-0.024784188270568847,0.06608257442712784,true
-0.06348520294401483,-0.018415495805606197,-0.0771508526802063,-0.09315573424100876,true
-0.06348520294401705,-0.018415495805606197,-0.015353188514709473,0.03919551149010658,true
-0.06348520294401705,-0.018415495805606197,0.0025076913833618165,-0.08645310997962952,true
-0.06348520294401705,-0.018415495805606197,0.00559027910232544,-0.08881915360689163,true
-0.06348520294401705,-0.018415495805606197,-0.0528327739238739,-0.05986422672867775,true
-0.06348520294401683,-0.018415495805606197,-0.05296550154685974,-0.05936965346336365,true
-0.06348520294401683,-0.018415495805606197,-0.08972534537315369,-0.1035323441028595,true
-0.06348520294401638,-0.018415495805606197,-0.08978244543075561,-0.10348764061927795,true
-0.06348520294401638,-0.018415495805606197,-0.052235997915267944,-0.0702003538608551,true
-0.06348520294401683,-0.018415495805606197,0.00598257303237915,-0.06261510401964188,true
-0.13557233211722164,0.0346814133741844,-0.11139992475509644,-0.4165093004703522,true
-0.13557233211722164,0.0346814133741844,-0.00550744891166687,0.06312654912471771,true
-0.13557233211721986,0.0346814133741844,-0.011585105657577515,0.05055803060531616,true
-0.13557233211722008,0.0346814133741844,-0.08131215810775758,0.013826635666191578,true
-0.1355723321172203,0.0346814133741844,0.0028449463844299316,-0.069114089012146,true
-0.1355723321172203,0.0346814133741844,-0.01501355528831482,-0.4101826846599579,true
-0.13557233211722008,0.0346814133741844,-0.12212630987167358,-0.11778759956359863,true
-0.13557233211722008,0.0346814133741844,-0.03465352892875671,0.020013049244880676,true
-0.13557233211721986,0.0346814133741844,-0.05291170835494995,-0.011545566841959953,true
-0.13557233211721986,0.0346814133741844,0.0082987380027771,-0.2386600822210312,true
-0.13557233211721986,0.0346814133741844,0.006187734603881836,-0.24204017221927643,true
-0.13557233211721986,0.0346814133741844,0.006187734603881836,-0.24204017221927643,true
-0.1355723321172203,0.0346814133741844,0.006187734603881836,-0.24204017221927643,true
-0.13557233211722008,0.0346814133741844,-0.070198575258255,-0.007087459322065115,true
-0.13557233211721986,0.0346814133741844,-0.04594849109649658,-0.007400839123874903,true
-0.13557233211721986,0.0346814133741844,0.004282572269439697,-0.20938056707382202,true
-0.13557233211722008,0.0346814133741844,0.005621943473815918,-0.2044472098350525,true
-0.13557233211721986,0.0346814133741844,0.019163105487823486,0.012336486019194126,true
-0.13557233211722008,0.0346814133741844,-0.06473687887191773,0.021703286096453667,true
-0.13557233211722008,0.0346814133741844,-0.11614455223083496,-0.0064958687871694565,true
-0.13557233211722008,0.0346814133741844,0.029226849079132082,-0.11976529657840729,true
-0.13557233211722008,0.0346814133741844,0.028174540996551513,-0.13233062624931335,true
-0.13557233211721986,0.0346814133741844,0.028174540996551513,-0.13233062624931335,true
-0.10599889662148543,0.043357571050844035,-0.0390254545211792,-0.027247445657849312,true
-0.10599889662148543,0.043357571050844035,-0.01426713228225708,-0.009574874304234982,true
-0.10599889662148565,0.043357571050844035,-0.002492901086807251,-0.012749490328133106,true
-0.10599889662148743,0.043357571050844035,-0.08244389891624451,-0.12610521912574768,true
-0.1059988966214852,0.043357571050844035,0.007911200523376466,-4.0616196201881394e-05,true
-0.1059988966214852,0.043357571050844035,-0.024328203201293946,0.0645931139588356,true
-0.10599889662148743,0.043357571050844035,-0.04477020502090454,0.05167929455637932,true
-0.10599889662148743,0.043357571050844035,-0.010256561040878296,0.06474221497774124,true
-0.10599889662148543,0.043357571050844035,-0.010828331708908082,0.031148646026849747,true
-0.10599889662148543,0.043357571050844035,-0.05596908688545227,0.03782818093895912,true
-0.10599889662148476,0.043357571050844035,-2.231001853942871e-05,-0.04837113618850708,true
-0.10599889662148476,0.043357571050844035,-0.006219534873962402,-0.02758842147886753,true
-0.10599889662148743,0.043357571050844035,-0.008701292276382446,-0.024153385311365128,true
-0.10599889662148543,0.043357571050844035,-0.01879364252090454,0.016741128638386726,true
-0.10599889662148543,0.043357571050844035,0.022097654342651367,0.04414287582039833,true
-0.10599889662148743,0.043357571050844035,0.02195509672164917,0.04387032240629196,true
-0.10599889662148543,0.043357571050844035,-0.012072211503982544,0.03473276644945145,true
-0.10599889662148543,0.043357571050844035,-0.018026630878448486,0.06228332594037056,true
-0.10599889662148543,0.043357571050844035,-0.03552470684051514,-0.13935020565986633,true
-0.1059988966214852,0.043357571050844035,-0.035830705165863036,-0.14235296845436096,true
-0.1059988966214852,0.043357571050844035,-0.019236332178115843,0.05129534751176834,true
-0.1059988966214852,0.043357571050844035,-0.01790747046470642,0.05025355890393257,true
-0.10599889662148454,0.043357571050844035,-0.07277503132820129,-0.06739013642072678,true
-0.10599889662148454,0.043357571050844035,-0.024100799560546875,0.04623863846063614,true
-0.10599889662148454,0.043357571050844035,0.01634805679321289,0.03611171990633011,true
-0.10599889662148454,0.043357571050844035,0.01606964588165283,0.0346858985722065,true
-0.07908793584241935,0.007035049195094789,0.01606964588165283,0.0346858985722065,true
-0.07908793584241935,0.007035049195094789,0.018696610927581788,-0.30779698491096497,true
-0.07908793584242091,0.007035049195094789,-0.001969736814498901,-0.09378968924283981,true
-0.07908793584241958,0.007035049195094789,-0.0041891193389892575,-0.09649663418531418,true
-0.07908793584241913,0.007035049195094789,-0.11369289636611939,-0.12506790459156036,true
-0.07908793584241935,0.007035049195094789,0.004719622135162353,0.10834600776433945,true
-0.07908793584241935,0.007035049195094789,-0.059393255710601806,-0.0320044606924057,true
-0.07908793584241935,0.007035049195094789,-0.051308150291442874,-0.0067758746445178986,true
-0.07908793584241935,0.007035049195094789,-0.05133000731468201,-0.006678095553070307,true
-0.07908793584241935,0.007035049195094789,-0.05133000731468201,-0.006678095553070307,true
-0.07908793584241913,0.007035049195094789,-0.04054921746253967,0.13044939935207367,true
-0.07908793584241913,0.007035049195094789,0.048919777870178226,-0.20232675969600677,true
-0.07908793584241935,0.007035049195094789,0.04907248258590698,-0.2040759027004242,true
-0.07908793584241913,0.007035049195094789,-0.05592494249343872,0.009642457589507103,true
-0.07908793584241913,0.007035049195094789,0.009699127674102784,-0.07937654852867126,true
-0.07908793584241958,0.007035049195094789,0.00856215476989746,-0.07755861431360245,true
-0.07908793584241935,0.007035049195094789,-0.02135016679763794,-0.020737163722515106,true
-0.07908793584241935,0.007035049195094789,-0.04081686973571778,-0.061663366854190826,true
-0.07908793584242135,0.007035049195094789,-0.02626380681991577,-0.04907117411494255,true
-0.07908793584241869,0.007035049195094789,-0.015215976238250732,-0.10627567768096924,true
-0.07908793584241869,0.007035049195094789,-0.009917494058609009,-0.105650894343853,true
-0.07908793584242091,0.007035049195094789,-0.01323414444923401,-0.01846543326973915,true
-0.07908793584242091,0.007035049195094789,-0.012341268062591552,-0.01863357238471508,true
-0.05652419156046451,0.012280231428023036,-0.012341268062591552,-0.01863357238471508,true
-0.05652419156046451,0.012280231428023036,0.03766986608505249,0.025042930617928505,true
-0.05652419156046207,0.012280231428023036,-0.03610202670097351,-0.029566502198576927,true
-0.05652419156046207,0.012280231428023036,0.019679837226867676,-0.12355116009712219,true
-0.05652419156046207,0.012280231428023036,0.019334836006164553,-0.12448079138994217,true
-0.05652419156046207,0.012280231428023036,0.019334836006164553,-0.12448079138994217,true
-0.05652419156046207,0.012280231428023036,0.019334836006164553,-0.12448079138994217,true
-0.05652419156046251,0.012280231428023036,0.019334836006164553,-0.12448079138994217,true
-0.056524191560464065,0.012280231428023036,-0.06782508373260498,0.02265702746808529,true
-0.056524191560464065,0.012280231428023036,-0.00668032169342041,-0.1154482439160347,true
-0.05652419156046207,0.012280231428023036,0.00572105884552002,-0.03770452365279198,true
-0.05652419156046207,0.012280231428023036,0.004098384380340576,-0.04028162360191345,true
-0.056524191560460735,0.012280231428023036,0.004098384380340576,-0.04028162360191345,true
-0.05652419156046207,0.012280231428023036,-0.07149443626403809,-4.658711532101734e-06,true
-0.05652419156046207,0.012280231428023036,-0.020875993967056274,-0.07221610844135284,true
-0.05652419156046251,0.012280231428023036,-0.017734924554824828,-0.06364243477582932,true
-0.05652419156046051,0.012280231428023036,-0.046246901750564576,0.00952133722603321,true
-0.056524191560461845,0.012280231428023036,-0.030667260885238648,0.019825255498290062,true
-0.05652419156046229,0.012280231428023036,-0.02960845232009888,-0.04212170094251633,true
-0.05652419156046229,0.012280231428023036,-0.0033817684650421145,-0.06513426452875137,true
-0.05652419156046229,0.012280231428023036,-0.0036303722858428956,-0.06467510759830475,true
-0.05652419156046207,0.012280231428023036,-0.0036303722858428956,-0.06467510759830475,true
-0.05652419156046207,0.012280231428023036,0.03416499614715576,-0.02193930372595787,true
-0.05652419156046207,0.012280231428023036,0.03760359287261963,-0.015638859942555428,true
-0.05652419156046096,0.012280231428023036,0.03760359287261963,-0.015638859942555428,true
-0.05652419156046096,0.012280231428023036,-0.09751360297203064,-0.09144234657287598,true
-0.05652419156046162,0.012280231428023036,-0.008855152130126952,-0.03868526220321655,true
-0.05652419156046162,0.012280231428023036,-0.05178325176239014,-0.012276017107069492,true
-0.05652419156046451,0.012280231428023036,-0.0473982572555542,-0.0041505442932248116,true
-0.05652419156046229,0.012280231428023036,-0.06840870022773743,0.004437715746462345,true
-0.05652419156046162,0.012280231428023036,-0.0002176642417907715,-0.010743925347924232,true
-0.05652419156046162,0.012280231428023036,0.022971889972686767,-0.02400745451450348,true
-0.05652419156046162,0.012280231428023036,0.023180992603302003,-0.02352140098810196,true
-0.1243850649945234,0.05772924167941995,-0.06662378549575805,0.044964998960494995,true
-0.12438506499452517,0.05772924167941995,-0.008939930200576783,-0.09026488661766052,true
-0.12438506499452295,0.05772924167941995,-0.02550050973892212,0.10113635659217834,true
-0.12438506499452318,0.05772924167941995,-0.00824007511138916,-0.01376382913440466,true
-0.1243850649945234,0.05772924167941995,-0.004274690151214599,0.07991290092468262,true
-0.1243850649945234,0.05772924167941995,0.0011593961715698241,-0.027294550091028214,true
-0.12438506499452318,0.05772924167941995,-0.002138160467147827,-0.022990010678768158,true
-0.12438506499452362,0.05772924167941995,0.024076881408691405,0.047203898429870605,true
-0.12438506499452362,0.05772924167941995,0.002927210330963135,-0.22450733184814453,true
-0.12438506499452362,0.05772924167941995,0.0024285078048706054,-0.21945014595985413,true
-0.12438506499452362,0.05772924167941995,0.0024285078048706054,-0.21945014595985413,true
-0.12438506499452318,0.05772924167941995,0.0024285078048706054,-0.21945014595985413,true
-0.12438506499452318,0.05772924167941995,-0.05997748374938965,0.06611258536577225,true
-0.12438506499452318,0.05772924167941995,-0.015671168565750123,0.01790737546980381,true
-0.12438506499452517,0.05772924167941995,-0.016026384830474853,-0.0008632460958324373,true
-0.12438506499452345,0.05772924167941995,-0.01665165424346924,0.047649189829826355,true
-0.12438506499452345,0.05772924167941995,0.01738283395767212,0.06440947204828262,true
-0.12438506499452345,0.05772924167941995,0.01963698387145996,0.07307928055524826,true
-0.1243850649945234,0.05772924167941995,0.01963698387145996,0.07307928055524826,true
-0.12438506499452517,0.05772924167941995,0.03663531541824341,0.07295253127813339,true
-0.12438506499452295,0.05772924167941995,-0.0328424084186554,0.04017431661486626,true
-0.12438506499452517,0.05772924167941995,-0.023683092594146728,0.044390805065631866,true
-0.12438506499452318,0.05772924167941995,0.017080504894256592,-0.010970576666295528,true
-0.12438506499452318,0.05772924167941995,-0.03308086514472961,0.014721265994012356,true
-0.12438506499452295,0.05772924167941995,-0.02928673505783081,0.013618487864732742,true
-0.10928227766614407,0.09941043724223353,0.0006885981559753418,-0.025783946737647057,true
-0.10928227766614385,0.09941043724223353,0.01490368127822876,0.1217920184135437,true
-0.10928227766614451,0.09941043724223353,0.05557695150375366,0.07645086199045181,true
-0.10928227766614385,0.09941043724223353,0.06963561534881592,0.0958683118224144,true
-0.10928227766614429,0.09941043724223353,-0.012764546871185303,0.16291444003582,true
-0.10928227766614407,0.09941043724223353,0.0009231138229370118,0.13486520946025848,true
-0.10928227766614229,0.09941043724223353,0.09494400978088378,-0.13227267563343048,true
-0.10928227766614429,0.09941043724223353,-0.0007930815219879151,0.10619428753852844,true
-0.10928227766614429,0.09941043724223353,0.02484407424926758,0.05272350832819939,true
-0.10928227766614429,0.09941043724223353,0.023872852325439453,0.04586847126483917,true
-0.10928227766614429,0.09941043724223353,0.023872852325439453,0.04586847126483917,true
-0.10928227766614429,0.09941043724223353,0.040352911949157716,0.0087619349360466,true
-0.10928227766614429,0.09941043724223353,0.03967745065689087,0.018080350011587143,true
-0.10928227766614407,0.09941043724223353,-0.02141911268234253,0.0860946923494339,true
-0.10928227766614451,0.09941043724223353,-0.015952070951461794,0.05233749374747276,true
-0.10928227766614451,0.09941043724223353,0.06189478635787964,0.0962243601679802,true
-0.10928227766614429,0.09941043724223353,0.06776424646377563,0.09070312231779099,true
-0.10928227766614229,0.09941043724223353,-0.0028642892837524416,0.11775829643011093,true
-0.10928227766614229,0.09941043724223353,-0.000543299913406372,0.0775948092341423,true
-0.10928227766614385,0.09941043724223353,0.04487185716629028,0.014089099131524563,true
-0.10928227766614385,0.09941043724223353,0.04478578805923462,0.015242686495184898,true
-0.10928227766614385,0.09941043724223353,-0.005277417898178101,-0.05087973549962044,true
-0.10928227766614407,0.09941043724223353,-0.006952730417251587,-0.04778411239385605,true
-0.10928227766614429,0.09941043724223353,0.08752362966537476,0.05216896906495094,true
-0.10928227766614407,0.09941043724223353,-0.011301802396774292,0.0602111741900444,true
-0.09019074217089085,0.061651522026406225,-0.0657333779335022,2.4452805519104004e-05,true
-0.09019074217088907,0.061651522026406225,-0.017976484298706054,0.06231418251991272,true
-0.09019074217088907,0.061651522026406225,0.02495025634765625,0.04709319770336151,true
-0.09019074217089085,0.061651522026406225,0.0262698769569397,0.04151369258761406,true
-0.0901907421708893,0.061651522026406225,0.001819002628326416,0.02337091602385044,true
-0.09019074217088896,0.061651522026406225,-0.06623391509056091,-0.021406520158052444,true
-0.0901907421708893,0.061651522026406225,-0.006754114627838135,0.06678660213947296,true
-0.0901907421708893,0.061651522026406225,0.014667127132415771,0.05099357292056084,true
-0.0901907421708893,0.061651522026406225,0.012155585289001465,0.0505954883992672,true
-0.09019074217088907,0.061651522026406225,0.012155585289001465,0.0505954883992672,true
-0.09019074217088907,0.061651522026406225,0.054283015727996826,0.03446115553379059,true
-0.0901907421708893,0.061651522026406225,0.05126031398773193,0.03606821224093437,true
-0.0901907421708893,0.061651522026406225,0.04542396783828735,-0.004133220296353102,true
-0.09019074217088896,0.061651522026406225,0.043355274200439456,-0.002563255373388529,true
-0.09019074217088896,0.061651522026406225,0.00918135404586792,-0.02037053368985653,true
-0.09019074217088896,0.061651522026406225,0.00917428731918335,-0.024918414652347565,true
-0.09019074217088896,0.061651522026406225,0.00917428731918335,-0.024918414652347565,true
-0.09019074217088896,0.061651522026406225,0.01885633707046509,-0.019025079905986786,true
-0.09019074217088896,0.061651522026406225,0.018782453536987306,-0.019584713503718376,true
-0.09019074217088896,0.061651522026406225,0.018782453536987306,-0.019584713503718376,true
-0.0901907421708884,0.061651522026406225,0.018782453536987306,-0.019584713503718376,true
-0.0901907421708884,0.061651522026406225,0.004992325305938721,0.06787296384572983,true
-0.0901907421708884,0.061651522026406225,-0.0013709676265716553,0.05958297848701477,true
-0.09019074217089129,0.061651522026406225,-0.0013709676265716553,0.05958297848701477,true
-0.09019074217089129,0.061651522026406225,0.025413715839385988,0.07085619866847992,true
-0.09019074217089129,0.061651522026406225,-0.022228139638900756,-0.008450286462903023,true
-0.09019074217089085,0.061651522026406225,-0.019939630031585692,-0.011876203119754791,true
-0.09019074217088896,0.061651522026406225,0.0030223846435546873,0.02911658212542534,true
-0.09019074217088896,0.061651522026406225,0.02298267126083374,0.0038385922089219093,true
-0.09019074217088896,0.061651522026406225,0.025740461349487306,0.01161570381373167,true
-0.09019074217088896,0.061651522026406225,0.025740461349487306,0.01161570381373167,true
-0.09019074217089129,0.061651522026406225,0.025740461349487306,0.01161570381373167,true
-0.0901907421708893,0.061651522026406225,0.0026159119606018067,0.08619572967290878,true
-0.0901907421708893,0.061651522026406225,0.01173457145690918,0.06468426436185837,true
-0.09019074217089129,0.061651522026406225,-0.06078954577445984,0.09192159026861191,true
-0.0901907421708884,0.061651522026406225,0.020178358554840087,0.06227559596300125,true
-0.06371208236910875,0.10203090021869521,0.022743535041809083,0.07698668539524078,true
-0.06371208236910875,0.10203090021869521,0.020547096729278565,-0.010628562420606613,true
-0.06371208236910653,0.10203090021869521,0.018586442470550538,-0.00870798621326685,true
-0.0637120823691052,0.10203090021869521,0.059379756450653076,0.08480760455131531,true
-0.06371208236910542,0.10203090021869521,0.018355278968811034,0.13968926668167114,true
-0.0637120823691052,0.10203090021869521,0.03193082332611084,0.08414407819509506,true
-0.06371208236910719,0.10203090021869521,0.10697320938110352,0.18937014043331146,true
-0.0637120823691052,0.10203090021869521,0.05044129848480225,0.16890829801559448,true
-0.0637120823691052,0.10203090021869521,0.026172935962677002,0.1544947475194931,true
-0.06371208236910653,0.10203090021869521,-0.008054709434509278,-0.06647895276546478,true
-0.06371208236910653,0.10203090021869521,-0.0031809556484222413,-0.07945914566516876,true
-0.06371208236910653,0.10203090021869521,-0.0031809556484222413,-0.07945914566516876,true
-0.0637120823691052,0.10203090021869521,-0.0031809556484222413,-0.07945914566516876,true
-0.0637120823691052,0.10203090021869521,0.08038718700408935,0.02000586688518524,true
-0.06371208236910719,0.10203090021869521,0.07993795156478882,0.017641745507717133,true
-0.06371208236910653,0.10203090021869521,0.08370460748672486,0.13559572398662567,true
-0.06371208236910653,0.10203090021869521,0.08241927862167359,0.13684701919555664,true
-0.06371208236910653,0.10203090021869521,0.08241927862167359,0.13684701919555664,true
-0.06371208236910653,0.10203090021869521,-0.012914601564407348,0.04091013967990875,true
-0.06371208236910653,0.10203090021869521,-0.012743324041366577,0.03826715424656868,true
-0.06371208236910653,0.10203090021869521,-0.012743324041366577,0.03826715424656868,true
-0.06371208236910653,0.10203090021869521,-0.012743324041366577,0.03826715424656868,true
-0.06371208236910653,0.10203090021869521,0.04329285144805908,0.07317247241735458,true
-0.06371208236910875,0.10203090021869521,0.043111472129821776,0.07290437072515488,true
-0.06371208236910653,0.10203090021869521,0.02416874885559082,0.1223658099770546,true
-0.06371208236910653,0.10203090021869521,0.04425329208374024,0.16318917274475098,true
-0.0637120823691052,0.10203090021869521,0.01994832754135132,0.16154339909553528,true
-0.0637120823691052,0.10203090021869521,0.010186731815338135,0.019343364983797073,true
-0.0637120823691052,0.10203090021869521,0.011227850914001466,0.018462203443050385,true
-0.06371208236910653,0.10203090021869521,0.020737128257751467,-0.10004968196153641,true
-0.06371208236910653,0.10203090021869521,0.0215608549118042,-0.1023210883140564,true
-0.06371208236910653,0.10203090021869521,0.0215608549118042,-0.1023210883140564,true
-0.06371208236910653,0.10203090021869521,0.0215608549118042,-0.1023210883140564,true
-0.06371208236910919,0.10203090021869521,0.0215608549118042,-0.1023210883140564,true
-0.06371208236910919,0.10203090021869521,0.04555945873260498,0.1343202292919159,true
-0.06371208236910919,0.10203090021869521,0.04606006383895874,0.13332732021808624,true
-0.06371208236910919,0.10203090021869521,0.04606006383895874,0.13332732021808624,true
