0.1376254389328796,0.11233529511628171,0.038224287033081054,0.1765502691268921,true
0.1376254389328796,0.11233529511628171,0.0985448694229126,0.2651359438896179,true
0.1376254389328796,0.11233529511628171,0.100969979763031,0.2583373486995697,true
0.13762543893287982,0.11233529511628171,0.100969979763031,0.2583373486995697,true
0.13762543893287982,0.11233529511628171,0.15349945068359375,0.1973491907119751,true
0.1376254389328796,0.11233529511628171,0.1515614914894104,0.19553235173225403,true
0.1376254389328796,0.11233529511628171,-0.028725383281707765,0.15917767584323883,true
0.13762543893287782,0.11233529511628171,-0.030011754035949707,0.15759360790252686,true
0.13762543893287782,0.11233529511628171,0.13642623901367187,0.20663511753082275,true
0.13762543893287782,0.11233529511628171,0.13971050024032594,0.2607037425041199,true
0.1376254389328796,0.11233529511628171,0.16524792909622193,0.3006677031517029,true
0.1376254389328796,0.11233529511628171,0.15904107809066773,0.3121670186519623,true
0.13762543893287982,0.11233529511628171,0.07091840744018554,0.00851504411548376,true
0.13762543893287982,0.11233529511628171,0.01661102056503296,0.024250978603959084,true
0.13762543893287982,0.11233529511628171,0.014747805595397949,0.023647267371416092,true
0.13762543893287982,0.11233529511628171,0.15146663427352905,0.30045461654663086,true
0.13762543893287915,0.11233529511628171,0.15267142057418823,0.3014358878135681,true
0.13762543893287915,0.11233529511628171,0.18112346649169922,0.15093913674354553,true
0.13762543893287982,0.11233529511628171,0.18123635292053222,0.15184065699577332,true
0.13762543893287982,0.11233529511628171,0.1290211248397827,0.1690567284822464,true
0.13762543893287982,0.11233529511628171,0.12905500888824464,0.16872566938400269,true
0.13762543893287982,0.11233529511628171,0.12905500888824464,0.16872566938400269,true
0.13762543893287982,0.11233529511628171,0.12905500888824464,0.16872566938400269,true
0.1376254389328797,0.11233529511628171,0.12905500888824464,0.16872566938400269,true
0.1376254389328797,0.11233529511628171,0.1607679867744446,0.20721910893917084,true
0.13762543893288004,0.11233529511628171,0.15983540534973145,0.20387709140777588,true
0.13762543893287982,0.11233529511628171,0.14859681844711303,0.2623945474624634,true
0.13762543893287982,0.11233529511628171,0.07201547145843507,0.21764934062957764,true
0.13762543893287982,0.11233529511628171,0.029053895473480223,0.19247400760650635,true
0.13762543893287982,0.11233529511628171,0.028630797863006593,0.19224701821804047,true
0.13762543893287782,0.11233529511628171,-0.004996742010116577,0.15096837282180786,true
0.13762543893287782,0.11233529511628171,0.09311861991882324,0.09768527001142502,true
0.13762543893288004,0.11233529511628171,0.09035706996917725,0.10250690579414368,true
0.13762543893288004,0.11233529511628171,0.1159165596961975,0.23630499839782715,true
0.16522195784469706,0.15445158949258508,0.20756407737731933,0.32089394330978394,true
0.1652219578446975,0.15445158949258508,-0.05641825437545776,0.19621337950229645,true
0.16522195784469706,0.15445158949258508,0.0917948317527771,0.24044543504714966,true
0.16522195784469706,0.15445158949258508,0.1263776707649231,0.1543005108833313,true
0.1652219578446953,0.15445158949258508,0.122552170753479,0.1513272374868393,true
0.1652219578446953,0.15445158949258508,-0.019289491176605226,0.10801750421524048,true
0.16522195784469684,0.15445158949258508,-0.018829383850097657,0.11300840973854065,true
0.16522195784469706,0.15445158949258508,0.12921740770339965,0.2706333100795746,true
0.16522195784469706,0.15445158949258508,0.07486263751983643,0.2054063230752945,true
0.16522195784469706,0.15445158949258508,0.08347847223281861,0.40115854144096375,true
0.16522195784469706,0.15445158949258508,0.09804738998413086,0.3978700041770935,true
0.16522195784469684,0.15445158949258508,0.09804738998413086,0.3978700041770935,true
0.16522195784469684,0.15445158949258508,0.08336268663406372,0.17726625502109528,true
0.1652219578446973,0.15445158949258508,0.08218014240264893,0.17975477874279022,true
0.1652219578446973,0.15445158949258508,0.04359499931335449,0.0988934263586998,true
0.1652219578446973,0.15445158949258508,0.041935133934021,0.09398330003023148,true
0.16522195784469662,0.15445158949258508,0.041935133934021,0.09398330003023148,true
0.16522195784469662,0.15445158949258508,0.14672617435455323,0.24739386141300201,true
0.1652219578446953,0.15445158949258508,0.15080195426940918,0.2500934898853302,true
0.1652219578446953,0.15445158949258508,0.13070952892303467,0.318489134311676,true
0.1652219578446975,0.15445158949258508,0.1318740439414978,0.3331894874572754,true
0.16522195784469706,0.15445158949258508,0.1273372507095337,0.32023724913597107,true
0.16522195784469706,0.15445158949258508,0.090880868434906,0.31682687997817993,true
0.16522195784469706,0.15445158949258508,0.08440706729888917,0.33750975131988525,true
0.16522195784469673,0.15445158949258508,0.07002727508544922,0.13805046677589417,true
0.16522195784469673,0.15445158949258508,0.15399249076843263,0.30194273591041565,true
0.16522195784469673,0.15445158949258508,0.15518903255462646,0.3028066158294678,true
0.16522195784469673,0.15445158949258508,0.15518903255462646,0.3028066158294678,true
0.1652219578446953,0.15445158949258508,0.15518903255462646,0.3028066158294678,true
0.16522195784469573,0.15445158949258508,-0.026722419261932372,0.12451723963022232,true
0.16522195784469673,0.15445158949258508,0.04216620683670044,0.2893843948841095,true
0.16522195784469673,0.15445158949258508,0.13553637504577637,0.33317893743515015,true
0.1652219578446973,0.15445158949258508,0.13972146272659303,0.32217296957969666,true
0.20081911005914888,0.13556607174655966,0.19115414142608642,0.3298904597759247,true
0.20081911005914888,0.13556607174655966,0.029169273376464844,0.11347354203462601,true
0.20081911005914888,0.13556607174655966,0.14082690715789795,0.22552433609962463,true
0.20081911005914888,0.13556607174655966,0.09022760391235352,0.3710743188858032,true
0.20081911005914888,0.13556607174655966,0.09770787000656128,0.35003846883773804,true
0.20081911005914888,0.13556607174655966,0.09585362434387207,0.35773879289627075,true
0.20081911005915087,0.13556607174655966,0.09585362434387207,0.35773879289627075,true
0.20081911005914932,0.13556607174655966,0.09015748023986817,0.13492591679096222,true
0.20081911005915087,0.13556607174655966,0.03990634918212891,0.33067435026168823,true
0.20081911005914888,0.13556607174655966,0.059633207321166996,0.09536546468734741,true
0.20081911005914888,0.13556607174655966,0.05967198371887207,0.09548191726207733,true
0.20081911005914932,0.13556607174655966,0.09892701625823974,0.2959885895252228,true
0.20081911005914932,0.13556607174655966,0.020927295684814454,0.3303959369659424,true
0.20081911005914888,0.13556607174655966,0.08471678018569946,0.3495393991470337,true
0.20081911005914888,0.13556607174655966,0.08191731452941894,0.34669730067253113,true
0.20081911005914932,0.13556607174655966,0.08191731452941894,0.34669730067253113,true
0.20081911005914888,0.13556607174655966,0.16952887058258057,0.20535540580749512,true
0.20081911005914888,0.13556607174655966,0.0983137059211731,0.2234167903661728,true
0.20081911005914888,0.13556607174655966,0.09555559873580932,0.22155331075191498,true
0.20081911005914888,0.13556607174655966,0.09555559873580932,0.22155331075191498,true
0.20081911005914888,0.13556607174655966,0.019288268089294434,0.07060150802135468,true
0.20081911005914888,0.13556607174655966,0.018401575088500977,0.07000844925642014,true
0.20081911005914888,0.13556607174655966,0.14589764595031737,0.13628549873828888,true
0.20081911005914888,0.13556607174655966,0.04342159271240235,0.31352078914642334,true
0.20081911005914888,0.13556607174655966,0.05553196907043457,0.10132235288619995,true
0.20081911005915087,0.13556607174655966,0.04743993282318115,0.09714897722005844,true
0.20081911005914888,0.13556607174655966,-0.002472312450408936,0.09865649044513702,true
0.2115138227841683,0.11925852245360136,0.12785312175750732,0.253012478351593,true
0.2115138227841683,0.11925852245360136,0.07980291366577148,0.3893292546272278,true
0.2115138227841683,0.11925852245360136,0.0807207727432251,0.38361480832099915,true
0.2115138227841703,0.11925852245360136,0.08540130138397217,0.10452836751937866,true
0.2115138227841703,0.11925852245360136,0.08546481132507325,0.1041296198964119,true
0.21151382278416941,0.11925852245360136,0.1182887601852417,0.10925033688545227,true
0.21151382278416941,0.11925852245360136,0.08786844968795776,0.3275022804737091,true
0.2115138227841683,0.11925852245360136,0.09752599239349366,0.3365296721458435,true
0.21151382278416875,0.11925852245360136,-0.002420738935470581,0.15190789103507996,true
0.21151382278417008,0.11925852245360136,-0.045760384798049926,0.14500664174556732,true
0.2115138227841703,0.11925852245360136,0.03816662073135376,0.05376850441098213,true
0.2115138227841703,0.11925852245360136,0.08594951629638672,0.08688513934612274,true
0.21151382278417052,0.11925852245360136,0.012595715522766114,0.11724497377872467,true
0.2115138227841683,0.11925852245360136,0.07885361671447753,0.3272016942501068,true
0.2115138227841683,0.11925852245360136,-0.005729461908340454,0.07515829056501389,true
0.2115138227841683,0.11925852245360136,-0.0020079469680786134,0.07300584018230438,true
0.2115138227841683,0.11925852245360136,-0.020253533124923707,0.18467140197753906,true
0.2115138227841692,0.11925852245360136,0.06881456136703491,0.09839377552270889,true
0.2115138227841703,0.11925852245360136,0.07020349025726319,0.4182959496974945,true
0.21151382278417052,0.11925852245360136,0.01315004587173462,0.12632955610752106,true
0.21151382278416875,0.11925852245360136,0.06247172117233277,0.23997505009174347,true
0.21151382278417052,0.11925852245360136,0.13250379800796508,0.2879672646522522,true
0.21151382278417052,0.11925852245360136,0.05749814987182617,0.3069438338279724,true
0.1510420709375876,0.19221379662497085,0.05158035516738892,0.27491694688796997,true
0.1510420709375876,0.19221379662497085,0.1382763171195984,0.2086835652589798,true
0.15104207093758737,0.19221379662497085,0.09590200424194337,0.2183818370103836,true
0.15104207093758737,0.19221379662497085,0.09644953966140747,0.21985353529453278,true
0.15104207093758737,0.19221379662497085,0.09644953966140747,0.21985353529453278,true
0.15104207093758737,0.19221379662497085,0.12228712320327759,0.4928361177444458,true
0.15104207093758715,0.19221379662497085,0.12192282438278199,0.4923662841320038,true
0.15104207093758715,0.19221379662497085,-0.01733153223991394,0.22597475349903107,true
0.15104207093758693,0.19221379662497085,-0.015909398794174193,0.22997567057609558,true
0.15104207093758693,0.19221379662497085,0.0822376275062561,0.32360175251960754,true
0.1510420709375867,0.19221379662497085,0.08714388370513916,0.3195359706878662,true
0.1510420709375867,0.19221379662497085,0.08680028676986694,0.4092935025691986,true
0.1510420709375867,0.19221379662497085,0.07851948738098144,0.40670856833457947,true
0.1510420709375876,0.19221379662497085,0.07851948738098144,0.40670856833457947,true
0.15104207093758715,0.19221379662497085,0.0011354780197143555,0.08390616625547409,true
0.15104207093758693,0.19221379662497085,0.0012602782249450683,0.0842810869216919,true
0.15104207093758693,0.19221379662497085,0.08935413837432861,0.39265987277030945,true
0.1510420709375867,0.19221379662497085,-0.052512325048446655,0.2293802946805954,true
0.15104207093758737,0.19221379662497085,-0.04841004490852356,0.23873533308506012,true
0.1510420709375876,0.19221379662497085,0.10188743114471435,0.14758612215518951,true
0.1510420709375876,0.19221379662497085,0.0745858120918274,0.21371011435985565,true
0.15104207093758715,0.19221379662497085,0.09206735372543336,0.42855894565582275,true
0.15104207093758737,0.19221379662497085,-0.0021103692054748537,0.14314530789852142,true
0.17702914541416204,0.18431906023955658,0.008611531257629394,0.09391039609909058,true
0.1770291454141616,0.18431906023955658,0.06120519161224365,0.41219550371170044,true
0.1770291454141616,0.18431906023955658,0.08264885663986206,0.44375067949295044,true
0.17702914541416204,0.18431906023955658,0.08258711338043213,0.44428858160972595,true
0.17702914541416204,0.18431906023955658,0.08258711338043213,0.44428858160972595,true
0.17702914541416204,0.18431906023955658,0.0364315128326416,0.3776496648788452,true
0.17702914541416193,0.18431906023955658,0.036236634254455564,0.37721937894821167,true
0.17702914541416193,0.18431906023955658,0.12267316579818725,0.3460841476917267,true
0.17702914541416193,0.18431906023955658,0.12421008825302124,0.3308448791503906,true
0.17702914541416248,0.18431906023955658,0.12421008825302124,0.3308448791503906,true
0.17702914541416204,0.18431906023955658,-0.016180810928344728,0.3787786662578583,true
0.17702914541416226,0.18431906023955658,0.14677509784698486,0.3986104428768158,true
0.17702914541416226,0.18431906023955658,0.0681790542602539,0.4646696448326111,true
0.17702914541416226,0.18431906023955658,0.06979805946350098,0.4760723412036896,true
0.17702914541416404,0.18431906023955658,0.09439751625061035,0.06403016299009323,true
0.17702914541416404,0.18431906023955658,0.0872620701789856,0.06627064943313599,true
0.1770291454141616,0.18431906023955658,0.0872620701789856,0.06627064943313599,true
0.1770291454141616,0.18431906023955658,0.07901139497756958,0.40007513761520386,true
0.17702914541416404,0.18431906023955658,0.06662328720092774,0.40222784876823425,true
0.17702914541416404,0.18431906023955658,0.13462476730346679,0.11672960221767426,true
0.17702914541416226,0.18431906023955658,0.13413186311721803,0.09826283901929855,true
0.17702914541416204,0.18431906023955658,-0.013558489084243775,0.13174065947532654,true
0.17702914541416226,0.18431906023955658,0.11814615726470948,0.35497409105300903,true
0.17702914541416248,0.18431906023955658,0.11734575986862182,0.4393482506275177,true
0.17702914541416248,0.18431906023955658,0.005546519756317139,0.2709366977214813,true
0.17702914541416204,0.18431906023955658,0.0055475616455078125,0.25568708777427673,true
0.17702914541416204,0.18431906023955658,0.007979149818420411,0.0182656217366457,true
0.17702914541416204,0.18431906023955658,0.003633248805999756,0.03115309402346611,true
0.1770291454141616,0.18431906023955658,0.003633248805999756,0.03115309402346611,true
0.1770291454141616,0.18431906023955658,0.11670486211776733,0.3672122061252594,true
0.17702914541416193,0.18431906023955658,0.12199978828430176,0.36485156416893005,true
0.17702914541416193,0.18431906023955658,0.09009718656539917,0.373972088098526,true
0.1770291454141616,0.18431906023955658,0.08860243797302246,0.37398624420166016,true
0.1770291454141616,0.18431906023955658,0.07391415596008301,0.37516263127326965,true
0.18880345013572286,0.18767217472802544,0.07660671472549438,0.375489205121994,true
0.18880345013572308,0.18767217472802544,-0.012951701879501343,0.10848487168550491,true
0.18880345013572108,0.18767217472802544,0.014475510120391846,0.02104000188410282,true
0.18880345013572286,0.18767217472802544,0.012455830574035645,0.14616091549396515,true
0.18880345013572286,0.18767217472802544,0.0024062204360961914,0.36210107803344727,true
0.1888034501357233,0.18767217472802544,0.0003912067413330078,0.3676396310329437,true
0.18880345013572308,0.18767217472802544,0.11029642820358276,0.13034647703170776,true
0.18880345013572308,0.18767217472802544,0.09374542951583863,0.41399088501930237,true
0.18880345013572242,0.18767217472802544,0.09989850997924805,0.410466730594635,true
0.18880345013572242,0.18767217472802544,0.11982142448425293,0.19041664898395538,true
0.18880345013572242,0.18767217472802544,0.10664265871047973,0.3821021020412445,true
0.18880345013572264,0.18767217472802544,0.11091571807861328,0.38270649313926697,true
0.18880345013572264,0.18767217472802544,0.11172114372253418,0.32638004422187805,true
0.18880345013572308,0.18767217472802544,0.03835221290588379,0.0539335235953331,true
0.18880345013572308,0.18767217472802544,0.03856770277023316,0.05356546863913536,true
0.18880345013572308,0.18767217472802544,0.03856770277023316,0.05356546863913536,true
0.18880345013572264,0.18767217472802544,0.030035219192504882,0.3464573919773102,true
0.18880345013572286,0.18767217472802544,0.022345035076141356,0.3462435007095337,true
0.18880345013572286,0.18767217472802544,0.14183101654052735,0.3782751262187958,true
0.1888034501357233,0.18767217472802544,0.14106183052062987,0.3369140625,true
0.18880345013572308,0.18767217472802544,0.038237876892089843,0.3456319272518158,true
0.18880345013572242,0.18767217472802544,0.056395514011383055,0.22573046386241913,true
0.18880345013572242,0.18767217472802544,-0.1046141004562378,0.42708462476730347,true
0.18880345013572242,0.18767217472802544,-0.10131525278091431,0.4254869520664215,true
0.18880345013572242,0.18767217472802544,0.10547583341598511,0.28286293148994446,true
0.18880345013572242,0.18767217472802544,0.10230454921722412,0.31458792090415955,true
0.18880345013572308,0.18767217472802544,0.0072676301002502445,0.037827782332897186,true
0.18880345013572286,0.18767217472802544,0.007255897521972656,0.03572317957878113,true
0.21606258803260203,0.20371000518424376,0.003762352466583252,0.22305810451507568,true
0.21606258803260203,0.20371000518424376,-0.006447572708129883,0.06559515744447708,true
0.21606258803260003,0.20371000518424376,-0.006629291772842407,0.0646774098277092,true
0.21606258803260203,0.20371000518424376,0.12815232515335084,0.2618259787559509,true
0.2160625880326016,0.20371000518424376,0.12480618476867676,0.2555341422557831,true
0.2160625880326016,0.20371000518424376,0.10242463827133179,0.2731078565120697,true
0.2160625880326007,0.20371000518424376,0.10247994899749756,0.2734091579914093,true
0.2160625880326007,0.20371000518424376,0.0642709732055664,0.4259463846683502,true
0.2160625880326007,0.20371000518424376,0.06608277320861816,0.41660305857658386,true
0.21606258803260092,0.20371000518424376,0.046061921119689944,0.49663645029067993,true
0.21606258803260092,0.20371000518424376,-0.009339653253555298,0.4530760943889618,true
0.21606258803260092,0.20371000518424376,-0.008745663166046143,0.45528173446655273,true
0.2160625880326016,0.20371000518424376,-0.008745663166046143,0.45528173446655273,true
0.2160625880326018,0.20371000518424376,0.05219892024993897,0.1022452861070633,true
0.21606258803260003,0.20371000518424376,-0.01912915349006653,0.09616941958665848,true
0.21606258803259804,0.20371000518424376,0.06921351432800293,0.13894842565059662,true
0.21606258803259804,0.20371000518424376,-0.07516578197479248,0.13025084137916565,true
0.2160625880326018,0.20371000518424376,-0.06871383786201476,0.12958933413028717,true
0.21606258803259848,0.20371000518424376,-0.02451406717300415,0.15099585056304932,true
0.15766736396847436,0.24718496088438413,0.04487973928451538,0.21228574216365814,true
0.15766736396847436,0.24718496088438413,0.045005671977996826,0.21233080327510834,true
0.15766736396847436,0.24718496088438413,0.045005671977996826,0.21233080327510834,true
0.15766736396847436,0.24718496088438413,0.045005671977996826,0.21233080327510834,true
0.15766736396847436,0.24718496088438413,0.10625498533248902,0.495281845331192,true
0.15766736396847436,0.24718496088438413,0.053310389518737795,0.3823084533214569,true
0.15766736396847436,0.24718496088438413,0.06196844339370727,0.39152395725250244,true
0.15766736396847436,0.24718496088438413,0.06196844339370727,0.39152395725250244,true
0.15766736396847436,0.24718496088438413,0.02535799741744995,0.12575489282608032,true
0.15766736396847547,0.24718496088438413,0.024385597705841065,0.12014671415090561,true
0.15766736396847392,0.24718496088438413,0.018370680809020996,0.05973692983388901,true
0.15766736396847547,0.24718496088438413,0.01210756778717041,0.441477507352829,true
0.15766736396847392,0.24718496088438413,0.015046510696411133,0.08070027083158493,true
0.15766736396847392,0.24718496088438413,0.06079260349273682,0.1848679929971695,true
0.15766736396847392,0.24718496088438413,0.06989826202392578,0.18047024309635162,true
0.15766736396847392,0.24718496088438413,0.06989826202392578,0.18047024309635162,true
0.1576673639684757,0.24718496088438413,-0.062138679027557375,0.07514971494674683,true
0.15766736396847347,0.24718496088438413,0.08144012928009034,0.2370205521583557,true
0.1576673639684757,0.24718496088438413,-0.04406980633735657,0.39433109760284424,true
0.15766736396847436,0.24718496088438413,-0.0847919774055481,0.477098673582077,true
0.15766736396847436,0.24718496088438413,0.010472934246063232,0.06624992191791534,true
0.15766736396847547,0.24718496088438413,-0.006037521362304688,0.09627513587474823,true
0.15766736396847347,0.24718496088438413,-0.005266863107681275,0.09719233214855194,true
0.1778188352288147,0.24854403006575154,0.0005159616470336914,0.21930275857448578,true
0.1778188352288147,0.24854403006575154,0.00023415327072143555,0.07962643355131149,true
0.1778188352288116,0.24854403006575154,0.0005016469955444336,0.08766153454780579,true
0.17781883522881392,0.24854403006575154,0.0011066675186157226,0.38505101203918457,true
0.17781883522881392,0.24854403006575154,-0.12297429442405701,0.4292812943458557,true
0.1778188352288147,0.24854403006575154,-0.1301821517944336,0.41718873381614685,true
0.1778188352288147,0.24854403006575154,0.14392186164855958,0.17607668042182922,true
0.17781883522881314,0.24854403006575154,0.14541719913482667,0.14974430203437805,true
0.17781883522881314,0.24854403006575154,0.025956132411956788,0.08344706147909164,true
0.17781883522881115,0.24854403006575154,0.025885419845581056,0.08036207407712936,true
0.17781883522881115,0.24854403006575154,0.03408513307571411,0.10754510760307312,true
0.1778188352288147,0.24854403006575154,0.033838431835174564,0.10769767314195633,true
0.1778188352288138,0.24854403006575154,0.03483212232589722,0.12801571190357208,true
0.1778188352288138,0.24854403006575154,0.029772164821624755,0.37221699953079224,true
0.17781883522881403,0.24854403006575154,-0.03864838123321533,0.4922761917114258,true
0.17781883522881403,0.24854403006575154,-0.06227430582046509,0.4330331087112427,true
0.17781883522881403,0.24854403006575154,0.051284821033477784,0.37297916412353516,true
0.17781883522881403,0.24854403006575154,0.056601581573486326,0.5544911623001099,true
0.17781883522881403,0.24854403006575154,0.06217265367507935,0.5515472292900085,true
0.17781883522881403,0.24854403006575154,0.06217265367507935,0.5515472292900085,true
0.1778188352288116,0.24854403006575154,-0.03361433506011963,0.1523233950138092,true
0.1778188352288116,0.24854403006575154,-0.03361587524414063,0.1512611210346222,true
0.1778188352288116,0.24854403006575154,-0.03361587524414063,0.1512611210346222,true
0.1778188352288116,0.24854403006575154,0.0018114829063415527,0.1635075807571411,true
0.1778188352288116,0.24854403006575154,0.0017012691497802735,0.16352012753486633,true
0.17781883522881392,0.24854403006575154,0.0017012691497802735,0.16352012753486633,true
0.17781883522881514,0.24854403006575154,0.07269614219665528,0.3870086669921875,true
0.1778188352288138,0.24854403006575154,-0.03558343768119812,0.02392547018826008,true
0.1778188352288138,0.24854403006575154,0.08233832836151123,0.16761723160743713,true
0.17781883522881337,0.24854403006575154,0.08389318943023681,0.1738961786031723,true
0.17781883522881514,0.24854403006575154,0.07810898303985596,0.47578689455986023,true
0.17781883522881514,0.24854403006575154,-0.03500412464141846,0.19821573793888092,true
0.1961145382900552,0.21627890299030028,-0.13035496950149536,0.4578959047794342,true
0.1961145382900552,0.21627890299030028,-0.13149620056152345,0.45685628056526184,true
0.19611453829005654,0.21627890299030028,-0.08834928154945373,0.4503328204154968,true
0.1961145382900552,0.21627890299030028,-0.08815619230270386,0.44753995537757874,true
0.196114538290053,0.21627890299030028,-0.03613842487335205,0.46551087498664856,true
0.1961145382900552,0.21627890299030028,-0.005046707391738891,0.29675501585006714,true
0.1961145382900552,0.21627890299030028,-0.047862486839294435,0.48784181475639343,true
0.19611453829005543,0.21627890299030028,-0.058290574550628665,0.4816720485687256,true
0.19611453829005543,0.21627890299030028,-0.010808196067810059,0.17275692522525787,true
0.19611453829005632,0.21627890299030028,-0.010621516704559327,0.17461387813091278,true
0.19611453829005632,0.21627890299030028,0.1534764838218689,0.09835892170667648,true
0.1961145382900552,0.21627890299030028,0.14977320194244384,0.09843848645687103,true
0.1961145382900552,0.21627890299030028,0.05958215475082398,0.48100560903549194,true
0.1961145382900552,0.21627890299030028,-0.0852105450630188,0.48729342222213745,true
0.196114538290053,0.21627890299030028,-0.08727547883987427,0.48800742626190186,true
0.196114538290053,0.21627890299030028,-0.004915406703948974,0.34629130363464355,true
0.19611453829005454,0.21627890299030028,-0.007825697660446168,0.36422669887542725,true
0.19611453829005654,0.21627890299030028,0.008757078647613525,0.17165155708789825,true
0.19611453829005632,0.21627890299030028,0.023103666305541993,0.12850312888622284,true
0.19611453829005254,0.21627890299030028,0.008868062496185302,0.12543369829654694,true
0.19611453829005254,0.21627890299030028,-0.004414054155349731,0.13492991030216217,true
0.196114538290053,0.21627890299030028,-0.0017994332313537597,0.12809230387210846,true
0.196114538290053,0.21627890299030028,-0.00602676272392273,0.20564965903759003,true
0.19611453829005476,0.21627890299030028,-0.005710458755493164,0.20275481045246124,true
0.19611453829005476,0.21627890299030028,0.00803260326385498,0.39647015929222107,true
0.19611453829005543,0.21627890299030028,0.0008238625526428223,0.3941347002983093,true
0.19611453829005476,0.21627890299030028,0.028599495887756347,0.4021255373954773,true
0.22128025759047232,0.24315282577839903,0.011964874267578125,0.4373630881309509,true
0.22128025759047032,0.24315282577839903,-0.012902393341064453,0.11859391629695892,true
0.22128025759047032,0.24315282577839903,-0.1015926218032837,0.07768706977367401,true
0.22128025759047232,0.24315282577839903,-0.10576602220535278,0.07865919172763824,true
0.22128025759047232,0.24315282577839903,-0.011837741136550903,0.01806041970849037,true
0.22128025759047432,0.24315282577839903,0.007306723594665527,0.15981169044971466,true
0.22128025759047032,0.24315282577839903,0.007342872619628907,0.1598176509141922,true
0.22128025759047432,0.24315282577839903,0.05246673107147217,0.08043856173753738,true
0.22128025759047387,0.24315282577839903,-0.053436729907989505,0.12268827110528946,true
0.22128025759047387,0.24315282577839903,0.02449345588684082,0.07016906142234802,true
0.22128025759047298,0.24315282577839903,0.02430342435836792,0.07351638376712799,true
0.22128025759047298,0.24315282577839903,0.050994224548339843,0.19239452481269836,true
0.22128025759047298,0.24315282577839903,0.051739718914031986,0.19223763048648834,true
0.22128025759047298,0.24315282577839903,0.051739718914031986,0.19223763048648834,true
0.22128025759047032,0.24315282577839903,0.0104022216796875,0.03132176026701927,true
0.22128025759047032,0.24315282577839903,0.010570147037506104,0.031346894800662994,true
0.22128025759047076,0.24315282577839903,0.010570147037506104,0.031346894800662994,true
0.2212802575904741,0.24315282577839903,-0.013983398675918579,0.5221316814422607,true
0.22128025759047032,0.24315282577839903,0.013506190776824951,0.060132864862680435,true
0.22128025759047032,0.24315282577839903,0.013419125080108642,0.06210046261548996,true
0.22128025759047232,0.24315282577839903,0.013419125080108642,0.06210046261548996,true
0.22128025759047232,0.24315282577839903,0.05171195030212403,0.192811518907547,true
0.22128025759047332,0.24315282577839903,0.05193794965744018,0.1926262229681015,true
0.22128025759047332,0.24315282577839903,-0.04245154857635498,0.4430921971797943,true
0.22128025759047332,0.24315282577839903,-0.045732434988021854,0.45630499720573425,true
0.22128025759047076,0.24315282577839903,0.05099254846572876,0.10510683804750443,true
0.22128025759047232,0.24315282577839903,0.05098937749862671,0.10501730442047119,true
0.22128025759047387,0.24315282577839903,0.09916977643966675,0.18662326037883759,true
0.14111490417459172,0.27376975043463014,-0.110428204536438,0.4726417362689972,true
0.14111490417458794,0.27376975043463014,-0.051608214378356936,0.3224765360355377,true
0.14111490417459172,0.27376975043463014,0.03750153303146363,0.21996375918388367,true
0.14111490417459094,0.27376975043463014,-0.09161007761955262,0.5097423195838928,true
0.14111490417458794,0.27376975043463014,-0.08828475236892701,0.5152695775032043,true
0.14111490417459172,0.27376975043463014,0.0056020569801330565,0.44491028785705566,true
0.14111490417458994,0.27376975043463014,0.13822956800460814,0.11445610225200653,true
0.14111490417458994,0.27376975043463014,0.015437626838684082,0.1368587613105774,true
0.14111490417458794,0.27376975043463014,0.016040563583374023,0.13653899729251862,true
0.14111490417459194,0.27376975043463014,-0.10845409631729126,0.31288379430770874,true
0.14111490417459105,0.27376975043463014,0.04861459493637085,0.21386750042438507,true
0.14111490417459105,0.27376975043463014,0.05797393083572388,0.4549202620983124,true
0.14111490417458794,0.27376975043463014,0.05708479166030884,0.4469336271286011,true
0.14111490417458794,0.27376975043463014,0.011852757930755615,0.3438207507133484,true
0.14111490417458838,0.27376975043463014,0.010530192852020264,0.347989559173584,true
0.14111490417459194,0.27376975043463014,-0.0031125760078430176,0.12107200920581818,true
0.14111490417459194,0.27376975043463014,-0.009645696878433228,0.2888372242450714,true
0.14111490417459194,0.27376975043463014,-0.009341646432876587,0.3071542978286743,true
0.14111490417459094,0.27376975043463014,-0.0018171453475952148,0.48886966705322266,true
0.14111490417459194,0.27376975043463014,-0.07169139862060547,0.5263472199440002,true
0.17402379532254286,0.26572026758970346,0.036850805282592776,0.18325932323932648,true
0.17402379532254286,0.26572026758970346,-0.009165000915527344,0.2209843397140503,true
0.17402379532254286,0.26572026758970346,-0.009042646884918213,0.23248231410980225,true
0.17402379532254242,0.26572026758970346,-0.037136985063552855,0.5175756812095642,true
0.1740237953225433,0.26572026758970346,-0.007172659635543823,0.292534202337265,true
0.17402379532254286,0.26572026758970346,-0.013267688751220703,0.320945143699646,true
0.17402379532254242,0.26572026758970346,0.00580930233001709,0.13754160702228546,true
0.17402379532254242,0.26572026758970346,-0.058057485818862914,0.15581919252872467,true
0.1740237953225442,0.26572026758970346,-0.06055199503898621,0.14684469997882843,true
0.17402379532254242,0.26572026758970346,0.02378945589065552,0.48566800355911255,true
0.17402379532254242,0.26572026758970346,-0.002405563592910767,0.05008253455162048,true
0.17402379532254442,0.26572026758970346,-0.002095375061035156,0.04979204759001732,true
0.1740237953225442,0.26572026758970346,0.02037649869918823,0.033346451818943024,true
0.17402379532254442,0.26572026758970346,0.03942852973937988,0.11151648312807083,true
0.17402379532254442,0.26572026758970346,0.06865293264389039,0.13032613694667816,true
0.17402379532254342,0.26572026758970346,0.12825723886489868,0.10689521580934525,true
0.17402379532254242,0.26572026758970346,-0.10359671831130982,0.23838278651237488,true
0.17402379532254286,0.26572026758970346,-0.10867352724075317,0.08888548612594604,true
0.17402379532254286,0.26572026758970346,0.0454571270942688,0.012245477177202702,true
0.17402379532254353,0.26572026758970346,0.04928674936294556,0.010908009484410286,true
0.20471231667942902,0.29378308246723783,-0.015868334770202636,0.48568278551101685,true
0.20471231667942902,0.29378308246723783,-0.013224155902862548,0.06558304280042648,true
0.20471231667943057,0.29378308246723783,-0.0867640471458435,0.10985352843999863,true
0.20471231667943057,0.29378308246723783,-0.013355796337127687,0.04202130436897278,true
0.20471231667943057,0.29378308246723783,-0.01288513422012329,0.03839770704507828,true
0.20471231667943013,0.29378308246723783,0.06415342092514038,0.5826014280319214,true
0.20471231667943035,0.29378308246723783,-0.24021833419799804,0.5345518589019775,true
0.20471231667942857,0.29378308246723783,0.020951712131500246,0.15576185286045074,true
0.20471231667942857,0.29378308246723783,-0.02071049213409424,0.08019362390041351,true
0.20471231667942857,0.29378308246723783,-0.019140251874923707,0.0815296545624733,true
0.20471231667943057,0.29378308246723783,-0.019140251874923707,0.0815296545624733,true
0.20471231667942857,0.29378308246723783,-0.06959973812103272,0.5425624847412109,true
0.20471231667943013,0.29378308246723783,0.03157191514968872,0.12342289090156555,true
0.20471231667943013,0.29378308246723783,0.009021627902984618,0.18461114168167114,true
0.20471231667943035,0.29378308246723783,0.007477774620056153,0.18876886367797852,true
0.2047123166794308,0.29378308246723783,0.0571189022064209,0.15609218180179596,true
0.22343716582488382,0.28536525115412537,-0.11168304681777955,0.5820500254631042,true
0.22343716582488538,0.28536525115412537,-0.10493966817855835,0.5325590968132019,true
0.2234371658248847,0.28536525115412537,-0.10924285173416137,0.36545419692993164,true
0.22343716582488404,0.28536525115412537,-0.06265368938446045,0.48866212368011475,true
0.2234371658248856,0.28536525115412537,-0.05525507569313049,0.03932434320449829,true
0.22343716582488404,0.28536525115412537,0.014649369716644288,0.36181962490081787,true
0.22343716582488404,0.28536525115412537,-0.15959253191947936,0.11205624788999557,true
0.22343716582488382,0.28536525115412537,-0.1604066777229309,0.10225539654493332,true
0.22343716582488404,0.28536525115412537,-0.07660485744476318,0.0665908232331276,true
0.22343716582488227,0.28536525115412537,-0.11858388662338257,0.12291300296783447,true
0.22343716582488182,0.28536525115412537,0.04942169666290283,0.1296572983264923,true
0.22343716582488182,0.28536525115412537,0.04967541933059692,0.13005082309246063,true
0.2234371658248847,0.28536525115412537,0.0932168745994568,0.5658695101737976,true
0.2234371658248847,0.28536525115412537,-0.09890101432800293,0.18717695772647858,true
0.20081911005915087,0.13556607174655966,-0.001298896074295044,-0.08682489395141602,false
0.20081911005914888,0.13556607174655966,-0.0009190595149993897,-0.0905991643667221,false
0.15104207093758737,0.19221379662497085,0.00039215803146362303,-0.03252028673887253,false
0.15104207093758715,0.19221379662497085,-0.017132803201675414,-0.03811080753803253,false
0.21606258803260203,0.20371000518424376,-0.04292710304260254,-0.014372851699590683,false
0.2160625880326018,0.20371000518424376,-0.056044397354125974,-0.003906874917447567,false
0.17781883522881314,0.24854403006575154,-0.03503572106361389,-0.07005629688501358,false
0.19611453829005654,0.21627890299030028,-0.035979740619659424,-0.05588768422603607,false
0.22128025759047343,0.24315282577839903,-0.003977094888687134,-0.05346904695034027,false
0.22128025759047298,0.24315282577839903,-0.14015110611915588,-0.03024958074092865,false
0.17402379532254242,0.26572026758970346,-0.06034395694732666,-0.10366904735565186,false
0.1740237953225433,0.26572026758970346,-0.05936172723770142,-0.10369713604450226,false
0.20471231667943013,0.29378308246723783,-0.020678374767303467,-0.07865997403860092,false
0.20471231667943013,0.29378308246723783,-0.047691956758499146,-0.060466621071100235,false
0.22343716582488382,0.28536525115412537,-0.02894028425216675,-0.15529923141002655,false
0.22343716582488427,0.28536525115412537,-0.029816445112228394,-0.15675905346870422,false
0.22343716582488427,0.28536525115412537,-0.09686611413955688,0.04493553936481476,false
0.22343716582488427,0.28536525115412537,-0.08129920244216919,0.03479527682065964,false
0.2234371658248847,0.28536525115412537,-0.09030200839042664,0.02566724456846714,false
0.22343716582488182,0.28536525115412537,-0.11788142681121826,-0.10639676451683044,false
0.13679999999999995,0.10471975511965975,-0.06267186220968059,0.03328898042741051,false
0.13679999999999995,0.10471975511965975,-0.06267186220968059,0.03312568671021903,false
0.1368,0.10471975511965975,-0.06267186220968059,0.027412663365528354,false
0.1367999999999999,0.1583340784789903,-0.06267186220886745,0.024072783604734502,false
0.228,0.1583340784789904,-0.06267186220968059,0.024072783605137364,false
0.14178771904243723,0.276883436340629,-0.06267186220968059,0.016948450226617257,false
0.18542434448280376,0.2727664809571852,0.013265145715550021,-0.002906874917448121,false
0.18434046936920453,0.2779405790074095,0.005133280119565704,0.0011833480191769663,false
0.18378312965916077,0.2831146770576337,0.005133280119565704,0.0012123170859443255,false
0.1892385011060141,0.2779405790074095,-0.004568172940734974,0.006081379755986542,false
0.18273573793233336,0.2831146770576337,-0.005214939071471118,0.004752714632529999,false
0.17203878259110592,0.2934628731580823,0.01030745815484651,-0.0014260147173158105,false
0.1748267191709407,0.2944330165424993,0.005133280119565704,-0.0004725494060917046,false
0.17487334336382657,0.2944330165424993,0.005133280119565704,-0.0004725494060917046,false
0.21545686223224933,0.2941096354143603,0.0044865141169224045,0.0019085170968789872,false
0.21492190609304,0.2947563976706383,0.004486514116922406,0.0004402119970172841,false
0.19194258041692708,0.10471975511965975,-0.01695822465723298,0.01074715463804272,false
0.1923219606352992,0.1063220105382805,-0.016154741784596516,0.010367774419670598,false
0.1920825797558482,0.13079805420666202,-0.016056352711229294,0.010607155299121596,false
0.14875621145963594,0.10471975511965975,-0.13700561553086515,0.0539335235953331,false
0.19711454010009855,0.10471975511965975,-0.009514213755495826,0.00704969168185802,false
0.1971145401000977,0.10471975511965975,-0.10445128207411475,0.053933523595333294,false
0.1368,0.10471975511965975,-0.1456337060537525,0.07235798024195651,false
0.1368,0.10471975511965975,-0.152865852065584,0.054933523595332545,false
0.14854995224322454,0.10471975511965975,0.07916030355705525,-0.03752338866074889,false
0.15887086650366367,0.23594113233686723,0.0938537068966094,-0.043698537692589134,false
0.1584645276883245,0.23594113233686723,0.0938537068966094,-0.04532389295394562,false
0.228,0.15772299931475514,0.25153493954124123,-0.13038438168750713,false
0.228,0.276883436340629,0.25029354502809786,-0.1388767366533717,false
0.13680000015428148,0.10471975511965975,0.058358868136232284,-0.027207856880182957,false
0.13704946501338136,0.10471975511965975,0.058358868136232284,-0.027209599153270137,false
0.1368,0.12778012026722785,0.025345395380821124,-0.010547128738160771,false
0.1368,0.15772299931475514,0.022900722819320814,-0.009009442322122224,false
0.18145505971666723,0.10883666617593499,-0.06267186220700469,0.028813591850381723,false
0.18155270690367786,0.1088366661759351,-0.06267186220968059,0.028813591851720756,false
0.18270636426853784,0.11861393280369908,-0.06267186220968059,0.02756228730118913,false
0.2016180136969713,0.10471975511965975,-0.06413080785064579,0.03253088723076784,false
0.2021832009689399,0.10471975511965975,-0.06413080785064579,0.033419759167868705,false
0.1981973329782486,0.10471975511965975,-0.07037919365609352,0.029433891177177388,false
0.1981973329782486,0.10471975511965975,-0.07142072142711342,0.0294338911771774,false
0.19927571509839215,0.10471975511965975,-0.07142072142711346,0.02999216304657578,false
0.1368,0.10471975511965975,0.08711274537987054,-0.04229463189251911,false
0.1411113437857118,0.14763561476927922,0.07659791632651873,-0.03588723332114953,false
0.1410003140656502,0.14805432191688417,0.07659791632651873,-0.03589607947797954,false
0.14067374102898192,0.14805432191688417,0.07659791632651873,-0.036154539262571284,false
0.1399779147210199,0.14805432191688417,0.07659791632651873,-0.03685036557053331,false
0.1400369678708848,0.14805432191688417,0.07659791632651873,-0.036850365570533256,false
0.13884144191375364,0.1547536362785633,0.07659791632651873,-0.03798683837779959,false
0.1368,0.14847302906448911,0.12109109453665498,-0.08547172768191413,false
0.1368,0.14847302906448911,0.1219315999510976,-0.08589043482951908,false
0.15462819385528564,0.10471975511965975,0.12401839060876477,-0.06962056071851361,false
0.1493025327324867,0.10471975511965975,0.1240183906107534,-0.07494622184330138,false
0.1368,0.19538893781442376,-0.37903492504979364,0.18864940232849972,false
0.17589196955788106,0.11861393280372279,0.09385370690073974,-0.05971965271308466,false
0.1774409569143123,0.11861393280369908,0.0938537068966094,-0.05971965271100127,false
0.20710844896555505,0.1088366661759351,0.25029354502809786,-0.1471039731966421,false
0.13709688229752523,0.16418279415144899,0.04819813948177887,-0.021600396813123812,false
0.1489553108929262,0.19417808839295506,0.018194019750842505,-0.007346925644035718,false
0.14896474105773802,0.19417808839295506,0.018194019750842505,-0.007346925644035718,false
0.15338795970412852,0.19417808839295506,0.018194019750842533,-0.007346925644035718,false
0.1368,0.2510931859125307,-0.13826030587968038,0.07211313627139206,false
0.1368,0.2363120735422693,-0.17097381089525912,0.08827866541994878,false
0.1368,0.2358193697965939,-0.1868665922736499,0.09615875390971942,false
0.1368142997286515,0.2358193697965939,-0.1868665922736499,0.0961589031278352,false
0.13680872422201315,0.2363120735422693,-0.1868665922736499,0.09599212897966174,false
0.13702788533920013,0.2363120735422693,-0.1868665922736499,0.09599212897966172,false
0.14265361010191782,0.2363120735422693,-0.1868665922736499,0.09599212897966172,false
0.13695829189939368,0.2501077784211799,-0.1868665922736499,0.09625114217669346,false
0.1368,0.3141592653589793,-0.25090840831325134,0.1065423848228999,false
0.1368,0.3141592653589793,-0.37795842017534276,0.1685167430842307,false
0.1368,0.28202274858427173,-0.07289171913027218,0.03971047372452913,false
0.1368,0.2990952731208351,-0.0643453956723887,0.03464609942059821,false
0.1368,0.30009953927004474,-0.0643453956723887,0.03554778611729714,false
0.13680000913415097,0.3139082048246626,-0.1909355325413351,0.09864409722338568,false
0.16993227295746796,0.10471975511965975,0.11346092266700755,-0.05591479046909599,false
0.1368,0.10890941600893128,-0.043040134697480886,0.021236476634537954,false
0.17651546280247926,0.10471975511965975,-0.16335806612680817,0.08368978912966496,false
0.18058136340573386,0.11708816355499288,-0.15946875633901575,0.07962388852641036,false
0.19309275672012519,0.1914728441378701,-0.12839493137750965,0.0671248881560946,false
0.1624821126126533,0.11322402430393433,-0.19160541471644435,0.09772313931949092,false
0.1618527258891722,0.11563911133584592,-0.19451923768808446,0.09835252604297202,false
0.16274104709117326,0.1909898267314878,-0.18964450846390232,0.09746420484097094,false
0.16678778345659284,0.22625009739739713,-0.18087558169527768,0.09341746847555138,false
0.16251492703389397,0.22141992333357394,-0.18964450846390232,0.09769032489825025,false
0.21789138891361157,0.28393159874185725,-0.0764541750313551,0.04231386301853268,false
0.21789536276246518,0.28393159874185725,-0.0764541750313551,0.04230988916967904,false
0.22008902262353006,0.28695436540356944,-0.0764541750313551,0.040116229308614165,false
0.22223095354756425,0.30963970555463216,-0.027959686702901304,0.018303734633532246,false
0.2223443495001177,0.3094884448163501,-0.028186478608008186,0.018417130586085684,false
0.22124011877760255,0.31171069443576754,-0.025988073588491988,0.017322956289084628,false
0.22490759858853082,0.3068263153881563,-0.033322643993413344,0.020990046883077706,false
0.1368,0.10471975511965975,0.01926297425982413,-0.00841588072237429,false
0.1368,0.10471975511965975,-0.3075794502602455,-0.325105999330898,false
0.2073323818147175,0.30101949339644063,-0.107727117772449,0.05493352189660072,false
0.2036708156655342,0.10471975511965975,-0.11266383029799898,0.05859508804578484,false
0.20481902962755402,0.10471975511965975,-0.11266383029799901,0.057446874083765004,false
0.2048237959726774,0.10471975511965975,-0.11266383029799898,0.0574659394642585,false
0.19497849021206323,0.10471975511965975,-0.13041910668268888,0.06730277674887217,false
0.1953274333324857,0.10471975511965975,-0.13041910668268886,0.06693847037883334,false
0.19496547634609573,0.1205021581192991,-0.12982747443157122,0.06730042736522329,false
0.19042700650031757,0.12096768001170183,-0.144450766756908,0.07183889721100145,false
0.19043226585982964,0.12096768001170183,-0.14445076675690804,0.0718336378514894,false
0.19043821376553993,0.12096768001170183,-0.14445076675690804,0.0718276899457791,false
0.1805053115134954,0.10471975511965975,-0.1594335132308846,0.08176059219782363,false
0.182529539997324,0.11861393280369908,0.0938537068966094,-0.047904832119992385,false
0.19379438934052112,0.11861393280369908,0.0938537068966094,-0.059169681463189516,false
0.1383982700587468,0.17103178737563093,-0.0401757290378532,0.020898494074309836,false
0.13705221506523071,0.1903733384544618,-0.0401757290378532,0.019666235675047033,false
0.2194607726127403,0.26387123255401906,-0.0488837553822421,0.028366509030003827,false
0.14222291057805597,0.2369925008790308,0.1321030476654212,-0.06289628306441047,false
0.14230126375496818,0.2369925008790308,0.1321030476654212,-0.06289548157423498,false
0.14000523115070138,0.23751039862721837,0.13111035367775098,-0.06242148682492784,false
0.1368,0.23738955238955517,0.1321030476654212,-0.06294969561158133,false
0.1368,0.23751039862721834,0.1321030476654212,-0.06294891954128835,false
0.1400012651195377,0.23751039862721834,0.1321030476654212,-0.0629315587463928,false
0.13680999861680132,0.24786835359096981,0.11040450175881256,-0.052073589869740866,false
0.1368099986120872,0.24786835359096981,0.11442752391946806,-0.05407876692968594,false
0.1368,0.24786835359096981,0.1664755736561943,-0.10804634357459497,false
0.13679999999999998,0.3141592653589793,0.1321030476654212,-0.09095571788440548,false
0.2049665513889685,0.19611656377789854,0.03739733789828789,-0.015391085311665801,false
0.20497357634656574,0.19611656377789854,0.03739733789828789,-0.015398110269263054,false
0.2007766909732747,0.20543572442903651,0.010471056287358671,-0.0018820642448340308,false
0.20079489957263222,0.20543572442903651,0.010471056287358671,-0.001900272844191564,false
0.2007007479595136,0.21475488508017448,-0.008167406087680129,0.0075130394200650305,false
0.21192529089616355,0.3016770065145875,-0.0952528141577867,0.051364441798462356,false
0.20663500905833296,0.10471975511965975,-0.1087532812079274,0.05665472363629298,false
0.20415902766444063,0.1501602163769726,-0.11434676261679586,0.059162318081301526,false
0.20735621079802574,0.1967508552923154,-0.10885207489165832,0.05593352189660017,false
0.20688197797238583,0.19488722973570172,-0.11354224779435212,0.05640775472224008,false
0.22033349381761064,0.3136933589698258,-0.16397442358736386,0.05680424579768395,false
0.22033349381761064,0.31369335896982586,-0.31049858791642554,0.12901973611646533,false
0.2203334938176107,0.31369335896982586,-0.33344189237432,0.14020148945614763,false
0.22416554220731916,0.31369335896982586,-0.33727394076402845,0.14206511501276134,false
0.22799999999999998,0.3141592653589793,-0.3411083985567096,0.14392874056937505,false
0.17106670768768834,0.1076145078474646,0.11231097344062435,-0.05389926432781368,false
0.17175149890481442,0.1076145078474646,0.11100890814135513,-0.053246537867660815,false
0.17141837021412637,0.1076145078474646,0.11223487336169438,-0.05385942429141571,false
0.17332281261969423,0.1076145078474646,0.11100890814135513,-0.05323805576546457,false
0.1753650888491848,0.1076145078474646,0.10369303670131888,-0.0495797087500047,false
0.1753841420579894,0.1076145078474646,0.10365483086865762,-0.04956055612614804,false
0.17540917659361063,0.1076145078474646,0.10365483086865762,-0.049560423471566896,false
0.1802709547053602,0.1076145078474646,0.0938537068966094,-0.044646244801470614,false
0.180264091746698,0.10822558701169985,0.0938537068966094,-0.04463938184280841,false
0.13680000000000667,0.109157279630372,0.0888931368179357,-0.04240889751106234,false
0.13704787244386382,0.109157279630372,0.0888931368179357,-0.04277374758328985,false
0.1368,0.10890940718650821,0.0888931368179357,-0.04341039571917343,false
0.1368,0.109157279630372,0.0888931368179357,-0.04448313328336353,false
0.1369105340133553,0.109157279630372,0.0888931368179357,-0.04448313328336353,false
0.13679999999999995,0.10890940718650821,0.0888931368179357,-0.04478968160471944,false
0.1368,0.18567119886893474,0.007162286364372363,-0.0009277438253190301,false
0.1368,0.20296766935797922,-0.004167586611238403,0.0048602032101121295,false
0.1437018704685814,0.2373060105246821,0.13938616247016733,-0.06650398587250439,false
0.1410860252870716,0.23878303971680634,0.1364802197544217,-0.06507507234888302,false
0.13935747721345945,0.2373060105246821,0.13947487229524394,-0.06659269569758097,false
0.14070937808867529,0.2373060105246821,0.1396977048106261,-0.06668963972293501,false
0.14066545185840953,0.2373060105246821,0.1396977048106261,-0.06669009153673755,false
0.15021859102895846,0.2373060105246821,0.1396977048106261,-0.06659329790802648,false
0.1368,0.24584526106182622,0.12241364641578464,-0.05807072035526581,false
0.1368143109079256,0.24584526106182622,0.12241334380162441,-0.058070417741105634,false
0.13715754670143146,0.22454289915497308,0.16506518063380465,-0.0794198926664327,false
0.16057691347135372,0.23967145549787355,0.13755263583518196,-0.06703590421071048,false
0.18084511916748297,0.1463187368817966,0.08552928619712383,-0.04006747283745013,false
0.18217725938074858,0.15073559289435404,0.07945403580144182,-0.036982757038158315,false
0.18072940227679904,0.15349612790220243,0.07105878726562825,-0.03277436492636038,false
0.18381580883927393,0.15404823490377212,0.0761363809314198,-0.03528586212823023,false
0.18856045973796387,0.17281987295714124,0.04850379006338081,-0.0212816773325864,false
0.18333630087643896,0.10471975511965975,0.0938537068966094,-0.04498038308621771,false
0.17402919990662427,0.10471975511965975,0.14659942219310154,-0.07099009949829901,false
0.17391865344906646,0.10471975511965975,0.14659942219310154,-0.07143228532853017,false
0.14137697067903024,0.10471975511965975,0.17735437413567692,-0.08646048705816126,false
0.21031311760416901,0.21042016207896727,-0.019847619001592303,0.008515888180913284,false
0.18872091016808135,0.3072124504071928,-0.1535263083182086,0.0790124320012785,false
0.1368,0.3030405350948529,-0.012969839247298555,0.009107938902345784,false
0.18472294401587983,0.12228040778911059,0.0938537068966094,-0.04527613820759106,false
0.168442775135824,0.19683206582581111,0.1318623816606363,-0.0670342752628389,false
0.228,0.1968320658258112,0.13186238166222275,-0.0670342752636159,false
0.228,0.1968320658258112,0.14291373893385056,-0.07253398774173314,false
0.19514728376704893,0.21966750648764183,-0.010336680347331331,0.008513039279728574,false
0.19073636278521924,0.23567827432230004,-0.021936526462703825,0.008513039279728046,false
0.22770943154768536,0.3134360695704989,-0.009279790592835522,0.008817566351491179,false
0.18894570909854497,0.10471975511965975,0.08614870137514306,-0.040793903405054024,false
0.18891770002767874,0.1063923495189941,0.08616270591057618,-0.040779898869620905,false
0.18879831229760424,0.1137252994898171,0.08622239977561343,-0.04072020500458366,false
0.18910085689316725,0.1137252994898171,0.08622345482912411,-0.04071914995107298,false
0.1950232402006513,0.10883666617593513,0.08311187784357905,-0.043830726936618034,false
0.19332632797585836,0.27627235717639376,0.07426447567035613,-0.03329029657758048,false
0.22237772111780718,0.2946047321034513,0.035124915979608526,-0.013338871713906464,false
0.22236739419976673,0.2946047321034513,0.035124915979608526,-0.01338017938606828,false
0.1911625609451492,0.2251538146855741,-0.012278707942883932,0.00951303897798006,false
0.18799669384910697,0.3141592653589793,-0.047195132440550236,0.027614364253429526,false
0.20377156730509352,0.3141592653589793,-0.013305267304870418,0.010124316243398964,false
0.20498053788710693,0.1137252994898171,0.08895486034010466,-0.043296855694290814,false
0.19510266058211623,0.2223723943520302,-0.01213552147102544,0.00951303897798006,false
0.22566870482623885,0.1954853311277711,-0.013939475373662524,0.010419414044118475,false
0.18608866832693916,0.23667827402055153,-0.017427408884369094,0.009513038977979532,false
0.21749580548167158,0.15772299931475514,0.07426447567439454,-0.04012173659658838,false
0.21920915299556912,0.15772299931475514,0.07426447567035613,-0.04012173659453555,false
0.22636349983102336,0.22768835561194262,-0.06639576818358545,0.036926232863602554,false
0.22424424442844348,0.3059435019625863,-0.06968587781152961,0.039045488266182427,false
0.2203809467396164,0.10471975511965975,0.07426447567035613,-0.03658116692189807,false
0.14418840595872237,0.22447148453547536,-0.01555679522956258,0.010772805177998224,false
0.14745397811603533,0.2265254031802884,-0.018295549996494104,0.012178122273729353,false
0.2020974944157469,0.2251538146855741,-0.02692083691107868,0.016985178290126635,false
0.2254826709533743,0.30859642469189147,-0.13932789980593613,0.07389936909329356,false
0.1368,0.2883198811084446,-0.02853981290148592,0.017342591084448827,false
0.21539508453822181,0.2056115948025095,-0.01703897973784325,0.011875765367876701,false
0.22279447073600828,0.2056115948025095,-0.034487146391552335,0.019275151565663166,false
0.20692163482467962,0.2521320250409966,-0.01655435774153111,0.011789964976559084,false
0.21588954889749246,0.2521320250409966,-0.034487146391552335,0.020754839553767494,false
0.1556394369852281,0.30307267713033126,-0.0947344130356402,0.050944966423437724,false
0.16115308501453798,0.30307267713033126,-0.10584890789253787,0.05654581325102551,false
0.16299361641762336,0.31370666118324153,-0.1308814236981498,0.06910381360064181,false
0.1673212278271097,0.3140881548650496,-0.140162684081784,0.07377203764264433,false
0.1673028315596387,0.3141592653589793,-0.140162684081784,0.07377226847355617,false
0.16360521639437342,0.10471975511965975,-0.02040581435119776,0.012325296547439099,false
0.1635149250245162,0.10471975511965975,-0.021140206312313753,0.012691954465527568,false
0.16352131188327496,0.10471975511965975,-0.021140206312313753,0.012691989679194177,false
0.16529916494157065,0.10471975511965975,-0.021140206312313725,0.012701766738380577,false
0.16351492500305181,0.10471975511965975,-0.03509496244261781,0.019667939451054356,false
0.16351492500305181,0.10471975511965975,-0.03509496244259663,0.01177280472963993,false
0.16033240830483214,0.12889593628014942,-0.20188952115898912,0.10295732438979378,false
0.15407099776355987,0.1267906711769809,-0.21465813608699857,0.10921873493106604,false
0.15401839024614508,0.13226436044521905,-0.21465813608699857,0.10927134244848082,false
0.15731883465940694,0.12721172419761462,-0.21465813608699857,0.10597089803521897,false
0.1574297648778712,0.1267906711769809,-0.21465813608699857,0.10585996781675472,false
0.15341221633435526,0.20636969207675102,-0.21465813608699857,0.10987751636027064,false
0.13731058753104597,0.20636969207802086,-0.26934517108826256,0.1259791451635799,false
0.16334387009109275,0.20636969207675102,-0.2693451710882628,0.1259791451635802,false
0.22702493212556635,0.2996665418516497,-0.06395212059921193,0.03626480056905956,false
0.2056466388458068,0.23783292831184571,-0.03716720826923792,0.022236477419733447,false
0.20568448926573157,0.23783292831184571,-0.037166568583709564,0.022236477419733447,false
0.2004020050430415,0.24370418500777907,-0.03716720826923792,0.022236477419733447,false
0.2262793370165373,0.27119971462515663,-0.04595008935222633,0.02705692291922022,false
0.18259489021800596,0.14691252842620633,-0.21350723846649308,0.10787119283176778,false
0.18269820196738493,0.14691252842519023,-0.21350723846649317,0.10787119283176706,false
0.2134640543554806,0.10471975511965975,-0.38,0.1901268365120895,false
0.21217576066611057,0.3005908453173532,-0.05697432957831869,0.03264845869655471,false
0.21241514840979037,0.3003508582345539,-0.056974360582135675,0.03264908903949115,false
0.21243112888192583,0.3003348373920395,-0.056974360582135675,0.03264912940987019,false
0.21192042812805711,0.30084685324266686,-0.056974360582135675,0.032647814313111506,false
0.2129418468997414,0.29982282154141204,-0.05697436058213576,0.03265042724268203,false
0.21396333539242418,0.2987987898401573,-0.056974360582135675,0.03265297045125404,false
0.20885658902876902,0.3039189483464313,-0.056974360582135675,0.032639558308635186,false
0.20681437431445412,0.30596701174894086,-0.0569743605821357,0.03263370962044049,false
0.1998197983859828,0.3141592653589793,-0.05697436058213573,0.03261920898333683,false
0.19980446687378914,0.3141592653589793,-0.0569743605821357,0.03255788293456249,false
0.17083172412437161,0.27720397126348584,-0.02075381458732823,0.013762024834201525,false
0.2222401181459427,0.26526593959331507,-0.38,0.1916639238503634,false
0.2222401181459427,0.2947564125061035,-0.38,0.1627619465135931,false
0.2222401181459427,0.2661001145023511,-0.06985609099827705,0.03888192437866782,false
0.2222401181459427,0.10471975511965978,-0.1184430342465421,0.06155369405401988,false
0.1368,0.24067145383358,-0.04799324006375663,0.02701904296145846,false
0.1368,0.24067145383358,-0.0502154871079514,0.01815291635270233,false
0.22267478105737973,0.28097000017887286,-0.07157014540216525,0.03989653271910823,false
0.20561951055816144,0.24195341031253786,-0.1060186661150495,0.05664639315315759,false
0.1368,0.2597177532946907,0.10213101800296943,-0.047874944174018136,false
0.1368,0.2618527145521138,0.10279781079224783,-0.04819437087745544,false
0.13698117214849698,0.2821348464976331,0.10279781079224783,-0.048966685759901485,false
