-0.02461024493474484,-0.47777272921802805,-0.012837343215942383,-0.0849761813879013,true
-0.02461024493474484,-0.47777272921802805,-0.0005686676502227783,-0.0208117812871933,true
-0.02461024493474684,-0.47777272921802805,0.003678774833679199,-0.131286159157753,true
-0.02461024493474462,-0.47777272921802805,-0.07369058012962341,-0.015876052901148796,true
-0.024610244934745062,-0.47777272921802805,0.11547353029251099,-0.12852075695991516,true
-0.02461024493474684,-0.47777272921802805,0.0370543360710144,-0.45450901985168457,true
-0.02461024493474484,-0.47777272921802805,-0.023056735992431642,-0.16632796823978424,true
-0.02461024493474484,-0.47777272921802805,-0.030128490924835206,-0.492814302444458,true
-0.02461024493474484,-0.47777272921802805,-0.03189521789550781,-0.4952670931816101,true
-0.02461024493474684,-0.47777272921802805,-0.03189521789550781,-0.4952670931816101,true
-0.0016609496797111989,-0.5043331478611561,-0.007189058065414429,-0.09772361814975739,true
-0.001660949679711643,-0.5043331478611561,0.006467776298522949,-0.014071394689381123,true
-0.0016609496797100887,-0.5043331478611561,-0.07621387720108032,-0.10566220432519913,true
-0.0016609496797103107,-0.5043331478611561,-0.07736566305160522,-0.1274162083864212,true
-0.0016609496797103107,-0.5043331478611561,0.02115039587020874,-0.09044279158115387,true
-0.0016609496797103107,-0.5043331478611561,0.009973733425140381,-0.09018989652395248,true
-0.0016609496797103107,-0.5043331478611561,0.02019416809082031,-0.7357243299484253,true
-0.0016609496797103107,-0.5043331478611561,0.03133296012878418,-0.7367038726806641,true
-0.0016609496797103107,-0.5043331478611561,-0.1810476350784302,-0.305145263671875,true
-0.0016609496797096446,-0.5043331478611561,-0.18231507062911986,-0.3101764917373657,true
0.01130296982070822,-0.503965476251242,0.07395266056060791,-0.7218008637428284,true
0.011302969820708664,-0.503965476251242,-0.07600699424743652,-0.1544729769229889,true
0.011302969820708442,-0.503965476251242,0.011553010940551759,-0.19905763864517212,true
0.011302969820708442,-0.503965476251242,0.015567545890808106,-0.24003557860851288,true
0.011302969820708442,-0.503965476251242,0.045070767402648926,-0.6639158725738525,true
0.02501155964335877,-0.4944992095892635,0.05116400718688965,-0.4962189495563507,true
0.02501155964335877,-0.4944992095892635,0.04979224681854248,-0.49438920617103577,true
0.02501155964335877,-0.4944992095892635,0.04956597566604614,-0.49684590101242065,true
0.02501155964335877,-0.4944992095892635,-0.05528841614723205,-0.6619304418563843,true
0.02501155964335877,-0.4944992095892635,-0.009626127481460571,-0.5837972164154053,true
0.02501155964335877,-0.4944992095892635,-0.02634756565093994,-0.5786145925521851,true
0.025011559643359216,-0.4944992095892635,-0.03524994254112244,-0.5975159406661987,true
0.025011559643358994,-0.4944992095892635,0.0754869556427002,-0.22717556357383728,true
0.025011559643359216,-0.4944992095892635,0.02162404775619507,-0.3589990437030792,true
0.02501155964335877,-0.4944992095892635,-0.016152453422546387,-0.18767662346363068,true
0.02501155964335877,-0.4944992095892635,0.03763661623001099,-0.3919055163860321,true
0.025011559643359216,-0.4944992095892635,0.04342716455459595,-0.40908607840538025,true
-0.02982256158179497,-0.4552860888069685,0.00937405824661255,-0.16704672574996948,true
-0.029822561581796525,-0.4552860888069685,0.05845134258270264,-0.713013768196106,true
-0.029822561581794083,-0.4552860888069685,-0.03154863119125366,-0.009738572873175144,true
-0.029822561581794305,-0.4552860888069685,0.03437926292419433,-0.6701647639274597,true
-0.02982256158179697,-0.4552860888069685,0.03674661636352539,-0.25751587748527527,true
-0.029822561581794305,-0.4552860888069685,-0.05038551211357117,-0.438178151845932,true
-0.029822561581794305,-0.4552860888069685,-0.04137674927711487,-0.2480659931898117,true
-0.029822561581793416,-0.4552860888069685,-0.04069220542907715,-0.25009357929229736,true
-0.02982256158179475,-0.4552860888069685,0.05427499771118164,-0.08485967665910721,true
-0.02982256158179497,-0.4552860888069685,0.07127926349639893,-0.6752370595932007,true
-0.005156202554915557,-0.44041914292785345,-0.01734346866607666,-0.0012624753871932626,true
-0.005156202554916001,-0.44041914292785345,0.029112467765808107,-0.07053973525762558,true
-0.005156202554915557,-0.44041914292785345,0.07398686170578003,-0.2722655236721039,true
-0.005156202554915779,-0.44041914292785345,0.09793826341629028,-0.5465912222862244,true
-0.005156202554915557,-0.44041914292785345,0.01365509033203125,-0.6694416999816895,true
-0.005156202554916445,-0.44041914292785345,0.0537711763381958,-0.4554171562194824,true
-0.005156202554916001,-0.44041914292785345,0.04404858350753784,-0.46463072299957275,true
-0.005156202554916445,-0.44041914292785345,0.025301871299743654,-0.6365329027175903,true
-0.005156202554916001,-0.44041914292785345,0.021208016872406005,-0.627611517906189,true
0.014683620935497133,-0.45882338519020127,-0.017450081110000612,-0.10239660739898682,true
0.014683620935497355,-0.45882338519020127,-0.0074905264377594,-0.6375431418418884,true
0.01468362093549691,-0.45882338519020127,0.0574562931060791,-0.08508753031492233,true
0.014683620935497355,-0.45882338519020127,-0.018559783697128296,-0.29995572566986084,true
0.014683620935495134,-0.45882338519020127,0.05146470546722412,-0.3612780272960663,true
0.014683620935497133,-0.45882338519020127,0.023362417221069336,-0.3610362112522125,true
0.014683620935497133,-0.45882338519020127,0.04272189617156982,-0.5689639449119568,true
0.01468362093549691,-0.45882338519020127,0.035582010746002195,-0.4810928702354431,true
0.0350181994777522,-0.4377565259459142,-0.09779656648635865,-0.2647143304347992,true
0.0350181994777522,-0.4377565259459142,-0.09212733030319215,-0.24793827533721924,true
0.03501819947775109,-0.4377565259459142,-0.09212733030319215,-0.24793827533721924,true
0.035018199477749756,-0.4377565259459142,-0.008112149238586426,-0.1426640748977661,true
0.03501819947775153,-0.4377565259459142,-0.012872540950775146,-0.09708083420991898,true
0.03501819947774931,-0.4377565259459142,0.040666158199310305,-0.046686071902513504,true
0.03501819947774931,-0.4377565259459142,-0.029134936332702636,0.007877696305513382,true
0.03501819947774931,-0.4377565259459142,-0.011060220003128052,-0.17598310112953186,true
0.03501819947775153,-0.4377565259459142,-0.06755944728851318,-0.09074711054563522,true
0.03501819947774931,-0.4377565259459142,-0.015519551038742066,-0.661532461643219,true
-0.03578080401190442,-0.39521224392534315,-0.05764904260635376,-0.24130754172801971,true
-0.03578080401190509,-0.39521224392534315,-0.054198532104492186,-0.24353650212287903,true
-0.03578080401190442,-0.39521224392534315,0.07855545520782471,-0.6017217636108398,true
-0.03578080401190464,-0.39521224392534315,-0.09068605780601502,-0.6221914291381836,true
-0.03578080401190464,-0.39521224392534315,0.004661865234375,-0.6001163125038147,true
-0.03578080401190464,-0.39521224392534315,0.002481372356414795,-0.602014422416687,true
-0.03578080401190464,-0.39521224392534315,0.022725868225097656,-0.4916808605194092,true
-0.03578080401190464,-0.39521224392534315,0.02225076675415039,-0.48976826667785645,true
-0.035780804011902645,-0.39521224392534315,-0.016047403812408448,-0.3416340947151184,true
-0.03578080401190509,-0.39521224392534315,-0.005429058074951172,-0.11159472167491913,true
-0.03578080401190442,-0.39521224392534315,-0.04834669351577759,-0.12024911493062973,true
-0.03578080401190464,-0.39521224392534315,0.021280949115753175,-0.578271210193634,true
-0.03578080401190464,-0.39521224392534315,-0.0390950345993042,-0.2820728123188019,true
-0.022236526135173462,-0.38543563030819517,-0.01147330641746521,-0.04950811713933945,true
-0.022236526135173684,-0.38543563030819517,-0.04868557929992676,-0.03145810589194298,true
-0.022236526135173684,-0.38543563030819517,-0.07912613868713379,-0.3210926055908203,true
-0.022236526135173684,-0.38543563030819517,-0.07957523822784424,-0.32192668318748474,true
-0.022236526135172796,-0.38543563030819517,-0.14224018454551696,0.03529469296336174,true
-0.022236526135172796,-0.38543563030819517,0.027520687580108644,-0.45501965284347534,true
-0.022236526135172796,-0.38543563030819517,-0.07000213384628295,-0.328975647687912,true
-0.022236526135173462,-0.38543563030819517,0.006085448265075684,-0.5929268598556519,true
-0.022236526135172796,-0.38543563030819517,0.0052733635902404786,-0.27671942114830017,true
-0.022236526135172796,-0.38543563030819517,-0.01170684814453125,-0.5388345122337341,true
-0.022236526135172796,-0.38543563030819517,-0.010330059528350831,-0.5349874496459961,true
-0.02223652613517324,-0.38543563030819517,-0.021769074201583864,-0.5731844902038574,true
-0.022236526135173684,-0.38543563030819517,0.004897286891937256,-0.4042016565799713,true
0.007242062682576322,-0.38216527547161894,-0.039386786222457885,-0.20763665437698364,true
0.007242062682577877,-0.38216527547161894,-0.013646438121795654,-0.3737245500087738,true
0.007242062682576322,-0.38216527547161894,-0.03027215838432312,-0.5144879221916199,true
0.0072420626825761,-0.38216527547161894,-0.02797454357147217,-0.5885341763496399,true
0.0072420626825761,-0.38216527547161894,-0.0031768786907196045,-0.4419134259223938,true
0.007242062682576322,-0.38216527547161894,-0.002322303056716919,-0.4357147812843323,true
0.007242062682576322,-0.38216527547161894,-0.026582692861557008,-0.5703283548355103,true
0.007242062682575878,-0.38216527547161894,-0.0024400591850280763,-0.5714184045791626,true
0.007242062682576544,-0.38216527547161894,-0.04241043925285339,-0.12648826837539673,true
0.007242062682574324,-0.38216527547161894,0.055156526565551756,-0.32190266251564026,true
0.007242062682577433,-0.38216527547161894,-0.03668500900268555,-0.047985538840293884,true
0.0072420626825767664,-0.38216527547161894,-0.001735379695892334,-0.15261639654636383,true
0.007242062682575878,-0.38216527547161894,-0.1099233865737915,-0.6196109652519226,true
0.007242062682576544,-0.38216527547161894,-0.029586617946624757,-0.5362296104431152,true
0.007242062682576544,-0.38216527547161894,0.003686249256134033,-0.5330681204795837,true
0.007242062682576544,-0.38216527547161894,0.0010764527320861817,-0.532277524471283,true
0.007242062682576322,-0.38216527547161894,-0.015819660425186156,-0.2530117332935333,true
0.007242062682576322,-0.38216527547161894,-0.01663344383239746,-0.2556431293487549,true
0.007242062682576544,-0.38216527547161894,-0.01663344383239746,-0.2556431293487549,true
0.007242062682576544,-0.38216527547161894,-0.08549656629562379,-0.3478480875492096,true
0.007242062682576544,-0.38216527547161894,-0.08589160084724426,-0.34790411591529846,true
0.007242062682576544,-0.38216527547161894,-0.08589160084724426,-0.34790411591529846,true
0.03378869732642753,-0.38591450373093594,-0.08589160084724426,-0.34790411591529846,true
0.03378869732643042,-0.38591450373093594,-0.0069464111328125,-0.5252014398574829,true
0.03378869732643042,-0.38591450373093594,-0.09166178703308106,-0.2395910620689392,true
0.03378869732642753,-0.38591450373093594,-0.08899054169654846,-0.23659011721611023,true
0.03378869732643153,-0.38591450373093594,-0.07175119400024414,-0.14246509969234467,true
0.03378869732643042,-0.38591450373093594,-0.10145407319068908,-0.2750157415866852,true
0.03378869732643153,-0.38591450373093594,0.04421370029449463,-0.4088883101940155,true
0.03378869732642753,-0.38591450373093594,0.1005201554298401,-0.22235456109046936,true
0.03378869732643042,-0.38591450373093594,0.05288167476654053,-0.5904184579849243,true
0.03378869732643042,-0.38591450373093594,0.03620723485946655,-0.5947564244270325,true
0.03378869732643042,-0.38591450373093594,0.037008674144744874,-0.5927008986473083,true
0.03378869732642753,-0.38591450373093594,0.0170025897026062,-0.5803959369659424,true
0.03378869732642753,-0.38591450373093594,-0.02183219909667969,-0.3713785707950592,true
0.03378869732642953,-0.38591450373093594,0.07915771245956421,-0.6471470594406128,true
-0.03586884056141948,-0.31783938450924354,-0.026918656826019287,-0.4646540582180023,true
-0.03586884056141948,-0.31783938450924354,-0.19294777631759644,-0.22484081983566284,true
-0.03586884056141948,-0.31783938450924354,-0.1930154538154602,-0.2200774997472763,true
-0.03586884056141948,-0.31783938450924354,-0.12424456119537354,-0.4794200360774994,true
-0.03586884056141948,-0.31783938450924354,-0.10926849126815796,-0.48296573758125305,true
-0.03586884056141948,-0.31783938450924354,-0.10926849126815796,-0.48296573758125305,true
-0.03586884056141948,-0.31783938450924354,-0.021791542768478393,-0.5159688591957092,true
-0.03586884056141948,-0.31783938450924354,-0.021963363885879515,-0.5159539580345154,true
-0.03586884056141948,-0.31783938450924354,0.04299844980239868,-0.5568615794181824,true
-0.03586884056141926,-0.31783938450924354,0.04287165641784668,-0.557050883769989,true
-0.0358688405614217,-0.31783938450924354,0.07560437202453614,-0.5476288795471191,true
-0.03586884056141948,-0.31783938450924354,-0.03472861289978028,-0.40158703923225403,true
-0.03586884056141926,-0.31783938450924354,0.007522122859954834,-0.08762940764427185,true
-0.03586884056141926,-0.31783938450924354,-0.1426416289806366,-0.19437316060066223,true
-0.03586884056141926,-0.31783938450924354,-0.14107759475708007,-0.1947420835494995,true
-0.03586884056141926,-0.31783938450924354,-0.14107759475708007,-0.1947420835494995,true
-0.0358688405614217,-0.31783938450924354,-0.14107759475708007,-0.1947420835494995,true
-0.0358688405614217,-0.31783938450924354,-0.031194841861724856,-0.03531086444854736,true
-0.0358688405614217,-0.31783938450924354,0.026815826892852782,-0.12363530695438385,true
-0.0358688405614197,-0.31783938450924354,0.006552712917327881,-0.17184653878211975,true
-0.0358688405614217,-0.31783938450924354,-0.09451087832450866,-0.5370538830757141,true
-0.018011493650560984,-0.343652463437615,-0.030114153623580935,-0.2559850811958313,true
-0.018011493650561428,-0.343652463437615,-0.030180698633193972,-0.5237973928451538,true
-0.01801149365056276,-0.343652463437615,0.043120532035827636,-0.4560122787952423,true
-0.01801149365056276,-0.343652463437615,0.015680387020111083,-0.03621096536517143,true
-0.018011493650561206,-0.343652463437615,0.021200225353240967,-0.5305953025817871,true
-0.01801149365056187,-0.343652463437615,0.022558984756469728,-0.5348891615867615,true
-0.01801149365056187,-0.343652463437615,-0.1371124815940857,-0.20453709363937378,true
-0.01801149365056187,-0.343652463437615,-0.13717626333236693,-0.2047024965286255,true
-0.018011493650560984,-0.343652463437615,-0.13717626333236693,-0.2047024965286255,true
-0.01801149365056187,-0.343652463437615,0.05393905639648437,-0.03052237443625927,true
-0.01801149365056187,-0.343652463437615,-0.1253423273563385,-0.20131461322307587,true
-0.018011493650561428,-0.343652463437615,-0.12184529423713684,-0.2106105536222458,true
-0.018011493650561428,-0.343652463437615,-0.10031503915786744,-0.6031365990638733,true
-0.018011493650561206,-0.343652463437615,-0.09335870742797851,-0.6021480560302734,true
-0.018011493650561206,-0.343652463437615,-0.13873160004615784,0.02230207435786724,true
-0.018011493650561206,-0.343652463437615,-0.13593947291374206,0.005214137956500053,true
-0.018011493650561206,-0.343652463437615,-0.1303672683238983,-0.13853485882282257,true
-0.018011493650561206,-0.343652463437615,-0.13033576250076295,-0.13909240067005157,true
-0.018011493650561206,-0.343652463437615,-0.13033576250076295,-0.13909240067005157,true
-0.018011493650561206,-0.343652463437615,0.02815175533294678,-0.2210744470357895,true
0.017503425476607215,-0.34578476069010144,-0.1061159610748291,-0.5661972761154175,true
0.01750342547660877,-0.34578476069010144,0.0064531898498535155,-0.13975878059864044,true
0.01750342547660677,-0.34578476069010144,-0.05038297533988953,-0.46946895122528076,true
0.01750342547660677,-0.34578476069010144,-0.04454119324684143,-0.5353080034255981,true
0.01750342547660677,-0.34578476069010144,0.016629502773284913,-0.20929211378097534,true
0.01750342547660677,-0.34578476069010144,0.016201558113098143,-0.21045805513858795,true
0.01750342547660677,-0.34578476069010144,0.016201558113098143,-0.21045805513858795,true
0.01750342547660677,-0.34578476069010144,0.016201558113098143,-0.21045805513858795,true
0.017503425476606993,-0.34578476069010144,0.05512218952178955,-0.4159058630466461,true
0.01750342547660655,-0.34578476069010144,-0.08976505041122437,-0.5595996975898743,true
0.01750342547660655,-0.34578476069010144,-0.03174052000045777,-0.25611239671707153,true
0.01750342547660655,-0.34578476069010144,-0.03293722033500671,-0.2582090497016907,true
0.01750342547660677,-0.34578476069010144,-0.03293722033500671,-0.2582090497016907,true
0.017503425476606993,-0.34578476069010144,-0.010154297351837158,-0.12052394449710846,true
0.017503425476606993,-0.34578476069010144,-0.027823899984359742,-0.14803887903690338,true
0.01750342547660677,-0.34578476069010144,-0.03090485692024231,-0.15129798650741577,true
0.017503425476606327,-0.34578476069010144,-0.005174995660781861,-0.498588889837265,true
0.017503425476607215,-0.34578476069010144,-0.07433267831802368,-0.38296931982040405,true
0.0400402699203638,-0.3433047537507645,-0.014777114391326904,-0.4992577135562897,true
0.0400402699203638,-0.3433047537507645,0.013875246047973633,-0.5198955535888672,true
0.040040269920364246,-0.3433047537507645,0.023185341358184813,-0.5112242102622986,true
0.040040269920364246,-0.3433047537507645,-0.09565167903900147,-0.5585712194442749,true
0.040040269920364246,-0.3433047537507645,0.038262927532196046,-0.5123222470283508,true
0.040040269920363136,-0.3433047537507645,0.03599065780639649,-0.5126320123672485,true
0.040040269920365135,-0.3433047537507645,-0.10779596209526063,-0.0804544985294342,true
0.04004026992036358,-0.3433047537507645,0.0037400650978088377,-0.41697248816490173,true
0.04004026992036491,-0.3433047537507645,-0.03601509690284729,0.0052928919903934,true
0.040040269920363136,-0.3433047537507645,0.015624260902404786,-0.4112848937511444,true
0.04004026992036375,-0.3433047537507645,-0.06292879343032837,-0.06231611594557762,true
0.04004026992036375,-0.3433047537507645,0.0196055006980896,-0.56593257188797,true
0.0400402699203638,-0.3433047537507645,0.027644355297088623,-0.5789322257041931,true
0.0400402699203638,-0.3433047537507645,-0.11408743262290955,-0.23570799827575684,true
0.0400402699203638,-0.3433047537507645,-0.11468880653381348,-0.23750720918178558,true
-0.024610244934745062,-0.47777272921802805,0.05743174076080322,0.09092586487531662,false
-0.024610244934745062,-0.47777272921802805,0.00398536205291748,0.034374725073575974,false
-0.02461024493474484,-0.47777272921802805,0.201525559425354,0.12186829745769501,false
-0.0016609496797111989,-0.5043331478611561,-0.017407680749893188,0.03707781434059143,false
-0.001660949679711643,-0.5043331478611561,0.04311958074569702,0.045757733285427094,false
-0.0016609496797094225,-0.5043331478611561,0.00043147802352905273,0.07210555672645569,false
-0.0016609496797100887,-0.5043331478611561,-0.0008435904979705811,0.12926481664180756,false
-0.001660949679711643,-0.5043331478611561,-0.030069284439086914,0.03637981042265892,false
0.011302969820708442,-0.503965476251242,0.04203384160995483,0.1004335954785347,false
0.011302969820706443,-0.503965476251242,0.0076637744903564455,0.04117292910814285,false
0.01130296982070822,-0.503965476251242,-0.027730016708374022,0.04366714507341385,false
0.011302969820708442,-0.503965476251242,0.07725100994110108,0.09928007423877716,false
0.025011559643358328,-0.4944992095892635,0.0026761603355407717,0.044011302292346954,false
0.02501155964335877,-0.4944992095892635,0.10688881635665894,-0.03940430283546448,false
0.025011559643359216,-0.4944992095892635,0.03109341621398926,-0.013924435712397099,false
-0.02982256158179475,-0.4552860888069685,0.02377129077911377,0.055855877697467804,false
-0.029822561581794305,-0.4552860888069685,-0.009966213703155518,0.016632677987217903,false
-0.005156202554916001,-0.44041914292785345,0.010985951423645019,0.01228024996817112,false
-0.005156202554916445,-0.44041914292785345,-0.03745174884796142,0.05847776308655739,false
-0.005156202554916278,-0.44041914292785345,-0.011114805936813354,0.031159959733486176,false
0.014683620935497355,-0.45882338519020127,0.06760914087295532,0.10525529831647873,false
0.0350181994777522,-0.4377565259459142,0.011786937713623047,0.006892760284245014,false
0.03501819947775131,-0.4377565259459142,0.08050886154174805,0.07333414256572723,false
0.03501819947775131,-0.4377565259459142,0.06486611843109132,0.03263717144727707,false
0.03501819947775153,-0.4377565259459142,0.043270337581634524,0.023765575140714645,false
-0.03578080401190464,-0.39521224392534315,0.03015648603439331,0.03727197274565697,false
-0.03578080401190442,-0.39521224392534315,0.04250509262084961,-0.021268857643008232,false
-0.0357808040119042,-0.39521224392534315,0.009839873313903808,0.2886309325695038,false
-0.022236526135175017,-0.38543563030819517,0.0001626253128051758,0.021915214136242867,false
-0.022236526135173573,-0.38543563030819517,-0.17235947966575624,0.20868664979934692,false
-0.022236526135173573,-0.38543563030819517,-0.17222007036209105,0.21034033596515656,false
-0.022236526135173573,-0.38543563030819517,-0.17222007036209105,0.21034033596515656,false
-0.022236526135173684,-0.38543563030819517,-0.17222007036209105,0.21034033596515656,false
-0.022236526135173462,-0.38543563030819517,0.0034737944602966308,0.02678672969341278,false
-0.022236526135172574,-0.38543563030819517,0.002601461410522461,0.0030076545663177967,false
0.033788697326431305,-0.38591450373093594,0.015340504646301269,0.0385906882584095,false
-0.018011493650563204,-0.343652463437615,-0.03100748300552368,0.08883227407932281,false
0.017503425476606993,-0.34578476069010144,0.032864990234375,0.05426144599914551,false
0.040040269920365135,-0.3433047537507645,0.019944839477539063,0.02236073650419712,false
0.0148774280611437,-0.3153814236874498,-0.013765245149226283,0.0055848425170668126,false
-0.0456,-0.3141592653589793,-0.06267186220968064,0.02905251456730379,false
-0.0456,-0.3141592653589793,-0.06267186220968064,0.02909752742093291,false
-0.0456,-0.3141592653589793,-0.06267186220968064,0.02911403572143913,false
-0.04518167971433512,-0.33371379861450734,-0.023543381827323927,0.013867915008877185,false
-0.02885953036639214,-0.33371379861450734,-0.06267186220968064,0.029216497258008414,false
-0.02882490947977902,-0.33371379861450734,-0.06267186220968064,0.029354980804460917,false
-0.028131199620070213,-0.33371379861450734,-0.06267186220968064,0.03212982024329614,false
-0.045599997038876586,-0.3141592665671732,-0.37873386998182684,0.18487770625684685,false
0.0456,-0.3141592653589793,0.16178832782186484,-0.0814362710675623,false
0.0456,-0.3141592653589793,0.1581254433861615,-0.07961646979764286,false
0.0456,-0.3141592653589793,0.15568410743735728,-0.07840326895103003,false
0.0456,-0.3141592653589793,0.24145782175142944,-0.09514742750045335,false
-0.0456,-0.4705955314032034,0.01741794343842873,-0.011706630632637438,false
-0.0456,-0.4705955314032034,0.01725510432865271,-0.011543791522861446,false
0.0456,-0.3141592653589793,0.12306081653862594,-0.06217076965343876,false
0.0456,-0.3141592653589793,0.14951627509464527,-0.05155790671663377,false
0.0456,-0.33368687401786207,0.04054504592160814,-0.0190028755102598,false
0.04559366333156592,-0.33368687401786207,0.04053237791205959,-0.018996544169145327,false
0.040294231858106204,-0.33368687401786207,0.03430592515419141,-0.018069522884736865,false
0.040301701436848934,-0.33368687401786207,0.03430592515419141,-0.01806938041264461,false
0.04026626651394214,-0.33368687401786207,0.034250575071733,-0.018042138146442514,false
0.039563990614996804,-0.33368687401786207,0.0318643057875639,-0.0168629811077598,false
0.03956399060026377,-0.33368687401786207,0.02698134463102625,-0.014422030084330961,false
0.03158377135232203,-0.33368687401786207,0.017216328855153368,-0.009690387091482993,false
0.031971985157919436,-0.33368687401786207,0.017216328855153368,-0.009683161398080287,false
0.03153532405136948,-0.3434506783473034,0.017216328855153368,-0.00973883439243554,false
-0.0456,-0.4251008584053165,-0.07835379673274478,0.036362918916747755,false
-0.0456,-0.4217091982643834,-0.08515661807405189,0.0397740801171218,false
-0.0456,-0.4217091982643834,-0.08517031532248048,0.03978777736555039,false
-0.042429757042876784,-0.4217091982643834,-0.09327285250107345,0.043872232564839464,false
-0.042425719795327436,-0.4217091982643834,-0.09327285250107345,0.04388838155503688,false
-0.0456,-0.4021546650088554,-0.1275984538589419,0.06112150128557425,false
-0.045586790066830474,-0.4705955314032034,-0.06267186220968064,0.0283280398162149,false
-0.020146879006093563,-0.4705955314032034,-0.06267186220968064,0.028723754798359036,false
-0.020116469707504973,-0.4705955314032034,-0.06267186220968064,0.02884539199271363,false
-0.009876884667159455,-0.3141592653589793,0.03399149485579235,-0.018709420719176226,false
-0.012664887090262445,-0.3182971380306899,0.0008852412310720258,-0.0011783888913357021,false
0.0456,-0.3141592653589793,0.031864305787563885,-0.01664864172233166,false
0.0456,-0.3141592653589793,-0.06091335512826197,0.02972942884264479,false
0.0456,-0.3141592653589793,-0.2998843468010739,0.14811555633712137,false
0.0456,-0.31415926535899075,0.17251879545705648,-0.08676424163224918,false
0.045590715170333404,-0.3141592653589793,0.17251879545705648,-0.08676442407563366,false
0.0456,-0.3141592653589793,0.17251879545705648,-0.08673432672679834,false
0.04559999999999998,-0.3141592653589793,0.17251879545705648,-0.08583820981233184,false
0.0456,-0.4775539355576037,0.16644326752141175,-0.08416113383174051,false
0.0456,-0.5235987755982987,0.2871234908533603,-0.08416113383174051,false
0.04560000000000004,-0.4404191374778748,0.09247650819119863,-0.0475416337847554,false
0.0456,-0.4404191374778748,-0.045262873626336055,0.0604785361058407,false
0.0456,-0.4404191374778748,-0.38,0.39521566247045925,false
0.04135699663157569,-0.32268272362399997,0.021630793010122322,-0.011658133908084449,false
0.041361585234644276,-0.32268272362399997,0.021630793010122322,-0.011658045450106746,false
0.043684073588601255,-0.365061944642929,0.026474835435271956,-0.014175099376210754,false
-0.0456,-0.44295625798144145,-0.0443262416146839,0.019284832378870687,false
-0.0456,-0.4428088562192436,-0.04462222209996657,0.019433411101955456,false
-0.0456,-0.44370804817685244,-0.04281661761886163,0.018526998578459408,false
-0.0456,-0.44248588984838194,-0.04551656618990501,0.020004788821032293,false
-0.04538096214342736,-0.4717783792179925,0.013122643735638095,-0.009560969591472901,false
-0.04414672532105648,-0.4705955314032034,0.008233868631097183,-0.007092682234852099,false
-0.04414543800403303,-0.4705955314032034,0.008233868631097183,-0.007090566441115387,false
-0.04394194207822616,-0.4705955314032034,0.007647806793715346,-0.006708000529540459,false
-0.029332114239638534,-0.5097045979142595,0.05591255631395456,-0.030866881680553238,false
0.03485787046282689,-0.31499840407819485,0.16407083374068204,-0.08027989548771779,false
0.024986069955442954,-0.3141592653589793,0.14465552402963286,-0.07331120559304333,false
-0.013007564507844429,-0.4404191374778748,0.0015576759698021885,-0.0031311024548638902,false
-0.01091134478776781,-0.4404191374778748,0.0014895184085354236,-0.003062944893597126,false
-0.004946341887035373,-0.4404191374778748,0.0012936798581520924,-0.0028671063432137945,false
-0.004946342242982842,-0.4404191374778748,-0.002944558836558986,-0.0007479895776816847,false
-0.0015271531852080224,-0.4404191374778748,-0.002944558836558986,-0.0006912788463901752,false
0.0031529502197402666,-0.4404191374778748,-0.002944558836558986,-0.0006129703099151778,false
-0.045599802096435174,-0.4404191374778748,-0.06240590941258547,0.05619283396541286,false
-0.020394845947623225,-0.4404191374778748,-0.3704844893706351,0.31870080557887853,false
0.029815411359073438,-0.4404191374778748,-0.38,0.3784265735149392,false
-0.0018515074349597816,-0.3178393840789795,-0.06557364369336978,0.031234767489312587,false
8.497138030539852e-05,-0.3178393840789795,-0.06557364369336978,0.031247516176613033,false
0.0003266158597632831,-0.3178393840789795,-0.06557364369336978,0.032214094094444534,false
-0.002104951516810052,-0.33721274225906134,-0.06557364369336978,0.031079854332426337,false
-0.04559999703440589,-0.3178393840789795,-0.3002562076184337,0.1467242626515441,false
-0.04559999702295599,-0.3178393852844636,-0.3787455994952742,0.18486556102970747,false
-0.0456,-0.4450682696599849,-0.04374860915014236,0.018986666789253093,false
-0.0456,-0.44490430746183335,-0.04407784784467926,0.019151943285638573,false
-0.0456,-0.4442397250406406,-0.0454123168201479,0.01982182983991443,false
-0.0456,-0.44870800506165537,-0.036449927220065646,0.015322475714135697,false
-0.0456,-0.4395799791198211,-0.05476784482948125,0.024517611928428218,false
-0.0456,-0.45301791273705416,-0.02778330884725083,0.010971009563430945,false
-0.04131314609274329,-0.4574972239427985,-0.027489000804757312,0.010869158819425018,false
-0.0413177231073642,-0.4574972239427985,-0.027489000804757312,0.010873735834045994,false
-0.043553378339217935,-0.4574972239427985,-0.027489000804757312,0.010834986066081131,false
0.03495613933424079,-0.5102889388728744,0.008783974285012819,-0.006243937256163068,false
-0.0065275296894802045,-0.3141592653589793,-0.003961503065258512,0.00032087000180350267,false
-0.005156205151393346,-0.3141592653589793,0.12111133054436753,-0.062118843269418474,false
-0.005156205151393346,-0.3141592653589793,0.11929331394768043,-0.061213106688543927,false
-0.005156205151393346,-0.3141592653589793,0.11747549377407143,-0.06030737010766938,false
-0.005156202707439661,-0.3141592653589793,0.12146640381040716,-0.06033968885523844,false
-0.005156202707439661,-0.3141592653589793,0.035828210715204006,-0.01954920922473241,false
-0.005156202707439661,-0.3141592653589793,0.036734245380348696,0.0016921969838452622,false
-0.0456,-0.3141592653589793,-0.08225221981173199,0.038829781493848026,false
-0.04557716678037491,-0.3141592653589793,-0.08225221981173199,0.03883011915800122,false
-0.045049071285404085,-0.3141592653589793,-0.08225221981173199,0.03897461050365458,false
-0.0456,-0.3141592653589793,-0.08225221981173199,0.03951401420598277,false
-0.0456,-0.3141592653589793,-0.09649178016766677,0.054818026350054005,false
-0.0456,-0.3141592653589793,-0.21996819322861252,0.13995709814585267,false
-0.0456,-0.3141592653589793,-0.3396239613022656,0.25961286621950574,false
-0.045600000000000085,-0.3141592653589793,-0.37746803133304274,0.2974569362502828,false
0.042476415014236,-0.3141592653589793,0.015567086441707616,-0.008562227638821779,false
0.03244665219143951,-0.3141592653589793,-0.003987766456690608,0.001023323565371026,false
0.03245523901610041,-0.3141592653589793,-0.003987766456690608,0.0010234842353348795,false
0.04240510350419857,-0.33371379861450734,0.015567086441707616,-0.008661308002709953,false
0.022471421150245932,-0.3189783356402213,-0.023543381829845667,0.010603707897332781,false
0.022653612973585358,-0.3190478986728613,-0.023543381827323927,0.010603707896098713,false
0.0456,-0.35326833187003537,0.022204034873291183,-0.012015129956051038,false
0.045591523011757853,-0.35326833187003537,0.022187431341607756,-0.012007003412609761,false
0.003286620102895158,-0.3141592653589793,-0.06267186220968064,0.029930844239562993,false
0.02731320964075512,-0.3141592653589793,0.19390581851991676,-0.09771712081409878,false
0.0272981167766455,-0.3141592653589793,0.19390581851991676,-0.09771016019364578,false
0.026833640683301824,-0.3141592653589793,0.19291968894533928,-0.09723755185664548,false
-0.0456,-0.4706764793270648,-0.04578918420667318,0.019892394166519937,false
-0.03609094525558426,-0.47693642170634903,-0.03351011379427726,0.01387326613340828,false
-0.03371690587274223,-0.47523523313196053,-0.03699991751145848,0.015661881276200995,false
-0.04558623872989789,-0.47517603122673224,-0.03756362014143463,0.01576176474044575,false
-0.0456,-0.47523523313196053,-0.037563620141434634,0.015786372020916734,false
-0.04352227196295746,-0.48435274074175194,-0.03756362014143463,0.015823485676175836,false
0.008549431233201177,-0.39743650916517403,0.0030060882436050004,-0.0032992359355961806,false
0.008549431233201177,-0.39756170569740584,0.002998240033638311,-0.003291387725629491,false
0.00854005507108796,-0.39756170569740584,0.0029794877568283485,-0.003282011610932746,false
0.008514940057805878,-0.3982325622819718,0.0027855430689162283,-0.0031932511313956247,false
0.0072709615503931905,-0.3979486076847242,0.0004641293521962148,-0.0020525362842909365,false
0.00994160321481871,-0.4014307255705893,0.0012379334765933872,-0.002409780317965321,false
0.002120747796475008,-0.4014307255705893,-0.009595395947369289,0.0028735648186519395,false
-0.0014546102153160448,-0.402204529545226,-0.017333796063285816,0.006730240575072655,false
0.044397881233792874,-0.3266052381476825,0.21922170755406514,-0.1099789569536794,false
0.045157145442947286,-0.32790169364650573,0.21817214166819682,-0.10944176566401058,false
0.045425467432921286,-0.3286795669457997,0.21712269452370475,-0.10893221435469064,false
0.045412467341045,-0.3286795669457997,0.21712269452370475,-0.1089203497131253,false
0.04517895664932968,-0.3286795669457997,0.21712269452370475,-0.10868570357109901,false
0.0456,-0.3307538957441741,0.3794177062232464,-0.11500391117334452,false
0.0456,-0.31415926550250384,0.018579867631753323,-0.010007507736047146,false
0.032217597157678746,-0.3141592653589793,0.20556707333581462,-0.1033973000356771,false
0.031259625803763125,-0.3141592653589793,0.20359229475629673,-0.10243932868176148,false
0.03199446606886017,-0.3141592653589793,0.20556707333581462,-0.10340291658265569,false
0.03211740366770677,-0.3141592653589793,0.20556707333581462,-0.10329710654570512,false
0.0321127226638763,-0.3141592653589793,0.20556707333581462,-0.10329710654570512,false
0.03068415304854452,-0.3141592653589793,0.20260505302073933,-0.10186385592654287,false
0.02873605776965673,-0.3141592653589793,0.19839866682942112,-0.09991576064765509,false
0.025886951356253067,-0.3141592653589793,0.19273793026539793,-0.09715037910179031,false
0.025914979220394496,-0.31464784782400407,0.19273793026539793,-0.09711027980166925,false
-0.011850176593864038,-0.330753892660141,0.07650604139208436,-0.040060812794359794,false
0.04509888857779859,-0.3141592653589793,0.015567086441707616,-0.00851105202998582,false
0.045170268447593455,-0.32882516530062533,0.015567086441707616,-0.008583441950362897,false
0.0456,-0.33371379861450734,0.016776701096778618,-0.009204343227630371,false
0.04501929412577573,-0.33371379861450734,0.015567086441707616,-0.00861084143156618,false
0.04498104623637966,-0.33413397332447936,0.015567086441707616,-0.008613682336179679,false
0.0316814603905404,-0.3624345193335641,-0.06267186220968064,0.05632568046936929,false
0.031715404777768824,-0.31428100647446455,0.2141714063811474,-0.10766405681871422,false
-0.028358408408402674,-0.31440513377634427,0.07152064922467663,-0.03775706033272874,false
-0.0327674645724942,-0.3203894164197002,0.07181398845665188,-0.034168461054089126,false
0.03613059602432347,-0.3141592653589793,-0.00431031588705294,0.0012542872651895853,false
0.023831374948778985,-0.3141592653589793,-0.02965525910461744,0.013726691876123187,false
0.0456,-0.34349106524227135,0.014556483481964404,-0.008143108128151232,false
0.0456,-0.34349106524227135,0.01453228984682119,-0.008118914493008018,false
0.04549209734598597,-0.34349106524227135,0.014344859731770783,-0.008039387031971656,false
0.0422222277728407,-0.33371379861450734,-0.0039877664566906335,0.001112443160416282,false
0.00764006205197081,-0.3153814236874498,-0.060225237860398094,0.028678675266182053,false
0.006393988138183248,-0.3153814236874498,-0.06267186220968064,0.02987922570167705,false
0.006293255720608848,-0.33615811527144834,-0.06267186220968064,0.02977849328410266,false
0.03284044290587547,-0.3630455984977994,-0.06267186220968064,0.05632568046936929,false
-0.04473779994736954,-0.3141592653589793,0.10410756365403084,-0.027006843204390563,false
0.03281763661171121,-0.33371379861450734,-0.013765245149226283,0.00582294036183848,false
0.04550614847011677,-0.39237739838109137,0.009456050900971342,-0.004709843829952015,false
0.04554712819045789,-0.39237739838109137,0.009456050900971342,-0.004709843829952126,false
0.04140383603296966,-0.39237739838109137,-0.023543381827323927,0.010586866364546477,false
0.009431906049344504,-0.39237739838109137,-0.06267186220968064,0.031343826859927704,false
0.041403836035169346,-0.39237739838109137,-0.06267186220968064,0.030141399628873244,false
0.03502601563713777,-0.38871092339567986,-0.06144852706678538,0.055714601304825695,false
0.03441512992631502,-0.38871092339567986,-0.06267186220968064,0.05632568046936929,false
0.02026355845382201,-0.3141592653589793,0.21437807891676805,-0.10797654671123015,false
0.020244647886376945,-0.3141592653589793,0.21433913155898665,-0.10795763614378509,false
0.020860709464120376,-0.3141592653589793,0.2156080479198773,-0.10857369772152853,false
0.018459727709410206,-0.3141592653589793,0.21066389331275076,-0.10617271596681835,false
0.02386147761995837,-0.3141592653589793,0.22179191350500752,-0.11157446587736651,false
0.023854772446175336,-0.3141592653589793,0.22179191350500752,-0.11157458842131644,false
0.028870452206036144,-0.3141592653589793,0.23212601604747382,-0.1165834404634443,false
0.010053782683262902,-0.3141592653589793,0.19337899613685444,-0.09776677094067104,false
0.04482162260570712,-0.3141592653589793,0.007436956143328568,-0.004449396896639257,false
-0.015028279950530209,-0.3141592653589793,-0.10994890298696337,0.05311970141749268,false
0.04030170291662216,-0.3141592653589793,-0.005093410283325106,0.0035941915810098757,false
0.014394493357745421,-0.3141592653589793,0.21066389331275076,-0.10624534036358954,false
0.013261900783191607,-0.3141592653589793,0.20942825473835763,-0.10565432901608988,false
0.03420999466859992,-0.3141592653589793,0.2515612564255504,-0.12606084167444406,false
0.034195416776647586,-0.3141592653589793,0.2515349395412411,-0.1260462637824917,false
-0.04547919612029525,-0.3166035820159203,0.09017946982963436,-0.04637165088554887,false
0.001098263808880599,-0.3141592653589793,0.25029354502809775,-0.0994995064106196,false
0.0456,-0.3141592653589793,0.38,-0.18847978317476582,false
-0.022122237061616437,-0.3141592653589793,-0.11990677429462568,0.057968463981553205,false
-0.02200121623939641,-0.3141592653589793,-0.12189665896312622,0.0589617044859492,false
-0.021185126639009864,-0.3141592653589793,-0.12189665896312622,0.059777794086335746,false
-0.01793090819258664,-0.3141592653589793,-0.12189665896312622,0.059777794086335746,false
0.04559999999999998,-0.34330475330352783,0.1980803171375355,-0.09579218168262327,false
0.0456,-0.34330475330352783,0.1764158932985125,-0.08095053187040568,false
0.045599999999915125,-0.34330475330352783,0.2776700472734576,-0.13645084700575924,false
0.0456,-0.34330475330352783,0.2785120158758967,-0.13645084700584498,false
-0.008876884520053863,-0.4397404888642431,-0.02192707444643499,0.008705571185653387,false
-0.008876884520053863,-0.4397404888642432,-0.02192707444643499,0.00958120632069323,false
-0.008876884520053877,-0.40759524367733807,-0.11850030848029626,0.05851888581756132,false
-0.008876884520053863,-0.407595243677338,-0.3625060402848378,0.32001857733726513,false
-0.008876884490225515,-0.40759524367733774,-0.38,0.3200185773372645,false
-0.03174520970429821,-0.34330475330352783,-0.01889314073892464,0.007243787473162307,false
-0.045600000000000085,-0.34330475330352783,-0.13521935751419517,0.07523793485146016,false
0.0456,-0.477323181828051,0.11387959947731789,-0.05838815459537291,false
0.0456,-0.47777641492935397,0.11412835531396054,-0.05851424236626774,false
0.0456,-0.4736973170176271,0.09958343209347419,-0.051243502102913736,false
0.044803517881018586,-0.4736973170176272,0.09958343209347419,-0.05125805053859356,false
0.045600000000171344,-0.4936395734749581,0.1286853215144537,-0.06583951103141915,false
0.045445989640368126,-0.4936395734749581,0.1286853215144537,-0.06584230580623827,false
0.0456,-0.4945460396775641,0.1286853215144537,-0.0658436944631806,false
0.04521011367417176,-0.5027042355010176,0.1286853215144537,-0.06482368761367073,false
0.045596728720540436,-0.388063902475438,-0.06534983535998072,0.03157872960985314,false
0.045590705936503384,-0.3880697822122884,-0.06534983535998072,0.03157858656266649,false
0.043849521116284644,-0.38976985716158286,-0.06534983535998072,0.03153747669174222,false
0.04385414100719565,-0.38976985716158286,-0.06534983535998072,0.031537563688008675,false
0.04394402879308528,-0.38976985716158286,-0.06534983535998072,0.03153925501898653,false
0.03801145872404087,-0.39558605653101386,-0.0653498353599806,0.03147664030937358,false
0.04286783139433608,-0.4382381852401749,-0.0023177678596242065,-0.0002174824031975814,false
0.04229540347422887,-0.4382381852401749,-0.0032871363434604966,0.000256669536908861,false
0.03125158898379379,-0.3761987252995771,-0.12753851189455084,0.06755708923181591,false
-0.04559585854951756,-0.3141592653589793,-0.15646331205875233,0.07579953778561671,false
-0.04539049120480817,-0.3141592653589793,-0.15646331205875233,0.07580258023761166,false
-0.041289933112934635,-0.3141592653589793,-0.15646331205875233,0.07586370914990331,false
-0.04128522774397799,-0.3141592653589793,-0.15646331205875233,0.07588253062572986,false
-0.041178745054821095,-0.3141592653589793,-0.15646331205875233,0.07630846138235753,false
-0.0456,-0.32635518205778397,-0.15529477591979293,0.07515986567539767,false
-0.0456,-0.3263551820577844,-0.15646331205875233,0.0757406059826084,false
-0.0456,-0.3263551820577844,-0.1576319898637025,0.0763340367444575,false
-0.0456,-0.3263551820577844,-0.1576319898637025,0.0766439215481713,false
0.004016908618942677,-0.3141592653589793,-0.1857142062315605,0.09110998284777197,false
-0.01772266951866408,-0.3141592653589793,0.06352036926930477,-0.03359250805092992,false
-0.0271113421046954,-0.45044778533031415,-0.011887600309545443,0.0033216255499852743,false
-0.028367587519207278,-0.4504275174011729,-0.011887600309545502,0.0033013576208441066,false
-0.028866942830461942,-0.45041971532878616,-0.011887600309545502,0.0032935555484573087,false
-0.02698300471123323,-0.4506050217575404,-0.011574560117687857,0.003165821785353906,false
-0.02005442901906008,-0.4501388069357021,-0.012763416917934818,0.003888463763762569,false
-0.017225334105779734,-0.45168182560334214,-0.009721860919589485,0.002389926433057297,false
-0.015552939319665032,-0.45065169406593114,-0.011887600309545499,0.003504306381138078,false
-0.029569195363783607,-0.45013662829722567,-0.012917771485141045,0.00393676636138951,false
0.014026210831338906,-0.4563174175216914,-0.0036464120621453305,-0.00014940218615524828,false
0.010367564484106728,-0.450136628297225,-0.01909896161245028,0.009915062063062752,false
-0.04331766468666856,-0.3142570986717182,0.11602692521685329,-0.06018823582314317,false
-0.04331174569748816,-0.3142628364024264,0.11601516843975485,-0.06018231683396277,false
-0.04098468954981799,-0.3165898925500966,0.1113933575776746,-0.0578552606862926,false
-0.0395263132351476,-0.318048268864767,0.11016300769041315,-0.05722608839746289,false
-0.043415316740935295,-0.3141592653589793,0.14237585687894255,-0.07330874688466366,false
-0.04340185698713567,-0.31417272511277894,0.14237585687894255,-0.07330861177002368,false
-0.04182273203296646,-0.318048268864767,0.14139871264449863,-0.07128467931961913,false
-0.020183877471956112,-0.3141592653589793,0.07584710728437219,-0.039787786084521506,false
-0.02043185713909722,-0.3141592653589793,0.0763668279496129,-0.04005122704754571,false
-0.02047556081483034,-0.3141592653589793,0.07643435710707874,-0.040085639565924515,false
-0.003702904611657085,-0.3141592653589793,0.04239232922053792,-0.022805680845910902,false
-0.0036943116216460186,-0.3141592653589793,0.04237486257563951,-0.022796807191023522,false
-0.0456,-0.48997201599829426,-0.038212843285371736,0.01602119319586962,false
-0.04121730833999644,-0.4899720159982942,-0.038212843285371736,0.016087960124946406,false
-0.01937578909593486,-0.49992733128649547,-0.018654202025174378,0.006608455739039676,false
-0.04462040697151397,-0.4705955314032034,-0.07667889831454516,0.03533770553180497,false
-0.041692163559191954,-0.4711068252188105,-0.07574239409549655,0.034912495128363294,false
-0.03045767962111132,-0.3141592653589793,0.1799911559561377,-0.09179767549859388,false
-0.028502725354077777,-0.3141592653589793,0.1839946499308076,-0.09375262976562743,false
-0.030969978868279957,-0.3141592653589793,0.17894233007868773,-0.09128537625142524,false
-0.034180950805937846,-0.33056861809120525,0.1758413711244279,-0.08938440809071663,false
-0.03418095080593781,-0.33056861809120525,0.20896452725658796,-0.10579376082294245,false
-0.04520198464342062,-0.33056861809120525,0.2048182884895488,-0.07705337047628458,false
0.04559999999999989,-0.3141592653589793,0.04607076740264868,0.0019686894154217816,false
0.026905787091431013,-0.33002443401317666,-0.028363302427228284,0.013335342674129183,false
0.028888413264798806,-0.3268514002823372,-0.03074359763376473,0.017698264054033422,false
0.028919213562843264,-0.3268514002823372,-0.03074359763376473,0.017698264054033422,false
0.029599441635373477,-0.3268514002823372,-0.03074359763376473,0.017698264054033366,false
-0.005124558631460861,-0.47853956053826174,-0.06267186220968064,0.028931841266111757,false
-0.0456,-0.4510409981476754,-0.14110291087186222,0.06752455108447455,false
-0.04559851613305322,-0.4119319316366194,-0.21996819322861258,0.10680996835642145,false
-0.04554560394827348,-0.4119319316366194,-0.21996819322861258,0.10681076755188744,false
-0.02177264632189581,-0.4119319316366194,-0.21996819322861258,0.10956936776476414,false
-0.0456,-0.3141592653589793,0.21129660790009275,-0.10753100814819339,false
-0.04558963207153735,-0.3141592653589793,0.21131788549756658,-0.10754137607665604,false
-0.045286102244068954,-0.3141592653589793,0.21194082570188888,-0.10784490590412443,false
-0.04559022258103987,-0.3141592653589793,0.21194082570188888,-0.10754078556715352,false
-0.03097184937766509,-0.3141592653589793,0.24137632439297385,-0.1221591587705283,false
0.0456,-0.5140991674250279,0.06389179765650889,-0.03163905218849705,false
0.0456,-0.5216237456975116,0.06401198059895293,-0.0316063048312859,false
0.0451082837692077,-0.5235987755982987,0.06401198059895293,-0.033590219073127314,false
0.0456,-0.5235987755982987,0.06401198059895293,-0.03327209380682983,false
0.0456,-0.5177459049435204,0.061100754181178614,-0.025201271194674302,false
-0.01933986878699917,-0.3141592653589793,0.053215381710475795,-0.028470323454019952,false
-0.019345746989465618,-0.3141592653589793,0.053215381710475795,-0.028464445251553505,false
-0.01950405684717499,-0.3141592653589793,0.053215381710475795,-0.028306135393844134,false
-0.019525073272896265,-0.3141592653589793,0.053215381710475795,-0.028306135393844134,false
0.016495237122330808,-0.407330596655607,-0.04602049587823951,0.021581986156040206,false
-0.0456,-0.5020736759717581,-0.04554901698488506,0.01963509358377938,false
-0.045570639391588084,-0.502082525126452,-0.04554901698488508,0.019635501568785147,false
-0.04520572317380398,-0.5020887993081516,-0.04553061842963163,0.019631818364919507,false
-0.045290625225289025,-0.5017605687792012,-0.046186992752765235,0.01995996215910263,false
-0.04528739545173368,-0.5017605687792013,-0.04621281719115124,0.019985786597488744,false
-0.04500829424264146,-0.49720887055760304,-0.05533252206447465,0.024553793249213918,false
-0.0450041948623568,-0.4972169276847951,-0.05533252206447477,0.024561850376406083,false
0.03211905685063257,-0.3174870062575609,-0.01764275668312163,0.007828062963928897,false
0.03118993099687911,-0.4206469741135902,-0.01847475974717934,0.007730940174238032,false
-0.0456,-0.3141592653589793,-0.15953897404702336,0.07732776888298998,false
-0.0456,-0.3141592653589793,-0.15953897404702336,0.07762299341533219,false
-0.0443677625634872,-0.4968719354653192,-0.06315706347009895,0.028473823154168153,false
-0.03386998368627016,-0.5097045979142595,-0.038212843285371736,0.016115568793836892,false
-0.0456,-0.4928264959102835,-0.07123657137792846,0.03250789150696193,false
-0.0456,-0.49748301462955447,-0.06267186220968064,0.028210096137481044,false
-0.045596495350021964,-0.49259438131567246,-0.07170232883227524,0.0327415343666977,false
-0.0456,-0.49748301462955447,-0.06267186220968064,0.02824439698303549,false
-0.04446902376092559,-0.49748301462955447,-0.06267186220968063,0.02822727211452758,false
-0.04530796131342185,-0.43835189170945493,-0.006340782652841881,0.0003208699927199632,false
-0.04529565138353186,-0.4383934121748189,-0.006340782652841881,0.0003208699927199632,false
-0.044258898199668405,-0.44188593839052526,-0.006340782652841881,0.0003208699927199632,false
0.043615230111961216,-0.3141592653589793,-0.032658756259893035,0.01557125400763309,false
0.04399906973949485,-0.3141592653589793,-0.032658756259893035,0.01598660131497187,false
0.0456,-0.3436524569988251,0.19771892153340345,-0.09940507779595281,false
0.0456,-0.3436524569988251,0.19685017568533908,-0.07310909159766527,false
-0.045517647266887055,-0.48526143134484945,-0.10184833081069349,0.04781914014943018,false
-0.04026929713588153,-0.4629694614713307,-0.14110291087186222,0.067555288698326,false
-0.0456,-0.5145932312281415,-0.06267186220968064,0.035892147728403045,false
-0.0456,-0.5097045979142595,-0.1018483308106935,0.058792489276781656,false
-0.0456,-0.3917663192168561,-0.29951521397374475,0.14630611574484192,false
-0.045595425722115585,-0.3917663192168561,-0.29951521397374475,0.14630611574484192,false
-0.04557876635763563,-0.39237739838109137,-0.29951521397374475,0.1460127242431073,false
-0.04552745566326304,-0.39237739838109137,-0.29951521397374475,0.1462179670205977,false
-0.012657288344001705,-0.3436524569988251,0.05895463139775021,-0.03136926680443447,false
-0.012091287994030878,-0.3436524569988251,0.05782225701739779,-0.03079431326355553,false
-0.0165875412246686,-0.34421816202207595,0.057822257017397835,-0.02686376505616872,false
-0.01944525374714915,-0.34421816202207595,0.05895463139775021,-0.027405262959107668,false
-0.0456,-0.3436524569988251,-0.0859357485703527,0.08091583591023077,false
-0.0064656442666066365,-0.3436524569988251,-0.0859357485703527,0.08091583591023077,false
-0.0036586395787422212,-0.3436524569988251,-0.0859357485703527,0.08091583591023077,false
-0.04550317161485257,-0.3770512002287595,0.20895916413615911,-0.10667288493129029,false
-0.045572718626120313,-0.36447281325480346,0.2344253593503005,-0.11919330831966965,false
-0.04349596630465427,-0.36447281325480346,0.23867680995413695,-0.12125847721544467,false
-0.04211914059302914,-0.36447281325480346,0.24186679214208728,-0.12280998149536637,false
-0.039366417112494084,-0.36447281325480346,0.2471861335694814,-0.1253880264076048,false
0.0456,-0.4478046269572622,0.26743171733167176,-0.1342985883070737,false
-0.012688422266859067,-0.3141592653589793,-0.13238191295477883,0.06433313823135006,false
-0.012678494780655428,-0.3141592653589793,-0.13238191295477883,0.06434306571755373,false
-0.012688881643214392,-0.3142542693731592,-0.1323819129547788,0.06433267885499473,false
-0.027770183722826663,-0.31507861385807673,-0.16198405435232704,0.07885351817293071,false
-0.02718819852999821,-0.31507861385807673,-0.16196089005450678,0.07883035387511045,false
0.0456,-0.3436524569988251,0.05515652522444725,-0.028437072803345443,false
-0.04536823294566335,-0.3190478986728613,-0.1730757227750123,0.08402943178919015,false
-0.045465078747108006,-0.31965897783709657,-0.17430709887481757,0.08463612325005998,false
-0.0456,-0.39237739838109137,-0.31953825959471954,0.15657591900438234,false
-0.04540141104168715,-0.39237739838109137,-0.31953825959471954,0.15657591900438234,false
-0.0456,-0.39237739838109137,-0.31953825959471954,0.15740775605064689,false
0.04556815219001362,-0.5156533458017072,0.03840216347128707,-0.020885724531079952,false
0.04018645355476828,-0.4705955314032034,-0.06267186220968064,0.029748788116138715,false
0.01129602308278912,-0.3351696231254275,0.29902894241900657,-0.14984497178556466,false
0.011124929562530892,-0.3351696231254275,0.29902894241900657,-0.1498736497756616,false
0.0456,-0.3436524569988251,0.05423637346358602,-0.00211154212757958,false
0.0456,-0.3436524569988251,0.05406018656344666,-0.0020235132035652525,false
-0.0456,-0.3367691944356836,-0.21116483445237863,0.1028106991063556,false
-0.0456,-0.3416578277495656,-0.2207844952231031,0.1075417265631981,false
-0.0456,-0.3416578277495656,-0.22079469731530801,0.10755192865540297,false
-0.0456,-0.3416578277495656,-0.22093428116765537,0.10769151250775039,false
0.0456,-0.5211747094572415,0.047553388246827005,-0.02548378457114056,false
0.0456,-0.5207488947990726,0.04669835970148315,-0.02505457068396581,false
0.0456,-0.5207040228704941,0.04660825718914363,-0.025009340100204808,false
0.0456,-0.5194829410119445,0.04415624576057209,-0.023778410530182814,false
0.0456,-0.5194277406549463,0.04404539744584621,-0.023722762572455005,false
0.0453705573384576,-0.5188707853777883,0.042460632960267246,-0.022924396025576527,false
0.0456,-0.49626085630108396,-0.0024934687303476036,-0.00035078075012364557,false
0.0449515636911093,-0.49626085630108396,-0.003987766456690608,0.0003846160444544923,false
0.0456,-0.4663006271128766,-0.06267186220968064,0.029867383541002046,false
0.04125048508777994,-0.4705955314032034,-0.06267186220968064,0.029812772919108832,false
-0.0331176620067991,-0.3436524569988251,0.08167264624075368,-0.040626103849477346,false
-0.03311766199684718,-0.3436524569988251,0.0800288115230207,-0.03980552753206859,false
-0.00033914805459991926,-0.3436524569988251,-0.02505045239803451,0.01401254201499974,false
0.00034101483599567145,-0.3436524569988251,-0.025871173539435088,0.01442283608635564,false
0.00617749310930206,-0.3436524569988251,-0.03818319092591245,0.0205772471566959,false
0.016029145607288325,-0.3436524569988251,-0.048034843423898715,0.030428899654682207,false
0.018492404135486425,-0.3436524569988251,-0.050498101952096815,0.03289215818288027,false
0.019328811864116113,-0.3436524569988251,-0.05131922178420656,0.03372092715539293,false
0.020955815777818118,-0.3436524569988251,-0.05296151359442902,0.035355569825211784,false
-0.0456000000000001,-0.39237739838109137,-0.3219006306055642,0.15693827438641433,false
-0.04557734429440617,-0.39237739838109137,-0.3219006306055636,0.15693827438641378,false
-0.0456,-0.39237739838109137,-0.32204546111843607,0.1570085248566901,false
-0.045577344294406075,-0.39237739838109137,-0.32204546111843607,0.15700886642634276,false
0.0456,-0.5145932312281415,0.03211568787251305,-0.017738056562737105,false
0.0456,-0.5145534993640434,0.03203588240543787,-0.017697982959760213,false
0.0456,-0.5145387350436185,0.03200622608333423,-0.017683090958081352,false
0.04559436449351596,-0.5145536014741032,0.03202502262437629,-0.017692656575122607,false
0.04557784612825966,-0.5180259962893153,0.03879264404784204,-0.02100440154863259,false
0.041748826777160276,-0.48526143134484945,-0.03454515419162706,0.01565437111695638,false
0.04231400543495179,-0.48037279803096744,-0.04310349936516242,0.019964732832215615,false
0.044855907209480884,-0.4705955314032034,-0.05777879358781522,0.027389366706136842,false
0.04233596894815162,-0.4705955314032034,-0.06267186220968064,0.029787762642670194,false
0.042347112004766985,-0.4705955314032034,-0.06267186220968064,0.029787964873899828,false
0.04237829164002222,-0.3436524569988251,0.044120533227920235,-0.02298442180949839,false
0.03210730618826197,-0.3436524569988251,0.044120533227920235,-0.023177947229214846,false
0.02646876065347198,-0.3436524569988251,0.044120533227920235,-0.023281718053922006,false
0.026478710233708357,-0.3436524569988251,0.044120533227920235,-0.023241919732976457,false
0.04209523437408045,-0.3436524569988251,0.044120533227920235,-0.022354568598504876,false
0.03402054387307349,-0.3436524569988251,0.044120533227920235,-0.021778315988552677,false
0.0456,-0.31415926544483214,-0.06291140463125114,0.030727487992800173,false
-0.009034888982772799,-0.3141592653589793,-0.20019774856904066,0.11337894303366974,false
-0.008983100709281247,-0.3141592653589793,-0.20019774856904066,0.11337894303366974,false
-0.0069616378261414405,-0.3141592653589793,-0.20019774856904066,0.11337894303366974,false
-0.00903488898277277,-0.3141592653589793,-0.21996819322861258,0.1331493876932417,false
0.010741859413680138,-0.34593538189921236,-0.20019774856904066,0.10137957488988963,false
0.007947901400730414,-0.34593538189921236,-0.21007789482739106,0.10626820820377164,false
-0.00903488898277277,-0.3141592653589793,-0.3686152774318094,0.2817964718964385,false
-0.0456,-0.3844333692460331,-0.3085627394576079,0.15046983003518322,false
-0.045591117608364706,-0.39237739838109137,-0.32399611359595704,0.15795917503847406,false
-0.0456,-0.39237739838109137,-0.3245536496476898,0.15823068364346599,false
-0.0456,-0.39237739838109137,-0.3245536496476898,0.15823365415045992,false
-0.0456,-0.39237739838109137,-0.3245536496476898,0.1582699800080674,false
-0.0456,-0.39237739838109137,-0.3245536496476898,0.15830155876684754,false
0.04299363255691646,-0.5103156770784947,0.015567086441707616,-0.009492344614666645,false
0.04344148458959904,-0.4705955314032034,-0.06267186220968064,0.029807877702754483,false
0.040338484648103835,-0.3141592837873868,-0.3787338713415358,0.18633063654392534,false
-0.04560000000000053,-0.3833767913699362,-0.19922566802501784,0.0966833337903028,false
-0.0455592850885964,-0.38359416582386396,-0.1991442382022096,0.09664261887889868,false
-0.04477524782366336,-0.38777699115307385,-0.19757616367234349,0.09585858161396563,false
-0.04536787424549519,-0.38735870862015287,-0.19874228456844747,0.09643207608823777,false
-0.040253363297310434,-0.4216578763196742,-0.1884427405831499,0.09124704305112494,false
-0.042328574582098766,-0.4216578763196742,-0.19266353752747115,0.09330770371092868,false
-0.01772266998887062,-0.3436524569988251,0.12358487302150284,-0.044473220433403814,false
-0.01772266998887062,-0.3436524569988251,0.2044659476715146,-0.07687902539085328,false
-0.01772266998887062,-0.3436524569988251,0.38,-0.16276194651359344,false
0.04547933401234641,-0.4699317395051388,-0.06267186220862919,0.029848400345471936,false
0.045491133031353104,-0.4699317395051389,-0.06267186220968064,0.029848400346004444,false
0.04549273983062824,-0.46998445223896823,-0.06267186220968064,0.029885747739084034,false
0.04479979989100565,-0.4705955314032034,-0.06267186220968064,0.02983265828660455,false
0.029900648897502283,-0.38748876506720936,-0.25839806529269377,0.12711458782474633,false
0.0437659514519961,-0.3141592653589793,-0.374937228193979,0.18456389719137575,false
0.04169831485506669,-0.31415928436853785,-0.37873387174240586,0.1863569325984386,false
-0.02361023784199456,-0.31415926759117446,-0.18167923204323685,0.08865418280706,false
0.0456,-0.3141592653591591,-0.15052692118447084,0.07440395677845735,false
0.0456,-0.520704022870494,0.036677083770225716,-0.020045915800091848,false
0.0456,-0.5047201187096937,0.004567355066978405,-0.003920091257644819,false
0.044884866054349715,-0.5048159646003775,0.003345191918140821,-0.0033223709023851664,false
0.04316816870193413,-0.5200929437062587,0.030234974993791738,-0.01686661388564989,false
0.0456,-0.4950386979726136,-0.014884281028901908,0.005850124101155281,false
0.04349774313334631,-0.5048159646003775,0.0006312710571473704,-0.001990418223783691,false
0.04302865184214084,-0.5048159646003775,-0.00032128618950676727,-0.0015225803513698455,false
0.0456,-0.4925538812171281,-0.019876473793676408,0.008357500110444414,false
0.04559640437012314,-0.49255739539589793,-0.019876473793676436,0.008357418659337427,false
0.04556674703802374,-0.49076114382296676,-0.02354338182732385,0.010198417787954241,false
0.04516726503289382,-0.3141592653589793,-0.1533592336911801,0.0758035322915025,false
0.045163251539620086,-0.3141592653589793,-0.15339077774371723,0.0758310628507659,false
0.045180504908589846,-0.3141592653589793,-0.15339077774371723,0.0758310628507659,false
0.045125934654754445,-0.3190478986728613,-0.15339077774371723,0.0757937459659001,false
0.0456,-0.3214922153298023,-0.15244206169221036,0.07531909525963904,false
0.04386456195635691,-0.3190478986728613,-0.15584970402679432,0.07699129955057982,false
0.04511338504223211,-0.3214922153298023,-0.15339077774371723,0.07578119635337927,false
0.045592921808513875,-0.5235875088644402,0.04001527681709656,-0.021727629309120533,false
0.0456,-0.5194818645420234,0.031783227837482476,-0.017594146460437228,false
0.0456,-0.5170375478850825,0.026873390879022914,-0.015128626158918475,false
0.0456,-0.515059921586912,0.02290072281932079,-0.013133584397386776,false
0.04558415777941751,-0.5150754068612328,0.02290072281932076,-0.013133941343648517,false
0.04551271395736058,-0.5151452463230846,0.02290072281932076,-0.013135545703853673,false
0.04552799535264309,-0.5152043103923767,0.02290072281932076,-0.013135540430953632,false
0.04553214023115993,-0.5152043103923767,0.02290072281932076,-0.013118960916886274,false
0.04501243190424885,-0.4705955314032034,-0.06756568045903563,0.03228086060150988,false
0.045022346639413104,-0.4681512147462624,-0.07246030700021698,0.03473677888106238,false
0.007033849302422158,-0.42130240991766144,-0.07197239550766625,0.03403837778826654,false
-0.0032058958748754085,-0.4122662410994593,-0.09266166713104153,0.044234501562209295,false
-0.0005534304492118234,-0.4122662410994593,-0.09266166713104153,0.04435984679163205,false
-0.0052342610641304245,-0.40710271606048665,-0.10948608099840346,0.05282701170398555,false
0.04552487168042871,-0.4609970086547635,-0.09007451603344357,0.045629239566114366,false
0.04552487168042876,-0.4609970086547635,-0.0900745160334436,0.07000684451180589,false
0.045599999999999974,-0.4610721369743347,-0.0907212752685271,0.07032956482674171,false
0.03732935290786055,-0.3141592653589793,-0.010690302210060107,0.004477968119108944,false
0.04492717914132533,-0.3141592653589793,-0.15584970402679432,0.07703666661490843,false
0.0456,-0.5235987755982987,0.03790386523778181,-0.02067224652653754,false
0.0456,-0.5222911111998728,0.035277538745945566,-0.019353584433127218,false
0.04559670781372325,-0.5222943294402138,0.03527753874594538,-0.019353658379062808,false
0.0456,-0.5222151208990633,0.03512491597960847,-0.019276951967599598,false
0.043338741043969106,-0.49626085630108396,-0.023543381827323927,0.010132723730470873,false
0.03981136880839157,-0.49015006465873145,-0.040658110570268836,0.018652387150339428,false
0.04550518366222685,-0.3141592771340351,-0.3787338700749228,0.1864311723417829,false
-0.03470192740178861,-0.3434910774230957,0.06436697507199221,-0.024003589893180285,false
0.045316254960028196,-0.3141592653589793,-0.15707934235225565,0.07765537128193284,false
0.045327073274558774,-0.3141592653589793,-0.15707934235225565,0.0776555839384756,false
0.045318357326459946,-0.3157929028413533,-0.15707934235225565,0.0776471628372864,false
0.0456,-0.5097045979142595,0.005727306989281811,-0.0044329343710427516,false
-0.03480951413165893,-0.3448500163303314,0.06425950039948536,-0.02514746739803883,false
0.0456,-0.31415926537780614,-0.1585351654022646,0.07838434261974808,false
0.04559357225517195,-0.3141592653589793,-0.158547689882829,0.07839043935548445,false
0.04534779884327265,-0.523148339527435,0.030234974993791738,-0.016841403619188983,false
0.04535350339078076,-0.523148339527435,0.030234974993791738,-0.016821770689763087,false
0.04479300956222412,-0.5235987755982987,0.030234974993791738,-0.016853402254686123,false
0.04362276796312814,-0.5235257127958272,0.027790143669919592,-0.01565187533238155,false
0.04354803777669394,-0.5235987755982987,0.027790143669919592,-0.015653542716344115,false
0.04414577518503351,-0.5170375478850825,0.015567086441707616,-0.009502267138267878,false
0.04417052852114417,-0.49015006465873145,-0.038212843285371736,0.017508858742170945,false
0.04417329853340621,-0.49015006465873145,-0.038212843285371736,0.017519938791219103,false
0.042931358598347936,-0.49198330215143726,-0.03699025292368635,0.016866912786844157,false
0.0410678345593338,-0.4907333349416225,-0.04310349936516242,0.019894456444701454,false
-0.017947360367831077,-0.3436524569988251,0.050666719500458084,-0.02731417152581549,false
-0.03489919544473743,-0.3448499087741245,0.06424909256808248,-0.025142161291833,false
0.04517314218874726,-0.5170375478850825,0.015567086441707616,-0.009474957158893488,false
0.045211664681451484,-0.5170375478850825,0.015221367127610408,-0.009090715352091994,false
0.0456,-0.51092675624273,0.004146077506503888,-0.003737882054789537,false
0.04519788862485783,-0.5097045979142595,0.000900872202654245,-0.0021169464545519527,false
0.045202217157215466,-0.5097045979142595,0.000900872202654245,-0.0021168682851204807,false
0.04529347092430432,-0.5097045979142595,0.000900872202654245,-0.002115222575698812,false
0.04222656927598294,-0.5194818645420235,0.014344859731770783,-0.00893665396771976,false
0.0418637538724786,-0.523148339527435,0.014344859731770798,-0.007719420373959313,false
-0.0456,-0.523148339527435,-0.07490794172335295,0.03421046581329573,false
-0.045582937660976465,-0.523148339527435,-0.07490794172335295,0.03421072434496891,false
-0.04555188876998635,-0.5219261811989645,-0.07735580053626241,0.03543856790919249,false
-0.045393875273039085,-0.5225372603631997,-0.07735580053626241,0.03543835764208898,false
-0.0456,-0.5158153895566129,-0.08966992633196338,0.04167729195898032,false
-0.0456,-0.5127599937354357,-0.09572262628952526,0.04464327120993336,false
-0.0456,-0.5121489145712005,-0.09694762020248915,0.04525697562965714,false
-0.024283705220557755,-0.3141592653589793,0.2624957927999736,-0.13154033634443807,false
-0.002452213501438291,-0.3141592653589793,0.3059820490808648,-0.15340552761721962,false
-0.04560000000000017,-0.3141592653589793,0.236890274468283,-0.11022404156499566,false
0.03289996186019811,-0.3141592653589793,0.38,-0.18872400342519396,false
-0.013753778096730285,-0.3952917562755994,-0.12297690171068854,0.05925489789641358,false
-0.013977436177826819,-0.3950680981945029,-0.12425554061380607,0.059886625428657324,false
-0.013897983198946048,-0.3950680981945029,-0.12425554061380607,0.05988791638244693,false
-0.01493546595559255,-0.3940701955639404,-0.1261667396166319,0.06082754260926802,false
-0.011962034048246343,-0.3941162295729085,-0.12552964795124102,0.06055841201975307,false
-0.0035068807301793375,-0.4055386530320409,-0.1070645011529035,0.051802400937099626,false
0.01700608943905624,-0.40553865303204123,-0.10706450115241224,0.051802400936858964,false
0.0456,-0.3141592653589793,-0.012742102689952212,0.00565852189676469,false
-0.04532311211622436,-0.38143707814879957,0.2172980418981638,-0.11081326649919726,false
-0.03812318525738865,-0.38592226566812093,0.22297245177352376,-0.11352800583871162,false
-0.03591581659192586,-0.38592226566812093,0.22751187793384703,-0.1157353745041744,false
-0.038412355661944064,-0.38592226566812093,0.22297245177352376,-0.11353243522869252,false
-0.03863437246764664,-0.38592226566812093,0.22297245177352376,-0.11353583428046701,false
-0.011050168446424678,-0.38592226566812093,0.2788451581561674,-0.14060102264967558,false
-0.02261023798584938,-0.37394120518252044,-0.18139561984520466,0.08824783367496045,false
-0.022582891899075922,-0.39529189797664266,-0.18125487109647828,0.08807973883946059,false
-0.02261023798584938,-0.4052555546138995,-0.18110903414086502,0.0879612479706208,false
-0.04127335987515099,-0.38592226566812093,0.22297245177352376,-0.11357609725030718,false
-0.03212876081527642,-0.38592226566812093,0.24179374239636825,-0.12272069631018175,false
-0.037566742304755874,-0.45656396909743213,0.1505760308528082,-0.05014624595265227,false
-0.03882393088315079,-0.45712461753734734,0.15057603085280807,-0.05014624595265219,false
-0.02344315104250333,-0.42483537392103665,0.23961755136319268,-0.12168981781752691,false
-0.03475798910101324,-0.4163218271085707,0.23961755136319268,-0.11888852657148297,false
