-0.03266190512758643,-0.15258392523454933,-0.0770479068160057,-0.15060193836688995,true
-0.03266326853517146,-0.15258370521234768,-0.07442066818475723,-0.1508161425590515,true
-0.032664393093642524,-0.15258361527294934,-0.07569687813520432,-0.15156172215938568,true
-0.03266265918179784,-0.15258363690833793,-0.07626587152481079,-0.1502474695444107,true
-0.03266351970391329,-0.15258364773433003,-0.08344191312789917,-0.14989830553531647,true
-0.032662605772993125,-0.1525836933009305,-0.045474156737327576,-0.15749892592430115,true
-0.03266226036891348,-0.15258395101524747,-0.03484199941158295,-0.15838570892810822,true
-0.03266332921726192,-0.15258370931030443,-0.025724001228809357,-0.15918022394180298,true
-0.0326625297834956,-0.15258369287198031,-0.057958751916885376,-0.15618623793125153,true
-0.032660835539700284,-0.1525836072356512,-0.06861896067857742,-0.1521330177783966,true
-0.03266319444338181,-0.15258367876245854,-0.07831329107284546,-0.1508510261774063,true
-0.032663983055938706,-0.15258363186077326,-0.06352557986974716,-0.15339837968349457,true
-0.03266261166398013,-0.15258369328529398,-0.11821828037500381,-0.148757204413414,true
-0.032663080959599466,-0.15258360261656517,-0.13454370200634003,-0.14682537317276,true
-0.032663885152805355,-0.15258361102115048,-0.1298467069864273,-0.14759263396263123,true
-0.03266259907664057,-0.15258369326185448,0.0132607938721776,-0.1652858704328537,true
-0.03266369385788287,-0.1525835942830834,0.018593329936265945,-0.1621197611093521,true
-0.03266259902030444,-0.15258369320436563,-0.1005028709769249,-0.1480870097875595,true
-0.032662078405857914,-0.15258395481363085,-0.09487180411815643,-0.150318905711174,true
-0.03266329285429942,-0.15258370869563778,-0.08401837944984436,-0.15160836279392242,true
-0.03266406824614737,-0.15258364281751588,-0.08729878813028336,-0.1515960395336151,true
-0.032662611686596954,-0.15258369329495275,-0.04764838516712189,-0.15821349620819092,true
-0.03266306813794842,-0.15258359277238834,-0.04889700934290886,-0.15629038214683533,true
-0.0326638741109575,-0.15258360866274814,-0.03719673678278923,-0.15851643681526184,true
-0.032662610215887206,-0.15258369334905394,-0.1714990884065628,-0.15079273283481598,true
-0.03266329281269317,-0.1525837088308659,-0.17813162505626678,-0.1514916867017746,true
-0.03266406816077505,-0.15258364294878507,-0.16662432253360748,-0.15296605229377747,true
-0.03266261150514521,-0.1525836932879198,-0.0956682413816452,-0.15096987783908844,true
-0.03266268663989799,-0.152583601651786,-0.0917762890458107,-0.15168459713459015,true
-0.03266354318316553,-0.15258363755004078,-0.09322827309370041,-0.1507047861814499,true
-0.147147173296374,-0.1514722743997825,-0.22113707661628723,-0.14664636552333832,true
-0.14714706491989216,-0.15147240964895012,-0.18150469660758972,-0.15250951051712036,true
-0.14714797068598134,-0.15147227259333232,-0.20181547105312347,-0.14994241297245026,true
-0.14714872433664156,-0.1514722231637861,-0.20241622626781464,-0.14937476813793182,true
-0.1471471329364323,-0.15147227419695677,-0.1848631501197815,-0.15543964505195618,true
-0.14714735380930088,-0.15147208813068758,-0.10013642907142639,-0.16225440800189972,true
-0.14714819219466146,-0.15147218602489676,-0.1073543056845665,-0.1617760807275772,true
-0.14714707163041332,-0.15147227385611114,-0.2152879238128662,-0.15010689198970795,true
-0.14714730172503815,-0.15147212549887962,-0.22770953178405762,-0.1495027393102646,true
-0.14714814608372578,-0.15147220031463363,-0.24020913243293762,-0.14794893562793732,true
-0.14714887484623007,-0.1514722041335957,-0.18022878468036652,-0.15604859590530396,true
-0.1471470402176966,-0.15147243151290304,-0.19354380667209625,-0.15531666576862335,true
-0.14714795883449167,-0.15147227643774142,-0.17800024151802063,-0.15617360174655914,true
-0.14714871408882402,-0.15147222390914256,-0.1812451034784317,-0.15627257525920868,true
-0.14714716629659014,-0.15147227438695313,-0.16412268579006195,-0.15526771545410156,true
-0.1471474456889642,-0.1514720722936904,-0.18559740483760834,-0.15425805747509003,true
-0.1471478752007057,-0.15147229088562927,-0.1731434017419815,-0.15495271980762482,true
-0.1471486417651417,-0.15147222518032016,-0.17672944068908691,-0.15450797975063324,true
-0.1471471738713805,-0.15147227446851674,-0.2432774156332016,-0.14842277765274048,true
-0.14714761515400154,-0.15147216412493647,-0.22072793543338776,-0.1512710601091385,true
-0.14714841710672832,-0.15147218758998474,-0.22331881523132324,-0.15079909563064575,true
-0.14714717138743838,-0.15147227438890656,-0.20971336960792542,-0.15332099795341492,true
-0.14714694999469252,-0.1514724911555159,-0.22045981884002686,-0.1512058675289154,true
-0.1471479231489865,-0.15147228556217382,-0.2173951417207718,-0.15118014812469482,true
-0.14714714142127636,-0.1514722742377408,-0.20874837040901184,-0.15336868166923523,true
-0.14714623483823697,-0.15147244196268828,-0.184685617685318,-0.15529154241085052,true
-0.14714780261768756,-0.15147228010272648,-0.20025423169136047,-0.1532905399799347,true
-0.14714857889710609,-0.15147221967871324,-0.19310924410820007,-0.15402889251708984,true
-0.14714717361034435,-0.1514722743738968,-0.25344038009643555,-0.154646635055542,true
-0.1471472756744261,-0.15147215179148424,-0.2596665620803833,-0.15353713929653168,true
-0.14714812290544882,-0.15147220908585432,-0.25239449739456177,-0.154208242893219,true
-0.14714885500225083,-0.1514722068603112,-0.1758127063512802,-0.15384776890277863,true
-0.14714717244421346,-0.1514722744922914,-0.1564609259366989,-0.1532733291387558,true
-0.1471474192887408,-0.15147207072520205,-0.18739254772663116,-0.1490890234708786,true
-0.14714862077488153,-0.1514722241104846,-0.18286031484603882,-0.14989817142486572,true
-0.23413609003692498,-0.14831418791699413,-0.24227426946163177,-0.15246303379535675,true
-0.23413663658716524,-0.14831415947239263,-0.22501115500926971,-0.15411245822906494,true
-0.23413740676805025,-0.1483141222371898,-0.2464253008365631,-0.15155968070030212,true
-0.23413607800790492,-0.14831418790052214,-0.2980179488658905,-0.14623580873012543,true
-0.2341355727687169,-0.14831444964605264,-0.28766414523124695,-0.1491798460483551,true
-0.23413675635644823,-0.14831420352168048,-0.2937471270561218,-0.1483752429485321,true
-0.23413751036037564,-0.14831413764357654,-0.2951677441596985,-0.15264743566513062,true
-0.23413608798802057,-0.14831418800016422,-0.2520051598548889,-0.15208283066749573,true
-0.23413683838793548,-0.14831419658684442,-0.2599230408668518,-0.15073063969612122,true
-0.23413722367439954,-0.1483140877056528,-0.2652267515659332,-0.15055949985980988,true
-0.23413596366358996,-0.14831418725213105,-0.30046573281288147,-0.14275884628295898,true
-0.23413620544877178,-0.148314051694365,-0.2713407278060913,-0.14749765396118164,true
-0.2341370339282054,-0.1483141182307764,-0.2797004282474518,-0.1462484747171402,true
-0.234136156945303,-0.1483141878753017,-0.18774361908435822,-0.16151101887226105,true
-0.2341359434872901,-0.14831440462164713,-0.14530283212661743,-0.16554997861385345,true
-0.2341368982944514,-0.14831419904076132,-0.17411121726036072,-0.16286897659301758,true
-0.23413728452549853,-0.14831408679542019,-0.2847438156604767,-0.14785727858543396,true
-0.23413644975730236,-0.14831402262224458,-0.3014679253101349,-0.14775310456752777,true
-0.23413760348687124,-0.14831413750510103,-0.2953125834465027,-0.14789141714572906,true
-0.23413371208408137,-0.1483139166669684,-0.21366748213768005,-0.1557697057723999,true
-0.23413703489075538,-0.1483141182277742,-0.21518607437610626,-0.15588101744651794,true
-0.23413775151027688,-0.1483141191203876,-0.2673133313655853,-0.15127895772457123,true
-0.2341360877367619,-0.14831418799017843,-0.27316856384277344,-0.15100319683551788,true
-0.23413647525934628,-0.14831403957688494,-0.2692834436893463,-0.1511959284543991,true
-0.2341376234429724,-0.14831413591712458,-0.29001522064208984,-0.15293149650096893,true
-0.2341363725979566,-0.14831398818433603,-0.26073959469795227,-0.1574326455593109,true
-0.23413754280577317,-0.1483141389248893,-0.27330929040908813,-0.1560128778219223,true
-0.23412986769598262,-0.14831346120431457,-0.281974732875824,-0.14956118166446686,true
-0.23413694344526775,-0.14831415789358507,-0.29505690932273865,-0.1477777063846588,true
-0.2616571914949376,-0.1312636562154465,-0.31169936060905457,-0.13257434964179993,true
-0.26165746179450017,-0.13126345658964528,-0.3686971664428711,-0.12599922716617584,true
-0.2616581792177365,-0.13126355480782836,-0.3622368574142456,-0.12714636325836182,true
-0.2616571853251072,-0.13126365612925345,-0.2820623815059662,-0.1342589110136032,true
-0.26165742737610753,-0.13126345233246053,-0.27216213941574097,-0.13528911769390106,true
-0.2616581496237655,-0.13126355705604256,-0.2651575803756714,-0.1359345018863678,true
-0.2616571968843435,-0.13126365620536123,-0.246632918715477,-0.13711631298065186,true
-0.2616576534025281,-0.13126359418168781,-0.2422437071800232,-0.1384391039609909,true
-0.2616586512103742,-0.13126359292221457,-0.24738146364688873,-0.13805969059467316,true
-0.2616571948708125,-0.13126365617809232,-0.40080639719963074,-0.1284814178943634,true
-0.26165753052005747,-0.13126349080176014,-0.3797629475593567,-0.13033455610275269,true
-0.2616585544008234,-0.1312636057148618,-0.3809692859649658,-0.1302761435508728,true
-0.2616561192545678,-0.13126371843613083,-0.3512588143348694,-0.12885542213916779,true
-0.26165773985744933,-0.13126365304541115,-0.3493185043334961,-0.12928302586078644,true
-0.2616584182727628,-0.13126359837967333,-0.351894736289978,-0.12895338237285614,true
-0.261657196944471,-0.13126365620026695,-0.2917298674583435,-0.13374467194080353,true
-0.26165763139014586,-0.13126357528149984,-0.26983487606048584,-0.13417181372642517,true
-0.26165832450607707,-0.1312635763497235,-0.27497631311416626,-0.13367114961147308,true
-0.2616571898995013,-0.13126365620600305,-0.2945497930049896,-0.13040363788604736,true
-0.2616574502935602,-0.13126345410090354,-0.29141077399253845,-0.13267293572425842,true
-0.26165849138409736,-0.13126360698508183,-0.30177414417266846,-0.13027596473693848,true
-0.2616571968349858,-0.13126365620534516,-0.34418222308158875,-0.13129103183746338,true
-0.26165766430351284,-0.1312636031932444,-0.3453254699707031,-0.13050216436386108,true
-0.2616583528539853,-0.13126358362638338,-0.3484153151512146,-0.13071969151496887,true
-0.2616571968410134,-0.1312636562484549,-0.25614026188850403,-0.14049215614795685,true
-0.26165724343331476,-0.13126361881813575,-0.24641679227352142,-0.14123523235321045,true
-0.26165798873481977,-0.13126361580914253,-0.24510127305984497,-0.14108476042747498,true
-0.26165718535957305,-0.13126365617293392,-0.26515430212020874,-0.13469599187374115,true
-0.26165674226983093,-0.13126391787078462,-0.2745878994464874,-0.13373245298862457,true
-0.26165814949324706,-0.13126355719394522,-0.2780970633029938,-0.13343927264213562,true
-0.24863467272404094,-0.1368579113017064,-0.2744036614894867,-0.1393182873725891,true
-0.2486329426171952,-0.13685773694333955,-0.2734774351119995,-0.1396489292383194,true
-0.2486352955708266,-0.13685789067403703,-0.28628233075141907,-0.13843481242656708,true
-0.24863600668434915,-0.13685784837770018,-0.2723376154899597,-0.13952675461769104,true
-0.24863476877420632,-0.13685791184188015,-0.28033819794654846,-0.13876482844352722,true
-0.24863513478077848,-0.13685776339547465,-0.28557267785072327,-0.13946771621704102,true
-0.24863551418028362,-0.13685790586514648,-0.27860358357429504,-0.13903401792049408,true
-0.2486347635970975,-0.13685791180912024,-0.2020343691110611,-0.14739291369915009,true
-0.24863445790170619,-0.13685816945552168,-0.19623565673828125,-0.14912308752536774,true
-0.2486354279837556,-0.13685792777061068,-0.19995850324630737,-0.14846061170101166,true
-0.24863612144278951,-0.13685786283296497,-0.2053820639848709,-0.14815445244312286,true
-0.24863476909068982,-0.13685791183663748,-0.3220938742160797,-0.14354880154132843,true
-0.24863483766680466,-0.13685783728879342,-0.3358663320541382,-0.14170964062213898,true
-0.24863560979162241,-0.13685786109533468,-0.35405004024505615,-0.14034059643745422,true
-0.24863476822350486,-0.13685791187557914,-0.2381046712398529,-0.1482846438884735,true
-0.24863511108748254,-0.13685774653543006,-0.24373672902584076,-0.14882929623126984,true
-0.24863584792945762,-0.13685781380062323,-0.27367836236953735,-0.14543859660625458,true
-0.24863476803233353,-0.13685791181345158,-0.2211267650127411,-0.14480653405189514,true
-0.24863538432621346,-0.1368579258498619,-0.22666291892528534,-0.1450510025024414,true
-0.24863608355403602,-0.13685786058883895,-0.21980397403240204,-0.14593179523944855,true
-0.24863476882477162,-0.1368579118203045,-0.31188106536865234,-0.1377900242805481,true
-0.24863488553811022,-0.13685777549809894,-0.31151828169822693,-0.13802139461040497,true
-0.2486359969733673,-0.13685784614281613,-0.31798648834228516,-0.13707108795642853,true
-0.24863476359419764,-0.13685791183962234,-0.32232043147087097,-0.13525159657001495,true
-0.24863503962196087,-0.1368577122107492,-0.25888046622276306,-0.1439785361289978,true
-0.24863578674746295,-0.13685781042793674,-0.2723875939846039,-0.14210353791713715,true
-0.2486347499439718,-0.1368579117487191,-0.21250124275684357,-0.14547735452651978,true
-0.2486341405696659,-0.13685814387523781,-0.22272059321403503,-0.14616240561008453,true
-0.24863573515518403,-0.13685781611252007,-0.23884256184101105,-0.144966721534729,true
-0.2486360738705606,-0.13685785968718717,-0.2505973279476166,-0.14349161088466644,true
-0.24863476896680337,-0.1368579118253139,-0.3825189173221588,-0.13633595407009125,true
-0.24863526179585338,-0.1368578674505367,-0.37897640466690063,-0.1360953450202942,true
-0.24863597741256227,-0.13685784160833414,-0.3813917636871338,-0.1367998719215393,true
-0.29947451963174637,-0.1535708596385037,-0.39119577407836914,-0.15126077830791473,true
-0.29947496550800345,-0.15357074922550187,-0.38290736079216003,-0.15276962518692017,true
-0.2994761420065571,-0.15357080315016675,-0.40274348855018616,-0.15048475563526154,true
-0.2994744676012735,-0.15357085939276546,-0.2637348473072052,-0.16241773962974548,true
-0.2994732220636676,-0.15357092192874963,-0.2952137887477875,-0.16005264222621918,true
-0.2994751306354515,-0.15357085653527366,-0.2986243665218353,-0.15990059077739716,true
-0.29947592142560914,-0.15357080187765237,-0.2843068242073059,-0.160694882273674,true
-0.29947451963404353,-0.15357085964221065,-0.37361738085746765,-0.1482519656419754,true
-0.2994745525695114,-0.15357082217520931,-0.38061532378196716,-0.1479777693748474,true
-0.29947542134948385,-0.1535708191632193,-0.37923815846443176,-0.14827610552310944,true
-0.29947617255864994,-0.15357079916652921,-0.5398557186126709,-0.1283644735813141,true
-0.2994745175534593,-0.15357085962739891,-0.3317944407463074,-0.1543528288602829,true
-0.29947527775710847,-0.15357087082671486,-0.33390820026397705,-0.14313159883022308,true
-0.2994760487993442,-0.15357081059077798,-0.3360033929347992,-0.154195174574852,true
-0.2994745186840022,-0.15357085962966302,-0.3532426059246063,-0.15231193602085114,true
-0.29947471366002965,-0.15357066728175806,-0.31767991185188293,-0.15628474950790405,true
-0.2994759429319791,-0.15357080492598874,-0.34224656224250793,-0.15442048013210297,true
-0.29947629295187567,-0.15357078350544845,-0.3447454869747162,-0.15972299873828888,true
-0.29947448923680997,-0.15357090567718415,-0.3984757661819458,-0.1557520180940628,true
-0.29947537370198146,-0.15357083974923968,-0.4134295582771301,-0.15476582944393158,true
-0.2994761315491922,-0.15357080446737262,-0.32417032122612,-0.15780510008335114,true
-0.29947451783618856,-0.15357085970926002,-0.34441161155700684,-0.1518394947052002,true
-0.29947480694997786,-0.15357066003291267,-0.3236352205276489,-0.15393869578838348,true
-0.299475642991108,-0.1535707582480596,-0.3431876599788666,-0.151838481426239,true
-0.29947445420332486,-0.15357085931497005,-0.36668914556503296,-0.15255045890808105,true
-0.2994751181775872,-0.1535708510627264,-0.3407496213912964,-0.156711608171463,true
-0.299475910590983,-0.15357080003361626,-0.30570802092552185,-0.15923577547073364,true
-0.2994745195844835,-0.1535708596380378,-0.3990212082862854,-0.15471310913562775,true
-0.29947582322330213,-0.1535707822173515,-0.39692065119743347,-0.15497151017189026,true
-0.2994745098011242,-0.15357085961557046,-0.35449492931365967,-0.149369478225708,true
-0.2994747802962404,-0.15357065605084522,-0.355918288230896,-0.15015488862991333,true
-0.2994756200548553,-0.1535707594196846,-0.3638046383857727,-0.14906646311283112,true
-0.3741543627382449,-0.14805489855363885,-0.4553111791610718,-0.14996649324893951,true
-0.37415435426852944,-0.14805492275235624,-0.4431498646736145,-0.15185020864009857,true
-0.3741555822254879,-0.14805481161607495,-0.4348183870315552,-0.15247079730033875,true
-0.3741543620752484,-0.14805489853562276,-0.6711351871490479,-0.11251123249530792,true
-0.3741547343083262,-0.1480547413495516,-0.42069244384765625,-0.15290102362632751,true
-0.3741555280614938,-0.14805480182857444,-0.41824576258659363,-0.1535377949476242,true
-0.3741543530655258,-0.14805489851202344,-0.4238542914390564,-0.14784330129623413,true
-0.37415391319818864,-0.14805516430591092,-0.41088980436325073,-0.15028861165046692,true
-0.37415504010873935,-0.14805491478693658,-0.4113391637802124,-0.15074299275875092,true
-0.37415579187693443,-0.1480548487713633,-0.4046560823917389,-0.1521560251712799,true
-0.37415436230573695,-0.14805489860776813,-0.4362223744392395,-0.1488092988729477,true
-0.3741549084467232,-0.14805487019134136,-0.4380118250846863,-0.14832918345928192,true
-0.3741556778609101,-0.14805483295615948,-0.43665170669555664,-0.1485072523355484,true
-0.37415602039006035,-0.14805482975420586,-0.4207659661769867,-0.14748746156692505,true
-0.37415191837767825,-0.14805475941655785,-0.41705378890037537,-0.1488623321056366,true
-0.37415516829539286,-0.14805488813208856,-0.4135667383670807,-0.14934141933918,true
-0.37415432227937356,-0.14805489835293528,-0.38120806217193604,-0.15252014994621277,true
-0.3741545416278368,-0.148054712286606,-0.3819502592086792,-0.15326234698295593,true
-0.3741557300882846,-0.14805484235699257,-0.3751010596752167,-0.1542525738477707,true
-0.3741543626278465,-0.1480548985436759,-0.4002303183078766,-0.15040269494056702,true
-0.3741548595650101,-0.14805483652213222,-0.4065788984298706,-0.14969389140605927,true
-0.3741556356239254,-0.14805482355170366,-0.397111177444458,-0.15121257305145264,true
-0.3741543583142219,-0.14805489854446638,-0.32577407360076904,-0.1600847989320755,true
-0.3741546574072464,-0.14805470235367307,-0.348624587059021,-0.15771783888339996,true
-0.37415546218269125,-0.14805479690574336,-0.34996336698532104,-0.1575414091348648,true
-0.37415434267289255,-0.14805489844772465,-0.44604700803756714,-0.1458330899477005,true
-0.3741545800431424,-0.1480546978860319,-0.42921528220176697,-0.150251567363739,true
-0.37415539548765914,-0.1480548027002703,-0.4081592261791229,-0.15261058509349823,true
-0.37415436275609976,-0.14805489855654405,-0.4445822834968567,-0.15150569379329681,true
-0.3741548099683446,-0.1480547980343299,-0.4306453466415405,-0.15209458768367767,true
-0.3741555928843464,-0.14805481392511258,-0.44598639011383057,-0.15140670537948608,true
-0.3354827422253857,-0.15485152764737037,-0.39557233452796936,-0.15520791709423065,true
-0.3354825475321751,-0.15485172592555274,-0.4020671844482422,-0.15525302290916443,true
-0.3354835193846809,-0.15485153620269626,-0.3976176679134369,-0.15575091540813446,true
-0.3354842948783424,-0.15485147824713133,-0.40103578567504883,-0.15551385283470154,true
-0.33548274314279686,-0.154851527635425,-0.37360942363739014,-0.15462179481983185,true
-0.33548338396429106,-0.15485153336143365,-0.3551648259162903,-0.1569555103778839,true
-0.3354841776561461,-0.15485147293590626,-0.35451316833496094,-0.1570855975151062,true
-0.33548274410205114,-0.15485152765343557,-0.3255932629108429,-0.16111043095588684,true
-0.3354832314886984,-0.1548514467318291,-0.356519490480423,-0.15834558010101318,true
-0.33548404590991643,-0.15485144780245377,-0.3617728054523468,-0.15753164887428284,true
-0.33548273641919735,-0.15485152765202043,-0.38028234243392944,-0.15224474668502808,true
-0.3354830191892293,-0.1548513255471656,-0.3618995249271393,-0.15581022202968597,true
-0.33548386379616757,-0.1548514267202927,-0.35535377264022827,-0.15608447790145874,true
-0.33548274353928353,-0.1548515276374006,-0.33963653445243835,-0.15758822858333588,true
-0.335482885298752,-0.15485136750001266,-0.3575115203857422,-0.1560964286327362,true
-0.33548374689673643,-0.15485144958698357,-0.3414609134197235,-0.15809743106365204,true
-0.33548449024633586,-0.154851456119617,-0.37622326612472534,-0.1528262495994568,true
-0.3354781374135183,-0.1548511984389702,-0.35422128438949585,-0.15710154175758362,true
-0.33548316617004204,-0.15485139777851845,-0.35235795378685,-0.15703421831130981,true
-0.33548261407417274,-0.15485152697593568,-0.36515897512435913,-0.15497247874736786,true
-0.33548285862133814,-0.15485139141576926,-0.3610458970069885,-0.1555837094783783,true
-0.3354837231316423,-0.1548514579511284,-0.36874228715896606,-0.15420381724834442,true
-0.3354827179566904,-0.15485152746814915,-0.34435057640075684,-0.15702635049819946,true
-0.3354819143773756,-0.15485173208948866,-0.35692718625068665,-0.15627628564834595,true
-0.3354838055458089,-0.1548514338471137,-0.345769464969635,-0.15776664018630981,true
-0.33548454019850316,-0.15485145041093987,-0.3539121150970459,-0.15761107206344604,true
-0.33548274138878886,-0.1548515277592208,-0.3203728497028351,-0.16414891183376312,true
-0.3354831263581645,-0.15485137062707618,-0.32683321833610535,-0.16364134848117828,true
-0.3354839555712861,-0.15485143109338653,-0.333792120218277,-0.16308623552322388,true
-0.3354827180565757,-0.1548515275453778,-0.3964400589466095,-0.15766943991184235,true
-0.3354833962993623,-0.15485153688672254,-0.4072173833847046,-0.15527790784835815,true
-0.33548418823560233,-0.15485147434040014,-0.39970505237579346,-0.15617510676383972,true
-0.4200443207839394,-0.1473865178462392,-0.39811453223228455,-0.1542971283197403,true
-0.4200447665147407,-0.14738641736346486,-0.4129282832145691,-0.15258388221263885,true
-0.4200451689664346,-0.14738648776420327,-0.41750696301460266,-0.15205717086791992,true
-0.4200458935756828,-0.1473864601117901,-0.399679034948349,-0.1550389528274536,true
-0.4200441371617507,-0.1473867160704679,-0.3305065333843231,-0.16404354572296143,true
-0.42004506556840565,-0.14738652634746446,-0.32485195994377136,-0.16396568715572357,true
-0.42004544868820637,-0.14738641745657977,-0.3279636800289154,-0.16382968425750732,true
-0.42004431114296464,-0.1473865177478037,-0.41692352294921875,-0.15537601709365845,true
-0.420044576152788,-0.14738631416479783,-0.432193785905838,-0.15496793389320374,true
-0.42004538272062525,-0.1473864175401248,-0.43279415369033813,-0.15465164184570312,true
-0.42004607610502775,-0.14738643755444134,-0.41377782821655273,-0.1549125760793686,true
-0.4200399741465306,-0.14738586399188872,-0.4380449056625366,-0.15174023807048798,true
-0.4200448159536536,-0.1473864557759372,-0.42931678891181946,-0.15231582522392273,true
-0.4200452145514549,-0.1473864670571284,-0.43162426352500916,-0.15208575129508972,true
-0.42004593269305124,-0.14738645451545537,-0.4661155939102173,-0.1468755006790161,true
-0.42004431947557697,-0.14738651789299934,-0.4298715591430664,-0.15349693596363068,true
-0.4200445503772545,-0.1473863151021844,-0.42369455099105835,-0.15379752218723297,true
-0.42004572334777723,-0.14738646669468666,-0.4369351863861084,-0.152029886841774,true
-0.4200443083951943,-0.14738651775442224,-0.43860718607902527,-0.14962080121040344,true
-0.420043806554925,-0.1473867795067714,-0.4417070746421814,-0.1505478471517563,true
-0.42004537135631426,-0.14738641882149103,-0.4348021447658539,-0.15074566006660461,true
-0.42004432052117247,-0.14738651780199563,-0.3775418698787689,-0.16120006144046783,true
-0.42004518005031655,-0.14738648259148995,-0.3897823691368103,-0.1575957089662552,true
-0.4200459030220481,-0.147386458780926,-0.4038834571838379,-0.15551355481147766,true
-0.42004431913964363,-0.14738651777732104,-0.33339056372642517,-0.16383853554725647,true
-0.42004501903375513,-0.14738653373509378,-0.3360714018344879,-0.16308186948299408,true
-0.4200457641166613,-0.14738646880917933,-0.36409130692481995,-0.15725240111351013,true
-0.4200434099665713,-0.147386685353313,-0.36722373962402344,-0.14000439643859863,true
-0.42004493656867836,-0.147386523499885,-0.6520114541053772,-0.12172498553991318,true
-0.4200460287520305,-0.14738644164352185,-0.643852174282074,-0.12228326499462128,true
-0.42003814347642465,-0.1473857909903549,-0.4309629499912262,-0.15245182812213898,true
-0.42004476655997625,-0.14738641728044272,-0.421691358089447,-0.15385165810585022,true
-0.4200458935464552,-0.14738646002827632,-0.4145474433898926,-0.15474146604537964,true
-0.4520755306906905,-0.14425872720647373,-0.4860966205596924,-0.1499071568250656,true
-0.4520758482075241,-0.14425854094486634,-0.504482626914978,-0.14831626415252686,true
-0.45207662907114915,-0.14425862617590648,-0.4742182195186615,-0.15203949809074402,true
-0.4520755307633797,-0.14425872718380311,-0.3765636086463928,-0.1600622832775116,true
-0.45207535440111424,-0.14425892544493735,-0.39863064885139465,-0.15895426273345947,true
-0.4520762645970313,-0.14425873574214934,-0.3967168629169464,-0.15934452414512634,true
-0.45207730896376475,-0.14425864486079254,-0.4086926579475403,-0.15568700432777405,true
-0.45207520251804295,-0.144258984808726,-0.4346659481525421,-0.15186528861522675,true
-0.45207581047248313,-0.14425852743984222,-0.43857908248901367,-0.15132300555706024,true
-0.45207659670124745,-0.14425862567401618,-0.4259575307369232,-0.15236616134643555,true
-0.452075482473009,-0.14425872697247935,-0.45498889684677124,-0.14743788540363312,true
-0.4520743267719262,-0.144258789450482,-0.42751631140708923,-0.15225845575332642,true
-0.4520764987849925,-0.14425864198584168,-0.4274309575557709,-0.15242540836334229,true
-0.4520754534156482,-0.14425872679729157,-0.48895689845085144,-0.15078701078891754,true
-0.45207553209147855,-0.14425872717971785,-0.49868255853652954,-0.15123450756072998,true
-0.45207567296353335,-0.14425856702804407,-0.4989992678165436,-0.15141256153583527,true
-0.452076476793947,-0.1442586491254616,-0.480932354927063,-0.15288132429122925,true
-0.45207717037312467,-0.14425865565808135,-0.43920549750328064,-0.15299604833126068,true
-0.45207543349012563,-0.14425886251616302,-0.47621482610702515,-0.14509190618991852,true
-0.4520762984707051,-0.14425872549031776,-0.47350263595581055,-0.1454341858625412,true
-0.45207701730308203,-0.14425867607815615,-0.46252021193504333,-0.14706438779830933,true
-0.45207535434113466,-0.1442589255492006,-0.41372406482696533,-0.15416908264160156,true
-0.45207626447771126,-0.1442587358673234,-0.4086979627609253,-0.15412677824497223,true
-0.4520769879399159,-0.14425867791343913,-0.42333558201789856,-0.15307128429412842,true
-0.45207323573038743,-0.14425845588732059,-0.47920724749565125,-0.14761632680892944,true
-0.4520760679237873,-0.14425869878464911,-0.4730663597583771,-0.14826470613479614,true
-0.4520768177682558,-0.14425866155254555,-0.4635555148124695,-0.1499370038509369,true
-0.4520755308450126,-0.14425872723674774,-0.39910227060317993,-0.15760327875614166,true
-0.4520753544664935,-0.1442589254903497,-0.3979613184928894,-0.15849435329437256,true
-0.4520762645876696,-0.14425873579898413,-0.38389676809310913,-0.159636452794075,true
-0.45207698801332663,-0.1442586778379757,-0.3841879367828369,-0.16061726212501526,true
-0.4520749548856691,-0.14425897785654437,-0.3671504259109497,-0.16164302825927734,true
-0.4520761730873499,-0.14425874124357366,-0.384455144405365,-0.1601736694574356,true
-0.4520769087859948,-0.14425867598614445,-0.3640865087509155,-0.16281355917453766,true
-0.3924432410921564,-0.11246791386861248,-0.38940075039863586,-0.11659926921129227,true
-0.3924434556798101,-0.11246776555001857,-0.392040491104126,-0.11989908665418625,true
-0.3924440863634382,-0.11246784036330566,-0.3937288224697113,-0.11956952512264252,true
-0.3924446309830299,-0.11246784418017343,-0.37439632415771484,-0.12026508152484894,true
-0.3924433256647948,-0.11246791446720741,-0.3886554539203644,-0.12056370824575424,true
-0.3924436516480586,-0.11246776605434132,-0.3799346685409546,-0.1210993304848671,true
-0.3924442560666031,-0.11246781945209976,-0.3895001709461212,-0.12007865309715271,true
-0.3924433169915987,-0.11246791435647575,-0.4068589508533478,-0.1169130876660347,true
-0.3924429423293858,-0.1124681759870061,-0.414815217256546,-0.11766869574785233,true
-0.3924438665357365,-0.11246792986447823,-0.42167913913726807,-0.11773773282766342,true
-0.3924441635511745,-0.11246781530118524,-0.42289718985557556,-0.11695901304483414,true
-0.3924446966362166,-0.11246783483676044,-0.38206756114959717,-0.1205233782529831,true
-0.3924402644000682,-0.11246726068537952,-0.3478982746601105,-0.12663114070892334,true
-0.39244373781432296,-0.11246785247080818,-0.3341338038444519,-0.12785528600215912,true
-0.39244432996704504,-0.11246783950285319,-0.34260404109954834,-0.12692777812480927,true
-0.3924433270696398,-0.11246791444712932,-0.35038256645202637,-0.12422173470258713,true
-0.3924432717991967,-0.11246804969505415,-0.3317054808139801,-0.12688487768173218,true
-0.39244395540676386,-0.11246791267174971,-0.3475502133369446,-0.1254349648952484,true
-0.3924442477192086,-0.11246781781248848,-0.35644710063934326,-0.12449075281620026,true
-0.3924433247142455,-0.1124679143816955,-0.38863903284072876,-0.11560683697462082,true
-0.39244314773860645,-0.1124681475958961,-0.3970378041267395,-0.11952785402536392,true
-0.392443911226277,-0.11246792767938465,-0.41167721152305603,-0.11712749302387238,true
-0.3924444802211681,-0.11246786550690283,-0.403330534696579,-0.11873539537191391,true
-0.3924432410920985,-0.11246791386837857,-0.3688432574272156,-0.1205153539776802,true
-0.39244345567558253,-0.11246776554884151,-0.374822735786438,-0.1210702434182167,true
-0.39244408635348105,-0.11246784036241582,-0.3759097754955292,-0.12012073397636414,true
-0.39244437033292695,-0.1124678508609603,-0.3691651225090027,-0.12052938342094421,true
-0.3924433264763817,-0.1124679144444066,-0.4240400195121765,-0.11817417293787003,true
-0.39244322923114583,-0.11246809267730642,-0.44417330622673035,-0.11672405898571014,true
-0.3924439377716249,-0.11246791997452013,-0.4636496901512146,-0.11458132416009903,true
-0.39244423102830145,-0.11246781515082999,-0.46672698855400085,-0.11343585699796677,true
-0.3924433140499032,-0.11246791435154291,-0.38922780752182007,-0.11833491176366806,true
-0.3924428852487117,-0.11246816513644285,-0.3978545367717743,-0.11945635825395584,true
-0.3924438574309215,-0.11246792851707088,-0.39010828733444214,-0.12048114836215973,true
-0.3924444335171149,-0.11246786324918658,-0.39617785811424255,-0.11940313130617142,true
-0.39244332767149814,-0.11246791445701403,-0.38516706228256226,-0.11829308420419693,true
-0.3924433626612356,-0.11246791744482801,-0.3938365876674652,-0.11814972758293152,true
-0.3924440080551421,-0.11246788437478371,-0.39082589745521545,-0.11777111887931824,true
-0.3924445638467571,-0.11246785672205813,-0.36063632369041443,-0.13381512463092804,true
-0.34595640105694747,-0.13006891755653138,-0.3018284738063812,-0.1404275745153427,true
-0.345957586678613,-0.13006859973315935,-0.31156644225120544,-0.13941887021064758,true
-0.3459579018340734,-0.13006865172815943,-0.31654661893844604,-0.13794837892055511,true
-0.345956583686292,-0.13006870085003527,-0.31934043765068054,-0.1393616795539856,true
-0.34595714385693477,-0.1300687065943591,-0.3090350925922394,-0.14019045233726501,true
-0.3459578119929926,-0.13006864616340685,-0.3111256957054138,-0.13973534107208252,true
-0.34595810877552735,-0.13006862475362715,-0.3327609598636627,-0.1354377120733261,true
-0.3459566315303257,-0.13006866341058984,-0.3245357573032379,-0.137210875749588,true
-0.3459570154699263,-0.130068619960928,-0.31806814670562744,-0.1376446634531021,true
-0.3459577010932772,-0.13006862103170616,-0.31285715103149414,-0.13790205121040344,true
-0.34595658414736985,-0.1300687007838959,-0.3062826991081238,-0.13930541276931763,true
-0.3459565249783911,-0.13006881376418863,-0.30774959921836853,-0.1402001678943634,true
-0.34595729855119695,-0.13006869481164451,-0.30786874890327454,-0.1400417536497116,true
-0.34595763479815067,-0.13006860571868525,-0.3120989501476288,-0.13927452266216278,true
-0.3459565250717545,-0.13006870046603775,-0.2837084233760834,-0.14300765097141266,true
-0.34595533991686733,-0.13006869415320563,-0.29814088344573975,-0.1418384313583374,true
-0.34595711224261216,-0.13006869229493231,-0.30598145723342896,-0.14148537814617157,true
-0.34595778460891796,-0.13006864126659795,-0.2851649820804596,-0.14369919896125793,true
-0.34595658429463316,-0.1300687008397465,-0.34711891412734985,-0.13823965191841125,true
-0.3459565435791514,-0.13006879136507354,-0.35862845182418823,-0.13736481964588165,true
-0.3459569492461031,-0.13006856156301583,-0.35145092010498047,-0.13843370974063873,true
-0.34595764426346143,-0.13006860765444642,-0.35974204540252686,-0.13731878995895386,true
-0.3459565791156587,-0.13006870079691962,-0.3172004222869873,-0.13886283338069916,true
-0.3459568476096313,-0.13006850117621022,-0.3089582026004791,-0.13995391130447388,true
-0.345957557431578,-0.13006859939440452,-0.3161899745464325,-0.13914397358894348,true
-0.34595650986437876,-0.13006870037347593,-0.3405545949935913,-0.1342291384935379,true
-0.3459551265931899,-0.13006861473645762,-0.328266978263855,-0.13645197451114655,true
-0.3459571016121935,-0.13006868626461157,-0.3258916437625885,-0.1367439478635788,true
-0.3459577754011404,-0.13006863936290539,-0.3271406590938568,-0.13645894825458527,true
-0.34595658432892085,-0.1300687007980467,-0.357097864151001,-0.1349666267633438,true
-0.34595654364969364,-0.13006879131976415,-0.3654237985610962,-0.1333775371313095,true
-0.34595730868687413,-0.13006869037871333,-0.3474259078502655,-0.13584953546524048,true
-0.34595657555039794,-0.1300687007540084,-0.36422979831695557,-0.13497388362884521,true
-0.3459561928233046,-0.13006896655336167,-0.36400800943374634,-0.13445429503917694,true
-0.3459571960481839,-0.13006871703457829,-0.35717785358428955,-0.13616721332073212,true
-0.3459578571911889,-0.13006865102309512,-0.35730236768722534,-0.13610075414180756,true
-0.1240772778478682,-0.11196977221174201,-0.25423353910446167,-0.11127711087465286,true
-0.12407762042264345,-0.11196964234924736,-0.2502206861972809,-0.11170410364866257,true
-0.12407821935061449,-0.11196968096508318,-0.2589062750339508,-0.11119420826435089,true
-0.12407727673258087,-0.11196977221230099,-0.11086810380220413,-0.11984294652938843,true
-0.12407788590088159,-0.1119697777517927,-0.1152559220790863,-0.11835633963346481,true
-0.12407844883033281,-0.11196972238958669,-0.11808428913354874,-0.11660007387399673,true
-0.12407727664122896,-0.11196977224466227,-0.2238127440214157,-0.10740507394075394,true
-0.12407784168268667,-0.1119697882067711,-0.2319146990776062,-0.10589157044887543,true
-0.12407813597653873,-0.11196967079270395,-0.23298673331737518,-0.1060706302523613,true
-0.12407866285376426,-0.11196969102833841,-0.2575753629207611,-0.11151250451803207,true
-0.12407738671955773,-0.11196964960616274,-0.22376054525375366,-0.1151190847158432,true
-0.1240780166551902,-0.11196970689611137,-0.22212180495262146,-0.11533161252737045,true
-0.12407856137044271,-0.11196970467436186,-0.21636800467967987,-0.11590633541345596,true
-0.1240772762541291,-0.111969772246444,-0.20525884628295898,-0.10380513221025467,true
-0.12407757186081403,-0.11196959924271921,-0.1975690871477127,-0.10549164563417435,true
-0.12407817792243322,-0.11196967293246927,-0.20530375838279724,-0.10434521734714508,true
-0.1240772561687891,-0.11196977207898566,-0.24273143708705902,-0.11281261593103409,true
-0.1240766988016552,-0.11196997682955923,-0.23236118257045746,-0.11384779959917068,true
-0.12407778797677702,-0.1119697814288471,-0.22324101626873016,-0.11512588709592819,true
-0.12407861971092758,-0.11196969516746509,-0.1968519240617752,-0.11705800890922546,true
-0.12407304925244328,-0.11196900770527138,-0.2004174292087555,-0.11721184104681015,true
-0.12407765868050957,-0.1119696815180966,-0.19963307678699493,-0.11741591989994049,true
-0.12407825215027338,-0.11196968992628617,-0.20433363318443298,-0.11682076752185822,true
-0.12407727413199067,-0.11196977217870369,-0.1555788367986679,-0.11335378885269165,true
-0.12407706621874467,-0.11197001926373513,-0.1570378988981247,-0.11293745785951614,true
-0.12407785067036435,-0.11196978708382507,-0.15832330286502838,-0.11264800280332565,true
-0.12407841830214211,-0.11196972333755933,-0.16193485260009766,-0.11241345852613449,true
-0.12407727747076158,-0.11196977217146299,-0.24583585560321808,-0.10907530784606934,true
-0.12407743477993047,-0.1119695933162156,-0.24005192518234253,-0.11007952690124512,true
-0.124078059589116,-0.1119696869442302,-0.22836726903915405,-0.11110224574804306,true
-0.12407727800744654,-0.11196977218612193,-0.20968736708164215,-0.11237785220146179,true
-0.12407732508747377,-0.11196975456239457,-0.21200212836265564,-0.11183316260576248,true
-0.12407796468764383,-0.11196973690113794,-0.21039175987243652,-0.11148381233215332,true
-0.12407825213678134,-0.1119696899236558,-0.2124464213848114,-0.11145257949829102,true
-0.13854812310860065,-0.11642027556860624,-0.19344058632850647,-0.11391357332468033,true
-0.13854868678256443,-0.11642029107838561,-0.1750938445329666,-0.11657984554767609,true
-0.1385489939879837,-0.11642017651824747,-0.1793740689754486,-0.11607731133699417,true
-0.1385495451670137,-0.11642019605115382,-0.2508189082145691,-0.11166287958621979,true
-0.13854818935059124,-0.11642023823281827,-0.23672311007976532,-0.11419852077960968,true
-0.13854853409157472,-0.11642019478473141,-0.2352801263332367,-0.11468776315450668,true
-0.13854914920321684,-0.11642019585473108,-0.23280677199363708,-0.11439622193574905,true
-0.1385481339236624,-0.11642027556537755,-0.11901160329580307,-0.12260757386684418,true
-0.13854853412096713,-0.1164201946324948,-0.1198950782418251,-0.1223369762301445,true
-0.13854914925136974,-0.11642019570105458,-0.11210769414901733,-0.12354090064764023,true
-0.13854812886532053,-0.11642027560369961,-0.14748694002628326,-0.12024042755365372,true
-0.13854838330194813,-0.1164200758898906,-0.15762954950332642,-0.11950131505727768,true
-0.13854902031929023,-0.11642017412459595,-0.14867720007896423,-0.12023982405662537,true
-0.13854956749794567,-0.11642019436727223,-0.25204741954803467,-0.11096641421318054,true
-0.13854574834085698,-0.11641980196452108,-0.20774945616722107,-0.11604935675859451,true
-0.13854888729928716,-0.11642021501860964,-0.19824109971523285,-0.11716272681951523,true
-0.13854918283379875,-0.1164202054040437,-0.2067366987466812,-0.11648935824632645,true
-0.13854813374789193,-0.11642027561426331,-0.21702547371387482,-0.11689605563879013,true
-0.13854810892524783,-0.11642036613301228,-0.2269546091556549,-0.11528855562210083,true
-0.13854879700871273,-0.11642026519062451,-0.2337898164987564,-0.11482445150613785,true
-0.13854937674445889,-0.11642022255353184,-0.20863057672977448,-0.12141043692827225,true
-0.13854787451650874,-0.11642053324140143,-0.23493808507919312,-0.11779910326004028,true
-0.1385487145856284,-0.11642029154347779,-0.23460836708545685,-0.1177191287279129,true
-0.13854930541705318,-0.11642022661677005,-0.2550581693649292,-0.11572185158729553,true
-0.13854813384501957,-0.11642027567000453,-0.14640584588050842,-0.12076079845428467,true
-0.13854822148105053,-0.11642018406553005,-0.13749974966049194,-0.12123008817434311,true
-0.13854887824619488,-0.11642021996089294,-0.1321045458316803,-0.12171266227960587,true
-0.13854944654686505,-0.11642021099941563,-0.16462746262550354,-0.11932874470949173,true
-0.1385480916370092,-0.11642038858007846,-0.16549672186374664,-0.1194089725613594,true
-0.13854878790658304,-0.11642026963547256,-0.15656635165214539,-0.11942087858915329,true
-0.13854936888117048,-0.11642022351803522,-0.15908513963222504,-0.1193346232175827,true
-0.13854733016893775,-0.1164203959079241,-0.23839351534843445,-0.11422546952962875,true
-0.13854863992033348,-0.1164202772234013,-0.24163417518138885,-0.11380229890346527,true
-0.13854924063482285,-0.1164202194220691,-0.2490902692079544,-0.11284112185239792,true
-0.5087559927440073,-0.12783285041693332,-0.49485543370246887,-0.13304302096366882,true
-0.5087567267603545,-0.12783283044662241,-0.4610983729362488,-0.13811323046684265,true
-0.5087573590043034,-0.12783279514890838,-0.46910831332206726,-0.13688543438911438,true
-0.5087559158886777,-0.12783298563194098,-0.5070223212242126,-0.13369280099868774,true
-0.508756686865835,-0.12783284857665156,-0.5131128430366516,-0.13362285494804382,true
-0.508757324632703,-0.12783279914806242,-0.5250270366668701,-0.13205741345882416,true
-0.5087559920091171,-0.12783285039939146,-0.5626413226127625,-0.1299712359905243,true
-0.5087561755907035,-0.12783265805267927,-0.5799322724342346,-0.12834064662456512,true
-0.5087568839779156,-0.12783275922257356,-0.580497682094574,-0.12869881093502045,true
-0.5087559458794944,-0.12783285013559206,-0.5090184211730957,-0.1348242312669754,true
-0.5087549487707058,-0.1278329126071238,-0.5224050283432007,-0.13325585424900055,true
-0.5087565241896884,-0.12783284720417787,-0.5195662975311279,-0.13402804732322693,true
-0.5087574769254313,-0.12783277640455049,-0.5371215343475342,-0.13144847750663757,true
-0.5087559911390241,-0.1278328505096885,-0.5693414211273193,-0.1293518841266632,true
-0.5087562646982516,-0.1278326543671511,-0.5586318373680115,-0.1312883198261261,true
-0.5087572723496775,-0.127832801689843,-0.5619540214538574,-0.13114911317825317,true
-0.5087559921954524,-0.12783285046599685,-0.5744143128395081,-0.1287143975496292,true
-0.5087561424431284,-0.12783268035936965,-0.5632198452949524,-0.12975066900253296,true
-0.508756854689052,-0.1278327687090918,-0.566999077796936,-0.12976978719234467,true
-0.508755992783017,-0.12783285041218795,-0.5109068155288696,-0.13356314599514008,true
-0.5087560018512289,-0.1278328746110223,-0.5247337818145752,-0.1326942890882492,true
-0.508757064861199,-0.12783276347434433,-0.5309520959854126,-0.13215555250644684,true
-0.5087559886745914,-0.1278328504002545,-0.5418081283569336,-0.13204525411128998,true
-0.5087562648181045,-0.12783265420819168,-0.5566927790641785,-0.12961407005786896,true
-0.5087566265745219,-0.12783286530401913,-0.5538021326065063,-0.13034997880458832,true
-0.5087559459067905,-0.1278328501574398,-0.5076749920845032,-0.13243430852890015,true
-0.5087549487363671,-0.1278329127236928,-0.5096312761306763,-0.13370926678180695,true
-0.5087565241225672,-0.12783284733492392,-0.5029458999633789,-0.1340901404619217,true
-0.5087571836930349,-0.12783279266694203,-0.5075713396072388,-0.1330619752407074,true
-0.5087559905768895,-0.12783285046867193,-0.5627252459526062,-0.13114513456821442,true
-0.5087563314801588,-0.12783269333951955,-0.5592970252037048,-0.1314820647239685,true
-0.5087570179269086,-0.1278327538135849,-0.5897064805030823,-0.1282062530517578,true
-0.013695538926961279,-0.12161059436032712,-0.05009281635284424,-0.11904036998748779,true
-0.013696144344505709,-0.12161061032109559,-0.05915835499763489,-0.1184195727109909,true
-0.013695430917111118,-0.12161059371148909,-0.015921523794531822,-0.12629170715808868,true
-0.01369566153269701,-0.12161045815892006,0.023227736353874207,-0.12910129129886627,true
-0.013696343250431037,-0.12161052469703391,0.017101459205150604,-0.12887853384017944,true
-0.013696932073196971,-0.1216105255917481,-0.049244921654462814,-0.12266235798597336,true
-0.013695584361366434,-0.12161057684520854,-0.049273423850536346,-0.12233154475688934,true
-0.013696589019443761,-0.12161051221605801,-0.05737270787358284,-0.12155894190073013,true
-0.01369687584758468,-0.12161053537745195,-0.0843597799539566,-0.12021107971668243,true
-0.013695179669341792,-0.1216108602421601,-0.1025705337524414,-0.11769460141658783,true
-0.013696124953894342,-0.12161061071382341,-0.1000615730881691,-0.11797868460416794,true
-0.013696743993857827,-0.12161054469222429,-0.0898326188325882,-0.11894232779741287,true
-0.013695544020839112,-0.12161059438375396,-0.09487338364124298,-0.11728502810001373,true
-0.01369599666978788,-0.12161055000927777,-0.024248914793133736,-0.1251029521226883,true
-0.013696632917119367,-0.12161052416879163,-0.016155552119016647,-0.1253560334444046,true
-0.013695543790470707,-0.1216105943911569,-0.06283948570489883,-0.11649322509765625,true
-0.013695495267427443,-0.12161070735923808,-0.0550861731171608,-0.11756696552038193,true
-0.013696535748669386,-0.12161049933418959,-0.05790385603904724,-0.11672632396221161,true
-0.013695544093692683,-0.1216105944292277,-0.06889510154724121,-0.11769423633813858,true
-0.013695966142345167,-0.12161052311761339,-0.07778409868478775,-0.11639491468667984,true
-0.01369660655844071,-0.12161051704553606,-0.0657678171992302,-0.117744579911232,true
-0.013695544077459848,-0.1216105944264362,-0.09958153963088989,-0.11849618703126907,true
-0.013695945625027808,-0.1216105038091802,-0.09547301381826401,-0.11922935396432877,true
-0.013696277495945888,-0.12161055918616955,-0.09720336645841599,-0.11837606132030487,true
-0.013696875734431804,-0.12161053537464858,-0.09944220632314682,-0.11654625833034515,true
-0.013695542252540743,-0.1216105944488943,-0.09892240166664124,-0.11672720313072205,true
-0.013695851792480451,-0.12161042144539567,-0.10519072413444519,-0.11626441031694412,true
-0.01369650866598747,-0.12161049513520528,-0.09950969368219376,-0.11697057634592056,true
-0.01369551542621783,-0.12161059423189303,-0.08070173114538193,-0.11961156874895096,true
-0.013695724358264022,-0.12161040202590283,-0.08442386984825134,-0.11847483366727829,true
-0.013696399050473623,-0.12161050319586314,-0.08623073995113373,-0.11823496967554092,true
-0.013696979595422723,-0.12161051825035588,-0.08934580534696579,-0.118012934923172,true
-0.17487879925356353,-0.11083820868634772,-0.30935683846473694,-0.09842045605182648,true
-0.1748822086696756,-0.11083880047079205,-0.3199378252029419,-0.09753649681806564,true
-0.17488279231408094,-0.11083878750165951,-0.31429654359817505,-0.09827902168035507,true
-0.17488180140226617,-0.1108388624056501,-0.28049954771995544,-0.11023347824811935,true
-0.1748820948659581,-0.11083868934783513,-0.29838600754737854,-0.108889140188694,true
-0.1748826948811446,-0.11083876305018593,-0.2927633225917816,-0.10936601459980011,true
-0.17488180240918957,-0.11083886245545989,-0.23889274895191193,-0.10683096945285797,true
-0.17488222716797797,-0.11083881810895865,-0.23743779957294464,-0.106299489736557,true
-0.17488280824821012,-0.1108387922689916,-0.23207180202007294,-0.1069166362285614,true
-0.174881802352148,-0.11083886240305217,-0.22909200191497803,-0.10551203042268753,true
-0.1748817840046068,-0.11083895292191653,-0.27510330080986023,-0.09964929521083832,true
-0.17488244054541113,-0.11083885197947826,-0.2845471501350403,-0.09841980040073395,true
-0.174882727697251,-0.1108387691655452,-0.30004236102104187,-0.09697411954402924,true
-0.1748818020284737,-0.11083886245994727,-0.2806560695171356,-0.10908885300159454,true
-0.17488195899916126,-0.11083868364157415,-0.29103124141693115,-0.1081726923584938,true
-0.17488257757188888,-0.11083877725915935,-0.2843092679977417,-0.10847314447164536,true
-0.17488171663310273,-0.11083886186710452,-0.26787254214286804,-0.10750477761030197,true
-0.1748819303804648,-0.11083871364533447,-0.298366516828537,-0.10392314940690994,true
-0.17488255201953792,-0.11083878845071217,-0.31305408477783203,-0.10189299285411835,true
-0.1748830887710502,-0.11083879227021577,-0.2324385792016983,-0.11123587936162949,true
-0.17487858776899654,-0.11083853319174322,-0.27368485927581787,-0.10787694156169891,true
-0.17488214292169174,-0.11083873252860667,-0.2790592312812805,-0.10735997557640076,true
-0.1748827358633087,-0.11083877114281404,-0.27565082907676697,-0.10777632147073746,true
-0.1748817975527232,-0.11083886241080097,-0.21963946521282196,-0.11068534851074219,true
-0.17488204612285385,-0.11083866278908691,-0.21748214960098267,-0.11117715388536453,true
-0.17488236195385318,-0.11083887843267284,-0.23017796874046326,-0.1095803827047348,true
-0.17488292507105224,-0.11083881349328761,-0.21989311277866364,-0.11050625890493393,true
-0.17488180199096107,-0.11083886238188073,-0.16772007942199707,-0.11512976139783859,true
-0.17488196862329655,-0.11083867612171008,-0.1706233024597168,-0.1144871860742569,true
-0.17488258612022065,-0.11083877401757525,-0.17444300651550293,-0.11430612951517105,true
-0.17488311785055774,-0.11083878731138928,-0.2479037195444107,-0.10914567857980728,true
-0.1748817839418494,-0.11083895297616828,-0.23410357534885406,-0.11014650017023087,true
-0.17488213331234254,-0.11083872317357163,-0.2249821424484253,-0.11166367679834366,true
-0.17488299305740707,-0.11083880942715403,-0.21938343346118927,-0.11261583864688873,true
-0.034521114160505476,-0.10545183957282311,-0.0387248657643795,-0.11168984323740005,true
-0.034521620383792875,-0.10545185362114029,-0.030411910265684128,-0.11245815455913544,true
-0.03452189959655992,-0.10545174197940686,-0.03880247846245766,-0.11194779723882675,true
-0.03452111502381029,-0.10545183951268981,-0.043027836829423904,-0.10953295975923538,true
-0.03452119702852194,-0.10545176496589859,-0.046173304319381714,-0.1095447987318039,true
-0.034521794482626184,-0.10545178877416043,-0.048212938010692596,-0.10937907546758652,true
-0.03452206405008322,-0.10545176452271578,-0.03914868086576462,-0.10992788523435593,true
-0.03452111322759696,-0.10545183947707162,-0.16819506883621216,-0.10101146250963211,true
-0.03452142717449838,-0.10545169106207548,-0.1647680550813675,-0.10146799683570862,true
-0.034521994627468286,-0.10545174445326318,-0.1813029646873474,-0.0999167338013649,true
-0.03452070267246565,-0.10545209015238328,-0.1760442554950714,-0.09948153793811798,true
-0.0345218996660506,-0.10545174188020308,-0.17438921332359314,-0.09953982383012772,true
-0.034522401418836085,-0.10545176068107677,-0.05160731449723244,-0.10880304872989655,true
-0.03452149922930016,-0.10545176825587779,-0.054279785603284836,-0.10783898830413818,true
-0.03452178623520806,-0.10545179395776023,-0.05555898696184158,-0.10764075815677643,true
-0.03452230466187642,-0.10545177773089096,-0.03412739560008049,-0.11172465234994888,true
-0.03452104927106997,-0.10545199664834565,-0.025599656626582146,-0.11259175837039948,true
-0.03452170398904608,-0.10545184162518008,-0.04066714271903038,-0.11113743484020233,true
-0.034522233764218604,-0.10545178910614686,-0.0962117463350296,-0.10453636944293976,true
-0.03452049479365621,-0.10545200709105072,-0.08925583958625793,-0.10642720013856888,true
-0.03452159496124528,-0.10545184523085774,-0.09764231741428375,-0.10522560775279999,true
-0.034522139155902326,-0.10545178480171208,-0.1119718998670578,-0.10406474024057388,true
-0.03452111501398013,-0.105451839508394,-0.012181626632809639,-0.11299972981214523,true
-0.0345215081557301,-0.10545177748769999,-0.020038137212395668,-0.11179665476083755,true
-0.0345220640348704,-0.10545176451709921,-0.015225904993712902,-0.11169261485338211,true
-0.034522311725714766,-0.10545177622810574,-0.031266942620277405,-0.1126537099480629,true
-0.03452100428449155,-0.10545203777046627,-0.031844962388277054,-0.11246233433485031,true
-0.034521687486464364,-0.10545184807639907,-0.02479548193514347,-0.11274585127830505,true
-0.03452221947419208,-0.10545179012013073,-0.025462009012699127,-0.11299427598714828,true
-0.03452111452834006,-0.1054518395711541,-0.12319591641426086,-0.10071685165166855,true
-0.03452157775986528,-0.10545183643501534,-0.12006428092718124,-0.10091270506381989,true
-0.034522124214978384,-0.10545178176896958,-0.1199340745806694,-0.10065320879220963,true
-0.26206230098097105,-0.11027015769035506,-0.35811710357666016,-0.11323601752519608,true
-0.26206263094379595,-0.11027001841304514,-0.36450377106666565,-0.1133236363530159,true
-0.2620632222553998,-0.11027006450463894,-0.37188348174095154,-0.1126757487654686,true
-0.26206348633614307,-0.11027010466642251,-0.31490281224250793,-0.10767762362957001,true
-0.26206209333484654,-0.11027040470283367,-0.3313662111759186,-0.10485506802797318,true
-0.26206286725371514,-0.1102701725339018,-0.3192754089832306,-0.10632894933223724,true
-0.2620634263576633,-0.11027010878206493,-0.32198596000671387,-0.10616468638181686,true
-0.2620609243067242,-0.11026998274710155,-0.30853280425071716,-0.11029572784900665,true
-0.2620627516659103,-0.11027013647966381,-0.32633528113365173,-0.1087016761302948,true
-0.26206332609329147,-0.11027009418398777,-0.3181331157684326,-0.10946779698133469,true
-0.26206229961798655,-0.11027015770070572,-0.28153616189956665,-0.11274237185716629,true
-0.26206258295947404,-0.11026997770911987,-0.2648720145225525,-0.11479923129081726,true
-0.26206318134140205,-0.11027005740707735,-0.2668920159339905,-0.11470687389373779,true
-0.26206227959336426,-0.11027015752048577,-0.3416992723941803,-0.10442741215229034,true
-0.2620624862150932,-0.1102699604927208,-0.3293190002441406,-0.10711529105901718,true
-0.262063098254899,-0.1102700639609866,-0.32307374477386475,-0.10818837583065033,true
-0.26206223289091335,-0.11027015721228542,-0.3304876983165741,-0.11478041112422943,true
-0.2620624386031273,-0.11026999746437545,-0.3584709167480469,-0.1131414994597435,true
-0.262062760766411,-0.11027014300008423,-0.3456377387046814,-0.11472320556640625,true
-0.2620633339764496,-0.110270096098905,-0.348097026348114,-0.11571933329105377,true
-0.2620623012493667,-0.11027015763478797,-0.36721694469451904,-0.10397409647703171,true
-0.2620626781495313,-0.11027006696705767,-0.3505198657512665,-0.10638751834630966,true
-0.2620632627014168,-0.11027007537230374,-0.3432178199291229,-0.10705653578042984,true
-0.26206230038002404,-0.11027015769689451,-0.3202957212924957,-0.10503291338682175,true
-0.262062495776714,-0.11026995711525997,-0.31181958317756653,-0.10737106949090958,true
-0.26206310658146265,-0.11027006191057843,-0.3156626522541046,-0.10668162256479263,true
-0.2620622155232992,-0.11027015710496944,-0.33964526653289795,-0.11020953953266144,true
-0.26206242916239075,-0.11027000876253484,-0.37546592950820923,-0.10680022835731506,true
-0.26206304765288346,-0.1102700835820952,-0.3307531476020813,-0.11259432137012482,true
-0.2620635816778145,-0.1102700873983574,-0.3186177909374237,-0.11296680569648743,true
-0.2620622832407907,-0.11027024821708381,-0.3758377134799957,-0.1067013293504715,true
-0.2620629365462493,-0.11027014729451727,-0.32261374592781067,-0.11397328227758408,true
-0.2620634863164848,-0.11027010467046755,-0.3390852212905884,-0.11215461790561676,true
-0.5447142503138603,-0.12766391474543137,-0.5230884552001953,-0.13963370025157928,true
-0.5447143563340453,-0.1276637922163433,-0.5368710160255432,-0.13815626502037048,true
-0.5447153947515753,-0.12766384688408045,-0.5492174625396729,-0.1366787552833557,true
-0.5447142505664302,-0.12766391471052443,-0.5710011720657349,-0.13078290224075317,true
-0.5447142597069591,-0.12766393893526085,-0.5796184539794922,-0.12988632917404175,true
-0.5447149935227041,-0.12766388976411494,-0.5765509605407715,-0.1298234462738037,true
-0.5447156234274286,-0.12766385826525092,-0.5013212561607361,-0.13946330547332764,true
-0.5447145889534419,-0.12766375760484044,-0.4748036563396454,-0.1430162787437439,true
-0.5447152744329526,-0.12766381807670169,-0.46368202567100525,-0.14454872906208038,true
-0.5447142211151894,-0.12766391451915327,-0.563431441783905,-0.13435117900371552,true
-0.5447134761587041,-0.12766408232403675,-0.5677850842475891,-0.1353949010372162,true
-0.5447148020637376,-0.1276639204598627,-0.5689566135406494,-0.13570702075958252,true
-0.5447154578968211,-0.1276638600311551,-0.5778597593307495,-0.13497458398342133,true
-0.5447101331056342,-0.12766319460062098,-0.5310187339782715,-0.13648346066474915,true
-0.5447146867091743,-0.12766384340683284,-0.5713605284690857,-0.13057690858840942,true
-0.5447153582313536,-0.12766383733365075,-0.562995970249176,-0.13170096278190613,true
-0.5447142452830003,-0.12766391465047608,-0.5739946365356445,-0.13240566849708557,true
-0.5447139625420647,-0.12766417230382884,-0.5787032842636108,-0.13195504248142242,true
-0.5447152080993198,-0.12766381317140452,-0.5595046281814575,-0.13484559953212738,true
-0.5447141343076503,-0.12766391398835863,-0.5295153856277466,-0.1346992701292038,true
-0.5447143674572221,-0.12766377833959083,-0.547020673751831,-0.13220183551311493,true
-0.5447150822411796,-0.12766384488291344,-0.551254391670227,-0.1319705992937088,true
-0.5447156994292179,-0.12766384577794365,-0.5203806161880493,-0.1365630179643631,true
-0.5447142597114781,-0.12766393893738387,-0.5044576525688171,-0.13868632912635803,true
-0.5447149935242047,-0.12766388975907664,-0.5106654763221741,-0.13852590322494507,true
-0.5447156234259715,-0.12766385826480692,-0.541739284992218,-0.13332810997962952,true
-0.5447139173332086,-0.12766417890336235,-0.5582523345947266,-0.1313672661781311,true
-0.5447148633626744,-0.12766393114602598,-0.5524322986602783,-0.13204920291900635,true
-0.5447155109908187,-0.12766386544605426,-0.5509350299835205,-0.1320178210735321,true
-0.5447115520025275,-0.12766344101252716,-0.5731537342071533,-0.1340622901916504,true
-0.5447147186691164,-0.12766387028748738,-0.5653639435768127,-0.13513806462287903,true
-0.5447153857578946,-0.12766384444627363,-0.5685556530952454,-0.13503892719745636,true
