-0.07990134274424243,0.005459876247098077,true
-0.08846836545911707,0.0061486039927507695,true
-0.1044101001847636,0.007185010951187568,true
-0.13527362998747672,0.005340788693634992,true
-0.11783446374008422,0.003889732910739442,true
-0.1156346351873292,0.0037226565232198264,true
-0.10458076757870005,0.0031064344585294904,true
-0.24510719743125453,0.019574750935799533,true
-0.20373183727077138,0.015289703313272698,true
-0.2034038854119511,0.015440203770745557,true
-0.1972365020992396,0.013747283071025504,true
-0.21618796182223077,0.015718797313001822,true
-0.20616959716467742,0.014383843579288683,true
-0.25739721198296517,0.02045979064999228,true
-0.04627242008979593,-0.0015089150251344809,true
-0.03134837474933372,-0.0025999721125242563,true
-0.01211246380883968,-0.003502912550777431,true
-0.022988157105898854,-0.002751643275926585,true
-0.1818800801864442,0.014889788652142244,true
-0.19135749502520827,0.0159567712175545,true
-0.2038619558320114,0.01755216848278726,true
-0.21033810309682743,0.018392320664257916,true
-0.026349270401768154,0.0017749841921397558,true
-0.021627084822391396,0.0012000309845619193,true
-0.29596023569962804,0.034850041331238944,true
-0.2887975318487288,0.03367405249422824,true
-0.30952175783533853,0.035723694441500295,true
-0.0719972443635174,0.00744649225657483,true
-0.35117455199752723,0.04366561737848468,true
-0.2248362300559258,0.017357407820388172,true
-0.21188201475122992,0.016278203001288932,true
-0.2017607713497508,0.015557466059993568,true
-0.2134739654166573,0.016797474476436404,true
-0.02210907159800335,-0.000824568090504213,true
-0.3307341750030346,0.04070198955134624,true
-0.34534660598185196,0.04324983038196334,true
-0.23912772841084273,0.025612548363231357,true
-0.24571503525217098,0.023093478017446115,true
-0.23951380655259735,0.022105525620879488,true
-0.23311198381163545,0.021756100602627188,true
-0.230218805007261,0.021544017903566554,true
-0.09604048534335596,0.002043633243495272,true
-0.09057652315198828,0.0011654520850501345,true
-0.08802127724996878,0.0010229564023796767,true
-0.0756355832391119,0.00029554362091464663,true
-0.10237611348820241,0.00612070810177158,true
-0.10281812914554256,0.007604173845613411,true
-0.09065180294266639,0.00643104966996604,true
-0.07575764728374057,0.005717457851949442,true
-0.09973131688968528,0.0026656778393829503,true
-0.0443069174356836,-0.000727368299435302,true
-0.041066427907995195,-0.0008654664067913043,true
-0.04870121361032875,-0.00036452980433269826,true
-0.05390590977784904,-0.0014454549845367426,true
-0.04525136795954976,-0.0018276378482791848,true
-0.038966566943598346,-0.002092801685358442,true
-0.08330226511744032,0.00580051481263597,true
-0.07956474788287038,0.005451454312011805,true
-0.09506385904399461,0.0067935680257077465,true
-0.0733514085623388,0.00546257817094545,true
-0.03061681131935967,-0.00359684762644334,true
-0.04912797567433502,-0.0010301421326268777,true
-0.05841986880386074,-0.00039941332102683656,true
-0.05413027534540116,0.0005736434649787694,true
-0.12392787769041869,0.00907966914672121,true
-0.9264411071693386,0.10882873337127719,true
-0.9443115704057753,0.11251999390239702,true
-0.2666962576236629,0.019071583091431008,true
-0.24043087379049133,0.017273325990756268,true
-0.22716457502771226,0.016132601063427225,true
-0.23203941766564917,0.016449718362461806,true
-0.27795664954020183,0.018681325678456064,true
-0.3000202062293005,0.020118500146304535,true
-0.3206247311248769,0.022740053474068322,true
-0.22945615989770984,0.019659352358488844,true
-0.2410207061601909,0.02098679434541948,true
-0.13297748272296406,0.00720687909433408,true
-0.18351157940217777,0.010737808570917166,true
-0.1363874473043074,0.008156321977877507,true
-0.268723162788163,0.016770102924972708,true
-0.23449912371057213,0.01487307751274617,true
-0.279146765899113,0.01763547874925668,true
0.06102044578919785,-0.00684866648238517,true
-0.10550973013167386,0.007194774976581359,true
-0.10380711836998757,0.006597097169238307,true
-0.08312146019185751,0.004873111544491997,true
-0.12863496806134778,0.0073420170423687,true
-0.1031269730204698,0.006784301206876562,true
-0.09112850011100582,0.004936980917640896,true
-0.11053364083274886,0.006629246116971941,true
-0.24342951603184626,0.021062997053132984,true
-0.22944935854100346,0.01975837010047034,true
-0.23928771578977848,0.02065058411298213,true
-0.11080739529169015,0.007153583499338342,true
0.1417880204534152,-0.010401968670148636,true
0.13904461017077963,-0.009689409507996452,true
0.1014972463764594,-0.006833424901338219,true
-0.15034541697131865,0.01163683544625816,true
-0.14215817192229163,0.01042829445225182,true
-0.11405656574807421,0.009080719639410924,true
-0.061169316395694784,0.0004678950675919783,true
-0.07677816322136155,0.0031031332297849195,true
-0.13380257049636235,0.007404647706021379,true
-0.1395822062906087,0.007709969171013639,true
-0.2819509823328462,0.025692938675266095,true
-0.2534737257594314,0.02316069326240074,true
-0.26166680834877454,0.023549207611859406,true
-0.25568203845871074,0.023257509229585777,true
-0.23673764474249204,0.020541064177113655,true
-0.25584759547554237,0.023508069438061344,true
-0.23463586167782835,0.020706195292041783,true
-0.19213387246941793,0.018867297358492463,true
-0.19630966169849073,0.020895465950533064,true
-0.19757281058631393,0.020061813069911186,true
-0.1808245068102199,0.018957904783721218,true
-0.0789809048735497,0.0033749356626977065,true
-0.08523451630232581,0.006461507419499392,true
-0.07828480893569645,0.006496471080472872,true
-0.0645055281807192,0.005482489828675061,true
-0.15169099580800105,0.00916472423498169,true
-0.13431932582434314,0.008806466236499964,true
-0.14049082911136135,0.009518350127365502,true
-0.14513533488345698,0.01048451363993733,true
-0.2552391723343441,0.020318697729827792,true
-0.23758430627148597,0.01984080664572737,true
-0.23626591805641795,0.01945454296848826,true
-0.9801844119541145,0.10144529464252645,true
-1.0190827113886343,0.10535095777951413,true
-0.9517057853369808,0.09785375595848272,true
-0.2481629015275939,0.021744969917046875,true
-0.26644896718936684,0.02469504839259801,true
-0.2547237848399384,0.023280977582821938,true
-0.2533159065921018,0.021033770989558796,true
-0.25153753951476854,0.02213983323393065,true
-0.2530526355927296,0.02264125026164207,true
-0.903732678229048,0.10664729738312323,true
-0.9415088321791041,0.11218780988294692,true
-0.9466032328854235,0.11286161908505452,true
-0.24171576391309357,0.020547526899697077,true
-0.25392044413379167,0.023306935780432726,true
-0.26233755625901667,0.024040174876332077,true
-0.2586184403561529,0.02382793362511982,true
-0.5718458534551829,0.02178437924217822,true
-0.23386635017143875,0.026714418132066896,true
-0.20288642937499113,0.02305158232753297,true
-0.20794509441243958,0.02341658209754666,true
-0.27973934579189264,0.015964463311910308,true
-0.23789323970862952,0.0138170176323156,true
-0.22485270683976588,0.012598190372137108,true
-0.24217985174976486,0.014309941563568376,true
-0.2003080413531323,0.015473753278919568,true
-0.17359508653803624,0.012327588382411603,true
-0.16260543268362904,0.010710261731373325,true
-0.17970672904756146,0.012947307507944292,true
-0.17326705311932122,0.014034042305053295,true
-0.17408120232451274,0.01421459397289597,true
-0.1933809927476965,0.016687965865106118,true
-0.19877798417438264,0.017610948221710894,true
-0.2067077652858187,0.01797931686565607,true
-0.21287546164769866,0.019329449280719696,true
-0.2345669152461357,0.019564706905172854,true
-0.23370128461802386,0.01940172747827874,true
-0.24354613438291517,0.020837309172193296,true
-0.10560386468842231,0.008452180864659663,true
-0.09664204652760977,0.009426891919607445,true
-0.10591213242809605,0.01052019108641163,true
-0.13962272274913778,0.005263964289171259,true
-0.09100495455078639,0.002832739981182303,true
-0.09497331047068813,0.004053049129167666,true
-0.11773029536218693,0.005837631432770593,true
-0.2707280081861214,0.02311905850940402,true
-0.26171304164028697,0.021881738379113613,true
-0.28358169898842867,0.017460715168954102,true
-0.3100297857714275,0.02017627382928952,true
-0.2858903107917876,0.018112913501911007,true
-0.30038215132774204,0.019218338689579992,true
-0.24649917782154196,0.019996988031688857,true
-0.2067271940140447,0.016372043960060464,true
-0.22536882934675018,0.018405237411502844,true
-0.019328522976061135,8.099389000874174e-06,true
-0.04583346629295615,0.0013392025718751525,true
-0.08627026496199686,0.004030856966769088,true
-0.06320517096896294,0.004828401405290988,true
-0.02052019641772207,0.0009866063343939267,true
-0.08507643337924742,0.0063172831626007245,true
-0.012010482443437498,0.0009149391658881678,true
0.013740491331942217,-0.0002746334817578244,true
-0.014223365628258211,-7.976972266887303e-05,true
-0.015832448776306185,-0.0005636331271505757,true
-0.07996969373242424,0.002226584176150459,true
-0.06318969315017975,0.0024636175783325012,true
-0.06829941050920196,0.0034324459950219807,true
-0.16163255164577195,0.016114754694752025,true
-0.13542090819980768,0.012850428045786393,true
-0.13402936432142165,0.01240559550458592,true
-0.06706614418984314,0.003242699206182146,true
-0.008669223950002358,-0.00043254939591534994,true
-0.07416071646922084,0.004967641699717421,true
-0.18807314969711675,0.014084114256000365,true
-0.09265686078537172,0.004603738141147069,true
-0.10211836888320258,0.005582736960707251,true
-0.10512838638180966,0.005875033912887129,true
-0.25087343490146086,0.020729648447424042,true
-0.2581792277378313,0.021435831986121437,true
-0.2701638711223503,0.02297964945476178,true
-0.08902834787433744,0.004005427091135438,true
-0.033831287217963246,-0.0004937369648541565,true
-0.038004583567676886,0.00011907194697973258,true
-0.035902666249077786,0.00011985477154421303,true
-0.20237545288975156,0.01183565029031072,true
-0.20269733876731855,0.011375685917179048,true
-0.19867372724433208,0.010881168120626806,true
-0.1514137200340634,0.00613976248661645,true
-0.14573389385827873,0.005338929487065949,true
-0.13874489271849177,0.0048818864752324595,true
-0.20066226699381495,0.019129885168824638,true
-0.1949228338863368,0.018074619608455557,true
-0.18589380662186206,0.01648297892053454,true
-0.17571789240740054,0.01507650574724156,true
-0.17746279902700712,0.01466322667898977,true
-0.1612658225007968,0.01394333924544943,true
-0.16563466426730766,0.013827219378504601,true
-0.16229176735405937,0.013242500909464598,true
-0.2006794028226372,0.01911655426227787,true
-0.20558151770065058,0.01861800205208057,true
-0.20537555579557965,0.018338201592090212,true
-0.21349510771051838,0.01926848659489695,true
-0.07659221800634064,0.004418706763042856,true
-0.06145763665438031,0.0027784546612654357,true
-0.060257854216854145,0.002462615794675601,true
-0.15526081240359368,0.012826693962443788,true
-0.16128558282374272,0.013524064890843051,true
-0.16095093094755453,0.013462493628644864,true
-0.08716435355910679,0.005748667542647338,true
-0.09356260471627642,0.006140283464008506,true
-0.09754497170655185,0.006045582430585748,true
-0.08315557456800282,0.006303473173471876,true
-0.07844242379455002,0.004741704580180096,true
-0.05413866322719407,0.0023281461160137118,true
-0.06582451082024787,0.0031149357392220795,true
-0.10619737505017679,0.0078103083482763454,true
-0.10697734724161678,0.006939312534219798,true
-0.11597347601857899,0.008035004193867663,true
-0.09948247882261063,0.005811077412434788,true
-0.02411643272169206,-0.002779348155337825,true
0.026348669841651295,-0.00878022789619386,true
-0.031184604687191086,-0.002392539578220017,true
-0.19275945747497447,0.01644772409143752,true
-0.21937281418709642,0.01836991346365816,true
-0.213055419862336,0.018114000442388735,true
-0.21821569923101747,0.018183110579504624,true
-0.04020935719881735,-0.002989842868962517,true
0.0027786417927437856,-0.007639560381899235,true
0.005730944086632994,-0.007454248101170147,true
-0.09958976977085321,0.00320629895111995,true
-0.11588773734358404,0.0038368435405065245,true
-0.08016977757110944,-0.00032044148353847866,true
-0.13149206930126167,0.00500639311641032,true
-0.10757363166215017,0.0032004353136094246,true
-0.033454821164001,0.004218915187835299,true
-0.02302525366825159,0.0006887262407654351,true
-0.02633553226998353,0.0012691353330182781,true
0.1361401613504809,-0.018238286980054502,true
-0.010728750194315961,-0.005497647233127791,true
-0.005155305824009027,-0.006055927606889255,true
-0.03919356759684145,-0.0017122006872196923,true
-0.21073220626732103,0.01927966413674584,true
-0.19739143071485632,0.019189308496207175,true
-0.195685734001656,0.018650565601458297,true
-0.20765429978124694,0.02114583779688084,true
-0.1468450282006244,0.01490938446997666,true
-0.13104985089016574,0.013188308420934568,true
-1.068350548507883,0.13168735609804283,true
-0.1393686542480177,0.014133602976522757,true
-0.05599234928970498,0.000471687638881552,true
-0.10154340080460855,0.0043545236586732365,true
-0.05302011145082974,-0.0013155003904585976,true
-0.058044013678870465,0.0012392153821782327,true
-0.01457188962974687,0.002149980668365973,true
-0.018448035082658798,0.0005352187860445043,true
-0.01811402084217173,0.0007946801189508594,true
-0.016776624235344095,0.00021388633742647212,true
-0.24015494661716685,0.021902084651613692,true
-0.21399828989992353,0.019529192239472137,true
-0.2051757464783054,0.01872990964611152,true
-0.270228132755308,0.023275792572337087,true
-0.22495717110981006,0.018861998899150034,true
-0.22794290145149265,0.019728337997476062,true
-0.22151950681668975,0.019022368363387387,true
-0.22645176497729502,0.019662775403300508,true
-0.9659245572882948,0.10577993123137702,true
-0.9387191188257813,0.10637699741697834,true
-1.007501177483054,0.10463034546477208,true
-0.0688560797776373,9.274431972631711e-05,true
-0.04010414940257212,-0.0006497468424264408,true
-0.02612253811475329,-0.0026142293210193665,true
-0.04641579100369719,-0.00035547777909267567,true
-0.044868249121867265,-0.0005466110645192743,true
-0.22573392463748665,0.011306710878406779,true
-0.2349935649779138,0.011467404500137768,true
-0.23917981911676112,0.011845640778862566,true
-0.24470613069093117,0.021508805892292995,true
-0.2089864545052621,0.01826199409385949,true
-0.2225884517655985,0.020108266376757,true
-0.23497908220760622,0.02087430977517159,true
-0.9855296825953165,0.10095127694528802,true
-0.1548379913750757,0.014612867017248538,true
-0.15804440148825816,0.015074267397489637,true
-0.15805365286426032,0.014933449489455825,true
-0.3257643214648417,0.01785604319183045,true
-0.15204544027256617,0.006259648883246163,true
-0.11992988252463943,0.003271917179839129,true
-0.039927819804422615,-0.000576868714368902,true
-0.21242072463599504,0.01885799719264938,true
-0.21070899725007752,0.018462096869643525,true
-0.19763060156584822,0.016879363348264224,true
-0.2077197967691543,0.01785233664260038,true
-0.3063459068245066,0.018644906842778232,true
-0.2816893138711871,0.016043355409508533,true
-0.2669256180984537,0.014652599295207312,true
-0.2804935757119903,0.016575115619738432,true
-0.264362152915678,0.023005764133324825,true
-0.2633797399419011,0.022626484543777192,true
-0.2604186973158673,0.022561799109920476,true
-0.25133911605827985,0.021307378736233194,true
-0.2478210679054491,0.02121645335599448,true
-0.26041037427980684,0.021787528876741857,true
-0.2523214433463552,0.021287671469053967,true
-0.2497173162596945,0.021115873733197076,true
-0.2519887055915221,0.02025526678765675,true
-0.2624835257613428,0.021386363652892756,true
-0.24416951713769963,0.019327781756032884,true
-0.24907056289390916,0.022833537075894438,true
-0.24091738112906713,0.02198200784131743,true
-0.24130653015668146,0.022022742064961572,true
-0.24843428756041097,0.02265093915760494,true
-0.10081392322210492,0.004743344193573604,true
-0.13435922986594662,0.009408161806386294,true
-0.13259433106591645,0.009117964737294156,true
-0.10863844774178943,0.007775302544641299,true
-0.24318265911341486,0.02089983507169077,true
-0.2515315607832408,0.022281552364278978,true
-0.2539623853394919,0.022639013745039474,true
-0.23861770101649793,0.021080392008026992,true
-0.2504900465817592,0.015277928028825844,true
-0.15809756367332128,0.009055686964894902,true
-0.1595828385320176,0.008604767381128699,true
-0.1706884319413874,0.009743564872028203,true
-0.045999466065421935,-3.615819210446049e-05,true
-0.052075442059699384,0.0017688197970235546,true
-0.054952608705058026,0.0024054719936419285,true
-0.05677787701760806,0.0024200020503685393,true
-0.05622068966978122,0.0024359818732948937,true
0.043514374470850825,-0.004514962823974724,true
0.047344697009605974,-0.005545783126169387,true
0.09079469851555877,-0.008103283437564363,true
-0.13506320921398218,0.01402082957320289,true
-0.1428099835214821,0.01422322834762636,true
-0.13111285948426066,0.013350392323463377,true
-0.14564369301819613,0.015504875985945065,true
-0.17526818223185248,0.014003796716198186,true
-0.18490602876432605,0.01512502696157006,true
-0.17470917445512368,0.013829519627869376,true
-0.2563349456516071,0.015787314373595897,true
-0.2567120032029686,0.015747625544473447,true
-0.24305754534484447,0.014505089902970534,true
-0.17722607817866698,0.010802569366997108,true
0.010791920252164022,0.0013860556421676808,true
-0.06878009012709452,0.006138528323088234,true
-0.06972108878894723,0.006257813077950383,true
-0.10804049927211978,0.00685277999716568,true
-0.15045557880287608,0.010169845541646017,true
-0.2894268003733962,0.019156453571766437,true
-0.22830094879207685,0.014740108398549511,true
-0.10351189073370826,0.005601086296478989,true
-0.027549606123056458,0.00020091243544518092,true
-0.15340050413227502,0.009180456622662175,true
-0.18132215000265695,0.011916970606282513,true
-0.08323315723527958,0.0012613123640901648,true
-0.025786026951473362,-0.003272642848738787,true
-0.01578581011258451,-0.004551141153966504,true
-0.034840126678008065,-0.0034684437547147264,true
-0.04103682146896204,0.0030193401871884476,true
-0.05762651950544684,0.005039476928247872,true
-0.05961375176777017,0.005132509992370887,true
-0.05848718118409235,0.004642769553914995,true
-0.24351576685114096,0.017019845378176513,true
-0.2330731983765295,0.016577478679299627,true
-0.2327982570803333,0.01658314930793432,true
-0.23702412545405904,0.016982681030614177,true
-0.10800009752617346,0.007961287467650499,true
-0.09221883045074164,0.007821812467454718,true
-0.10027621629013916,0.008344984439721693,true
-0.09931754036321383,0.00869556581051852,true
-0.22906087538530318,0.018628034465548376,true
-0.21222104604389247,0.01835287356161645,true
-0.2181399407059328,0.018896559381216444,true
-0.23127836641960098,0.020418474535614396,true
-0.1749521589934031,0.038496451689190636,true
-0.2901755228090892,0.020428212012213717,true
-0.29844228563442177,0.02170067577487273,true
-0.30521557102170593,0.022320241815773433,true
-0.0895784447394905,0.00572483771019968,true
-0.9007323485689915,0.11416609111691306,true
-0.9137071426016656,0.11509779816174043,true
-0.8637177533542792,0.11180004726667539,true
-0.2619197312446415,0.0161223427513411,true
-0.1395636459014491,0.006807612219019182,true
-0.3297939769096523,0.020778360676885876,true
-0.1399628439117786,0.007204413071124842,true
-2.0254102905252234,0.21588546941124623,true
-2.181721347480532,0.22805245507466423,true
-0.20347175745382717,0.018201611125508964,true
-1.8412791313987062,0.20396873041944868,true
-0.26964607862476564,0.019738500291555182,true
-0.25234215280100014,0.018416970051380155,true
-0.24581822388284102,0.01806314943690241,true
-0.2473294460309643,0.018415538608504207,true
-0.29262306388859405,0.02050149832890419,true
-0.9244099945786914,0.09328837100674287,true
-0.9041547099184155,0.09219236215550784,true
-0.8983436084820198,0.09101615076818273,true
-0.009888696370310868,-0.003957301464417334,true
0.0029652391138732526,-0.0036502394386384238,true
-0.0028599710904595455,-0.00318731949369222,true
-0.005676534985671333,-0.0025515245616911167,true
-0.12066524885809571,0.004727331603668186,true
-0.11425578985864449,0.005414192862197194,true
-0.12051746251771811,0.005930208188131045,true
-0.13267359694554814,0.007224091523389334,true
-0.2541570778959896,0.01824888701601418,true
-0.23866241595972304,0.01824107921744806,true
-0.23925583601771971,0.018278872338507127,true
-0.23785007212065867,0.018268858891644972,true
-0.23269752281529432,0.017868068892446236,true
-0.00642896575885854,-0.002064828762643453,true
-0.017639646099782746,-0.0008840493135003347,true
-0.012706152276728,-0.0014922416229944183,true
0.1469977249092439,-0.019523335164055397,true
0.14015694433924453,-0.019475857760193338,true
0.14152858749237296,-0.018367633923847868,true
-0.26470285842310326,0.02170583223251333,true
-0.22158570587733162,0.016437566862224993,true
-0.20821055604687633,0.014870184052103039,true
-0.20245239091825162,0.014569485594410389,true
-0.22490395951367448,0.01640153265144545,true
-0.21722856391759193,0.01584115431338414,true
-0.07576032105360098,0.001937448527909523,true
-0.0029318217540882374,-0.0040744913537634694,true
-0.022060206903831703,-0.0018430645722987346,true
-0.11825520187700544,0.004904292426783502,true
-0.09716607752567419,0.005361370361442214,true
-0.06768552030389885,0.0030538279876707805,true
-0.09644070460050935,0.004755563549406608,true
-0.26509033945257854,0.01790776590228954,true
-0.19753906288187373,0.01133748878603269,true
-0.1998442782278409,0.011000206198403875,true
-0.22160325765648448,0.014156404894683186,true
-0.13668633672056418,0.007845214000933631,true
-0.07623508501984666,0.0018741164906315236,true
-0.060627681910481845,0.0009399590168330876,true
-0.05460307835416667,0.0001341764061737541,true
0.03790205576087691,-0.008365579105980417,true
0.05083547679076561,-0.009165337970309002,true
0.07119499360426429,-0.011857098033500199,true
-0.08072578738276814,-0.0010093365771906074,true
-0.9050960892787974,0.10316929965092145,true
-0.9954687542626671,0.1032471447828113,true
-0.9255633979926513,0.10566458115765591,true
-0.9122677641837253,0.10486620480271658,true
-0.19286060692045948,0.01336999968132288,true
-0.11919685707530536,0.005479854070597513,true
-0.1302568121205625,0.007049285787610493,true
-0.12786956558091322,0.007315582838078601,true
-0.24040504249800998,0.016232150989332006,true
-0.1979921173761543,0.011500007879915536,true
-0.22796052683334478,0.014251433452585359,true
-0.22843735043255387,0.014510394915896355,true
0.0218935371051594,-0.005924667765180414,true
0.02572161849684762,-0.006289053897399886,true
0.027899554135407012,-0.005952500340976774,true
0.009539996414887453,-0.005079991675234326,true
0.011942338899049831,-0.00626153222426961,true
0.00954745402680457,-0.0057880330737152125,true
0.027382963659934978,-0.007405012803801618,true
-0.03671869922613169,5.090631357918679e-05,true
-0.07350569899946224,0.0035971865937875283,true
-0.06965015368473759,0.0033793246991555767,true
-0.05438140514379208,0.00201054308648866,true
-0.02062352913371157,-0.004196714146803282,true
-0.050388254951751366,-0.0015681480323859187,true
-0.06149672600381906,0.00021814469345460274,true
-0.009144509632317055,-0.004703562305228268,true
0.012672975036480905,-0.005686818307195758,true
0.017831538594680785,-0.00524522210850259,true
0.013676750268783566,-0.0051276503166213724,true
-0.1365988774145408,0.0075003244519412995,true
-0.13687330778120121,0.008162156615526502,true
-0.15117157746264698,0.010126740803425197,true
-0.0853346816337297,0.0031117317364143457,true
-0.026776808932542417,0.00018448312306857534,true
-0.026287460316136047,-6.753874678058769e-05,true
-0.23371478701641402,0.017937779785944748,true
-0.23243220279772991,0.01881316087370654,true
-0.23739885838758013,0.019420973588137082,true
-0.21762560553397647,0.01693369589888729,true
-0.07485261542979038,0.003693167031461622,true
-0.07629799719327668,0.0034267474408433557,true
-0.057354698662318127,0.0022466364518278284,true
-0.06403459033940084,0.0025689886032974132,true
-0.12525954195190292,0.010868676443019504,true
-0.1175703323584687,0.01016520830230714,true
-0.1167935074542985,0.01081400885699988,true
-0.325585111221955,-0.008266344267995974,true
-0.10084893179522669,0.003954897158147085,true
-0.09628389476747468,0.003456729448875956,true
-0.09621993730518008,0.00350500388571931,true
-1.028708277963497,0.10531297195114295,true
-0.9694546945724055,0.09936613391388804,true
-0.21796878220507754,0.020124275517156558,true
-0.23932930907306826,0.022721406568181002,true
-0.27249828565231926,0.025034865264520527,true
-0.24751062116511025,0.02351955329573656,true
-0.2435744610523236,0.023197241972926705,true
-0.23910091462385463,0.02102216499865308,true
-0.25047501940053807,0.0244325190298965,true
-0.25810329689873723,0.025499450253520663,true
-0.2546356917320862,0.025312164172036036,true
-0.2577220653568746,0.018308485963754242,true
-0.2919682566356735,0.023486641412542808,true
-0.2982824248566692,0.024327991610701052,true
-0.3076300207867746,0.025733876182831898,true
-0.07677373816765831,0.0023464317975616447,true
-0.044429133753673855,0.002047130233386263,true
-0.07066642903656606,0.004394099038698314,true
-0.06468346554155135,0.0037384362418004524,true
-0.33677897861389194,0.019943548217340998,true
-0.33783095909603267,0.02031666699461352,true
-0.32537682741259855,0.018988801737592362,true
-0.34439003742901386,0.02034966939887134,true
-0.33750200077770487,0.02040043280735035,true
0.03695603753549226,-0.003110745939922374,true
-0.05182642431677531,0.0024983635026388853,true
-0.043529538220902886,0.001541112558954616,true
-0.24458803565715903,0.017536967608399123,true
-0.2606718083489975,0.02026176340814849,true
-0.25825621167885726,0.019905195199090134,true
-0.2589696305463748,0.019814329400401447,true
-0.14140498627554177,0.007104595518958416,true
-0.20647248475767177,0.013573674581640965,true
-0.21076526857903166,0.013584153905708315,true
-0.20423494204951675,0.012697307873826287,true
-0.04302641954805975,0.001859097384121003,true
-0.34709671185039703,0.04225115065804751,true
-0.3664911395473185,0.04542238152626547,true
-0.32905112501658706,0.03895756908351311,true
-0.3423825625328506,0.041296584150274436,true
-1.0625908030800315,0.12396122095743664,true
-0.9692035373607825,0.11502706180837946,true
-0.9860494901983334,0.11723867281667494,true
-0.9671464200215725,0.11510114282906306,true
0.03951102009284657,-0.007223283130962821,true
-0.056773680383223835,0.0013191180624200355,true
-0.07127736360586401,0.00281271810778453,true
-0.03251608142528961,-0.001107596706371991,true
-0.05996438964926787,0.0019274051549229218,true
-0.04236355391004265,0.0020692418316381606,true
-0.048834269347961756,0.0026073024677790643,true
-0.13259589301599617,0.008680095872435026,true
-0.10958662621550852,0.00409654853509768,true
-0.16609875724721412,0.009916307126392264,true
-0.16961064581254148,0.009694817178059374,true
-0.1585840959230872,0.012208104602002327,true
-0.25311943906459433,0.020480312015281513,true
-0.247184658875771,0.019283059683670507,true
-0.2526529913262743,0.020176052978714165,true
-0.2510555619872017,0.01986620720929455,true
-0.2851419753795381,0.025725166805217956,true
-0.3076795977266126,0.028217439385607584,true
-0.310804379082938,0.02895091114075938,true
-0.3199733416463181,0.029929315174540977,true
-0.05046216280862803,0.0016182208668124656,true
-0.1689374966771523,0.012508623839249354,true
-0.1448128631774901,0.01043975734441279,true
-0.12358405614793022,0.009472486220284904,true
-0.2773851582464484,0.023404031766428204,true
-0.25276642179768816,0.02026222543189323,true
-0.26155898818364465,0.020692389335651186,true
-0.252692284077755,0.019995140329086697,true
-0.24952807424701595,0.019835390640909493,true
-0.20987990568763326,0.020324427192192636,true
-1.9700805586559809,0.21643490048893832,true
-0.20885149223114363,0.020895731746193573,true
-0.21062135927476544,0.021527785430539924,true
-0.1637746430801268,0.009230573778236474,true
-0.11200309114474338,0.0038106947057903393,true
-0.10823859289034043,0.004357094627864974,true
-0.2538138986615801,0.021044076526794096,true
-0.23826240559729261,0.02071929518527761,true
-0.2517127646033268,0.022528339329206643,true
-0.1021870124519777,0.007200767429330582,true
-0.07405393546502426,0.00639010759720568,true
-0.10361510390896878,0.009064401743886341,true
-0.2652567965418333,0.02314265186643666,true
-0.23282189490494942,0.020178330758939413,true
-0.21567234189302242,0.018075128912863496,true
-0.019294951840032493,-0.0029324245338048643,true
-0.039984752208854335,0.000538765565490984,true
-0.04313165776423533,0.0011669344330305642,true
-0.29532986224245583,0.020118128956612642,true
-0.26989117623922376,0.019199879022250593,true
-0.27926673823003,0.01975918026712592,true
-0.2653211606013113,0.017741304040962483,true
3.315223565647507e-05,-0.0051922679009155925,true
0.017090270070355906,-0.0047601368217799755,true
0.020724788203912548,-0.005219243438277628,true
0.025337950339574533,-0.0050311449565128355,true
-0.27469992160897316,0.024069607782267084,true
-0.2667728325516512,0.023412482115343025,true
-0.25790325542262216,0.022728810351457643,true
-0.2472660318628528,0.021181826359527124,true
-0.23688981509839846,0.02006536829079912,true
-0.23421879456047212,0.020435927928595013,true
-0.22461345657011833,0.019002836239809827,true
-0.2128422450532914,0.017998252773185217,true
-0.241650306578852,0.021811192130429195,true
-0.23769692316124824,0.02170004167311431,true
-0.23383895967558876,0.021116668022706196,true
-0.227798246902168,0.021265512091641875,true
-0.1955038493241703,0.018433753595673272,true
-0.18268884929218587,0.016392447055956265,true
-0.16496714355112418,0.014816781033824049,true
-0.894747040593245,0.08979537824933947,true
-0.9578117683549672,0.09732797778047614,true
-0.968077945545307,0.09866158122981412,true
-0.9556558514692015,0.09817818000321606,true
-0.12704311232309395,0.006521248285927143,true
-0.03401120364992272,0.0011748610793607742,true
-0.11229685271257073,0.007308663458037774,true
-0.021834610234382934,0.0007758991741046023,true
0.029794490498356252,-0.006154047792034413,true
0.06087512953456686,-0.007442153194319581,true
0.05950021684492768,-0.00822839880780938,true
0.038751275461017975,-0.006149972072158047,true
-0.24969413695316534,0.016681925791034113,true
-0.24021724919008025,0.01561986626111149,true
-0.24057765542438436,0.01572759874108258,true
-0.2560946497034018,0.017293120258344376,true
-0.23012093073293127,0.017289747349208108,true
-0.21467452872365134,0.017723363785241454,true
-0.23111803779874251,0.019522637672110453,true
-0.2054330731464118,0.016538011990951243,true
-0.17736562500287212,0.01279923090744882,true
-0.2061199457927676,0.015580630722825263,true
-0.2117273730366689,0.01659277004508143,true
-0.21339468558333463,0.016759460476932705,true
-0.032905065251851884,0.0028265430420453055,true
-0.06558559101393335,0.005162036110523981,true
-0.05428583866848258,0.004013097196030144,true
-0.018705738437996944,0.0017740776946833167,true
0.08061209939312941,-0.01023751725247709,true
0.03544540215912928,-0.006239625845890821,true
-0.0067763390483062125,-0.0024626355110199255,true
-0.10981672564938338,0.0024749669831556076,true
-0.07069941651668854,0.005455554884186878,true
-0.12954533971693483,0.009694527714801608,true
-0.20197741831051563,0.014168716669331297,true
-0.1254228742878527,0.009582265535271979,true
-0.3305505554999457,0.033297440219822505,true
-0.2766733707540402,0.028115115754287046,true
-0.2744424716603313,0.028021543941481986,true
-0.2715075058688101,0.024241736285248443,true
-0.2712291841552653,0.02322784952407044,true
-0.28463878486283134,0.02475963067339866,true
-0.30188662176955994,0.02705451680881661,true
-0.26063130761628683,0.02254028209759784,true
-0.2848048575477137,0.025460966977570665,true
-0.158937711234323,0.01037338544808309,true
-0.14091808009121198,0.010159093489273269,true
-0.1291005631953247,0.009093365110896742,true
-0.13558104091060275,0.009033084037021459,true
-0.14610795106141172,0.010837616236468776,true
-0.14858063663221177,0.010681687224828013,true
-0.1556798475113056,0.012025671008411766,true
-0.1544321714780431,0.011730149605150654,true
-0.29472434870850994,0.026237404095902597,true
-0.30550145259051675,0.0270671305556697,true
-0.3110384771200292,0.02759337579120591,true
-0.27117987345889105,0.02059385721886864,true
-0.28017950459210583,0.022572746708644828,true
-0.28593194889071205,0.02309949656275463,true
-0.28799766784640235,0.0233885096810117,true
-0.27434884172732776,0.02161187515991811,true
-0.2536407757762277,0.02065036278777415,true
-0.2554437175207456,0.02180421993487195,true
-0.2636821285891324,0.022748299336613632,true
-0.26227586683566106,0.022387665600732506,true
-0.023971508361134375,0.0012900699252964345,true
-0.049747124942512766,0.003735067136398096,true
-0.038129825859644195,0.002664832844457489,true
-0.031411662461373835,0.0022619902893772567,true
-0.19429089000374056,0.010808875715475084,true
-0.1042411945580407,0.006583302543126772,true
-0.07815284724925153,0.004634659590089504,true
-0.1126376316634895,0.007267197391412947,true
-0.1134187280590302,0.004986742042620701,true
-0.18473969252223288,0.010678504472055213,true
-0.15802397063719398,0.009020335603573182,true
-0.16862578467310918,0.009475245933095282,true
-0.22902051975124915,0.018163354018817843,true
-0.23277682600537597,0.018274310801160605,true
-0.2462143799385359,0.019530039696512493,true
-0.2562889481003787,0.020597360996695936,true
-0.11649460116420784,0.003893946293332104,true
-0.13833383287815315,0.005760946387593724,true
-0.13518848558906615,0.005259172437788111,true
-0.10699819412110645,0.0032273097962585776,true
-0.20860080366053246,0.014987275766065566,true
-0.19061937603400203,0.014925108686592775,true
-0.18486946012804606,0.015058020505985342,true
-0.16253997970592593,0.012371123661561019,true
-0.05926313623215873,0.002935600146027506,true
-0.0601208957440591,0.0036670285887828863,true
-0.043527132883696584,0.002002540046444075,true
-0.05535783596860444,0.0029328768830615137,true
-0.2584009608764668,0.0215803764179786,true
-0.2530943344523098,0.021580420520404514,true
-0.25642729934584807,0.022136278191654667,true
-0.2536141048508944,0.02156022032438719,true
-0.13228343394411124,0.009053480636373297,true
-0.07900097170234033,0.005511279411085514,true
-0.0977674177349317,0.006833109482718265,true
-0.2507445383129461,0.02018019426191213,true
-0.27604095520158056,0.024553735622505096,true
-0.28026114618865305,0.025215425454671307,true
-0.27892703946927777,0.025399463835176682,true
-0.2778606888480588,0.02473473973914493,true
-0.19269244292205312,0.011157971635747707,true
-0.17062200418615925,0.008617463339361836,true
-0.17839280399296964,0.009635908791058426,true
-0.17150993935565428,0.008703100932170825,true
-0.2826828804509822,0.02501809671359518,true
-0.287866556612862,0.026632817012526684,true
-0.3008952606854103,0.02792503218177079,true
-0.31348200323652353,0.029393291641974108,true
-0.01553062013151807,-0.09382203671408837,false
-0.015543971562789527,-0.09390269405193633,false
-0.015631703402062103,-0.09443269090818072,false
-0.01570071890282665,-0.09484962048290069,false
-0.015731317000625467,-0.09503446666616633,false
-0.0157692944138349,-0.09526389203529338,false
-0.015873954153823533,-0.0958961520406596,false
-0.016206070366326708,-0.09790249945106702,false
-0.03802562820094513,-0.09442535556920312,false
-0.016713579802498213,-0.10408840350982639,false
-0.2608413593037839,-0.05567269000000041,false
-0.276674556472976,-0.05567269000000037,false
-0.280392571564131,-0.05567269000000041,false
-0.29275160492112234,-0.050749243331800954,false
-0.2927516049211224,-0.0509961144877108,false
-0.2927516049211224,-0.051043823743298106,false
-0.3194765053674922,-0.05567269000000044,false
-0.6634369821555843,-0.000424291647829797,false
-1.897731605891523,-0.05567269000000041,false
-2.4504545470821,0.027776027528895075,false
-0.8844022640244833,0.04568554999999952,false
-0.8859855641787291,0.04568554999999952,false
-1.3378597560560244,0.04568554985628216,false
-1.3520848496608264,0.04793961169562369,false
-0.38751792757838766,-0.0341362900000004,false
-0.3875192073097628,-0.0341362900000004,false
-0.4284214128899403,-0.03413628988101898,false
-0.5107707206931725,-0.03134727656098635,false
-0.5299912210559646,-0.031202639916575625,false
-1.0354097587684876,0.06986749999999953,false
-1.0433587938407487,0.06986749999999953,false
-1.0539649661990231,0.06986749999999912,false
-1.0701452024284477,0.06986749999999953,false
-1.2762793728799897,0.06986749999999953,false
-2.5082061296834706,0.0698674999999993,false
-2.5165663040053614,0.06986749999999953,false
-0.4482848832878822,-0.024362990000000417,false
-0.4611559865721221,-0.024362990000000417,false
-0.554233715633736,-0.024362990000000417,false
-0.568428581198489,-0.0220817740543558,false
-0.5725517804840715,-0.024362990000000417,false
-1.464980392368597,0.13791809999999982,false
-1.4650250471730768,0.13792514343819773,false
-1.4675054202593447,0.13792514343819762,false
-1.4749864435429414,0.13791809999999982,false
-1.4751945179546102,0.13791809999999982,false
-1.5021762092665703,0.13791809999999982,false
-1.5208424361896506,0.14085500415911065,false
-1.552434811422743,0.1408550041591106,false
-0.4767084354082639,-0.01980255000000053,false
-0.47915050839016027,-0.01980255000000053,false
-0.582610607720989,-0.01980255000000053,false
-1.6904316111080329,0.17341189999999984,false
-1.6929831455515836,0.17341189999999984,false
-1.7025571085716504,0.17341189999999984,false
-1.7027475124937306,0.17341189999999984,false
-1.7347976605694884,0.17341189999999984,false
-2.6,0.30401500199278997,false
-0.48380394356826684,-0.018662940000000454,false
-0.4838114028692979,-0.018662940000000423,false
-0.4851120015915295,-0.018662940000000447,false
-0.6068635319789855,0.0009021319803873672,false
-0.6068635319806521,0.0009021319806521069,false
0.12226558749929328,-0.11560138049929329,false
0.12237706881775223,-0.11571286181775227,false
0.12479414402281752,-0.11812993702281752,false
0.12996158788246115,-0.12329738088246114,false
0.16323814694639627,-0.1565739399463963,false
0.21760601660861478,-0.1622652492300467,false
0.2258424982699443,-0.21917829126994426,false
0.22841648573979423,-0.22175227873979428,false
0.23039576434322595,-0.22373155734322595,false
0.5554006898536905,-0.3386958370232117,false
-1.7946575478796727,0.1896903,false
-1.796650525848968,0.1896903,false
-1.7971564875403239,0.1896903,false
-1.8038691275884982,0.1896903,false
-1.8042216460241278,0.1896903,false
-1.9769626519181065,0.18969030000000003,false
-2.0100898503386935,0.1896903,false
-2.111460834001938,0.1896903,false
-2.461247459295609,0.1896903,false
-0.50401100966401,-0.01751529000000073,false
0.22004591766241366,-0.13103499766241367,false
0.220253067595102,-0.13124214759510197,false
0.22068225527325158,-0.1316713352732516,false
0.23416016591129862,-0.14514924591129857,false
0.2397945235984955,-0.1479759872453661,false
-1.8471940903401527,0.1978295,false
-1.8472258869472784,0.1978295,false
-1.847286675110308,0.1978295,false
-1.8558235085845722,0.1978295,false
-1.8833407135125064,0.1978295,false
-1.8965899735132226,0.19782950000000002,false
-1.955778947118755,0.2069287867907665,false
-2.0077953725201447,0.20985177309309613,false
0.24199300215775887,-0.13474320215775884,false
0.24211430798039424,-0.13486450798039423,false
0.24233157366938185,-0.13508177366938184,false
0.25242625594379187,-0.14517645594379186,false
0.25524548946069947,-0.1479956894606995,false
0.25669183073428914,-0.1494420307342892,false
0.28816613697769144,-0.17781356967175918,false
-1.873578569271603,0.20189909999999994,false
-1.9513526271357176,0.2138686,false
-1.9554684621155474,0.2138686,false
-1.958692665637268,0.2138686,false
-2.254361347939897,0.2138686,false
-2.283659680817401,0.2182617763369734,false
-1.8867577374331392,0.2039339,false
-1.898066545916825,0.2039339,false
-1.9052056971723266,0.2039339,false
-1.9388653037699646,0.2039339,false
-1.93898193302502,0.2039339,false
-1.9555004581762665,0.2039339,false
-1.9563288341149732,0.2039339,false
-2.5603703712498582,0.20393389999999992,false
-2.582031625836541,0.20393390014459015,false
-1.9644188984751598,0.21587699999999987,false
-1.9645076825390402,0.21587699999999987,false
-1.965975303758284,0.21587699999999987,false
-1.9790694268525,0.21587699999999987,false
-1.9818798006140503,0.21587699999999987,false
-2.0134493104948366,0.22113774135254072,false
-2.0172540851147036,0.21587699999999987,false
-2.017254037212496,0.2158769951744217,false
-2.070902444545174,0.22405865634390268,false
-2.1047686923273865,0.22405865634390262,false
-0.5150516926416071,-0.013686190000000487,false
-0.5151928262710301,-0.013686190000000487,false
-0.5167411506745971,-0.013686190000000487,false
-0.5207157051631403,-0.013686190000000487,false
-0.5235891595189794,-0.013287825657207597,false
0.25202191908944216,-0.13689471908944212,false
0.25238967261574496,-0.137262472615745,false
0.25684469587705105,-0.1417174958770511,false
0.25928591044134963,-0.14415871044134967,false
0.2594228259732153,-0.14429562597321535,false
-1.8933131994541275,0.2049513,false
-1.893320183313064,0.2049513,false
-1.8933516256009517,0.2049513,false
-1.8933601065718195,0.2049513,false
-1.8934373560446076,0.2049513,false
-1.893853195913945,0.2049513,false
-1.8947304834060321,0.2049513,false
-1.896904331412756,0.2049504982794751,false
-1.9710535924230044,0.2168812,false
-1.971088561940118,0.2168812,false
-1.971115832491079,0.2168812,false
-1.971272781898835,0.2168812,false
-1.9752987020206185,0.2168812,false
-1.9752987391013108,0.21688169592738787,false
-1.9828803424643673,0.21688120426661223,false
-2.333546706165022,0.2168812,false
-2.037545669620676,0.2270556,false
-2.066697729800692,0.2270556,false
-2.562247290390644,0.22705560000000002,false
-2.579876054093452,0.22705560000000002,false
-2.57997523042475,0.22707008689923655,false
-3.1145796565003256,0.23256479102048588,false
-0.5279027890504906,-0.01157246000000045,false
-0.5470466715368782,-0.01157246000000045,false
-0.5619883001043653,-0.008198661802772511,false
0.25410218321854083,-0.13658768321854076,false
0.25445939031246856,-0.1369448903124685,false
0.25587729165068696,-0.13836279165068702,false
0.25633959216263,-0.13882509216263,false
0.2589868080114419,-0.1414723072953303,false
0.2605728127600262,-0.1430583127600262,false
0.2607676752109551,-0.14325317521095515,false
0.2618207195061748,-0.14430621950617484,false
0.2631248712860659,-0.14561037128606594,false
0.26352454474617015,-0.14601004474617013,false
-0.5382043609674475,-0.009987210000000024,false
-0.5491369899999999,-0.009987210000000024,false
-1.1040510119845455,0.08083144,false
-1.1065480817368172,0.08083144,false
-1.1198613528459638,0.0829567661573622,false
-1.1253136847041525,0.08083144,false
-1.323356322245744,0.08083144,false
-1.3269490218466693,0.08083144,false
-2.5755560787882548,0.08083144,false
-2.0524036421788154,0.22856129999999975,false
-2.0540577438212906,0.22856129999999977,false
-2.0548638717652006,0.22856129999999975,false
-2.0555619351852283,0.22856129999999975,false
-2.058698385862793,0.22856129999999975,false
-2.134552342796917,0.22856129999999975,false
-2.2571521162926533,0.23020648280996342,false
0.25561535402617896,-0.13690715402617903,false
0.25572553966186906,-0.1370173396618691,false
0.25581148512627994,-0.13710328512628003,false
0.2570310900600231,-0.1383228900600232,false
0.25950072530868673,-0.1407925253086867,false
0.26046055451000505,-0.14175235451000487,false
0.26770016312047396,-0.14899196312047394,false
0.27954053994014083,-0.1608323394739867,false
0.2867201774630662,-0.16364236525480538,false
-0.5453367495323838,-0.008838309000000016,false
-0.5461495317211666,-0.008838309000000016,false
-0.6767717618846154,0.012343259999999981,false
-0.6788988446052465,0.012343259999999981,false
-0.679368308170878,0.012343260643737603,false
-0.6867417938776547,0.012343259999999977,false
-0.8533279001353185,0.012343259999999981,false
-1.1494142256977458,0.08737607,false
-1.154378030520149,0.08737607,false
-1.1558884205175703,0.08737607000000001,false
-1.1575079196987639,0.08737606999999999,false
-1.1613947099576887,0.08737607000000001,false
-1.1681936369645483,0.08737607,false
-1.176819755434134,0.08875097533505207,false
-1.1867620530216867,0.08737607,false
-1.1956142278391044,0.08878622315469577,false
-1.1956142278391042,0.09172203554296889,false
