-0.08666222863647172,0.0030756757079498237,true
-0.09553432547897192,0.0039232957398359775,true
-0.08730935506960785,0.0030611840252681988,true
-0.022137373165424856,-0.0027864187673859453,true
-0.006246483640404199,-0.003989362183637657,true
-0.0002917675762678096,-0.004531327173818073,true
-0.14354408537031693,0.0037780416781389714,true
-0.07813348441522519,-0.004626123624833431,true
-0.07299252390029637,-0.005265997616831636,true
-0.04003285965153927,-0.002739897367759203,true
0.020567365727530595,-0.010603347165283342,true
-0.08310682143743822,0.00538933243115014,true
-0.21167506916671036,0.02071716556833894,true
-0.2081071664855295,0.020376292366723517,true
-0.06388526778578066,0.006219366286233596,true
-0.07072669389971076,0.006771438311122993,true
-0.07160456111083266,0.007131213071123577,true
-0.00038253839557506053,-0.006144753067039807,true
0.008698964479497778,-0.006380824926723178,true
0.010585910004104304,-0.006734492097067751,true
-0.010135875338916356,-0.004521734360916213,true
-0.08389949464062088,0.0024328619474446866,true
-0.09368735892631169,0.004008868935855281,true
-0.09144034099160242,0.0038002240544074,true
-0.0025098534012823193,-0.000625128194984434,true
0.010103329643991271,-0.0022130405601865494,true
-0.06514226981823881,0.00245591641109999,true
-0.0352112980127367,-0.002351627768372083,true
-0.03150991758680258,-0.0026267907101254068,true
-0.07359878394137373,0.0028151145179358406,true
-0.05026273873561404,0.0007108966036388498,true
-0.05224910300870543,0.000572822835598924,true
-0.06947823490297962,-0.009534257641092433,true
-0.16286560226206012,0.003585645989237371,true
-0.17803567732562361,0.004760674678563323,true
-0.18684639804801415,0.0107056257881733,true
-0.18487488958832574,0.010266097429573393,true
-0.18055705490122054,0.009736668118954683,true
-0.18241216077302674,0.013854803771413654,true
-0.18815225443692982,0.01321048080192895,true
-0.17203217767790455,0.011564392545334715,true
-0.17949784113231781,0.01232777305995883,true
-0.17065165169998847,0.017070307690428166,true
-0.16160414536976886,0.0148722621520056,true
-0.15031192893231088,0.013353659452451316,true
-0.14721447615675048,0.0006481271116834109,true
-0.16881017188828354,0.004572795760716689,true
-0.1584080819580748,0.0031624469394471028,true
-0.14989725754682798,0.0024018629678524833,true
-0.18744735411439406,0.011047006944157098,true
-0.21805500534264166,0.014041840004869452,true
-0.20069343162417275,0.012229200177367283,true
-0.19991727230491482,0.011993270117319668,true
-0.06829975132216953,0.003098988990959714,true
-0.06579201321088976,0.001727136301818477,true
-0.06664244830787586,0.0019803449448268923,true
-0.06454018423830996,0.001270179030184393,true
-0.09463016260847298,-0.0020981862581540556,true
-0.11154853794947886,0.0006241335620714439,true
-0.10453430252402644,0.00019267439557946187,true
-0.09449826544698275,-0.0010008363011191623,true
-0.1769827862444462,0.0051560421177649085,true
-0.1773780894557061,0.003688497879007324,true
-0.17458018125844205,0.003781285097487888,true
-0.02923996853234756,-0.002564759822883872,true
-0.05232755492697616,-0.001296999410460506,true
-0.047137199239786765,-0.002119269692102632,true
-0.03647437225823624,-0.002448702203661418,true
-0.03988237586622356,-0.0031731435631161403,true
-0.0412688869744442,-0.0029163102047589373,true
-0.03333164082389761,-0.007576408139023327,true
-0.07496768802109016,-0.003669382226969914,true
-0.08323005836500935,-0.0023171856616874403,true
-0.02079707188938351,-0.01118512617184221,true
-0.04759601023932841,-0.007067525716632564,true
-0.026145562395580857,-0.0027201193730542472,true
-0.027206800771261475,-0.0014869168966039764,true
-0.026937444401955113,-0.0020735485711861484,true
-0.025390484849840855,-0.0015888599669303255,true
-0.04231466626442881,-0.0038092452459319165,true
-0.022735833922167492,-0.006711020614837554,true
-0.016303358915571664,-0.007663186321899149,true
-0.04690671414938358,0.0003859713558870548,true
-0.026329373996749394,-0.0060831244521248745,true
-0.020239750540475665,-0.006650786047983692,true
0.018335135758174637,-0.013224059489772025,true
0.04378226467911017,-0.012099281016249602,true
0.03482080498547757,-0.012187057374372881,true
0.0452261662134712,-0.012809726794261733,true
0.04605011091265698,-0.013086903092689686,true
-0.03893740517000499,-0.0008716675843562366,true
-0.015491217229661403,-0.005070762646421201,true
-0.012219589842226042,-0.0057196773764666,true
-0.009065466917667409,-0.00605796116371729,true
-0.06137044755169785,-0.0067064928610547775,true
-0.09671002370847803,-0.0005276209225638373,true
-0.10515652872824521,7.843406070742742e-05,true
-0.022833542531430995,-0.004319855847645493,true
-0.03806114709801167,-0.0012252451807843456,true
-0.04534773218674809,-0.0003555497758329501,true
-0.03871374346989098,-0.0008290325176452396,true
-0.044686285924414815,-0.000936031571199758,true
-0.036914011678420955,-0.002024329842564815,true
-0.0491870928138573,0.00030967677615872935,true
-0.07530976130563993,-0.003381059537724551,true
-0.07649233625395879,-0.0021562228994038424,true
-0.07109640577313214,-0.0027499858960417234,true
-0.04965873980819974,-0.005058645134419282,true
-0.009868024329820146,-0.004916601193501666,true
-0.016070106127380912,-0.004772349047669669,true
-0.019687048983028088,-0.00445928172496568,true
-0.0013216489046710134,-0.0028882700788528254,true
-0.014964469226562027,-0.0012393696178956831,true
-0.01846398903553126,-0.0009235878547058096,true
-0.013600270003460091,-0.0012662911753342082,true
-0.028127643109692846,-0.00313796707894759,true
0.0002062327216744153,-0.005705077943265968,true
0.012711523620534071,-0.006628490858620648,true
0.004031650169303069,-0.006197180237294708,true
-0.03846472268409362,-0.004864566320909702,true
-0.039822413373345966,-0.004606924178499339,true
-0.026581455552291022,-0.006909594435732358,true
-0.019382825898178913,0.0005121581004237374,true
-0.026470838098980765,-0.0004376249843871527,true
-0.024624832007277275,-0.0003571722104442482,true
-0.03061096215041259,0.00019331823820314953,true
-0.06804263954589962,-0.0009266826886845658,true
-0.06779372424443708,-0.001559039091377501,true
-0.06604070405466383,-0.0022110388124300107,true
-0.06539291604935221,-0.003004313654387733,true
-0.026387674607708078,0.00017376743039279607,true
-0.02452505420630141,-0.0010661212190178626,true
-0.022733767731258903,-0.0009970952410668366,true
-0.024591512377378888,-0.0007699243057580074,true
0.004917832691731516,-0.005372740614785709,true
-0.008427847754437834,-0.0036872460715027533,true
-0.008671794690493617,-0.0037327587101119025,true
0.2607220922131902,-0.003172364984520476,true
-0.11890793838099725,0.004779386231008681,true
-0.12514225529607723,0.0054907457572450635,true
-0.11529566014260356,0.004024946388277023,true
-0.06075956895086686,0.004070862466427516,true
-0.19097845068857913,0.01842244762484728,true
-0.18813296936896046,0.01835153648584241,true
-0.09906471891368147,0.0005610428271960177,true
-0.13117798355541876,0.004415587173573404,true
-0.12529269547620983,0.004553639504250459,true
-0.12844180012765424,0.005062709676187535,true
-0.06978845029928096,0.0012769768096089623,true
-0.10220188300854538,0.005916915910507359,true
-0.10633584243954854,0.006272053237389705,true
-0.10465848247597045,0.006079582589846574,true
-0.0813732835042073,0.004503659295709353,true
-0.19464454657559402,0.01711179088247687,true
-0.18723261110148726,0.015965065481578097,true
-0.05430087998653127,-0.0009537426336944099,true
-0.0773915580026475,0.001665574479376375,true
-0.0778306035047859,0.0013403486742901705,true
-0.07948501806002892,0.0013420259496774861,true
-0.022255520018522837,-0.0016019648435367378,true
-0.03797951469440733,-0.0005333781580496993,true
-0.04037165480619492,1.8657337247734995e-05,true
-0.1253555208671308,0.00047802865295770713,true
-0.1515174528248552,0.003475346441690605,true
-0.14538888370846115,0.0026547430295877222,true
-0.09300464837975647,0.002285472275005529,true
-0.09463758973117725,0.0024755380524942305,true
-0.0923410180990639,0.0017202017458702035,true
-0.01618532226199175,-0.003729276902384629,true
-0.03086490744681311,-0.0015129812862027386,true
-0.027207136979876992,-0.0015327920838712206,true
-0.035925894977016065,-0.0002637211949348406,true
-0.14838789569878014,0.006233448729974764,true
-0.09739706807065851,-0.0005225092044487678,true
-0.1571424806199388,0.006474911239860701,true
-0.018168033045030257,-0.0038648074226974444,true
-0.026124906162573625,-0.002132635755198564,true
-0.028935069433358995,-0.0020873377649962693,true
-0.08483759129544605,-0.0019328649897939754,true
-0.10836955081020203,0.0005710651646796544,true
-0.13875979986189463,0.010251568689007548,true
-0.12402755715406924,0.008812720797674048,true
-0.09341419525344258,0.004487256730416431,true
-0.09404348065499699,0.005954968406248443,true
-0.05861157208611201,0.0015551162117704714,true
-0.06557561921659713,0.0021593784077451467,true
-0.15223263953956118,0.00805864830997742,true
-0.13565455875472104,0.006546794758412272,true
-0.14590176347216008,0.007507601344180659,true
-0.10099927485251017,0.00870750112642206,true
-0.10687001594210929,0.008686146806434411,true
-0.05843991118205996,0.0013292307369568018,true
-0.0445955343397417,-0.00046483800672111886,true
-0.0617892844712129,0.0016337924549896798,true
-0.11281447277108794,0.006410176585172983,true
-0.10392865357934278,0.004908308695773564,true
-0.0005324640733396779,-0.004528475340043497,true
-0.021703806158310995,-0.0036164263320142553,true
-0.009589871661454169,-0.0044328554401708575,true
-0.14678395752142703,0.004223974552084231,true
0.0012461462287247649,-0.004738756641757005,true
0.011688008905163638,-0.006185682752063729,true
-0.09370477832243806,0.004298297132087292,true
-0.08444251441910999,0.001170503533185846,true
-0.08706590906412803,0.0011790686464537709,true
-0.03409992204574286,-0.0011107830054846307,true
-0.028998151430514763,-0.0019438522573589634,true
-0.0639767470022859,-0.0036356621685929985,true
-0.08627938679736441,-0.001282239768479021,true
-0.0937778169592165,0.007807200260947278,true
-0.041121073422514476,-0.0005557762919705944,true
-0.003752475957174095,-0.006123753667021822,true
0.008634898172706573,-0.008845478705560267,true
0.014531723263631946,-0.009714431830257664,true
0.04649477656774659,-0.01275736467633172,true
-0.18766651485524433,0.01749719448093011,true
-0.046309062252145816,-0.00028554876140188257,true
-0.03753511770382412,-0.0014427923946308263,true
-0.04166744627347502,-0.006888456378441765,true
-0.0710014456308855,-0.0036370054659896067,true
-0.041222189412830734,-0.006135252932420135,true
-0.06718752060483091,-0.0024546695319609263,true
0.05373163073030729,0.019561201721354976,true
-0.15220280534171962,0.007229821476054915,true
-0.1649564368909695,0.008959398044305872,true
-0.058335451853096645,-0.003453895138194746,true
-0.060830397024819044,-0.0026608997494250025,true
-0.009996344997203727,-0.006131027324719096,true
0.021256037994226845,-0.007085457071236187,true
-0.10620661744229293,0.008367294981869042,true
-0.13428470551056007,0.010727787564321009,true
-0.02732324181652812,-0.0013904162623333965,true
-0.0381444135537789,-0.00012080689161403368,true
-0.1617517603218941,0.014749080300107964,true
-0.17466258211491445,0.017500670160015816,true
-0.036195529678980834,-0.002556062952191712,true
-0.009869078922355778,-0.0038527693774002697,true
-0.1186963898865108,0.00817701257028225,true
-0.12302594867796217,0.008815922166280798,true
-0.11858029342880866,0.008487285963088884,true
-0.15980220394583233,0.007810800235383275,true
-0.1651413849964296,0.008020654485624376,true
-0.14307507132956643,0.002885662356312227,true
-0.15045273784930951,0.0039023543556431783,true
-0.12336264590290524,0.01055217819291722,true
-0.12507716857627654,0.010789041301133714,true
-0.05513373461097268,0.0029296367429541698,true
-0.14989346423609612,0.006004801658731462,true
-0.07546088404563699,-0.003433654791427279,true
-0.06773139647578834,-0.0030790312140315385,true
-0.12072119386458335,0.0032655790442411153,true
-0.2062457983077611,0.01264635241114162,true
-0.11547093349958179,0.0025435581388859457,true
-0.2121237657774421,0.012787057061406537,true
-0.20338736903654459,0.01266989483472139,true
-0.15105323647678753,0.005155795783426995,true
-0.15039256546956428,0.004931207679077523,true
-0.0571799973538855,0.001201683115648694,true
-0.17947660712648994,0.014450315782658776,true
-0.12870590573672555,0.005866450473466678,true
-0.12991274909593326,0.005664984422688785,true
-0.08697417588679172,0.0021032391920485782,true
-0.105205649222534,0.005501949721991917,true
-0.10878853834974823,0.005804393345190714,true
-0.1950085848457575,0.01624491463831987,true
-0.08550586687167178,0.004540624099699533,true
-0.15036934174143024,0.0013980318949076698,true
-0.1687028418751314,0.004069284403222448,true
-0.04988709984948417,-0.001375246688678361,true
-0.06458794323465411,-0.00029414872920728585,true
-0.05772320104341086,-0.0014792512242806921,true
-0.09120421743415413,-2.512569487607419e-05,true
-0.07816502169798231,-0.0022732503386252018,true
-0.08696487180430376,-0.0008575121497739341,true
-0.09577552637762848,0.00010197507123906047,true
-0.05823312418858756,0.004825975463428264,true
-0.09062589801901041,0.007327030264387274,true
-0.08252760254577529,0.006644580585182927,true
-0.055449322674219814,0.002318211008875082,true
-0.052173519978730376,0.0008445419024428052,true
-0.05111056646879186,-0.0004963353314077351,true
-0.05122259193369755,-0.00045671004283047434,true
-0.025186046242653498,-0.003316140615584523,true
0.0012938727984118659,-0.00451675419192947,true
-0.007216245570687535,-0.004284767919932722,true
0.02143445908343186,-0.009436930859345771,true
-0.02743361306742989,-0.0019813068093071234,true
0.0030060856106816913,-0.005079481740929759,true
0.0013594071223259618,-0.005540470470613193,true
-0.08350684385184298,-0.0010365885176118195,true
-0.09633224218819442,0.00040747582935808657,true
-0.07554954380394657,-0.0026133486043473445,true
-0.11118226015964139,0.004427781609631143,true
-0.1248423279964394,0.005540085682593614,true
-0.13139789992073547,0.006285316508715215,true
-0.037840384212350975,0.0006265660123623215,true
-0.04022370350392024,0.0008960093851774487,true
-0.044606641756097076,0.0012491122492021903,true
-0.151724952135612,0.014691187312336644,true
-0.0705865971698918,0.004069802182073798,true
-0.09301726103588076,0.0051502080630324645,true
-0.0868425998071588,0.0035231768612274394,true
-0.11094824101964201,0.006090717848257508,true
-0.06580980384613411,0.0032717048256063475,true
-0.07654916766534237,0.0035219671364086005,true
-0.07574871799638494,0.0031515900284154325,true
-0.0744074635728384,0.0028577883603070828,true
-0.03767796220252312,-0.0029308923324162447,true
-0.040290771178579265,-0.00262969662131346,true
-0.0391374666914594,-0.0027633151141591428,true
-0.1418828012650089,0.01316311788593618,true
-0.14450378326030466,0.012877687445525796,true
-0.062978009326838,0.0038116869382245483,true
-0.0836835403384455,0.0060078316463235415,true
-0.10999794560424853,0.0044624416695705355,true
-0.12768413005513135,0.006483354513696166,true
-0.12739980828358632,0.006075216393626064,true
-0.1115441963908218,0.005697341765587387,true
-0.12019685600211066,0.00567678174190258,true
-0.13312146095709598,0.007028885343951477,true
-0.12277932152626914,0.0057344602142116105,true
0.04608476230186598,-0.013741982768112782,true
-0.006262297819881302,-0.010485507567656545,true
0.02104706179585003,-0.012508455835557833,true
0.034163287549823784,-0.00974808596484799,true
0.008990537849335123,-0.007024692412510379,true
0.0036953932724631544,-0.006697253842934951,true
0.0033049504978144295,-0.0066418503413176455,true
0.02155162743670891,-0.00802655858725386,true
-0.018935678205141415,-0.004741405055707942,true
-0.013744374769511847,-0.0055406572650659736,true
-0.017749796877963964,-0.005944568520305227,true
-0.020063590905853745,-0.007244062419966578,true
-0.07085284132768266,-0.0029233370731916175,true
-0.07524548918979723,-0.0026113750302475536,true
-0.021201088897565334,-0.006376893250363676,true
-0.05801165681418441,-0.004626830621028338,true
-0.06232426624597742,-0.004184898058601082,true
-0.07576246309850032,-0.0031967934993224964,true
0.03782992313525335,-0.012669993295996808,true
-0.03602076285372913,-0.006465625539739596,true
-0.04392214019415219,-0.00594943837195968,true
-0.03708350401291005,-0.006790114282213454,true
-0.049231707479442055,-0.0034627743566710556,true
-0.04122255238370942,-0.004880886853739316,true
-0.04023412746032129,-0.005123129909444621,true
-0.03925748578564825,-0.004999203279180853,true
-0.023978888213106342,-0.009253328311797065,true
-0.04829976495386257,-0.006245331423519324,true
-0.04635096391972293,-0.006698102217737471,true
-0.0054560400374158435,-0.00634456208900825,true
-0.008310774274213117,-0.006276637689462801,true
-0.011471459426815933,-0.005826211043466631,true
-0.008032732388797537,-0.006568987435176546,true
0.03181433728054517,-0.012519670240472944,true
0.01709761220315764,-0.011062104444296901,true
0.01226586591435741,-0.010807869340417678,true
0.01485479189458061,-0.010843235674045111,true
-0.049384075104557446,-0.004893724694771243,true
-0.05907880200465321,-0.004070799453131685,true
-0.04575104244998596,-0.0059068893443208065,true
-0.034215105210092855,0.000314427311796206,true
-0.08995942817183133,0.007092708349210969,true
-0.09237749191500555,0.006598356913708657,true
-0.0839254060214829,0.005462833335199181,true
-0.010124142680625225,-0.0007757452806281123,true
-0.06468181765824044,0.0039006872190376143,true
-0.062017695105131554,0.0037335277802510586,true
-0.010452386779175371,-0.00614622057919869,true
-0.02288116766342696,-0.004748887693840374,true
-0.018642873680086214,-0.005767145900419331,true
0.01672427152284095,-0.008091656760057235,true
-0.030373473676928775,-0.004572082833257926,true
-0.028207683988724197,-0.004830636031266378,true
-0.01490211056601487,-0.008287241753882527,true
-0.039164278244481876,-0.0064688333958247,true
-0.04765578934710979,-0.006138000571254257,true
-0.09774787503219473,0.004091790414723129,true
-0.10796947447450456,0.006864693280042314,true
-0.10775872835716271,0.004968810956544126,true
-0.10731870380060116,0.005067394474819527,true
-0.04624288860339332,-0.006450196862221785,true
-0.03828003866846574,-0.00666580288012706,true
-0.05020332117781723,-0.006079828492252075,true
0.034550610520493796,-0.008783830449412021,true
0.016610072390567554,-0.008221945490946223,true
0.015354905256245943,-0.00825237557943765,true
-0.033593353711436125,-1.655348931998979e-05,true
-0.07416734246757672,0.003161689934271121,true
-0.0684915361610583,0.0019850796340113996,true
-0.06432097732362296,-0.0025390267563931007,true
0.06395935190916974,-0.014937003533061946,true
0.07498436364254801,-0.015049413158272754,true
0.07357294716583507,-0.01538281677912011,true
-0.04590261536018303,-0.0016166358763029243,true
-0.05938720749220383,0.00037640102641604833,true
-0.05435890537948024,-0.0002938057194172422,true
-0.05492318411434666,-0.0036080344472575465,true
-0.06306374864061098,-0.000388310010381962,true
-0.05179794690406225,-0.0011482442911481816,true
-0.008211225254266152,-0.0035623553905385075,true
0.021833578629472994,-0.008447138604667004,true
0.02745431408588772,-0.008908265467524143,true
0.021949696926627182,-0.007987346100487666,true
0.03656434362162908,-0.00846205047843994,true
0.026978864118615442,-0.004455785578172208,true
0.026791774590216255,-0.004452149944871864,true
-0.013890126085294163,-0.00145718600249653,true
0.0035132837331606215,-0.0014607387207030975,true
0.008579047715754462,-0.0018786728028718502,true
0.0038474052681813364,-0.0017900820852375238,true
-0.07858127916996704,0.00012255317852372105,true
-0.07383505312330735,-0.0002693984057390575,true
-0.06599562011467885,-0.0017111056951490122,true
0.004109227774502566,-0.005180807329950271,true
0.021229388032504348,-0.006330125876630094,true
0.031851624156040315,-0.007663957378195335,true
-0.068506501992732,-0.0011565253577532492,true
-0.0803966144898619,0.0014538865538520906,true
-0.06496979574915485,-0.0006543275402518117,true
-0.015306299469946438,-0.00937350981697986,true
-0.03261389299557904,-0.006959538834355419,true
-0.022782026319681292,-0.008624655544526683,true
0.4068787195884477,-0.01541366335027379,true
-0.08290223329520266,-0.0007774129606510083,true
-0.09487564388388167,0.0005406397111742539,true
-0.07235055896229889,-0.0013227966132015323,true
-0.16144525530991327,0.006011070551635023,true
-0.16821957438143081,0.006809640134151737,true
-0.15359389258513756,0.005288031787007819,true
-0.04451840086523448,0.000457192430220868,true
-0.06789032288664361,0.002095182567743853,true
-0.06555324256592349,0.0016625613390393174,true
-0.05488684112407613,0.0007135606858911514,true
-0.06770288531496091,-0.003052724563254103,true
-0.07838856167528281,-0.0026924958360531326,true
-0.07645289599109958,-0.002241659962436679,true
-0.1442423625700269,0.0004196256616458838,true
-0.168782464991979,0.01998681648767936,true
-0.1682803971259086,0.003507113626828484,true
-0.16991119100955962,0.0041378698179478784,true
-0.06867148597735853,0.0006041250007779719,true
-0.08194849110200113,0.002449895255993789,true
-0.07607473852954567,0.0019293540607152743,true
-0.09658723025895517,0.0038500818590775504,true
-0.0891097502153924,0.002666559240836211,true
-0.09414464770524139,0.003433314168873658,true
-0.01858935408781337,-0.0050295724352066445,true
-0.018029354998886582,-0.005010892325544664,true
-0.016559119569849914,-0.004615955086177986,true
-0.06977781189249,0.001070819919659169,true
-0.0791077474271446,0.002089898926660519,true
-0.08759166365168589,0.003272420785753155,true
-0.07551126784460063,0.002297011434291979,true
-0.024132682972026337,-0.0034774226487234577,true
-0.02961348524289846,-0.002697747150076535,true
-0.010983520814727768,-0.004384237430493668,true
-0.024563868449573922,-0.0016271169025763102,true
0.01959463042718551,-0.008697862063812699,true
0.027353917892265822,-0.009286392811564563,true
-0.08091240117321064,0.004313137825449551,true
-0.07470277447658946,0.004263655359421664,true
-0.08525803816697625,0.00570150142863074,true
-0.039118181517256545,-0.0011063328184756013,true
0.008592001112925352,-0.00837152662146911,true
0.014332349071708161,-0.008697909885656066,true
0.05856118622084561,-0.013623971131452701,true
0.05567839595129109,-0.013433883261731915,true
-0.015968331244790968,-0.002312689639398645,true
-0.12668498383629073,0.007520255164829855,true
-0.11372934235023713,0.00616796215285776,true
-0.12424813721881312,0.007014787898163788,true
-0.04763175995270397,0.0003429469264442028,true
0.014054909878507882,-0.008820667648628953,true
0.016371365065024124,-0.009099743331808428,true
-0.0431937625080151,-0.00018512874045983202,true
0.011316726812450273,-0.008733782038277842,true
0.006938384433299416,-0.008060657930660964,true
-0.052927153423089346,-0.006129935321640634,true
-0.013192376131434091,-0.010984072756004506,true
-0.015156979794371805,-0.010478209389028319,true
-0.006665650928212807,-0.011477266827550688,true
-0.07496872496762785,0.0021937304330889446,true
-0.020584525110313168,-0.005286021277037249,true
-0.020021256387713626,-0.005587249306232812,true
-0.03662365932171957,0.0015741795542167925,true
0.018284956078237435,-0.006568635230477141,true
0.019215171178222468,-0.007155675194585494,true
0.019157505771257688,-0.01318021643528839,true
-0.08059891234680744,0.00699668959744823,true
-0.021184205604985462,0.0005421513199353051,true
0.013224775481173956,-0.006545043364590941,true
-0.05473382845655905,0.003476822092194798,true
-0.056042339685859366,0.0025647650480125073,true
-0.19903626075475084,0.015142038105516412,true
-0.20662349346183223,0.014170688537400875,true
-0.20481193009549842,0.014113370849036619,true
-0.23269015107685653,0.01653665164631933,true
0.011684223065788868,-0.006005807447757097,true
-0.006690338179066557,-0.0018933382533374982,true
-0.010980326907738813,-0.002276409063921056,true
-0.06183150047366365,-0.0036383932348870024,true
-0.053968035663519265,-0.004474846025186149,true
-0.062449294973948466,-0.0035846144496456678,true
-0.022472712513570747,-0.0035460263197131525,true
-0.02006415552454155,-0.0045954497934487665,true
-0.033464002140432825,-0.002557438953233848,true
-0.02558758889134577,-0.0035196952325750736,true
-0.1473739880763406,0.012375728556189375,true
-0.14632543552844762,0.012152827813700057,true
-0.1538298626799664,0.013341894953108738,true
-0.1218415635097258,0.010944691789401842,true
-0.11646925155792193,0.010662169792758483,true
-0.12269843466362285,0.01215213842857886,true
-0.17529572423968576,0.015076489533703497,true
-0.15642464609357204,0.011062219535582563,true
-0.17453058044901248,0.01257315767811129,true
-0.026383771057773453,-0.0017351196732677543,true
-0.180259696722673,0.01635321087039336,true
-0.1734555155355017,0.015255022347134176,true
0.04965619602535354,0.006734041440510846,true
-0.02509591233965819,-0.003146339288726048,true
-0.01490504430136308,-0.0036874284478393277,true
-0.0884236339661646,0.0013302646362469625,true
-0.19686698882884102,0.013802990484005455,true
-0.19118783939415063,0.013199160509683894,true
-0.07768937414062871,0.001524425317111236,true
-0.09048612671332562,0.00335219666262232,true
-0.07276012132838428,0.0017101629475966204,true
-0.08731746271354601,0.0032742980278141764,true
-0.03058519306073154,-0.0030226103570989427,true
-0.033866438898716156,-0.002842044007264413,true
-0.036762702662437974,-0.00245925510179678,true
-0.04336085330384154,-0.0006351128350515281,true
-0.05588935298679176,0.0017100900260960325,true
-0.14776257303362372,0.012052561129177332,true
-0.07750612891150882,0.0035999272347995506,true
-0.1763196211556517,0.015281410564097875,true
-0.18102361565897412,0.015972856119320908,true
-0.16801073533065297,0.014366590299909443,true
-0.06879111002039179,0.0023844155708305573,true
-0.08005180040451843,0.004202725515815686,true
-0.054256401720423064,0.0011947380787608458,true
-0.13182123973344512,0.012600951660771006,true
-0.11750551564594536,0.012351076662413023,true
-0.11657689701647583,0.011831929125320648,true
-0.17074539832423935,0.016008031097006145,true
-0.1864436465754119,0.018776137007377437,true
-0.1710262726210095,0.016845816061363934,true
-0.11965785316492872,0.004086037519608489,true
-0.13044393359791606,0.005830321803791887,true
-0.130979786379529,0.005907160090664908,true
-0.12182230634525465,0.004928467712973873,true
-0.04643644522107415,0.0012797469049933008,true
-0.04326369559814025,0.0004528710679508885,true
-0.044826664812954886,0.0010790058591562818,true
-0.09335168633323143,0.003039315817293553,true
-0.09533815120065775,0.003139781100631109,true
-0.10438573230164461,0.004604659594899044,true
-0.030462976629762273,-0.004396489963115008,true
-0.03285611031216079,-0.004209973080179313,true
-0.03896510987254881,-0.0031132639815423246,true
-0.014971362178186287,-0.0020685068389848793,true
-0.017854370667412356,-0.0013368056286292562,true
-0.006802828108643466,-0.0026315369316912557,true
-0.12361797746586595,0.0030782645191533703,true
-0.10187538904128784,-0.00037738027601418034,true
-0.09083665159858162,-0.003503481028193145,true
-0.05060674327276293,-0.005229123327189,true
-0.12474007010758953,0.0031360751535488562,true
-0.13454376707499038,0.003966614861293155,true
-0.13940875582478635,0.0045440070106807645,true
-0.06775008286846856,0.0029752456526487836,true
-0.06096932169315744,0.0020554655446013426,true
-0.0571789026377435,0.0019459508261432945,true
-0.06484980974218157,-0.004044348647359003,true
-0.07409438801088014,-0.0033611740003997304,true
-0.06825934715139736,-0.004359567343652268,true
-0.03917776165177278,-0.004428843255595463,true
-0.052955388522564484,-0.0034672707096792127,true
-0.035215078211275896,-0.0051336365193930256,true
-0.007568261477568894,-0.0039040395573914366,true
0.01815772617187994,-0.007035575235297492,true
0.006451515374106265,-0.007325185192112574,true
0.05397161963978592,-0.014138870212228191,true
-0.09614528470131378,0.0004396956067930363,true
-0.0774068926544661,-0.0022337239419739363,true
-0.0811672426721719,-0.001981581901430607,true
-0.07138970330685979,-0.0031442515594504866,true
-0.053277690677510314,-0.0009171492481038906,true
-0.037304684524968046,-0.002382517190397268,true
-0.039314806004856484,-0.0027297696399211924,true
0.014931132950848136,-0.008127741255182272,true
0.009218730670783382,-0.007404942099490358,true
0.019268360790904104,-0.009028190273514675,true
-0.061843134928171395,0.0028465842675815395,true
0.006033571192347598,-0.006701024900135966,true
0.02828773555193209,-0.0096726922723636,true
-0.1380441926900755,0.011698580936665301,true
-0.0669575019710954,0.00016515674045072815,true
-0.05060755818992979,-0.003355924967534424,true
-0.016785514773062893,-0.006875135378579006,true
-0.018703482383362946,-0.007580835377225439,true
0.009955731112656574,-0.009940186018621483,true
-0.0795737285910314,0.0030898382964242854,true
-0.057977799833179966,-0.00313634912734069,true
-0.057520157707900754,-0.0028506077295348403,true
-0.08432037328221331,-0.0028084502056515276,true
-0.06010805276523845,-0.0025489906599356488,true
-0.06025740988301487,-0.002443930234781011,true
-0.04951059927457857,-0.003988978260309528,true
-0.0891947869407449,-0.0011329207574370531,true
-0.08269664464809778,-0.002014490583194528,true
-0.07737699998218706,-0.002510566494838745,true
-0.1294450883345034,0.009558263776499848,true
-0.03075656407287375,-0.005066371493300956,true
-0.04111707670040865,-0.004335855854492338,true
0.003853412421713616,0.025773148950304803,false
0.003946210590481974,0.025773148950325914,false
0.004217604136890721,0.028429436778387874,false
7.842248468699353e-05,0.029094612334731873,false
-0.0008892428605324215,0.029094612334731373,false
-0.0032031750383804333,0.029094612334731873,false
-0.0033280128998526767,0.02998649849763612,false
0.0047684166462048615,0.032142276794196775,false
0.005402186080352207,0.03641430126007311,false
0.005933666595445186,0.04053872369296096,false
0.020852603576344116,0.02307770827231715,false
0.057286407215171614,0.021813855049750586,false
0.03542165083478469,0.02083022057537376,false
0.035335154077480856,0.021265509999982776,false
0.044922110214020615,0.019694505942631613,false
0.06425315083144705,0.01656113714521501,false
0.06456552145340028,0.016561137147409893,false
0.06476100399633501,0.016561137145214982,false
0.0817568278153924,0.01656113714521501,false
-0.10562714777481093,0.044175047774810905,false
-0.10723939134256445,0.04578729134256445,false
-0.10806987006046635,0.04661777006046633,false
-0.1080773511061827,0.046625251106182666,false
-0.21029257548426306,0.14884047548426302,false
-0.21032122803420983,0.14886912803420976,false
-0.2923443709850599,0.23089227098505988,false
-0.3731787179475508,0.31172658621549637,false
-0.7994542882715296,0.31463475511166766,false
-2.0,0.4978493955655378,false
0.03494282637402252,0.03501189362597748,false
0.03425213079166192,0.03570258920833805,false
0.03297156603432541,0.03698315396567459,false
-0.15944443467428107,0.054320534674281065,false
-0.15944797959410123,0.05432407959410121,false
-0.16041026932818037,0.05528636932818036,false
-0.1637439766773692,0.0586200766773692,false
-0.16374979812570842,0.058625898125708405,false
-0.16624324396052986,0.06111934396052984,false
-0.18266684273990313,0.055707042739903116,false
-0.18543084242506597,0.05847104242506595,false
-0.1912235158138001,0.06426371581380008,false
-0.1912538670085664,0.06429406700856638,false
-0.257402410596531,0.13044261059653095,false
0.036488111769766796,0.036135668230232745,false
0.036762952907724425,0.035860827092275574,false
-0.05652970604378821,-0.34952857489599876,false
-0.05703997236272096,-0.3506141559745103,false
-0.08894834453661692,-0.34548751669670313,false
0.06378102386083753,-0.3701989354122215,false
-0.07982076599855809,-0.48758775809548316,false
-0.07977844259310247,-0.4930418709097085,false
-0.07533526328419242,-0.4937560289898132,false
-0.08013885931696187,-0.49426390513471163,false
-0.07989995219833215,-0.49472513513017663,false
-1.1368132949110437,-0.17945060000000007,false
0.12232476801312064,0.006694385999999997,false
0.12241836200667805,0.006694385999999997,false
0.12276307314002716,0.006694385999999997,false
0.12288919717578464,0.006694385999999997,false
0.12331603824205263,0.006694385999999997,false
0.12338664704174712,0.006694385999999997,false
0.14668980083672561,0.006694385999999997,false
0.147399288449218,0.006694385999999997,false
0.03684666118326656,0.020483889927469023,false
-1.6756753934498048,-0.09643213,false
-1.6928648725435809,-0.09643213,false
-1.7036792815227757,-0.09643213,false
-1.7099771293767172,-0.09643213,false
0.15731593055117654,0.01930571867393853,false
0.4391766137366114,0.009296248425725628,false
0.7557279451733059,-0.04110293734186611,false
0.15299527243231292,0.0017610099999999934,false
0.15312919014201254,0.0017610099999999934,false
0.1532505497742749,0.0017610099999999934,false
0.15349976861106587,0.0017610099999999934,false
0.15396852672040728,0.0017610099999999934,false
0.159963973208151,0.0017610099999999934,false
0.16145598825925234,0.0017610099999999934,false
0.20161048013654978,0.0017610099999999934,false
0.20603331095699334,0.0017610099999999934,false
0.21870573692238937,-0.00028686710452454495,false
-0.23318551702535067,-0.33601761702535066,false
-0.2333792456874647,-0.3362113456874647,false
-0.24049438277528756,-0.34332648277528754,false
-0.24904198402228903,-0.34195443752272525,false
0.2407138999999996,-0.0020879366770261004,false
0.2407138999999996,-0.003987053037656736,false
0.2407138999999996,0.006750060188012663,false
0.2407138999999996,0.018534056008064848,false
-0.29664131057565857,-0.38811443057565853,false
-0.2966748106983783,-0.3881479306983783,false
-0.29769658685746647,-0.3891697068574665,false
-0.2988208463425723,-0.3902939663425723,false
-0.3320507006977015,-0.4034505805840962,false
0.04918103,0.020773689999999997,false
0.06981418121235386,0.020773689999999997,false
0.0882556339841511,0.020773689999999997,false
0.09515108679873074,0.020773689999999997,false
0.0951828224544002,0.020773689781142357,false
0.10361288741207479,0.019419089646563997,false
0.25171799999999944,0.002947062585472643,false
0.25171799999999944,0.008543715472804497,false
0.25171799999999944,0.0144331950732631,false
0.05189846203141367,0.020745429999999995,false
0.053155288077139685,0.020745429999999995,false
0.05371003325023541,0.020745429999999995,false
0.05553937719157714,0.020745429999999995,false
0.058557191656945395,0.020745429999999995,false
0.062195452567799674,0.020745429999999995,false
0.07538152582384615,0.020745429999999995,false
0.25722,0.0031134314231849036,false
0.25722,0.0037808349305938904,false
0.25722,0.011999639055528269,false
0.29006695260174686,0.006724945065468391,false
0.29191560909995623,0.003780834930593835,false
0.32255927617905333,-0.007995605608904832,false
0.32352763648920596,-0.007995605608904832,false
0.35281920466570726,-0.005051495474030179,false
0.3908352276421322,0.018501385604967335,false
0.3908352276421322,0.018716789345438696,false
0.04922341999999999,0.0207313,false
0.25997099999999984,-0.0007861946678390241,false
0.25997099663438855,0.018531525547836818,false
0.25997099999999984,0.018770164613026455,false
0.26145832177788825,0.020417644834886062,false
0.06985582538917183,0.020724229999999996,false
0.06995345192987312,0.020724229999999996,false
0.07896450338647315,0.020724229999999996,false
0.10894111895757759,0.020724229999999996,false
0.11147767,0.020724229999999996,false
0.2850005328720762,-0.01212840041635755,false
0.2613464999999997,-0.0017562819786431857,false
1.449237454715944,-0.0017562819786431372,false
1.882127522483327,-0.0017562819786431927,false
-0.1956690312159627,0.057791331215962714,false
-0.1962576733426889,0.058379973342688886,false
-0.1979636829347028,0.06008598293470279,false
-0.1985486271319032,0.06067092713190319,false
-0.20217405975985198,0.058837359759851965,false
-0.2025789154199968,0.059242215419996774,false
-0.20264220149484877,0.05930550149484874,false
-0.20309063877472672,0.0597539387747267,false
-0.20447146341458503,0.061134763414585014,false
-0.2054606875111999,0.059394487511199884,false
-0.2054840573682306,0.059417857368230576,false
-0.2070002866816973,0.06093408668169729,false
-0.20843090649536522,0.062364706495365185,false
-0.20706808993483838,0.059637189934838165,false
-0.20707460121211005,0.059643701212110045,false
-0.20708968413558315,0.05965878413558312,false
-0.20711103705628098,0.059680137056280974,false
-0.20713613673205086,0.05970523673205086,false
-0.20714980241357478,0.05971890241357478,false
-0.2083730469801507,0.06025974698015066,false
-0.20837803259128937,0.060264732591289366,false
-0.2085815043816028,0.06046820438160277,false
-0.2115577180306447,0.06344441803064464,false
-0.21477549301649929,0.06666219301649927,false
-0.22055740820078143,0.07213842531658693,false
-0.20849079108427632,0.0598834910842763,false
-0.20849721922489706,0.059889919224897045,false
-0.20849867092230995,0.059891370922309915,false
-0.20858889459247432,0.0599815945924743,false
-0.21467794087103398,0.06607064087103397,false
-0.21468398050168297,0.06607668050168297,false
-0.2085905312841425,0.05988903128414251,false
-0.20872310800085242,0.060021608000852426,false
-0.20872444461076628,0.06002294461076627,false
-0.21071419947458542,0.06201269947458543,false
-0.21141082382106835,0.06270932382106835,false
-0.221922647964786,0.07322114796478602,false
-0.2086105403521242,0.05986194035212417,false
-0.20869014136776629,0.05994154136776627,false
-0.21124131677228508,0.06249271677228505,false
-0.21164161747907695,0.06289301747907691,false
-0.7265083307708238,0.14488084117045322,false
-0.20864578364579323,0.059873683645793235,false
-0.20866509181040704,0.05989299181040703,false
-0.20900307617219327,0.06023097617219328,false
-0.20926335021765385,0.060491250217653864,false
-0.2136936496218656,0.0649215496218656,false
-0.2086543399014376,0.05987043990143759,false
-0.20921334757067747,0.060429447570677475,false
-0.20955328200862022,0.06076938200862019,false
-0.21429302605581602,0.06550912605581602,false
-0.22764017894184535,0.07342351622404761,false
-0.2593816604842768,0.1105977604842768,false
0.04916036136938776,0.018461920000000298,false
0.049324544336083034,0.018461920000000243,false
0.2613464999999997,-0.01377102999999999,false
0.276259300499085,-0.01377102999999999,false
0.27628821726853453,-0.01377102999999999,false
0.2772049083222796,-0.01377102999999999,false
0.2772871749831699,-0.01377102999999999,false
0.2773122287352848,-0.01377102999999999,false
0.26134675564275556,-0.002464323999999983,false
0.29904505270930914,-0.00246432399999999,false
0.3029381085052184,-0.00246432399999999,false
0.3068586113338918,-0.002464323999999976,false
0.3072799325355579,-0.002464323999999976,false
0.31415446023833743,-0.00246432399999999,false
0.3155452623947514,-0.002464323999999976,false
0.3201703194540675,-0.00246432399999999,false
0.33968891086469843,-0.00246432399999999,false
0.3403671143142492,-0.00246432399999999,false
0.38084900000000005,-0.0035797089999999865,false
0.38874323704318914,-0.0033760370431890757,false
0.38993389887113633,-0.0033760369999999845,false
0.4027674690092758,-0.0033760369999999845,false
0.4028092601155936,-0.0033760369999999845,false
0.41030738455871285,-0.0033760369999999845,false
0.4114584440347171,-0.0033760369999999845,false
0.4153402303458366,-0.003381908257689581,false
0.39424899999999996,-0.027258300000000006,false
0.39564159999999937,-0.027258300000000624,false
0.3962715208154033,-0.02662837918459672,false
0.3966289131715522,-0.026270986828447807,false
0.39914219820115254,-0.023757701798847453,false
0.41925567356183924,-0.025311541992413894,false
0.481135626511553,-0.025311541992413644,false
0.48149512767486047,-0.025311541992413644,false
0.25489262339366064,-0.014592350000000004,false
0.2549624311285338,-0.014592350000000004,false
0.254997300390278,-0.014592350000000004,false
0.25501388823313403,-0.014592350000000004,false
0.2554263850461735,-0.014592350000000004,false
0.25567398560986393,-0.014592350000000004,false
0.2564243176061207,-0.014592350000000004,false
0.2572318014735908,-0.014592350000000004,false
0.26104662745266594,-0.014592350000000004,false
0.2980717069810307,-0.014592350000000004,false
-1.8863280327793488,-0.05490776428344562,false
-1.959836435524846,-0.044424562151848104,false
-2.0,-0.038563191726259494,false
0.271395857383765,-0.015003009999999997,false
0.23761724999999995,0.01949015000000004,false
0.2544203161159688,0.0026870838840311814,false
0.2585613680588823,-0.01520834,false
0.25910158335751343,-0.01520834,false
0.2755332841491119,-0.01520834,false
0.275989058417581,-0.01520834,false
0.27603103412236746,-0.01520834,false
0.2761459238320887,-0.01520834,false
0.276297305379527,-0.01520834,false
0.3236005536709237,-0.01520834,false
0.3282411185253556,-0.01520834,false
0.32826403438690843,-0.01520834,false
0.25095038419538,-0.013902415804619983,false
0.25096972050488137,-0.01388307949511864,false
0.2509762811067523,-0.013876518893247689,false
0.25123343929241504,-0.01361936070758496,false
0.2519016144057452,-0.012951185594254802,false
0.03700509009835133,0.020430090000000026,false
0.03702119868689212,0.020430090000000026,false
0.03707206312509114,0.020430090000000026,false
0.04241308448136366,0.01986269551863641,false
0.259626265547848,-0.015310999999999991,false
0.2597530863056911,-0.015310999999999991,false
0.2598705550338374,-0.015310999999999991,false
0.2601272287097533,-0.015310999999999991,false
0.26107793355454695,-0.015310999999999991,false
0.2615510325528613,-0.015310999999999991,false
0.3099488954692147,-0.015310999999999991,false
0.3099948357609281,-0.015310999999999991,false
0.31086131107845993,-0.015310999999999991,false
0.37495831577050853,-0.015310999999999991,false
0.05187297920556944,0.018211249205569442,false
0.05188303296054008,0.01822130296054008,false
0.05312607279755909,0.01946434279755909,false
0.05312716610058728,0.01946592239117849,false
0.05338679962424619,0.019725069624246208,false
0.5077482890881381,-0.4502533066955053,false
0.508087035029194,-0.450591585029194,false
0.2598018118135695,-0.015362330000000007,false
0.25985738933354235,-0.015362330000000007,false
0.25991497512859346,-0.015362330000000007,false
0.26104812647387166,-0.015362330000000007,false
0.26120662355031676,-0.01536233,false
0.26141686169024303,-0.015362330000000007,false
0.2728376546786593,-0.01536233,false
1.3685852204004636,-0.01536233,false
1.3880086527583844,-0.015362330000000007,false
0.26188429999999974,-0.015388040815310158,false
0.2739005000000003,-0.015388000000000256,false
0.03482605665920713,0.020773690000000025,false
0.03572175999999998,0.020773690000000025,false
0.27391332999999973,-0.01540082999999999,false
0.2830505784292269,-0.01540082999999999,false
0.28777337249322055,-0.01540082999999999,false
0.4797267036705739,-0.42641564312301644,false
0.48279717171956427,-0.42948612171956424,false
0.48967425849505497,-0.43636320849505494,false
0.49999568881729306,-0.44668463881729303,false
0.500655419612432,-0.44734436961243196,false
0.5049868272509398,-0.44814627004353946,false
0.5049721304329386,-0.45068867399562174,false
0.5050199817202512,-0.45068867399562174,false
0.6415774276823615,-0.5882663776823615,false
0.643297908253466,-0.589986858253466,false
0.029671610102017534,0.029174529897982467,false
0.02918720284706823,0.029658937152931768,false
0.029074471343656885,0.029771668656343113,false
0.0294283695779243,0.029417770422075697,false
0.03058468206667564,0.028261457933324352,false
0.03367348318766379,0.025172656812336214,false
-0.2049072043830401,0.2660125743830401,false
-0.20499377424941995,0.26609914424941994,false
0.19530047656339228,0.1947109234366077,false
0.1920346203844684,0.19797677961553167,false
0.05282606552111616,0.017909985521116153,false
0.0531498643612338,0.018233784361233796,false
0.05315227470197412,0.018236194701974115,false
0.05402232541688644,0.019106245416886436,false
0.26188429999999974,-0.015407295071615312,false
0.2621385364274193,-0.015407250000002322,false
0.26638702842742623,-0.015407250000000011,false
0.28063990968199165,-0.015410480000000164,false
0.26792766598149437,-0.01541207,false
0.2884312597086941,-0.01652061400973586,false
0.3149510333254286,-0.016520614009742023,false
0.3784766586585849,-0.01541207,false
0.38962242056660124,-0.01541207,false
0.4025909358365035,-0.01541207,false
0.40270173769516504,-0.01541207,false
0.4152787193574964,-0.01541207,false
1.4420471576909906,-0.01541207,false
1.4699804425962995,-0.01541207,false
0.027983274596220728,0.021897440000000032,false
0.02800248970999153,0.021897440000000032,false
0.028050231976587764,0.021897440000000032,false
0.028194022672221465,0.021897440000000032,false
0.02822456831670441,0.021897440000000032,false
