-0.03975516936837706,-0.0008587834689404161,true
-0.10498765223882048,0.006779080750142691,true
-0.0920012230029551,0.006246706150943582,true
-0.26486704628597196,0.02184557931062761,true
-0.2777099591822814,0.023272589027314328,true
-0.26470403367149964,0.02151965699198577,true
-0.1854360137404328,0.01770183797210767,true
-0.1949598948261001,0.018951148387400252,true
-0.10920358030860289,0.009599495250320056,true
-0.1648109469775498,0.016613495908247095,true
-0.16427180941507633,0.01657618064639188,true
-0.1391756122183977,0.010392860388605568,true
-0.22720228526669292,0.020558489192216728,true
-0.1597509352112583,0.013056504722768425,true
-0.15451564978350274,0.012729123453079583,true
-0.15857992640029228,0.012316230335567585,true
-0.22649153492261537,0.017230389456268397,true
-0.2209449420863138,0.016012373840218086,true
-0.22032425158314767,0.016619046653642555,true
-0.04534916797974439,0.001023724946829896,true
-0.080880630977301,0.004553431785359802,true
-0.07353698502236564,0.0039243316211615975,true
-0.17412039973099816,0.01555304256411566,true
-0.18396768302754718,0.016116598477341232,true
-0.14325808829155168,0.009873401729432463,true
-0.048524440861517304,0.0009679286222014916,true
-0.11730645126106268,0.0071497211122840965,true
-0.22574604057369776,0.01759837481008031,true
-0.2464673022314504,0.020752393574893085,true
-0.2576418863450549,0.022280966660373824,true
-0.03221726082024287,-0.0012059068803461637,true
-0.043529565075814264,-0.0006228652025249137,true
-0.1264999108212945,0.00895669946413527,true
-0.22580812380281498,0.01935454367207448,true
-0.13837206459700138,0.01007658256360347,true
0.04915237702944936,-0.007707582049078704,true
0.06328956522278162,-0.009097763382392932,true
0.055557662559536036,-0.007946205660044336,true
-0.23659134394810094,0.020001486275404212,true
-0.23777267691035867,0.020134134191487824,true
-0.23398584453264176,0.0200823877977635,true
-0.2352154996441088,0.020875795211208026,true
-0.14747354104384788,0.01130207342707254,true
-0.18241885400375935,0.01755772429740665,true
-0.2042463492271299,0.020394902074374444,true
-0.21341510577564501,0.021461417635009222,true
-0.22029184444274075,0.01809292947456609,true
-0.22601806827113552,0.018646416980199393,true
-0.2116904448636645,0.01707883149018352,true
-0.03406806447186092,0.00019397568423784595,true
-0.0466490848643174,0.0010055625195304063,true
-0.13847169799591832,0.0074310293657924575,true
-0.17210303217801823,0.009975270147570159,true
-0.1456261333136582,0.008457394968576143,true
-0.24546348563978942,0.01862008350468697,true
-0.2523336576849079,0.01907458295253664,true
-0.2674412351928797,0.02024124555029333,true
-0.136348675926929,0.010724205548354515,true
-0.13304034086073968,0.010837376580663222,true
-0.24834024985062075,0.01947812677279756,true
-0.20587715579305998,0.014476959081125035,true
-0.1832437065696722,0.013843258295335614,true
-0.20882566295388022,0.016136868671726506,true
-0.2154004637699779,0.016908262671885887,true
-0.21396848088332526,0.01717346854278376,true
-0.22429763408747788,0.018266158647921416,true
-0.19051644012935204,0.016433312970725672,true
-0.2255041944119201,0.019799762069075938,true
-0.2239676011221986,0.01999407942342704,true
-0.23895092607940593,0.020823999620769473,true
-0.2035578979115958,0.017333031462184623,true
-0.2651671416845752,0.02157100943570872,true
-0.2169095353827296,0.017537512497900143,true
-0.22763170275689665,0.018986358645434104,true
-0.2451554985012499,0.021976756757978055,true
-0.23495277248891855,0.02077076159223959,true
-0.2563735874923611,0.022909433902945198,true
-0.2633103301730426,0.019491784901674414,true
-0.2581456180728105,0.018651658001311744,true
-0.2176047561957175,0.015487609095721333,true
-0.22975158185019207,0.016543188199953707,true
-0.2754120542207448,0.022049067272208817,true
-0.2887784595206646,0.023402011825317093,true
-0.28768034944612064,0.02336729319133518,true
-0.3028453005087415,0.02577516217710535,true
-0.10943095029280503,0.006107961412380902,true
-0.10761659183558525,0.0063551002927134115,true
-0.12885236762663954,0.008929205725668077,true
-0.12365221852284547,0.008229533450536564,true
-0.12994661375768235,0.008622675725795698,true
-0.10788090185379628,0.008526816090038636,true
-0.08144144051687574,0.006407253716840783,true
-0.1339237015481286,0.009813638781428102,true
-0.2892762198278708,0.024493089302027593,true
-0.2848843929184999,0.02423733463760122,true
-0.23321442352998423,0.012926896421346451,true
-0.22776649235906588,0.01256729447345592,true
-0.19820313296659875,0.010406789573646075,true
-0.07674694215960898,0.003137169457962885,true
-0.09619182619862854,0.004802333455995678,true
-0.10582689279389978,0.00558714272603511,true
-0.18084125444954324,0.011103453395951784,true
-0.1803786281969999,0.011254430446183461,true
-0.08431812112917103,0.00330565583705536,true
-0.013224506186682583,0.0005168712043433499,true
-0.02641371051266106,0.0016334495577660368,true
-0.08148123461219259,0.007158714988926063,true
-0.16793126802835603,0.015493002328759387,true
-0.15980466967462906,0.01412160048979244,true
-0.2039632053457675,0.016299094417179444,true
-0.20233278806983934,0.016189502985302556,true
-0.2047236849524735,0.016752081477211272,true
-0.25851280920903,0.020521023741160993,true
-0.2663015036891924,0.020211739064134843,true
-0.2573393757967532,0.0191925006310176,true
-0.30088968955642087,0.0199934779418042,true
-0.29525834791718836,0.019043735730770173,true
-0.2565807154677796,0.017348566281019467,true
-0.2736800296430575,0.01824205668718601,true
-0.1371462778697014,0.011093181705149113,true
-0.2229934865696171,0.019993575642337863,true
-0.22838147266959133,0.021883817780849302,true
-0.15714378943955834,0.01300693437075226,true
-0.16315784258272906,0.015212006706033038,true
-0.23743407326633403,0.018532210401992488,true
-0.1841431729048541,0.012408593193501793,true
-0.00625505256317449,-0.004381126317362927,true
-0.02157413630042576,-0.0017969005455504006,true
-0.14417969397390376,0.007146092572759416,true
-0.13998137190247684,0.008326846001663168,true
-0.15826654151052647,0.009172406393568505,true
-0.08442216802086183,0.002925502501049476,true
-0.04226311172918784,0.00010993384355709179,true
-0.0796044093854798,0.002418942448754513,true
-0.23037813044665195,0.018894495803138067,true
-0.2448711002214221,0.021802182810432974,true
-0.2478896274795288,0.022299425207231577,true
-0.07047253453386959,0.004562394985839463,true
-0.13009428594788475,0.008461747266661934,true
-0.2837619184821057,0.024438636517995327,true
-0.26144725753208303,0.022174883400008977,true
-0.2770638119058782,0.02414050734629078,true
-0.09998626189353799,0.00674413349296446,true
-0.10969105789590128,0.009309856967268548,true
-0.10859565795318193,0.009033688472547818,true
-0.2140203520814306,0.014505075463612876,true
-0.24323385061482672,0.01792704633986239,true
-0.24129782061749389,0.020953932621692456,true
-0.22288425369824733,0.018969771560257614,true
-0.23545833270130778,0.021006078897924274,true
-0.1177650618064277,0.006297424477954505,true
-0.0992752222069006,0.007352571442521161,true
-0.08300780279824554,0.006757142122402721,true
-0.2551226861424525,0.021469319860592445,true
-0.2298544619206993,0.01792624589671285,true
-0.24486277340527263,0.020412568404059722,true
-0.07162222738878982,0.0029454850310236536,true
-0.09265690116197922,0.0039315463876690715,true
-0.18974200140489406,0.015510492519273472,true
-0.19562128918649574,0.017465134504082075,true
-0.19057438989734954,0.01819619464942221,true
-0.17858356146044368,0.016075205124282094,true
-0.029921190675005538,-0.000200624131409588,true
-0.057476762303525275,0.00277623453906492,true
-0.25533173152094457,0.018345003356176198,true
-0.26770726321298244,0.02185832601336765,true
-0.0823323542958545,0.0046725916212705665,true
-0.05364504089826938,0.0039745408027672124,true
-0.060256353239998006,0.005897057774297165,true
-0.2689566279897636,0.021701028062942912,true
-0.2403368380822255,0.019757729724890705,true
-0.08619374233286053,0.004769666572530945,true
-0.20683344656939967,0.01148626053968968,true
-0.1298226829910783,0.012992864996308612,true
-0.13572091079727927,0.01181695472925745,true
-0.09870047131597981,0.008627881710691038,true
-0.09262401171505091,0.007738857501744356,true
-0.26227812296041736,0.021669288535532766,true
-0.2236781118110941,0.01823665543853062,true
-0.17046925049343786,0.01250606861263126,true
-0.161272969177511,0.017877122509010884,true
-0.15951749325372946,0.01764606456044479,true
-0.11504099553532743,0.004514408649251067,true
-0.2640242651042456,0.01599826643837865,true
-0.20441788985863285,0.0118141513352861,true
-0.2396952399865672,0.01595281684998892,true
-0.2422434263904585,0.016207486588862036,true
-0.23285939480425713,0.01424139492665727,true
-0.22825048136093629,0.01369353249310945,true
-0.20063328937449432,0.012322740599961857,true
-0.184691794173354,0.011336444624804126,true
-0.16538974040961435,0.009003115485853919,true
-0.18645941335941996,0.018390504045933842,true
-0.1952361541664875,0.01861248322778536,true
-0.18876948791062179,0.019076813059653558,true
-0.10998355787249595,0.010939769940291139,true
-0.08424074952135954,0.008896198226990504,true
-0.14546031450053473,0.01357790581328483,true
-0.11837090971713676,0.012504137038062996,true
-0.18836666830831716,0.0206570409019306,true
-0.2460693919824449,0.023278487169967527,true
-0.23038435519242859,0.021145490273813683,true
-0.09187213835988386,0.004792039871766712,true
-0.0929579359414735,0.006543678905588546,true
-0.09446739195418488,0.0077647681404735824,true
-0.09859743357757655,0.006880536483456434,true
-0.11359491005690514,0.009475989444156147,true
-0.20844772567488873,0.009238421629032462,true
-0.30990348340637824,0.020226024421135413,true
-0.31100776927354346,0.020776995359301775,true
-0.17474997087899632,0.012874629367480045,true
-0.19686245060110474,0.016754395856558163,true
-0.20001373817512413,0.017040694185599586,true
-0.14791930955517646,0.005638628888636282,true
-0.043976747970495444,-0.0021174699010038656,true
-0.17811445321170133,0.009390686213244487,true
-0.1433858131059691,0.0076011939644044235,true
-0.12298263334571419,0.0054975757160231065,true
-0.1713168136375122,0.011139631075108958,true
-0.18748692679091158,0.014496434343868131,true
-0.06256976359052241,-0.0015694798719021463,true
-0.033996322886284486,-0.003543726106054218,true
-0.1439801571703524,0.007023855769077436,true
-0.14331184521178744,0.007389655289040065,true
-0.14687369282065282,0.007923894340142568,true
-0.18074970151790726,0.014077141753923245,true
-0.1765888637374814,0.01305652963297213,true
0.011565510060246115,-0.0038605029930338097,true
-0.1712441672354335,0.013703769174622377,true
-0.23021597637785907,0.019848338886732347,true
-0.18277550515014818,0.015168845299400047,true
-0.1317145726374408,0.009291192624321959,true
-0.14230864318736097,0.009944870806998019,true
-0.14338883484550846,0.00933135878961136,true
-0.9465299982678925,0.09516562849683241,true
-0.19347293800226234,0.016587994610926166,true
-0.17512282607545815,0.015691295915843673,true
-0.054764542149064566,0.003388246819209545,true
-0.027696043271730142,0.0014061393642924302,true
-0.2786301595811267,0.01871632598064696,true
-0.2337730953619488,0.015405754772070568,true
-0.24781586012072276,0.01627064838004011,true
-0.26322112493841543,0.020403316251128373,true
-0.2822356782050428,0.02236675805874233,true
-0.2664496403495926,0.020610720607650096,true
-0.1376359993920795,0.010099357124787656,true
-0.12483636821083155,0.009977543334359684,true
-0.29002101523370716,0.01843068355052413,true
-0.2886859255683716,0.018181918884548426,true
-0.30011594282265097,0.018774546896642347,true
-0.050100345092846055,-0.0006827117592008436,true
-0.0009689532748893281,-0.0035500951414637327,true
-0.0161909647806181,-0.0024046884214254383,true
-0.24661316430980074,0.020280202894470772,true
-0.2743803733849564,0.023405363784511607,true
-0.26859212622480083,0.022842203759808055,true
-0.2063244910732201,0.013149058518048373,true
-0.3275397194752484,0.02533364746393793,true
-0.2694492715263709,0.017271579327528125,true
-0.3297018091077374,0.02178684042800616,true
-0.3259704673850943,0.021018678020948256,true
-0.26546946359770246,0.016579985072258357,true
-0.327488412861609,0.0218766779505655,true
-0.31208767869699444,0.0201152221085113,true
-0.13077715966644682,0.009329250106415748,true
-0.12233676221863848,0.00817475389484798,true
-0.06763199913838935,0.006861181410551753,true
-0.2591861801952878,0.021782992943375934,true
-0.26349234197071864,0.022563366160673393,true
-0.27384526833649214,0.024203380662991825,true
-0.2676127003877419,0.02385172720087994,true
-0.1759461074141826,0.015883161824704728,true
-0.20617690808782885,0.019360483132186634,true
-0.20831537236876696,0.02030792186635691,true
-0.2803175322224597,0.01988247546396038,true
-0.24679116940932005,0.016420423350035823,true
-0.2177305043366068,0.020099962818928785,true
-0.21588631244488965,0.018788899285341498,true
-0.23497901132238386,0.021052331748304898,true
-0.12498927925541475,0.008756568752534583,true
-0.08234783399748469,0.00556895975658489,true
-0.21683628264627813,0.019587014167166822,true
-0.22298864747161284,0.019579699625495106,true
-0.3026022353280037,0.018386980261855118,true
-0.316742502133044,0.019568118578482507,true
-0.07339467158678631,0.0027944828156260537,true
-0.2136928090449946,0.018975926208458893,true
-0.23725930865359035,0.020634193258947137,true
-0.2278142702143932,0.020412683357488637,true
-0.28927996850843674,0.024595347299861847,true
-0.2711589787798133,0.023241188836247845,true
-0.2376329686191197,0.01846962253060294,true
-0.2642098079081113,0.023456691669593577,true
-0.2677112783631026,0.02344861881990737,true
-0.11129383452188274,0.005233809336123579,true
-0.09235306248202657,0.0034441466462334924,true
-0.07492655190545988,0.001579931037328841,true
-0.23895524901417053,0.023026618823681094,true
-0.18286652702262762,0.01861113372018,true
-0.17967749984625825,0.0180586708617054,true
-0.26532611851997934,0.021149371087525265,true
-0.26410325691571174,0.02152154012238036,true
-0.25280471739440924,0.02033924108506227,true
-0.26324038333480154,0.021383180232103477,true
-0.24252373715710784,0.022523064403462606,true
-0.23846738343299534,0.022081065297523544,true
-0.29927067856579875,0.024453222398883923,true
-0.30242987396658194,0.026574943470928675,true
-0.29440810193538675,0.025712830797649328,true
-0.14680636109781786,0.00864954635421672,true
-0.20849197016259585,0.016638790155156846,true
-0.21692225915952568,0.018388696481529104,true
-0.06943735291389103,0.007057297645399446,true
-0.021206273815171872,0.0008103708334989135,true
-0.05402390317766215,0.003490097875632203,true
-0.23862603228087947,0.012886954053929811,true
-0.2357489645134503,0.013137848476760361,true
-0.23556147386720439,0.01344967627147689,true
-0.05015607171894709,0.0016907884858627653,true
-0.06464040792438686,0.0020068167853209973,true
-0.1043926442849995,0.00526597454796468,true
-0.23431142356114565,0.018066886196970833,true
-0.1845183327625346,0.013958853756947692,true
-0.19817282455510987,0.015482302720843583,true
-0.26918803881569026,0.02321254060510719,true
-0.25325929128084185,0.02178206374757341,true
-0.1738527657859496,0.00863454401363939,true
-0.18770079297366316,0.010881660707289437,true
-0.18540521460144255,0.010678352841214989,true
-0.15759199081805414,0.008134245211377289,true
0.013413768009516769,-0.0037481966990371707,true
0.02434588034067453,-0.004942227284218004,true
-0.10124600344502904,0.006535252139743403,true
-0.07142207838128789,0.004520263905892552,true
-0.06030241645543177,0.004303907926632794,true
-0.068960505118067,0.004066181893337878,true
-0.288481225382891,0.023576230784077196,true
-0.279001143970107,0.022380863435179366,true
-0.4184026001686847,0.018500012849727715,true
-0.2377897482682424,0.02068759010922147,true
-0.2215274784383291,0.019598964831186533,true
-0.14623597421164147,0.0047058233265779015,true
-0.27036110139737923,0.017366720938039287,true
-0.27372407772805474,0.017342492533301335,true
-0.2897733608550822,0.027084878882461444,true
-0.27995075657517354,0.02541821860769336,true
-0.27863571391762504,0.02537192112028419,true
-0.17947135442381393,0.01213162325677511,true
-0.31410523533220047,0.026361952043218617,true
-0.3074915199789701,0.02561312579853059,true
-0.21288093334865127,0.014268062321662861,true
-0.2042618784119079,0.012710259126502976,true
-0.2386605389844706,0.017476761991045225,true
-0.23061786152765607,0.017359531637265224,true
-0.20957360390068305,0.013928726140560344,true
-0.24751511879215787,0.01874335033273658,true
-0.09350785118321275,0.008246547787929909,true
-0.12111976038951303,0.010587382730399775,true
-0.13144294312141452,0.011050207866350137,true
-0.1983111724964255,0.017531863731904573,true
-0.17306533401036547,0.013790159834875665,true
-0.7810285994779879,0.07627781748695328,true
-0.03928314297578722,0.0008591928904564394,true
-0.03958938039238996,-0.0008310044991998722,true
-0.05171407068368311,0.0003024619495262115,true
-0.24781636438455681,0.02294542578671349,true
-0.2512399007885045,0.02261817900184457,true
-0.2524834124052818,0.022717359873118514,true
-0.2725922410631094,0.017333419210882633,true
-0.242232584976391,0.014004967815081676,true
-0.029561248275119245,-0.0011892005724256083,true
0.005005903828298519,-0.000874975976399045,true
0.012357512024759598,-0.0024113134371463174,true
-0.19160873268353967,0.011052921439631491,true
-0.2407242525878046,0.01613274157581182,true
-0.23365998941907584,0.016206731939127833,true
-0.6896725956663091,0.0634347812724578,true
-0.31239248827796867,0.026593736571796117,true
-0.3534041168595068,0.031981563380651,true
-0.10684297290762096,0.008205931349739126,true
-0.14584938638237788,0.012061312351906356,true
-0.9733437218754402,0.09703326791277084,true
-0.24023723825272608,0.01357630060728049,true
-0.25573685203531227,0.015332341353238244,true
-0.253844805314589,0.014836557585206578,true
-0.18425465428763455,0.012620257003310986,true
-0.19901731397104805,0.013580027017585095,true
-0.23344270586897914,0.016715140266281237,true
-0.24769895227108524,0.01862655760264814,true
-0.2546475161376938,0.01881600687662449,true
-0.10925110953930606,0.007953362359399724,true
-0.10952426066629845,0.007389951991586541,true
-0.04931888365635001,-0.0004231019662062352,true
-0.04300629364432906,-0.0003102793538073412,true
-0.10810979501127999,0.006529952532864702,true
-0.12812168409426908,0.010630249623278742,true
-0.11314709104718573,0.009400076950705077,true
-0.2103200007835698,0.015705000272294795,true
-0.20722587527300235,0.015286426080585391,true
-0.21396219397913488,0.016428024528991864,true
-0.25539231669454127,0.019213076364588216,true
-0.24167198468344428,0.017320846213978808,true
-0.24870751476413333,0.01776906446606763,true
-0.08336852597241151,0.004578541641853173,true
-0.058338019945696984,0.002553780383570875,true
-0.09043347975885327,0.005922387135540524,true
-0.2921295776107322,0.019124219264411907,true
-0.2784647342598702,0.017557486984570825,true
-0.2573364815566215,0.016437069946467042,true
-0.26955843357963594,0.018505569265041183,true
-0.2468636658682873,0.01770208757479408,true
-0.23966046955700618,0.015832507703616383,true
-0.24591437483984813,0.018047954563001123,true
-0.18702107952985117,0.011282717022615463,true
-0.1851101964195846,0.011039613143282584,true
-0.2185977724118864,0.020735855830696343,true
-0.2032097048400319,0.018963412249446393,true
-0.21043659692512195,0.020145372761874752,true
-0.21132252012597566,0.013421903908396593,true
-0.17853488259359196,0.011080552615128275,true
-0.19022232172958886,0.011552370490305941,true
-0.21643059420836339,0.017482127599125624,true
-0.2233220724860649,0.01877885959711681,true
0.24502755382183733,0.005909719641397637,true
-0.28948558313770567,0.0192736567849012,true
-0.2751559091462581,0.018169677577494492,true
-0.21029017291646845,0.019093226083357007,true
-0.1964795075421496,0.01814852388408031,true
-0.2646140087368696,0.018448824807865916,true
-0.2539436310133284,0.021144720900136138,true
-0.24628555155569642,0.020397752481523118,true
-0.11559073116498586,0.008722345306085316,true
-0.10039498619769205,0.00899495143046386,true
-0.07330121526061051,0.007224075208246361,true
-0.11629534805575026,0.006943936828272074,true
-0.10264990072408542,0.006339697889542417,true
-0.08210157433673604,0.004757993822983364,true
-0.2093706323969814,0.01917162100921352,true
-0.21353180191920118,0.02014666846645083,true
-0.20720827692496868,0.013578205119312348,true
-0.07242019355364293,0.004323386249179689,true
-0.07690220904454637,0.005081924316644032,true
-0.1363718914728964,0.008919141133090003,true
-0.10380540449804099,0.006941314198560922,true
-0.07933650962491623,0.0061974775931010195,true
-0.1424930250811306,0.011527252103321145,true
-0.11094461415706225,0.008638480965690976,true
-0.11663320148987766,0.010032396452026637,true
-0.27411387250034813,0.024551923830252398,true
-0.26777001652410704,0.02450238941974045,true
-0.26651164295869734,0.02441622635492835,true
0.012570032202928627,-0.0029475559446469346,true
0.03546960423045925,-0.005155613145204102,true
-0.17786690213809564,0.015381160030917468,true
-0.7393333142686951,0.07185878981363283,true
-0.1245165159271947,0.008916395385934056,true
-0.11928487013980454,0.008567522142765516,true
-0.2209853934675885,0.019041346615291027,true
-0.2257336266446105,0.0212364014422112,true
-0.06767003152246309,0.005398544341565531,true
-0.0809766176262211,0.006179346564539251,true
-0.2844646646321185,0.02889790961169933,true
-0.1110980597739088,0.008096328387438179,true
-0.11399650138294498,0.008446796934467649,true
-0.25936168660574027,0.019909223692199968,true
-0.26648255808491966,0.020464849913252564,true
-0.27315197057844515,0.021370156438562493,true
-0.07958073537486354,0.003768267860779606,true
-0.09575665338083145,0.004962639415337866,true
-0.08524754556442815,0.0042313850452951884,true
-0.2717387716386603,0.022329452362873564,true
-0.26779784337433543,0.022388767506567514,true
-0.28428988444865905,0.02390008905276994,true
-0.0794992322123052,0.0060580999146087056,true
-0.10959647713060083,0.008942482260215906,true
-0.01958099637107491,-0.0001212599553753746,true
-0.052399663710211375,0.0007519531388437972,true
-0.014655777536368875,-0.0016110383740004508,true
-0.06583645496730339,0.0009845286681693932,true
-0.05735904395133362,0.0007919409233709818,true
-0.11147655031487708,0.00840725577874224,true
-0.12114197651302389,0.008489673100039563,true
-0.10837676034862143,0.007618049920310982,true
-0.28127355806958265,0.02753235978547039,true
-0.26781572486839567,0.026209792345565364,true
-0.24179298931084248,0.01131836939092487,true
-0.2781929236128474,0.01648600749325585,true
-0.3041115835691881,0.018372476735748183,true
-0.868321249662384,0.08318098460435219,true
-0.8434716989506373,0.08102747758826923,true
-0.867464023182735,0.08357974279757566,true
-0.055372038520953126,0.0032035170452408834,true
-0.019866555148878584,0.0003123755292851471,true
-0.055644325596154176,0.005972129639426782,true
-0.8512300942746542,0.08183400902392426,true
-0.8661332121436386,0.08292774251034446,true
-0.8612071374628708,0.08282389089347394,true
-0.07722420138033342,0.0030899104904238694,true
-0.057682524312317296,0.0008803924127594176,true
-0.09266452670116199,0.003776223844530524,true
-0.11638255526641483,0.00898515520702664,true
-0.112510603330715,0.008059966147767411,true
-0.11936715873304415,0.009019321521633983,true
-0.3399325840794214,0.024270740565054932,true
-0.3290389405455819,0.023641346774944616,true
-0.30082303556230905,0.021109626359859496,true
-0.3066671200949812,0.02589663876270698,true
-0.30223059023486465,0.02575158716155551,true
-0.1395238093028126,0.009980063413413537,true
-0.1230503179427187,0.009504261386731772,true
-0.12133646922878294,0.009519380302333236,true
-0.1240707234299685,0.009909929775239162,true
-0.1444987844495994,0.011675641095854783,true
-0.14009871190278678,0.010938573844231969,true
-0.103407432115046,0.0077215453066302175,true
-0.2553267040992362,0.01903978011727192,true
-0.24275144311659214,0.01723184832654967,true
-0.2445644118289354,0.017612092241988092,true
-0.23793568273642562,0.017760869723111194,true
-0.24604374637462878,0.018828793604583255,true
-0.27944827917997683,0.020480462601472155,true
-0.27534346806660814,0.020731562883315263,true
-0.28390805449056744,0.021657991036055896,true
-0.1484197258275589,0.010810658479687096,true
-0.09961381551109516,0.007892472195720562,true
-0.09854698698029785,0.007258015701399889,true
-0.2839609710076365,0.02508776681898231,true
-0.24313937684381348,0.022443187101113343,true
-0.25529891720248554,0.023158162078272787,true
-0.08048901801216235,0.006513216785569598,true
-0.10410655634036403,0.006848968012938078,true
-0.11527583297022381,0.006968312287327166,true
-3.875078215313308,0.3366848229706757,false
-0.021717562112290145,-0.07620082424577178,false
-0.021745406716126653,-0.07620082424577179,false
-0.007881826497151218,-0.0791697043928411,false
-0.009597801230561531,-0.07917442720686656,false
-0.013279980204161185,-0.09483654837973665,false
-0.01327967091106011,-0.0948387649802338,false
-0.012842765941419518,-0.09796991717711567,false
-0.00048715377057101383,-0.10737002356925307,false
-0.0006498799828382612,-0.1324369739482858,false
0.0,-0.15750392432791696,false
-0.2340480068816873,-0.0416493,false
-0.2340712860146279,-0.0416493,false
-0.23428350501558465,-0.0416493,false
-0.23438457301525997,-0.0416493,false
-0.2346565678649963,-0.0416082862948392,false
-0.23488246940617777,-0.041569278824291844,false
-0.23515664315097007,-0.0416493,false
-0.23565456813986474,-0.04156927882429176,false
-0.28964527194013223,-0.0416493,false
-0.3112250745379862,-0.0416493,false
-0.341784070957506,-0.02433352000000033,false
-0.3418080329513596,-0.02433352000000033,false
-0.34188432284925396,-0.02433352000000033,false
-0.3493114896364473,-0.02433352000000033,false
-0.34932300713607417,-0.02433352000000033,false
-0.3493347762636969,-0.02433352000000033,false
-0.3573963484346509,-0.02433352000000033,false
-0.35743518454845463,-0.02433352000000033,false
-0.36148576434523066,-0.02433352000000033,false
-0.37106291984493367,-0.02433352000000033,false
-0.39961104387454294,-0.015715640000000253,false
-0.4000487776025641,-0.015715640000000253,false
-0.41307811481337636,-0.01336895964787993,false
-0.4131628694693461,-0.013368959647879958,false
-0.4177442433902784,-0.015715640000000253,false
-0.4228853000567912,-0.015715640000000253,false
-0.48039042475131233,-0.0059060244782231375,false
-0.48133644612644766,-0.013368959647879958,false
-0.48582328526039126,-0.013368959647879985,false
-0.5550036210239869,-0.015715640000000253,false
-0.6793006979362947,0.02976437999999995,false
-0.6795424001528149,0.02976437999999995,false
-0.6795442312365603,0.02976437999999995,false
-0.6897738883646991,0.031014913211877215,false
-0.690003634273658,0.031014913211877215,false
-0.6968162159438378,0.02976437999999995,false
-0.6985574434989433,0.031014913211877243,false
-0.8559487356956618,0.031014913211877215,false
-0.856664544376383,0.031014913211877215,false
-1.4827340094065526,0.02976437999999995,false
-0.4296230199528594,-0.01023336000000008,false
-0.795645357600222,0.048224849999999764,false
-0.7956613456935936,0.04822484999999993,false
-0.7957104739457005,0.04822484999999985,false
-0.7982415454221949,0.048224849999999764,false
-0.7982987524571314,0.048224849999999764,false
-0.7984612527700087,0.048224849999999764,false
-0.8016765687626132,0.048224849999999764,false
-0.8018086665535256,0.048224849999999764,false
-0.8090052407095081,0.048224849999999764,false
-0.8101327454722421,0.048224849999999764,false
-0.8491112120671833,0.0568298199999997,false
-0.8491353121776775,0.0568298199999997,false
-0.859848445676723,0.0568298199999997,false
-0.8756498240105838,0.0568298199999997,false
-0.8813645655551375,0.0568298199999997,false
-0.9003293788882529,0.0568298199999997,false
-0.9743720096279844,0.0568298199999997,false
-1.030979478698165,0.05682981999999967,false
-1.0461256346896188,0.05973085291154298,false
-1.7026072225244107,0.0568298199999997,false
-0.8852993178965038,0.06258281999999982,false
-0.8853343000535416,0.06258281999999982,false
-0.8871683186027103,0.06258281999999982,false
-0.8873543860178997,0.06258281999999982,false
-0.8891103137709817,0.06258281999999982,false
-0.89149008985681,0.06258281999999982,false
-0.893027642474752,0.06258281999999982,false
-0.8931572354169202,0.06350954693123362,false
-0.9025418858615252,0.06363743982262757,false
-0.902775950410278,0.06363743982262757,false
-0.9241443869063284,0.06874810999999986,false
-0.9254030734164319,0.0687481099999998,false
-0.9258487052236373,0.0687481099999998,false
-0.925902188741655,0.06874810999999986,false
-0.9312368228335822,0.0687481099999998,false
-0.9314013871265332,0.06874810999999956,false
-0.9327892886631959,0.06874810999999978,false
-0.9507865487827418,0.06874810999999978,false
-0.9507913701020717,0.06878258785340585,false
-0.9514503989767511,0.06874810999999972,false
-0.5389018206668312,0.007296993999999973,false
-0.5389044775502234,0.007296993999999973,false
-0.5389057942828116,0.007296993999999973,false
-0.5389069240006304,0.007296993999999973,false
-0.5389073609058374,0.007296993999999973,false
-0.5389284138747109,0.007296993999999973,false
-0.5389696425415883,0.007296993999999973,false
-0.5389705030911481,0.007296993999999973,false
-0.5389709810053486,0.007296993999999973,false
-0.5389761558040213,0.007296993999999973,false
-0.9411414619087837,0.07132069999999979,false
-0.9411522171033426,0.07132069999999979,false
-0.9415356898690806,0.07132069999999979,false
-0.9422207504288398,0.07132069999999979,false
-0.9437614604236497,0.07132069999999979,false
-0.99137612037949,0.07132069999999979,false
-0.9913877862310494,0.07140422145049391,false
-1.0529659145904104,0.07132069999999979,false
-1.0529772468872947,0.07132069999999979,false
-1.073956902430741,0.07132069999999979,false
-0.9493687424689771,0.07263150999999968,false
-0.9494166836758013,0.07263150999999968,false
-0.9502913842054843,0.07263150999999968,false
-0.9503164789701114,0.07263150999999968,false
-0.9717432281501859,0.07373756121596006,false
-0.9752781404228084,0.07263150999999968,false
-0.9863415819620094,0.07263150999999968,false
-0.9942434110106508,0.07373756121596009,false
-1.0462636097137654,0.07263150999999968,false
-1.0966699581288213,0.07373175281868474,false
-0.9708380671131576,0.0760076899999994,false
-0.970864293739353,0.0760076899999994,false
-0.9709644558956821,0.07600768999999974,false
-0.971489854088356,0.07600768999999974,false
-0.9752329337822153,0.07660085735792127,false
-0.9821468535280085,0.07600768999999974,false
-0.9859009502627548,0.07660085735792127,false
-1.0103445531130417,0.07600768999999974,false
-1.0221860434974288,0.07660085735792124,false
-1.0260036413905964,0.07600768999999974,false
-0.9940544891968733,0.07981415999999975,false
-0.9940696129005435,0.07981415999999975,false
-0.994463212037856,0.07981415999999975,false
-0.9944978466473693,0.07981415999999975,false
-0.9945128111736273,0.07981415999999975,false
-0.9945305855057949,0.07981415999999975,false
-0.9949542305081569,0.07981415999999975,false
-0.9949589440812316,0.07981415999999975,false
-0.9954145019771594,0.07981415999999975,false
-0.9954281334856128,0.07981415999999975,false
-1.0041789034990767,0.0814208199999997,false
-1.0103097045105152,0.08142081999999973,false
-1.0104275827469158,0.08143947325369016,false
-1.0191160315875205,0.08235597185301705,false
-1.0245806795314538,0.08142081999999964,false
-1.024692406067091,0.08235597185301718,false
-1.0431379929152433,0.08142081999999973,false
-1.0441042707017094,0.08142081999999973,false
-1.1062368806806333,0.09117384053192451,false
-1.1424667792916305,0.08142081999999973,false
